\relax 
\bibcite{bib:voss2005}{1}
\@writefile{lot}{\contentsline {table}{\numberline {1}{\ignorespaces Key parameters of the BDS at 500\nobreakspace  {}GeV CM. Effective values are given for the IP parameters.}}{1}}
\newlabel{BDS:parameters:table}{{1}{1}}
\@writefile{toc}{\contentsline {subsection}{\numberline {0.1}Beam Delivery Systems at 500 GeV}{1}}
\newlabel{BDS500}{{0.1}{1}}
\@writefile{toc}{\contentsline {subsubsection}{\numberline {0.1.1}Overview}{1}}
\newlabel{BDS500:Overview}{{0.1.1}{1}}
\@writefile{toc}{\contentsline {subsubsection}{\numberline {0.1.2}Beam parameters}{1}}
\newlabel{BDS500:parameters}{{0.1.2}{1}}
\@writefile{toc}{\contentsline {subsubsection}{\numberline {0.1.3}Systems}{1}}
\newlabel{BDS:Systems}{{0.1.3}{1}}
\@writefile{lof}{\contentsline {figure}{\numberline {1}{\ignorespaces CLIC 500\nobreakspace  {}GeV optics (top) and layout (bottom). Dipoles, quadrupoles and collimators are shown in blue, red and black, respectively on the layout plot.}}{2}}
\newlabel{500GeVlayout}{{1}{2}}
