%!PS-Adobe-2.0
%%Title: layout500GandOpt.eps
%%Creator: gnuplot 4.0 patchlevel 0
%%CreationDate: Mon Aug  9 17:39:17 2010
%%DocumentFonts: (atend)
%%BoundingBox: -232 50 554 1274
%%Orientation: Landscape
%%Pages: (atend)
%%EndComments
/gnudict 256 dict def
gnudict begin
/Color true def
/Solid true def
/gnulinewidth 5.000 def
/userlinewidth gnulinewidth def
/vshift -83 def
/dl {10.0 mul} def
/hpt_ 31.5 def
/vpt_ 31.5 def
/hpt hpt_ def
/vpt vpt_ def
/Rounded false def
/M {moveto} bind def
/L {lineto} bind def
/R {rmoveto} bind def
/V {rlineto} bind def
/N {newpath moveto} bind def
/C {setrgbcolor} bind def
/f {rlineto fill} bind def
/vpt2 vpt 2 mul def
/hpt2 hpt 2 mul def
/Lshow { currentpoint stroke M
  0 vshift R show } def
/Rshow { currentpoint stroke M
  dup stringwidth pop neg vshift R show } def
/Cshow { currentpoint stroke M
  dup stringwidth pop -2 div vshift R show } def
/UP { dup vpt_ mul /vpt exch def hpt_ mul /hpt exch def
  /hpt2 hpt 2 mul def /vpt2 vpt 2 mul def } def
/DL { Color {setrgbcolor Solid {pop []} if 0 setdash }
 {pop pop pop 0 setgray Solid {pop []} if 0 setdash} ifelse } def
/BL { stroke userlinewidth 2 mul setlinewidth
      Rounded { 1 setlinejoin 1 setlinecap } if } def
/AL { stroke userlinewidth 2 div setlinewidth
      Rounded { 1 setlinejoin 1 setlinecap } if } def
/UL { dup gnulinewidth mul /userlinewidth exch def
      dup 1 lt {pop 1} if 10 mul /udl exch def } def
/PL { stroke userlinewidth setlinewidth
      Rounded { 1 setlinejoin 1 setlinecap } if } def
/LTw { PL [] 1 setgray } def
/LTb { BL [] 0 0 0 DL } def
/LTa { AL [1 udl mul 2 udl mul] 0 setdash 0 0 0 setrgbcolor } def
/LT0 { PL [] 1 0 0 DL } def
/LT1 { PL [4 dl 2 dl] 0 1 0 DL } def
/LT2 { PL [2 dl 3 dl] 0 0 1 DL } def
/LT3 { PL [1 dl 1.5 dl] 1 0 1 DL } def
/LT4 { PL [5 dl 2 dl 1 dl 2 dl] 0 1 1 DL } def
/LT5 { PL [4 dl 3 dl 1 dl 3 dl] 1 1 0 DL } def
/LT6 { PL [2 dl 2 dl 2 dl 4 dl] 0 0 0 DL } def
/LT7 { PL [2 dl 2 dl 2 dl 2 dl 2 dl 4 dl] 1 0.3 0 DL } def
/LT8 { PL [2 dl 2 dl 2 dl 2 dl 2 dl 2 dl 2 dl 4 dl] 0.5 0.5 0.5 DL } def
/Pnt { stroke [] 0 setdash
   gsave 1 setlinecap M 0 0 V stroke grestore } def
/Dia { stroke [] 0 setdash 2 copy vpt add M
  hpt neg vpt neg V hpt vpt neg V
  hpt vpt V hpt neg vpt V closepath stroke
  Pnt } def
/Pls { stroke [] 0 setdash vpt sub M 0 vpt2 V
  currentpoint stroke M
  hpt neg vpt neg R hpt2 0 V stroke
  } def
/Box { stroke [] 0 setdash 2 copy exch hpt sub exch vpt add M
  0 vpt2 neg V hpt2 0 V 0 vpt2 V
  hpt2 neg 0 V closepath stroke
  Pnt } def
/Crs { stroke [] 0 setdash exch hpt sub exch vpt add M
  hpt2 vpt2 neg V currentpoint stroke M
  hpt2 neg 0 R hpt2 vpt2 V stroke } def
/TriU { stroke [] 0 setdash 2 copy vpt 1.12 mul add M
  hpt neg vpt -1.62 mul V
  hpt 2 mul 0 V
  hpt neg vpt 1.62 mul V closepath stroke
  Pnt  } def
/Star { 2 copy Pls Crs } def
/BoxF { stroke [] 0 setdash exch hpt sub exch vpt add M
  0 vpt2 neg V  hpt2 0 V  0 vpt2 V
  hpt2 neg 0 V  closepath fill } def
/TriUF { stroke [] 0 setdash vpt 1.12 mul add M
  hpt neg vpt -1.62 mul V
  hpt 2 mul 0 V
  hpt neg vpt 1.62 mul V closepath fill } def
/TriD { stroke [] 0 setdash 2 copy vpt 1.12 mul sub M
  hpt neg vpt 1.62 mul V
  hpt 2 mul 0 V
  hpt neg vpt -1.62 mul V closepath stroke
  Pnt  } def
/TriDF { stroke [] 0 setdash vpt 1.12 mul sub M
  hpt neg vpt 1.62 mul V
  hpt 2 mul 0 V
  hpt neg vpt -1.62 mul V closepath fill} def
/DiaF { stroke [] 0 setdash vpt add M
  hpt neg vpt neg V hpt vpt neg V
  hpt vpt V hpt neg vpt V closepath fill } def
/Pent { stroke [] 0 setdash 2 copy gsave
  translate 0 hpt M 4 {72 rotate 0 hpt L} repeat
  closepath stroke grestore Pnt } def
/PentF { stroke [] 0 setdash gsave
  translate 0 hpt M 4 {72 rotate 0 hpt L} repeat
  closepath fill grestore } def
/Circle { stroke [] 0 setdash 2 copy
  hpt 0 360 arc stroke Pnt } def
/CircleF { stroke [] 0 setdash hpt 0 360 arc fill } def
/C0 { BL [] 0 setdash 2 copy moveto vpt 90 450  arc } bind def
/C1 { BL [] 0 setdash 2 copy        moveto
       2 copy  vpt 0 90 arc closepath fill
               vpt 0 360 arc closepath } bind def
/C2 { BL [] 0 setdash 2 copy moveto
       2 copy  vpt 90 180 arc closepath fill
               vpt 0 360 arc closepath } bind def
/C3 { BL [] 0 setdash 2 copy moveto
       2 copy  vpt 0 180 arc closepath fill
               vpt 0 360 arc closepath } bind def
/C4 { BL [] 0 setdash 2 copy moveto
       2 copy  vpt 180 270 arc closepath fill
               vpt 0 360 arc closepath } bind def
/C5 { BL [] 0 setdash 2 copy moveto
       2 copy  vpt 0 90 arc
       2 copy moveto
       2 copy  vpt 180 270 arc closepath fill
               vpt 0 360 arc } bind def
/C6 { BL [] 0 setdash 2 copy moveto
      2 copy  vpt 90 270 arc closepath fill
              vpt 0 360 arc closepath } bind def
/C7 { BL [] 0 setdash 2 copy moveto
      2 copy  vpt 0 270 arc closepath fill
              vpt 0 360 arc closepath } bind def
/C8 { BL [] 0 setdash 2 copy moveto
      2 copy vpt 270 360 arc closepath fill
              vpt 0 360 arc closepath } bind def
/C9 { BL [] 0 setdash 2 copy moveto
      2 copy  vpt 270 450 arc closepath fill
              vpt 0 360 arc closepath } bind def
/C10 { BL [] 0 setdash 2 copy 2 copy moveto vpt 270 360 arc closepath fill
       2 copy moveto
       2 copy vpt 90 180 arc closepath fill
               vpt 0 360 arc closepath } bind def
/C11 { BL [] 0 setdash 2 copy moveto
       2 copy  vpt 0 180 arc closepath fill
       2 copy moveto
       2 copy  vpt 270 360 arc closepath fill
               vpt 0 360 arc closepath } bind def
/C12 { BL [] 0 setdash 2 copy moveto
       2 copy  vpt 180 360 arc closepath fill
               vpt 0 360 arc closepath } bind def
/C13 { BL [] 0 setdash  2 copy moveto
       2 copy  vpt 0 90 arc closepath fill
       2 copy moveto
       2 copy  vpt 180 360 arc closepath fill
               vpt 0 360 arc closepath } bind def
/C14 { BL [] 0 setdash 2 copy moveto
       2 copy  vpt 90 360 arc closepath fill
               vpt 0 360 arc } bind def
/C15 { BL [] 0 setdash 2 copy vpt 0 360 arc closepath fill
               vpt 0 360 arc closepath } bind def
/Rec   { newpath 4 2 roll moveto 1 index 0 rlineto 0 exch rlineto
       neg 0 rlineto closepath } bind def
/Square { dup Rec } bind def
/Bsquare { vpt sub exch vpt sub exch vpt2 Square } bind def
/S0 { BL [] 0 setdash 2 copy moveto 0 vpt rlineto BL Bsquare } bind def
/S1 { BL [] 0 setdash 2 copy vpt Square fill Bsquare } bind def
/S2 { BL [] 0 setdash 2 copy exch vpt sub exch vpt Square fill Bsquare } bind def
/S3 { BL [] 0 setdash 2 copy exch vpt sub exch vpt2 vpt Rec fill Bsquare } bind def
/S4 { BL [] 0 setdash 2 copy exch vpt sub exch vpt sub vpt Square fill Bsquare } bind def
/S5 { BL [] 0 setdash 2 copy 2 copy vpt Square fill
       exch vpt sub exch vpt sub vpt Square fill Bsquare } bind def
/S6 { BL [] 0 setdash 2 copy exch vpt sub exch vpt sub vpt vpt2 Rec fill Bsquare } bind def
/S7 { BL [] 0 setdash 2 copy exch vpt sub exch vpt sub vpt vpt2 Rec fill
       2 copy vpt Square fill
       Bsquare } bind def
/S8 { BL [] 0 setdash 2 copy vpt sub vpt Square fill Bsquare } bind def
/S9 { BL [] 0 setdash 2 copy vpt sub vpt vpt2 Rec fill Bsquare } bind def
/S10 { BL [] 0 setdash 2 copy vpt sub vpt Square fill 2 copy exch vpt sub exch vpt Square fill
       Bsquare } bind def
/S11 { BL [] 0 setdash 2 copy vpt sub vpt Square fill 2 copy exch vpt sub exch vpt2 vpt Rec fill
       Bsquare } bind def
/S12 { BL [] 0 setdash 2 copy exch vpt sub exch vpt sub vpt2 vpt Rec fill Bsquare } bind def
/S13 { BL [] 0 setdash 2 copy exch vpt sub exch vpt sub vpt2 vpt Rec fill
       2 copy vpt Square fill Bsquare } bind def
/S14 { BL [] 0 setdash 2 copy exch vpt sub exch vpt sub vpt2 vpt Rec fill
       2 copy exch vpt sub exch vpt Square fill Bsquare } bind def
/S15 { BL [] 0 setdash 2 copy Bsquare fill Bsquare } bind def
/D0 { gsave translate 45 rotate 0 0 S0 stroke grestore } bind def
/D1 { gsave translate 45 rotate 0 0 S1 stroke grestore } bind def
/D2 { gsave translate 45 rotate 0 0 S2 stroke grestore } bind def
/D3 { gsave translate 45 rotate 0 0 S3 stroke grestore } bind def
/D4 { gsave translate 45 rotate 0 0 S4 stroke grestore } bind def
/D5 { gsave translate 45 rotate 0 0 S5 stroke grestore } bind def
/D6 { gsave translate 45 rotate 0 0 S6 stroke grestore } bind def
/D7 { gsave translate 45 rotate 0 0 S7 stroke grestore } bind def
/D8 { gsave translate 45 rotate 0 0 S8 stroke grestore } bind def
/D9 { gsave translate 45 rotate 0 0 S9 stroke grestore } bind def
/D10 { gsave translate 45 rotate 0 0 S10 stroke grestore } bind def
/D11 { gsave translate 45 rotate 0 0 S11 stroke grestore } bind def
/D12 { gsave translate 45 rotate 0 0 S12 stroke grestore } bind def
/D13 { gsave translate 45 rotate 0 0 S13 stroke grestore } bind def
/D14 { gsave translate 45 rotate 0 0 S14 stroke grestore } bind def
/D15 { gsave translate 45 rotate 0 0 S15 stroke grestore } bind def
/DiaE { stroke [] 0 setdash vpt add M
  hpt neg vpt neg V hpt vpt neg V
  hpt vpt V hpt neg vpt V closepath stroke } def
/BoxE { stroke [] 0 setdash exch hpt sub exch vpt add M
  0 vpt2 neg V hpt2 0 V 0 vpt2 V
  hpt2 neg 0 V closepath stroke } def
/TriUE { stroke [] 0 setdash vpt 1.12 mul add M
  hpt neg vpt -1.62 mul V
  hpt 2 mul 0 V
  hpt neg vpt 1.62 mul V closepath stroke } def
/TriDE { stroke [] 0 setdash vpt 1.12 mul sub M
  hpt neg vpt 1.62 mul V
  hpt 2 mul 0 V
  hpt neg vpt -1.62 mul V closepath stroke } def
/PentE { stroke [] 0 setdash gsave
  translate 0 hpt M 4 {72 rotate 0 hpt L} repeat
  closepath stroke grestore } def
/CircE { stroke [] 0 setdash 
  hpt 0 360 arc stroke } def
/Opaque { gsave closepath 1 setgray fill grestore 0 setgray closepath } def
/DiaW { stroke [] 0 setdash vpt add M
  hpt neg vpt neg V hpt vpt neg V
  hpt vpt V hpt neg vpt V Opaque stroke } def
/BoxW { stroke [] 0 setdash exch hpt sub exch vpt add M
  0 vpt2 neg V hpt2 0 V 0 vpt2 V
  hpt2 neg 0 V Opaque stroke } def
/TriUW { stroke [] 0 setdash vpt 1.12 mul add M
  hpt neg vpt -1.62 mul V
  hpt 2 mul 0 V
  hpt neg vpt 1.62 mul V Opaque stroke } def
/TriDW { stroke [] 0 setdash vpt 1.12 mul sub M
  hpt neg vpt 1.62 mul V
  hpt 2 mul 0 V
  hpt neg vpt -1.62 mul V Opaque stroke } def
/PentW { stroke [] 0 setdash gsave
  translate 0 hpt M 4 {72 rotate 0 hpt L} repeat
  Opaque stroke grestore } def
/CircW { stroke [] 0 setdash 
  hpt 0 360 arc Opaque stroke } def
/BoxFill { gsave Rec 1 setgray fill grestore } def
/BoxColFill {
  gsave Rec
  /Fillden exch def
  currentrgbcolor
  /ColB exch def /ColG exch def /ColR exch def
  /ColR ColR Fillden mul Fillden sub 1 add def
  /ColG ColG Fillden mul Fillden sub 1 add def
  /ColB ColB Fillden mul Fillden sub 1 add def
  ColR ColG ColB setrgbcolor
  fill grestore } def
%
% PostScript Level 1 Pattern Fill routine
% Usage: x y w h s a XX PatternFill
%	x,y = lower left corner of box to be filled
%	w,h = width and height of box
%	  a = angle in degrees between lines and x-axis
%	 XX = 0/1 for no/yes cross-hatch
%
/PatternFill { gsave /PFa [ 9 2 roll ] def
    PFa 0 get PFa 2 get 2 div add PFa 1 get PFa 3 get 2 div add translate
    PFa 2 get -2 div PFa 3 get -2 div PFa 2 get PFa 3 get Rec
    gsave 1 setgray fill grestore clip
    currentlinewidth 0.5 mul setlinewidth
    /PFs PFa 2 get dup mul PFa 3 get dup mul add sqrt def
    0 0 M PFa 5 get rotate PFs -2 div dup translate
	0 1 PFs PFa 4 get div 1 add floor cvi
	{ PFa 4 get mul 0 M 0 PFs V } for
    0 PFa 6 get ne {
	0 1 PFs PFa 4 get div 1 add floor cvi
	{ PFa 4 get mul 0 2 1 roll M PFs 0 V } for
    } if
    stroke grestore } def
%
/Symbol-Oblique /Symbol findfont [1 0 .167 1 0 0] makefont
dup length dict begin {1 index /FID eq {pop pop} {def} ifelse} forall
currentdict end definefont pop
/MFshow {
   { dup 5 get 3 ge
     { 5 get 3 eq {gsave} {grestore} ifelse }
     {dup dup 0 get findfont exch 1 get scalefont setfont
     [ currentpoint ] exch dup 2 get 0 exch R dup 5 get 2 ne {dup dup 6
     get exch 4 get {show} {stringwidth pop 0 R} ifelse }if dup 5 get 0 eq
     {dup 3 get {2 get neg 0 exch R pop} {pop aload pop M} ifelse} {dup 5
     get 1 eq {dup 2 get exch dup 3 get exch 6 get stringwidth pop -2 div
     dup 0 R} {dup 6 get stringwidth pop -2 div 0 R 6 get
     show 2 index {aload pop M neg 3 -1 roll neg R pop pop} {pop pop pop
     pop aload pop M} ifelse }ifelse }ifelse }
     ifelse }
   forall} bind def
/MFwidth {0 exch {dup 3 get{dup dup 0 get findfont exch 1 get scalefont
     setfont 6 get stringwidth pop add} {pop} ifelse} forall} bind def
/MLshow { currentpoint stroke M
  0 exch R MFshow } bind def
/MRshow { currentpoint stroke M
  exch dup MFwidth neg 3 -1 roll R MFshow } def
/MCshow { currentpoint stroke M
  exch dup MFwidth -2 div 3 -1 roll R MFshow } def
end
%%EndProlog
%%Page: 1 1
gnudict begin
gsave
50 50 translate
0.100 0.100 scale
90 rotate
0 -5040 translate
0 setgray
newpath
(Helvetica) findfont 250 scalefont setfont
1.000 UL
LTb
1200 750 M
63 0 V
10677 0 R
-63 0 V
stroke
1050 750 M
[ [(Helvetica) 250.0 0.0 true true 0 (-1)]
] -83.3 MRshow
1.000 UL
LTb
1200 1243 M
63 0 V
10677 0 R
-63 0 V
stroke
1050 1243 M
[ [(Helvetica) 250.0 0.0 true true 0 (-0.8)]
] -83.3 MRshow
1.000 UL
LTb
1200 1737 M
63 0 V
10677 0 R
-63 0 V
stroke
1050 1737 M
[ [(Helvetica) 250.0 0.0 true true 0 (-0.6)]
] -83.3 MRshow
1.000 UL
LTb
1200 2230 M
63 0 V
10677 0 R
-63 0 V
stroke
1050 2230 M
[ [(Helvetica) 250.0 0.0 true true 0 (-0.4)]
] -83.3 MRshow
1.000 UL
LTb
1200 2723 M
63 0 V
10677 0 R
-63 0 V
stroke
1050 2723 M
[ [(Helvetica) 250.0 0.0 true true 0 (-0.2)]
] -83.3 MRshow
1.000 UL
LTb
1200 3216 M
63 0 V
10677 0 R
-63 0 V
stroke
1050 3216 M
[ [(Helvetica) 250.0 0.0 true true 0 ( 0)]
] -83.3 MRshow
1.000 UL
LTb
1200 3710 M
63 0 V
10677 0 R
-63 0 V
stroke
1050 3710 M
[ [(Helvetica) 250.0 0.0 true true 0 ( 0.2)]
] -83.3 MRshow
1.000 UL
LTb
1200 750 M
0 63 V
0 3020 R
0 -63 V
stroke
1200 500 M
[ [(Helvetica) 250.0 0.0 true true 0 (-1800)]
] -83.3 MCshow
1.000 UL
LTb
2361 750 M
0 63 V
0 3020 R
0 -63 V
stroke
2361 500 M
[ [(Helvetica) 250.0 0.0 true true 0 (-1600)]
] -83.3 MCshow
1.000 UL
LTb
3522 750 M
0 63 V
0 3020 R
0 -63 V
stroke
3522 500 M
[ [(Helvetica) 250.0 0.0 true true 0 (-1400)]
] -83.3 MCshow
1.000 UL
LTb
4683 750 M
0 63 V
0 3020 R
0 -63 V
stroke
4683 500 M
[ [(Helvetica) 250.0 0.0 true true 0 (-1200)]
] -83.3 MCshow
1.000 UL
LTb
5844 750 M
0 63 V
0 3020 R
0 -63 V
stroke
5844 500 M
[ [(Helvetica) 250.0 0.0 true true 0 (-1000)]
] -83.3 MCshow
1.000 UL
LTb
7005 750 M
0 63 V
0 3020 R
0 -63 V
stroke
7005 500 M
[ [(Helvetica) 250.0 0.0 true true 0 (-800)]
] -83.3 MCshow
1.000 UL
LTb
8166 750 M
0 63 V
0 3020 R
0 -63 V
stroke
8166 500 M
[ [(Helvetica) 250.0 0.0 true true 0 (-600)]
] -83.3 MCshow
1.000 UL
LTb
9328 750 M
0 63 V
0 3020 R
0 -63 V
stroke
9328 500 M
[ [(Helvetica) 250.0 0.0 true true 0 (-400)]
] -83.3 MCshow
1.000 UL
LTb
10489 750 M
0 63 V
0 3020 R
0 -63 V
stroke
10489 500 M
[ [(Helvetica) 250.0 0.0 true true 0 (-200)]
] -83.3 MCshow
1.000 UL
LTb
11650 750 M
0 63 V
0 3020 R
0 -63 V
stroke
11650 500 M
[ [(Helvetica) 250.0 0.0 true true 0 ( 0)]
] -83.3 MCshow
1.000 UL
LTb
1.000 UL
LTb
1200 750 M
10740 0 V
0 3083 V
-10740 0 V
0 -3083 V
LTb
175 2291 M
currentpoint gsave translate 90 rotate 0 0 moveto
[ [(Helvetica) 250.0 0.0 true true 0 (x[m])]
] -83.3 MCshow
grestore
LTb
6570 125 M
[ [(Helvetica) 250.0 0.0 true true 0 (s[m])]
] -83.3 MCshow
1.000 UP
LTb
11650 2723 M
[ [(Helvetica) 250.0 0.0 true true 0 (IP)]
] -83.3 MCshow
2.000 UL
LT6
1620 1892 M
3 0 V
29 -8 V
3 -1 V
29 -7 V
3 -1 V
29 -7 V
3 -1 V
3 -1 V
13 -3 V
12 -3 V
13 -4 V
13 -3 V
6 -2 V
13 -3 V
13 -3 V
13 -3 V
13 -4 V
2 -1 V
3 0 V
6 -2 V
6 -1 V
6 -2 V
3 -1 V
3 0 V
6 -2 V
6 -1 V
6 -2 V
3 -1 V
3 0 V
6 -2 V
6 -1 V
6 -2 V
2 -1 V
3 0 V
6 -2 V
6 -2 V
6 -1 V
3 -1 V
3 -1 V
13 -3 V
13 -3 V
13 -3 V
12 -4 V
3 -1 V
3 0 V
13 -4 V
13 -3 V
13 -3 V
13 -4 V
3 0 V
3 -1 V
12 -3 V
13 -4 V
13 -3 V
13 -3 V
6 -2 V
26 -7 V
27 -6 V
26 -7 V
26 -7 V
3 -1 V
3 0 V
27 -7 V
26 -7 V
26 -7 V
27 -7 V
3 0 V
3 -1 V
26 -7 V
26 -7 V
27 -6 V
26 -7 V
3 -1 V
3 -1 V
26 -6 V
27 -7 V
26 -7 V
26 -7 V
3 0 V
3 -1 V
27 -7 V
26 -7 V
26 -7 V
27 -6 V
3 -1 V
3 -1 V
26 -7 V
26 -6 V
27 -7 V
26 -7 V
6 -1 V
22 -6 V
6 -2 V
12 -3 V
5 -1 V
29 -8 V
8 -1 V
7 -2 V
3 -1 V
15 -4 V
4 -1 V
32 -8 V
33 -8 V
4 0 V
stroke
2951 1552 M
33 -7 V
32 -7 V
4 0 V
33 -6 V
33 -5 V
3 -1 V
33 -4 V
33 -4 V
4 -1 V
32 -3 V
33 -3 V
4 0 V
33 -2 V
32 -2 V
2 0 V
2 0 V
33 -1 V
33 0 V
3 0 V
33 0 V
33 1 V
4 0 V
32 1 V
33 2 V
4 0 V
33 3 V
32 3 V
4 1 V
33 3 V
33 5 V
3 0 V
33 5 V
33 6 V
4 1 V
3 0 V
4 1 V
3 1 V
4 0 V
4 1 V
7 1 V
7 1 V
29 6 V
29 5 V
7 1 V
8 1 V
3 1 V
4 1 V
4 0 V
3 1 V
4 1 V
4 0 V
32 6 V
33 6 V
4 0 V
33 6 V
32 5 V
4 1 V
33 5 V
33 5 V
3 1 V
33 5 V
33 5 V
3 0 V
33 5 V
33 5 V
4 0 V
33 5 V
32 4 V
2 0 V
2 1 V
33 4 V
33 4 V
3 0 V
33 4 V
33 4 V
3 1 V
33 3 V
33 4 V
4 0 V
32 4 V
33 3 V
4 0 V
33 4 V
33 3 V
3 0 V
33 3 V
33 3 V
3 0 V
4 0 V
4 1 V
3 0 V
4 0 V
4 0 V
7 1 V
7 1 V
29 2 V
29 2 V
7 1 V
8 1 V
3 0 V
4 0 V
4 0 V
3 1 V
4 0 V
stroke
4794 1678 M
3 0 V
33 3 V
33 3 V
4 0 V
32 2 V
33 2 V
4 1 V
33 2 V
33 2 V
3 0 V
33 2 V
33 2 V
3 0 V
33 1 V
33 2 V
4 0 V
32 1 V
33 1 V
2 0 V
2 0 V
33 2 V
32 0 V
4 1 V
33 0 V
33 1 V
3 0 V
33 1 V
33 0 V
4 0 V
32 0 V
33 0 V
4 0 V
33 0 V
32 0 V
4 0 V
33 0 V
33 0 V
3 -1 V
4 0 V
4 0 V
3 0 V
4 0 V
3 0 V
8 0 V
7 0 V
29 0 V
29 -1 V
7 0 V
8 0 V
3 0 V
4 0 V
3 0 V
4 0 V
4 0 V
3 0 V
33 -1 V
33 1 V
4 0 V
32 1 V
33 2 V
4 0 V
33 2 V
32 3 V
4 0 V
33 4 V
33 4 V
3 0 V
33 5 V
33 5 V
4 0 V
32 6 V
33 7 V
2 0 V
2 0 V
33 7 V
32 8 V
4 1 V
33 8 V
33 9 V
3 1 V
33 9 V
33 10 V
3 1 V
33 11 V
33 11 V
4 1 V
33 12 V
32 12 V
4 2 V
33 13 V
33 13 V
3 2 V
15 6 V
3 1 V
8 3 V
7 3 V
29 13 V
3 1 V
3 1 V
1 1 V
3 1 V
3 1 V
1 0 V
2 2 V
stroke
6664 1908 M
3 1 V
1 0 V
3 1 V
3 2 V
1 0 V
2 1 V
3 1 V
1 1 V
3 1 V
3 1 V
67 29 V
3 1 V
3 1 V
1 0 V
3 2 V
3 1 V
1 0 V
1 1 V
3 1 V
3 1 V
102 43 V
3 2 V
3 1 V
46 19 V
3 1 V
3 2 V
46 19 V
2 1 V
3 1 V
102 44 V
3 1 V
3 1 V
1 1 V
2 0 V
3 1 V
3 2 V
102 43 V
3 1 V
2 1 V
46 19 V
3 2 V
3 1 V
46 19 V
3 1 V
3 2 V
102 43 V
3 1 V
3 1 V
1 1 V
1 0 V
3 1 V
3 2 V
102 43 V
3 1 V
3 1 V
46 20 V
3 1 V
3 1 V
46 19 V
3 2 V
2 1 V
103 43 V
2 1 V
3 1 V
2 1 V
1 0 V
3 2 V
3 1 V
102 43 V
3 1 V
3 1 V
45 20 V
3 1 V
3 1 V
46 20 V
3 1 V
3 1 V
102 43 V
3 1 V
3 2 V
1 0 V
1 1 V
3 1 V
3 1 V
102 43 V
3 1 V
3 2 V
46 19 V
15 6 V
25 11 V
14 6 V
58 24 V
15 7 V
58 24 V
14 6 V
1 0 V
40 17 V
6 3 V
6 2 V
24 11 V
6 2 V
6 2 V
42 18 V
6 3 V
stroke
8575 2714 M
5 2 V
42 18 V
6 2 V
6 2 V
40 17 V
6 3 V
5 2 V
53 23 V
6 2 V
6 3 V
2 0 V
12 5 V
12 6 V
12 5 V
13 5 V
12 5 V
12 6 V
12 5 V
12 6 V
13 5 V
12 6 V
2 0 V
5 3 V
6 3 V
212 96 V
6 2 V
6 3 V
2 1 V
5 2 V
6 3 V
205 93 V
3 1 V
3 1 V
2 1 V
5 3 V
6 2 V
2 1 V
6 3 V
5 2 V
148 67 V
6 3 V
6 2 V
5 3 V
99 45 V
6 2 V
6 3 V
1 1 V
6 2 V
6 3 V
2 1 V
3 1 V
2 1 V
52 24 V
11 5 V
6 2 V
6 3 V
2 1 V
2 1 V
3 1 V
2 1 V
6 3 V
6 2 V
168 76 V
52 23 V
52 20 V
52 19 V
52 16 V
53 14 V
52 12 V
52 9 V
52 8 V
52 5 V
53 4 V
1 0 V
6 0 V
6 0 V
2 0 V
10 1 V
11 0 V
10 0 V
11 1 V
11 0 V
10 0 V
11 -1 V
11 0 V
10 0 V
11 0 V
2 0 V
5 -1 V
6 0 V
2 0 V
10 -1 V
11 0 V
11 -1 V
10 0 V
11 -1 V
11 -1 V
10 -1 V
11 -1 V
10 -1 V
11 -2 V
2 0 V
6 -1 V
5 0 V
stroke
10698 3435 M
2 -1 V
11 -1 V
10 -1 V
11 -2 V
11 -1 V
10 -2 V
11 -1 V
10 -1 V
11 -2 V
11 -2 V
10 -1 V
2 0 V
11 -2 V
10 -2 V
11 -1 V
10 -2 V
11 -2 V
11 -1 V
10 -2 V
11 -2 V
11 -2 V
10 -1 V
2 -1 V
11 -2 V
10 -2 V
11 -1 V
10 -2 V
11 -2 V
11 -2 V
10 -2 V
11 -2 V
10 -2 V
11 -3 V
2 0 V
10 -2 V
11 -2 V
11 -2 V
10 -3 V
11 -2 V
11 -2 V
10 -2 V
11 -3 V
10 -2 V
11 -2 V
2 -1 V
10 -2 V
11 -3 V
11 -2 V
10 -3 V
11 -2 V
10 -3 V
11 -2 V
11 -3 V
10 -2 V
11 -3 V
2 0 V
10 -3 V
11 -3 V
11 -2 V
10 -3 V
11 -3 V
10 -3 V
11 -2 V
11 -3 V
10 -3 V
11 -3 V
2 -1 V
10 -3 V
11 -2 V
11 -3 V
10 -3 V
11 -3 V
10 -4 V
11 -3 V
11 -3 V
10 -3 V
11 -3 V
83 -25 V
11 -3 V
2 -1 V
2 0 V
2 -1 V
11 -3 V
12 -4 V
6 -2 V
12 -3 V
3 -1 V
2 -1 V
2 0 V
2 -1 V
1 0 V
10 -3 V
10 -3 V
25 -8 V
14.000 UL
LT0
1618 1842 M
5 0 V
27 -8 R
5 0 V
27 -8 R
5 0 V
27 -8 R
5 0 V
-2 -1 R
5 0 V
49 -15 R
8 0 V
49 -14 R
5 0 V
-2 -1 R
5 0 V
16 -5 R
5 0 V
-2 -1 R
5 0 V
16 -5 R
5 0 V
-3 -1 R
6 0 V
15 -5 R
5 0 V
-2 -1 R
5 0 V
16 -5 R
5 0 V
-2 -1 R
5 0 V
49 -14 R
5 0 V
-2 -1 R
5 0 V
49 -14 R
6 0 V
-3 0 R
6 0 V
49 -15 R
8 0 V
103 -28 R
5 0 V
-2 -1 R
5 0 V
103 -28 R
6 0 V
-3 0 R
6 0 V
103 -28 R
5 0 V
-2 -1 R
5 0 V
103 -28 R
5 0 V
-2 -1 R
5 0 V
103 -27 R
6 0 V
-3 -1 R
6 0 V
103 -29 R
8 0 V
20 -7 R
8 0 V
9 -4 R
8 0 V
27 -10 R
10 0 V
-3 0 R
3 0 V
-3 -2 R
10 0 V
868 -32 R
10 0 V
-2 0 R
2 0 V
-2 1 R
9 0 V
56 12 R
9 0 V
-2 0 R
2 0 V
-2 1 R
10 0 V
868 115 R
10 0 V
-3 0 R
3 0 V
-3 0 R
10 0 V
56 6 R
9 0 V
-2 0 R
2 0 V
-2 0 R
10 0 V
868 30 R
10 0 V
-3 0 R
3 0 V
-3 0 R
10 0 V
56 -1 R
9 0 V
stroke
5724 1656 M
2 0 V
-2 0 R
10 0 V
868 180 R
10 0 V
-3 0 R
3 0 V
-3 3 R
10 0 V
27 14 R
5 0 V
-2 0 R
2 0 V
-2 1 R
5 0 V
-1 2 R
5 0 V
-2 0 R
2 0 V
-2 1 R
5 0 V
-2 1 R
5 0 V
-2 0 R
2 0 V
-2 2 R
5 0 V
-1 1 R
5 0 V
-2 0 R
2 0 V
-2 1 R
5 0 V
-2 2 R
5 0 V
-2 0 R
2 0 V
-2 1 R
5 0 V
-1 2 R
5 0 V
-2 0 R
2 0 V
-2 1 R
5 0 V
65 30 R
5 0 V
-2 0 R
2 0 V
-2 1 R
5 0 V
-1 1 R
5 0 V
-2 0 R
2 0 V
-2 2 R
5 0 V
0 2 R
5 0 V
-2 0 R
2 0 V
-2 1 R
5 0 V
100 44 R
5 0 V
-2 0 R
2 0 V
-2 2 R
5 0 V
43 20 R
6 0 V
-3 0 R
3 0 V
-3 1 R
6 0 V
43 21 R
5 0 V
-2 0 R
2 0 V
-2 1 R
5 0 V
100 44 R
5 0 V
-2 0 R
2 0 V
-2 2 R
5 0 V
0 2 R
6 0 V
-3 0 R
3 0 V
-3 1 R
6 0 V
99 44 R
6 0 V
-3 0 R
3 0 V
-3 2 R
5 0 V
44 20 R
5 0 V
-2 0 R
2 0 V
-2 2 R
5 0 V
stroke
7306 2131 M
5 0 V
-2 0 R
2 0 V
-2 1 R
5 0 V
100 45 R
5 0 V
-2 0 R
2 0 V
-2 1 R
5 0 V
0 2 R
5 0 V
-2 0 R
2 0 V
-2 1 R
5 0 V
100 45 R
5 0 V
-2 0 R
2 0 V
-2 1 R
5 0 V
44 20 R
5 0 V
-3 0 R
3 0 V
-3 2 R
6 0 V
43 20 R
6 0 V
-3 0 R
3 0 V
-3 2 R
5 0 V
100 44 R
5 0 V
-2 0 R
2 0 V
-2 1 R
5 0 V
0 2 R
6 0 V
-3 0 R
3 0 V
-3 2 R
6 0 V
99 44 R
6 0 V
-3 0 R
3 0 V
-3 1 R
6 0 V
43 21 R
5 0 V
-2 0 R
2 0 V
-2 1 R
5 0 V
44 20 R
5 0 V
-2 0 R
2 0 V
-2 2 R
5 0 V
100 44 R
5 0 V
-2 0 R
2 0 V
-2 1 R
5 0 V
0 2 R
5 0 V
-2 0 R
2 0 V
-2 2 R
5 0 V
100 44 R
5 0 V
-2 0 R
2 0 V
-2 1 R
5 0 V
44 26 R
17 0 V
23 17 R
16 0 V
56 30 R
17 0 V
56 31 R
16 0 V
39 19 R
8 0 V
-2 3 R
8 0 V
22 13 R
8 0 V
-2 2 R
8 0 V
39 20 R
9 0 V
-3 3 R
8 0 V
40 20 R
8 0 V
stroke
8626 2689 M
8 0 V
38 20 R
8 0 V
-3 2 R
8 0 V
51 25 R
8 0 V
-2 2 R
8 0 V
123 58 R
8 0 V
-2 2 R
8 0 V
210 99 R
8 0 V
-2 3 R
8 0 V
-1 3 R
8 0 V
-2 3 R
8 0 V
210 98 R
8 0 V
-2 3 R
8 0 V
-1 3 R
9 0 V
-3 3 R
8 0 V
262 122 R
8 0 V
-2 3 R
8 0 V
-1 3 R
8 0 V
-2 3 R
8 0 V
68 34 R
8 0 V
-2 3 R
8 0 V
7 7 R
8 0 V
-2 2 R
8 0 V
689 206 R
8 0 V
-2 0 R
8 0 V
107 0 R
8 0 V
-2 0 R
8 0 V
107 -10 R
9 0 V
-3 -1 R
8 0 V
853 -193 R
14 0 V
-2 -3 R
14 0 V
26 -12 R
12 0 V
-2 -2 R
12 0 V
14.000 UL
LT0
1618 1941 M
5 0 V
27 -8 R
5 0 V
27 -9 R
5 0 V
27 -8 R
5 0 V
-2 0 R
5 0 V
49 -15 R
8 0 V
49 -14 R
5 0 V
-2 -1 R
5 0 V
16 -5 R
5 0 V
-2 -1 R
5 0 V
16 -5 R
5 0 V
-3 -1 R
6 0 V
15 -5 R
5 0 V
-2 -1 R
5 0 V
16 -5 R
5 0 V
-2 -1 R
5 0 V
49 -14 R
5 0 V
-2 -1 R
5 0 V
49 -14 R
6 0 V
-3 -1 R
6 0 V
49 -14 R
8 0 V
103 -28 R
5 0 V
-2 -1 R
5 0 V
103 -28 R
6 0 V
-3 -1 R
6 0 V
103 -28 R
5 0 V
-2 0 R
5 0 V
103 -28 R
5 0 V
-2 -1 R
5 0 V
103 -28 R
6 0 V
-3 -1 R
6 0 V
103 -28 R
8 0 V
20 -7 R
8 0 V
9 -5 R
8 0 V
27 -9 R
10 0 V
-3 0 R
3 0 V
-3 -2 R
10 0 V
868 -33 R
10 0 V
-2 0 R
2 0 V
-2 2 R
9 0 V
56 11 R
9 0 V
-2 0 R
2 0 V
-2 2 R
10 0 V
868 114 R
10 0 V
-3 0 R
3 0 V
-3 1 R
10 0 V
56 5 R
9 0 V
-2 0 R
2 0 V
-2 1 R
10 0 V
868 29 R
10 0 V
-3 0 R
3 0 V
-3 0 R
10 0 V
56 -1 R
9 0 V
stroke
5724 1754 M
2 0 V
-2 0 R
10 0 V
868 181 R
10 0 V
-3 0 R
3 0 V
-3 3 R
10 0 V
27 14 R
5 0 V
-2 0 R
2 0 V
-2 1 R
5 0 V
-1 1 R
5 0 V
-2 0 R
2 0 V
-2 1 R
5 0 V
-2 2 R
5 0 V
-2 0 R
2 0 V
-2 1 R
5 0 V
-1 2 R
5 0 V
-2 0 R
2 0 V
-2 1 R
5 0 V
-2 2 R
5 0 V
-2 0 R
2 0 V
-2 1 R
5 0 V
-1 1 R
5 0 V
-2 0 R
2 0 V
-2 2 R
5 0 V
65 29 R
5 0 V
-2 0 R
2 0 V
-2 1 R
5 0 V
-1 2 R
5 0 V
-2 0 R
2 0 V
-2 1 R
5 0 V
0 2 R
5 0 V
-2 0 R
2 0 V
-2 2 R
5 0 V
100 44 R
5 0 V
-2 0 R
2 0 V
-2 1 R
5 0 V
43 21 R
6 0 V
-3 0 R
3 0 V
-3 1 R
6 0 V
43 21 R
5 0 V
-2 0 R
2 0 V
-2 1 R
5 0 V
100 44 R
5 0 V
-2 0 R
2 0 V
-2 1 R
5 0 V
0 3 R
6 0 V
-3 0 R
3 0 V
-3 1 R
6 0 V
99 44 R
6 0 V
-3 0 R
3 0 V
-3 1 R
5 0 V
44 21 R
5 0 V
-2 0 R
2 0 V
-2 1 R
5 0 V
stroke
7306 2230 M
5 0 V
-2 0 R
2 0 V
-2 1 R
5 0 V
100 44 R
5 0 V
-2 0 R
2 0 V
-2 2 R
5 0 V
0 2 R
5 0 V
-2 0 R
2 0 V
-2 1 R
5 0 V
100 44 R
5 0 V
-2 0 R
2 0 V
-2 2 R
5 0 V
44 20 R
5 0 V
-3 0 R
3 0 V
-3 1 R
6 0 V
43 21 R
6 0 V
-3 0 R
3 0 V
-3 1 R
5 0 V
100 44 R
5 0 V
-2 0 R
2 0 V
-2 2 R
5 0 V
0 2 R
6 0 V
-3 0 R
3 0 V
-3 1 R
6 0 V
99 44 R
6 0 V
-3 0 R
3 0 V
-3 2 R
6 0 V
43 20 R
5 0 V
-2 0 R
2 0 V
-2 2 R
5 0 V
44 20 R
5 0 V
-2 0 R
2 0 V
-2 1 R
5 0 V
100 45 R
5 0 V
-2 0 R
2 0 V
-2 1 R
5 0 V
0 2 R
5 0 V
-2 0 R
2 0 V
-2 1 R
5 0 V
100 45 R
5 0 V
-2 0 R
2 0 V
-2 1 R
5 0 V
44 25 R
17 0 V
23 17 R
16 0 V
56 31 R
17 0 V
56 30 R
16 0 V
39 20 R
8 0 V
-2 2 R
8 0 V
22 13 R
8 0 V
-2 3 R
8 0 V
39 20 R
9 0 V
-3 2 R
8 0 V
40 20 R
8 0 V
stroke
8626 2788 M
8 0 V
38 19 R
8 0 V
-3 3 R
8 0 V
51 24 R
8 0 V
-2 3 R
8 0 V
123 57 R
8 0 V
-2 3 R
8 0 V
210 99 R
8 0 V
-2 2 R
8 0 V
-1 4 R
8 0 V
-2 2 R
8 0 V
210 99 R
8 0 V
-2 3 R
8 0 V
-1 3 R
9 0 V
-3 3 R
8 0 V
262 122 R
8 0 V
-2 2 R
8 0 V
-1 4 R
8 0 V
-2 2 R
8 0 V
68 35 R
8 0 V
-2 2 R
8 0 V
7 7 R
8 0 V
-2 3 R
8 0 V
689 205 R
8 0 V
-2 1 R
8 0 V
107 0 R
8 0 V
-2 -1 R
8 0 V
107 -9 R
9 0 V
-3 -1 R
8 0 V
853 -193 R
14 0 V
-2 -4 R
14 0 V
26 -11 R
12 0 V
-2 -3 R
12 0 V
14.000 UL
LT2
2882 1511 M
32 0 V
0 -8 R
33 0 V
4 -8 R
33 0 V
0 -6 R
32 0 V
4 -6 R
33 0 V
0 -6 R
33 0 V
3 -5 R
33 0 V
0 -4 R
33 0 V
4 -3 R
32 0 V
0 -3 R
33 0 V
4 -3 R
33 0 V
0 -1 R
32 0 V
4 -1 R
33 0 V
0 -1 R
33 0 V
3 1 R
33 0 V
33 0 V
4 2 R
32 0 V
0 2 R
33 0 V
4 3 R
33 0 V
0 3 R
32 0 V
4 4 R
33 0 V
0 5 R
33 0 V
3 5 R
33 0 V
0 6 R
33 0 V
130 29 R
33 0 V
0 6 R
33 0 V
4 6 R
33 0 V
0 5 R
32 0 V
4 6 R
33 0 V
0 5 R
33 0 V
3 6 R
33 0 V
0 5 R
33 0 V
3 5 R
33 0 V
0 5 R
33 0 V
4 5 R
33 0 V
0 4 R
32 0 V
4 5 R
33 0 V
0 4 R
33 0 V
3 4 R
33 0 V
0 4 R
33 0 V
3 4 R
33 0 V
0 4 R
33 0 V
4 3 R
32 0 V
0 4 R
33 0 V
4 3 R
33 0 V
0 3 R
33 0 V
3 4 R
33 0 V
0 2 R
33 0 V
130 14 R
33 0 V
0 2 R
33 0 V
4 3 R
32 0 V
0 2 R
33 0 V
4 2 R
33 0 V
stroke
4969 1643 M
33 0 V
3 2 R
33 0 V
0 2 R
33 0 V
3 2 R
33 0 V
0 1 R
33 0 V
4 2 R
32 0 V
0 1 R
33 0 V
4 1 R
33 0 V
0 1 R
32 0 V
4 1 R
33 0 V
0 1 R
33 0 V
3 0 R
33 0 V
0 1 R
33 0 V
4 0 R
32 0 V
33 0 V
4 0 R
33 0 V
32 0 V
4 0 R
33 0 V
0 -1 R
33 0 V
130 -2 R
33 0 V
0 1 R
33 0 V
4 1 R
32 0 V
0 1 R
33 0 V
4 3 R
33 0 V
0 2 R
32 0 V
4 4 R
33 0 V
0 4 R
33 0 V
3 5 R
33 0 V
0 5 R
33 0 V
4 7 R
32 0 V
0 6 R
33 0 V
4 8 R
33 0 V
0 8 R
32 0 V
4 9 R
33 0 V
0 8 R
33 0 V
3 11 R
33 0 V
0 10 R
33 0 V
3 11 R
33 0 V
0 12 R
33 0 V
4 13 R
33 0 V
0 12 R
32 0 V
4 14 R
33 0 V
0 14 R
33 0 V
622 262 R
51 22 R
604 255 R
51 21 R
276 117 R
52 22 R
513 221 R
12 0 V
0 5 R
12 0 V
0 6 R
12 0 V
0 5 R
13 0 V
0 5 R
12 0 V
0 6 R
12 0 V
0 5 R
12 0 V
0 5 R
12 0 V
stroke
8849 2781 M
0 6 R
13 0 V
0 5 R
12 0 V
1047 497 R
52 0 V
0 20 R
52 0 V
0 18 R
52 0 V
0 17 R
52 0 V
0 14 R
53 0 V
0 11 R
52 0 V
0 10 R
52 0 V
0 8 R
52 0 V
0 5 R
52 0 V
0 3 R
53 0 V
15 2 R
10 0 V
11 0 V
10 0 V
11 0 V
11 0 V
10 0 V
11 0 V
11 0 V
10 0 V
0 -1 R
11 0 V
25 -1 R
11 0 R
11 -1 R
10 -1 R
11 -1 R
11 -1 R
10 -1 R
11 -1 R
10 -1 R
11 -1 R
15 -3 R
11 0 V
0 -2 R
10 0 V
0 -1 R
11 0 V
0 -1 R
11 0 V
0 -2 R
10 0 V
0 -1 R
11 0 V
0 -2 R
10 0 V
0 -1 R
11 0 V
0 -2 R
11 0 V
0 -1 R
10 0 V
2 -2 R
11 0 V
0 -2 R
10 0 V
0 -2 R
11 0 V
0 -1 R
10 0 V
0 -2 R
11 0 V
0 -2 R
11 0 V
0 -1 R
10 0 V
0 -2 R
11 0 V
0 -2 R
11 0 V
0 -2 R
10 0 V
2 -2 R
11 0 V
0 -2 R
10 0 V
0 -2 R
11 0 V
0 -2 R
10 0 V
0 -2 R
11 0 V
0 -2 R
11 0 V
0 -2 R
10 0 V
0 -2 R
11 0 V
0 -2 R
10 0 V
stroke
11011 3335 M
0 -2 R
11 0 V
2 -2 R
10 0 V
0 -3 R
11 0 V
0 -2 R
11 0 V
0 -2 R
10 0 V
0 -2 R
11 0 V
0 -2 R
11 0 V
0 -3 R
10 0 V
0 -2 R
11 0 V
0 -2 R
10 0 V
0 -3 R
11 0 V
2 -3 R
10 0 V
0 -2 R
11 0 V
0 -2 R
11 0 V
0 -3 R
10 0 V
0 -2 R
11 0 V
0 -3 R
10 0 V
0 -2 R
11 0 V
0 -3 R
11 0 V
0 -3 R
10 0 V
0 -2 R
11 0 V
2 -3 R
10 0 V
0 -3 R
11 0 V
0 -3 R
11 0 V
0 -2 R
10 0 V
0 -3 R
11 0 V
0 -3 R
10 0 V
0 -3 R
11 0 V
0 -3 R
11 0 V
0 -3 R
10 0 V
0 -2 R
11 0 V
2 -4 R
10 0 V
0 -3 R
11 0 V
0 -3 R
11 0 V
0 -3 R
10 0 V
0 -3 R
11 0 V
0 -3 R
10 0 V
0 -3 R
11 0 V
0 -3 R
11 0 V
0 -3 R
10 0 V
0 -3 R
11 0 V
14.000 UL
LT2
2882 1609 M
32 0 V
0 -7 R
33 0 V
4 -8 R
33 0 V
0 -6 R
32 0 V
4 -7 R
33 0 V
0 -5 R
33 0 V
3 -5 R
33 0 V
0 -4 R
33 0 V
4 -4 R
32 0 V
0 -2 R
33 0 V
4 -3 R
33 0 V
0 -1 R
32 0 V
4 -2 R
33 0 V
33 0 V
3 0 R
33 0 V
0 1 R
33 0 V
4 2 R
32 0 V
0 2 R
33 0 V
4 2 R
33 0 V
0 4 R
32 0 V
4 4 R
33 0 V
0 4 R
33 0 V
3 6 R
33 0 V
0 5 R
33 0 V
130 30 R
33 0 V
0 5 R
33 0 V
4 6 R
33 0 V
0 6 R
32 0 V
4 6 R
33 0 V
0 5 R
33 0 V
3 5 R
33 0 V
0 5 R
33 0 V
3 6 R
33 0 V
0 4 R
33 0 V
4 5 R
33 0 V
0 5 R
32 0 V
4 4 R
33 0 V
0 4 R
33 0 V
3 5 R
33 0 V
0 4 R
33 0 V
3 4 R
33 0 V
0 3 R
33 0 V
4 4 R
32 0 V
0 3 R
33 0 V
4 4 R
33 0 V
0 3 R
33 0 V
3 3 R
33 0 V
0 3 R
33 0 V
130 13 R
33 0 V
0 3 R
33 0 V
4 3 R
32 0 V
0 2 R
33 0 V
4 2 R
33 0 V
stroke
4969 1742 M
33 0 V
3 2 R
33 0 V
0 2 R
33 0 V
3 2 R
33 0 V
0 1 R
33 0 V
4 2 R
32 0 V
0 1 R
33 0 V
4 1 R
33 0 V
0 1 R
32 0 V
4 1 R
33 0 V
33 0 V
3 1 R
33 0 V
33 0 V
4 1 R
32 0 V
33 0 V
4 0 R
33 0 V
32 0 V
4 -1 R
33 0 V
33 0 V
130 -2 R
33 0 V
33 0 V
4 1 R
32 0 V
0 2 R
33 0 V
4 2 R
33 0 V
0 3 R
32 0 V
4 4 R
33 0 V
0 4 R
33 0 V
3 5 R
33 0 V
0 5 R
33 0 V
4 7 R
32 0 V
0 6 R
33 0 V
4 8 R
33 0 V
0 7 R
32 0 V
4 9 R
33 0 V
0 9 R
33 0 V
3 10 R
33 0 V
0 10 R
33 0 V
3 12 R
33 0 V
0 11 R
33 0 V
4 13 R
33 0 V
0 13 R
32 0 V
4 14 R
33 0 V
0 13 R
33 0 V
622 263 R
51 22 R
604 254 R
51 22 R
276 116 R
52 22 R
513 222 R
12 0 V
0 5 R
12 0 V
0 5 R
12 0 V
0 5 R
13 0 V
0 6 R
12 0 V
0 5 R
12 0 V
0 6 R
12 0 V
0 5 R
12 0 V
0 5 R
13 0 V
0 6 R
12 0 V
stroke
8874 2891 M
1047 496 R
52 0 V
0 21 R
52 0 V
0 18 R
52 0 V
0 16 R
52 0 V
0 14 R
53 0 V
0 12 R
52 0 V
0 10 R
52 0 V
0 7 R
52 0 V
0 6 R
52 0 V
0 3 R
53 0 V
15 1 R
10 0 V
0 1 R
11 0 V
10 0 V
11 0 V
11 0 V
10 0 V
11 0 V
11 0 V
0 -1 R
10 0 V
11 0 V
25 -1 R
11 -1 R
11 0 R
10 -1 R
11 -1 R
11 -1 R
10 -1 R
11 -1 R
10 -1 R
11 -1 R
15 -4 R
11 0 V
0 -1 R
10 0 V
0 -1 R
11 0 V
0 -2 R
11 0 V
0 -1 R
10 0 V
0 -2 R
11 0 V
0 -1 R
10 0 V
0 -2 R
11 0 V
0 -1 R
11 0 V
0 -2 R
10 0 V
2 -2 R
11 0 V
0 -1 R
10 0 V
0 -2 R
11 0 V
0 -2 R
10 0 V
0 -1 R
11 0 V
0 -2 R
11 0 V
0 -2 R
10 0 V
0 -2 R
11 0 V
0 -1 R
11 0 V
0 -2 R
10 0 V
2 -2 R
11 0 V
0 -2 R
10 0 V
0 -2 R
11 0 V
0 -2 R
10 0 V
0 -2 R
11 0 V
0 -2 R
11 0 V
0 -2 R
10 0 V
0 -2 R
11 0 V
0 -2 R
10 0 V
0 -2 R
11 0 V
2 -3 R
10 0 V
stroke
11034 3429 M
0 -2 R
11 0 V
0 -2 R
11 0 V
0 -2 R
10 0 V
0 -3 R
11 0 V
0 -2 R
11 0 V
0 -2 R
10 0 V
0 -2 R
11 0 V
0 -3 R
10 0 V
0 -2 R
11 0 V
2 -3 R
10 0 V
0 -2 R
11 0 V
0 -3 R
11 0 V
0 -2 R
10 0 V
0 -3 R
11 0 V
0 -2 R
10 0 V
0 -3 R
11 0 V
0 -2 R
11 0 V
0 -3 R
10 0 V
0 -3 R
11 0 V
2 -3 R
10 0 V
0 -2 R
11 0 V
0 -3 R
11 0 V
0 -3 R
10 0 V
0 -3 R
11 0 V
0 -2 R
10 0 V
0 -3 R
11 0 V
0 -3 R
11 0 V
0 -3 R
10 0 V
0 -3 R
11 0 V
2 -3 R
10 0 V
0 -3 R
11 0 V
0 -3 R
11 0 V
0 -3 R
10 0 V
0 -3 R
11 0 V
0 -3 R
10 0 V
0 -3 R
11 0 V
0 -3 R
11 0 V
0 -4 R
10 0 V
0 -3 R
11 0 V
30.000 UL
LT6
4244 1734 M
18 0 V
-18 0 R
18 0 V
461 50 R
18 0 V
2184 349 R
18 0 V
-18 0 R
18 0 V
28 19 R
18 0 V
-18 0 R
18 0 V
206 95 R
18 0 V
34 21 R
18 0 V
-12 3 R
18 0 V
-18 0 R
18 0 V
28 19 R
18 0 V
-18 0 R
18 0 V
206 95 R
18 0 V
34 22 R
18 0 V
-13 2 R
18 0 V
-18 0 R
18 0 V
28 19 R
18 0 V
-18 0 R
18 0 V
206 95 R
18 0 V
34 22 R
18 0 V
-12 2 R
18 0 V
-18 0 R
18 0 V
28 20 R
18 0 V
-18 0 R
18 0 V
206 94 R
18 0 V
34 22 R
18 0 V
30.000 UL
LT6
4244 1512 M
18 0 V
-18 0 R
18 0 V
461 50 R
18 0 V
2184 349 R
18 0 V
-18 0 R
18 0 V
28 19 R
18 0 V
-18 0 R
18 0 V
206 95 R
18 0 V
34 21 R
18 0 V
-12 3 R
18 0 V
-18 0 R
18 0 V
28 19 R
18 0 V
-18 0 R
18 0 V
206 95 R
18 0 V
34 22 R
18 0 V
-13 2 R
18 0 V
-18 0 R
18 0 V
28 19 R
18 0 V
-18 0 R
18 0 V
206 95 R
18 0 V
34 22 R
18 0 V
-12 2 R
18 0 V
-18 0 R
18 0 V
28 20 R
18 0 V
-18 0 R
18 0 V
206 94 R
18 0 V
34 22 R
18 0 V
1.000 UL
LTb
1200 750 M
10740 0 V
0 3083 V
-10740 0 V
0 -3083 V
1.000 UP
1.000 UL
LTb
1200 4546 M
63 0 V
10677 0 R
-63 0 V
stroke
1050 4546 M
[ [(Helvetica) 250.0 0.0 true true 0 (-20)]
] -83.3 MRshow
1.000 UL
LTb
1200 4875 M
63 0 V
10677 0 R
-63 0 V
stroke
1050 4875 M
[ [(Helvetica) 250.0 0.0 true true 0 ( 0)]
] -83.3 MRshow
1.000 UL
LTb
1200 5205 M
63 0 V
10677 0 R
-63 0 V
stroke
1050 5205 M
[ [(Helvetica) 250.0 0.0 true true 0 ( 20)]
] -83.3 MRshow
1.000 UL
LTb
1200 5535 M
63 0 V
10677 0 R
-63 0 V
stroke
1050 5535 M
[ [(Helvetica) 250.0 0.0 true true 0 ( 40)]
] -83.3 MRshow
1.000 UL
LTb
1200 5864 M
63 0 V
10677 0 R
-63 0 V
stroke
1050 5864 M
[ [(Helvetica) 250.0 0.0 true true 0 ( 60)]
] -83.3 MRshow
1.000 UL
LTb
1200 6194 M
63 0 V
10677 0 R
-63 0 V
stroke
1050 6194 M
[ [(Helvetica) 250.0 0.0 true true 0 ( 80)]
] -83.3 MRshow
1.000 UL
LTb
1200 6523 M
63 0 V
10677 0 R
-63 0 V
stroke
1050 6523 M
[ [(Helvetica) 250.0 0.0 true true 0 ( 100)]
] -83.3 MRshow
1.000 UL
LTb
1200 6853 M
63 0 V
10677 0 R
-63 0 V
stroke
1050 6853 M
[ [(Helvetica) 250.0 0.0 true true 0 ( 120)]
] -83.3 MRshow
1.000 UL
LTb
1200 7182 M
63 0 V
10677 0 R
-63 0 V
stroke
1050 7182 M
[ [(Helvetica) 250.0 0.0 true true 0 ( 140)]
] -83.3 MRshow
1.000 UL
LTb
1200 7512 M
63 0 V
10677 0 R
-63 0 V
stroke
1050 7512 M
[ [(Helvetica) 250.0 0.0 true true 0 ( 160)]
] -83.3 MRshow
1.000 UL
LTb
1200 4381 M
0 63 V
0 3068 R
0 -63 V
stroke
1200 4131 M
[ [(Helvetica) 250.0 0.0 true true 0 (-1800)]
] -83.3 MCshow
1.000 UL
LTb
2361 4381 M
0 63 V
0 3068 R
0 -63 V
stroke
2361 4131 M
[ [(Helvetica) 250.0 0.0 true true 0 (-1600)]
] -83.3 MCshow
1.000 UL
LTb
3522 4381 M
0 63 V
0 3068 R
0 -63 V
stroke
3522 4131 M
[ [(Helvetica) 250.0 0.0 true true 0 (-1400)]
] -83.3 MCshow
1.000 UL
LTb
4683 4381 M
0 63 V
0 3068 R
0 -63 V
stroke
4683 4131 M
[ [(Helvetica) 250.0 0.0 true true 0 (-1200)]
] -83.3 MCshow
1.000 UL
LTb
5844 4381 M
0 63 V
0 3068 R
0 -63 V
stroke
5844 4131 M
[ [(Helvetica) 250.0 0.0 true true 0 (-1000)]
] -83.3 MCshow
1.000 UL
LTb
7005 4381 M
0 63 V
0 3068 R
0 -63 V
stroke
7005 4131 M
[ [(Helvetica) 250.0 0.0 true true 0 (-800)]
] -83.3 MCshow
1.000 UL
LTb
8166 4381 M
0 63 V
0 3068 R
0 -63 V
stroke
8166 4131 M
[ [(Helvetica) 250.0 0.0 true true 0 (-600)]
] -83.3 MCshow
1.000 UL
LTb
9328 4381 M
0 63 V
0 3068 R
0 -63 V
stroke
9328 4131 M
[ [(Helvetica) 250.0 0.0 true true 0 (-400)]
] -83.3 MCshow
1.000 UL
LTb
10489 4381 M
0 63 V
0 3068 R
0 -63 V
stroke
10489 4131 M
[ [(Helvetica) 250.0 0.0 true true 0 (-200)]
] -83.3 MCshow
1.000 UL
LTb
11650 4381 M
0 63 V
0 3068 R
0 -63 V
stroke
11650 4131 M
[ [(Helvetica) 250.0 0.0 true true 0 ( 0)]
] -83.3 MCshow
1.000 UL
LTb
1.000 UL
LTb
1200 4381 M
10740 0 V
0 3131 V
-10740 0 V
0 -3131 V
LTb
175 5946 M
currentpoint gsave translate 90 rotate 0 0 moveto
[ [(Symbol) 250.0 0.0 true true 0 (b)]
[(Helvetica) 200.0 -75.0 true true 0 (x,y)]
[(Helvetica) 250.0 0.0 true true 0 ( [km], D)]
[(Helvetica) 200.0 -75.0 true true 0 (x)]
[(Helvetica) 250.0 0.0 true true 0 ( [cm])]
] -58.3 MCshow
grestore
1.000 UP
3.000 UL
LT0
LTb
3300 7324 M
[ [(Symbol) 250.0 0.0 true true 0 (b)]
[(Helvetica) 200.0 -75.0 true true 0 (x)]
] -58.3 MRshow
LT0
3450 7324 M
213 0 V
1620 4876 M
3 0 V
29 0 V
3 0 V
29 0 V
3 0 V
29 0 V
3 0 V
3 0 V
13 0 V
12 0 V
13 0 V
13 0 V
6 0 V
13 0 V
13 0 V
13 0 V
13 0 V
2 0 V
3 0 V
6 0 V
6 0 V
6 0 V
3 -1 V
3 0 V
6 0 V
6 0 V
6 0 V
3 0 V
3 0 V
6 0 V
6 0 V
6 0 V
2 0 V
3 1 V
6 0 V
6 0 V
6 0 V
3 0 V
3 0 V
13 0 V
13 0 V
13 0 V
12 0 V
3 0 V
3 0 V
13 0 V
13 0 V
13 0 V
13 0 V
3 0 V
3 0 V
13 0 V
12 0 V
13 0 V
13 0 V
6 0 V
26 0 V
27 0 V
26 0 V
26 1 V
3 0 V
3 0 V
27 -1 V
26 0 V
26 0 V
27 0 V
3 0 V
3 0 V
26 0 V
26 0 V
27 0 V
26 1 V
3 0 V
3 0 V
26 -1 V
27 0 V
26 0 V
26 0 V
3 0 V
3 0 V
27 0 V
26 0 V
26 0 V
27 1 V
3 0 V
3 0 V
26 -1 V
26 0 V
27 0 V
26 0 V
6 0 V
22 0 V
6 1 V
11 1 V
6 0 V
29 0 V
8 0 V
7 0 V
3 0 V
15 0 V
4 0 V
32 0 V
stroke
2914 4878 M
33 0 V
4 0 V
33 0 V
32 0 V
4 0 V
33 0 V
33 0 V
3 0 V
33 0 V
33 -1 V
4 0 V
32 0 V
33 0 V
4 0 V
33 0 V
32 0 V
2 0 V
2 0 V
33 0 V
33 0 V
3 0 V
33 0 V
33 0 V
4 0 V
32 0 V
33 0 V
4 0 V
33 0 V
32 0 V
4 0 V
33 0 V
33 1 V
3 0 V
33 0 V
33 0 V
4 0 V
3 0 V
4 0 V
3 0 V
4 0 V
4 0 V
7 0 V
7 0 V
29 0 V
29 0 V
7 0 V
8 0 V
3 0 V
4 0 V
4 1 V
3 0 V
4 0 V
3 0 V
33 0 V
33 1 V
4 0 V
33 0 V
32 1 V
4 0 V
33 0 V
33 1 V
3 0 V
33 1 V
33 1 V
3 0 V
33 0 V
33 1 V
4 0 V
33 1 V
32 1 V
2 0 V
2 0 V
33 1 V
33 1 V
3 0 V
33 1 V
33 1 V
3 0 V
33 1 V
33 1 V
4 0 V
32 1 V
33 1 V
4 1 V
33 1 V
33 1 V
3 0 V
33 1 V
33 2 V
3 0 V
4 0 V
4 0 V
3 0 V
4 0 V
4 1 V
7 0 V
7 0 V
29 0 V
29 0 V
7 0 V
8 0 V
3 -1 V
4 0 V
4 0 V
stroke
4787 4901 M
3 0 V
4 0 V
3 0 V
33 -2 V
33 -1 V
4 0 V
32 -1 V
33 -1 V
4 -1 V
33 -1 V
32 -1 V
4 0 V
33 -1 V
33 -1 V
3 0 V
33 -1 V
33 -1 V
4 0 V
32 -1 V
33 -1 V
2 0 V
2 0 V
33 -1 V
32 -1 V
4 0 V
33 -1 V
33 0 V
3 0 V
33 -1 V
33 -1 V
4 0 V
32 -1 V
33 0 V
4 0 V
33 -1 V
32 0 V
4 0 V
33 -1 V
33 0 V
3 0 V
4 0 V
4 0 V
3 -1 V
4 0 V
3 0 V
8 0 V
7 0 V
29 0 V
29 0 V
7 0 V
7 0 V
4 0 V
4 0 V
3 0 V
4 0 V
4 0 V
3 0 V
33 0 V
33 0 V
4 0 V
32 -1 V
33 0 V
4 0 V
33 0 V
32 0 V
4 0 V
33 0 V
33 0 V
3 0 V
33 0 V
33 0 V
4 0 V
32 0 V
33 0 V
2 0 V
2 0 V
33 0 V
32 0 V
4 0 V
33 0 V
33 0 V
3 0 V
33 1 V
33 0 V
3 0 V
33 0 V
33 0 V
4 0 V
33 0 V
32 0 V
4 0 V
33 0 V
33 0 V
3 0 V
15 0 V
3 0 V
8 0 V
7 0 V
29 0 V
3 0 V
3 0 V
1 0 V
3 0 V
3 -1 V
stroke
6661 4877 M
1 0 V
2 0 V
3 -1 V
1 0 V
3 0 V
3 0 V
1 0 V
2 0 V
3 0 V
1 0 V
3 0 V
3 0 V
67 -1 V
3 0 V
3 0 V
1 0 V
3 0 V
3 0 V
1 0 V
1 0 V
3 1 V
3 0 V
102 2 V
3 0 V
3 0 V
46 -2 V
3 0 V
3 0 V
46 2 V
2 0 V
3 0 V
102 -2 V
3 0 V
3 -1 V
1 0 V
2 0 V
3 1 V
3 0 V
102 2 V
3 0 V
2 0 V
46 -2 V
3 0 V
3 0 V
46 2 V
3 0 V
3 0 V
102 -2 V
3 0 V
3 -1 V
1 0 V
1 0 V
3 1 V
3 0 V
102 2 V
3 0 V
3 0 V
46 -2 V
3 0 V
3 0 V
46 2 V
3 0 V
2 0 V
102 -2 V
3 0 V
3 -1 V
2 0 V
1 0 V
3 1 V
3 0 V
102 2 V
3 0 V
3 0 V
45 -2 V
3 0 V
3 0 V
46 2 V
3 0 V
3 0 V
102 -2 V
3 0 V
3 -1 V
1 0 V
1 0 V
3 1 V
3 0 V
102 2 V
3 0 V
3 0 V
46 -2 V
15 0 V
25 1 V
14 0 V
58 -1 V
15 0 V
58 0 V
14 0 V
1 0 V
40 0 V
6 0 V
6 0 V
24 -1 V
6 0 V
6 1 V
stroke
8527 4876 M
42 5 V
6 1 V
5 0 V
42 -5 V
6 0 V
6 -1 V
40 0 V
6 0 V
5 0 V
53 3 V
6 0 V
6 0 V
2 -1 V
12 0 V
12 -1 V
12 0 V
13 -1 V
12 0 V
12 0 V
12 -1 V
12 0 V
13 0 V
12 0 V
2 1 V
5 0 V
6 0 V
212 27 V
6 2 V
6 3 V
2 2 V
5 5 V
6 7 V
205 744 V
3 17 V
3 18 V
2 10 V
5 20 V
6 -9 V
2 -8 V
6 -39 V
5 -65 V
148 -649 V
6 29 V
6 32 V
5 37 V
99 1248 V
6 85 V
6 36 V
1 4 V
6 -14 V
6 -63 V
2 -27 V
3 -43 V
3 -42 V
51 -643 V
11 -118 V
6 -48 V
6 -35 V
2 -8 V
2 -14 V
3 -14 V
2 -9 V
6 -21 V
6 -12 V
168 -172 V
52 -45 V
52 -41 V
52 -36 V
52 -33 V
53 -29 V
52 -25 V
52 -21 V
52 -17 V
52 -12 V
53 -9 V
1 0 V
6 -1 V
6 -1 V
2 0 V
10 -1 V
11 -1 V
10 -1 V
11 0 V
11 0 V
10 -1 V
11 0 V
11 1 V
10 0 V
11 1 V
2 0 V
5 0 V
6 1 V
2 0 V
10 1 V
11 1 V
11 1 V
10 1 V
11 1 V
11 2 V
10 1 V
11 2 V
10 2 V
11 2 V
2 0 V
stroke
10687 4892 M
6 2 V
5 2 V
2 0 V
11 5 V
10 4 V
11 6 V
11 5 V
10 6 V
11 7 V
10 7 V
11 7 V
11 8 V
10 8 V
2 2 V
11 8 V
10 9 V
11 10 V
10 10 V
11 10 V
11 11 V
10 11 V
11 12 V
11 12 V
10 12 V
2 2 V
11 13 V
10 14 V
11 14 V
10 14 V
11 14 V
11 16 V
10 15 V
11 16 V
10 16 V
11 17 V
2 3 V
10 17 V
11 18 V
11 18 V
10 18 V
11 19 V
11 20 V
10 19 V
11 21 V
10 20 V
11 21 V
2 4 V
10 21 V
11 22 V
11 23 V
10 22 V
11 24 V
10 23 V
11 24 V
11 25 V
10 25 V
11 25 V
2 4 V
10 26 V
11 26 V
11 27 V
10 27 V
11 27 V
10 28 V
11 29 V
11 28 V
10 30 V
11 29 V
2 5 V
10 30 V
11 31 V
11 31 V
10 31 V
11 32 V
10 32 V
11 33 V
11 33 V
10 33 V
11 34 V
83 280 V
11 41 V
2 6 V
2 6 V
2 7 V
11 -139 V
12 -437 V
6 -263 V
12 -406 V
3 -99 V
2 -45 V
2 -42 V
2 -39 V
1 -37 V
10 -125 V
10 -50 V
25 -38 V
3.000 UL
LT2
LTb
3300 7074 M
[ [(Symbol) 250.0 0.0 true true 0 (b)]
[(Helvetica) 200.0 -75.0 true true 0 (y)]
] -58.3 MRshow
LT2
3450 7074 M
213 0 V
1620 4876 M
3 0 V
29 0 V
3 0 V
29 0 V
3 0 V
29 0 V
3 0 V
3 0 V
13 0 V
12 0 V
13 0 V
13 0 V
6 0 V
13 0 V
13 0 V
13 0 V
13 0 V
2 0 V
3 0 V
6 0 V
6 0 V
6 0 V
3 0 V
3 0 V
6 0 V
6 0 V
6 0 V
3 0 V
3 0 V
6 0 V
6 0 V
6 0 V
2 0 V
3 0 V
6 0 V
6 0 V
6 0 V
3 0 V
3 0 V
13 0 V
13 0 V
13 0 V
12 0 V
3 0 V
3 0 V
13 0 V
13 -1 V
13 0 V
13 0 V
3 0 V
3 0 V
13 1 V
12 0 V
13 0 V
13 1 V
6 0 V
26 0 V
27 -1 V
26 0 V
26 0 V
3 0 V
3 0 V
27 0 V
26 0 V
26 0 V
27 1 V
3 0 V
3 0 V
26 -1 V
26 0 V
27 0 V
26 0 V
3 0 V
3 0 V
26 0 V
27 0 V
26 0 V
26 1 V
3 0 V
3 0 V
27 -1 V
26 0 V
26 0 V
27 0 V
3 0 V
3 0 V
26 0 V
26 0 V
27 0 V
26 1 V
6 0 V
22 -1 V
6 0 V
11 -1 V
6 0 V
29 1 V
8 1 V
7 0 V
3 1 V
15 1 V
4 1 V
32 5 V
stroke
2914 4885 M
33 8 V
4 1 V
33 10 V
32 12 V
4 2 V
33 15 V
33 17 V
3 2 V
33 19 V
33 22 V
4 3 V
32 24 V
33 26 V
4 4 V
33 28 V
32 32 V
2 1 V
2 2 V
33 34 V
33 36 V
3 4 V
33 38 V
33 41 V
4 4 V
32 43 V
33 46 V
4 5 V
33 48 V
32 50 V
4 5 V
33 53 V
33 54 V
3 6 V
33 58 V
33 59 V
4 7 V
3 6 V
4 7 V
3 7 V
4 7 V
4 6 V
7 12 V
7 6 V
29 17 V
29 16 V
7 2 V
8 -4 V
3 -3 V
4 -3 V
4 -3 V
3 -3 V
4 -3 V
3 -3 V
33 -27 V
33 -27 V
4 -3 V
33 -26 V
32 -26 V
4 -2 V
33 -26 V
33 -24 V
3 -3 V
33 -25 V
33 -23 V
3 -3 V
33 -24 V
33 -23 V
4 -2 V
33 -23 V
32 -22 V
2 -1 V
2 -1 V
33 -22 V
33 -22 V
3 -2 V
33 -21 V
33 -20 V
3 -2 V
33 -20 V
33 -20 V
4 -2 V
32 -19 V
33 -19 V
4 -2 V
33 -18 V
33 -18 V
3 -2 V
33 -17 V
33 -17 V
3 -2 V
4 -2 V
4 -2 V
3 -2 V
4 -2 V
4 -1 V
7 -3 V
7 -1 V
29 0 V
29 0 V
7 1 V
8 3 V
3 1 V
4 2 V
4 2 V
stroke
4787 5208 M
3 2 V
4 2 V
3 2 V
33 17 V
33 17 V
4 2 V
32 18 V
33 18 V
4 2 V
33 19 V
32 19 V
4 2 V
33 20 V
33 20 V
3 2 V
33 20 V
33 21 V
4 2 V
32 22 V
33 22 V
2 1 V
2 1 V
33 22 V
32 23 V
4 2 V
33 23 V
33 24 V
3 3 V
33 23 V
33 25 V
4 3 V
32 24 V
33 26 V
4 2 V
33 26 V
32 26 V
4 3 V
33 27 V
33 27 V
3 3 V
4 3 V
4 3 V
3 3 V
4 3 V
3 3 V
8 4 V
7 -2 V
29 -16 V
29 -17 V
7 -6 V
7 -12 V
4 -6 V
4 -7 V
3 -7 V
4 -7 V
4 -6 V
3 -7 V
33 -59 V
33 -58 V
4 -6 V
32 -54 V
33 -53 V
4 -6 V
33 -49 V
32 -48 V
4 -5 V
33 -46 V
33 -43 V
3 -4 V
33 -41 V
33 -38 V
4 -4 V
32 -36 V
33 -34 V
2 -2 V
2 -1 V
33 -32 V
32 -28 V
4 -4 V
33 -26 V
33 -24 V
3 -3 V
33 -22 V
33 -19 V
3 -2 V
33 -17 V
33 -15 V
4 -2 V
33 -12 V
32 -10 V
4 -1 V
33 -8 V
33 -5 V
3 -1 V
15 -1 V
3 -1 V
8 0 V
7 -1 V
29 -1 V
3 0 V
3 0 V
1 0 V
3 0 V
3 1 V
stroke
6661 4876 M
1 0 V
2 0 V
3 0 V
1 0 V
3 0 V
3 0 V
1 0 V
2 0 V
3 0 V
1 0 V
3 0 V
3 0 V
67 0 V
3 0 V
3 0 V
1 0 V
3 0 V
3 0 V
1 0 V
1 0 V
3 0 V
3 0 V
102 0 V
3 0 V
3 0 V
46 3 V
3 0 V
3 0 V
46 -3 V
2 0 V
3 0 V
102 0 V
3 0 V
3 0 V
1 0 V
2 0 V
3 0 V
3 0 V
102 0 V
3 0 V
2 0 V
46 3 V
3 0 V
3 0 V
46 -3 V
3 0 V
3 0 V
102 0 V
3 0 V
3 0 V
1 0 V
1 0 V
3 0 V
3 0 V
102 0 V
3 0 V
3 0 V
46 3 V
3 0 V
3 0 V
46 -3 V
3 0 V
2 0 V
102 0 V
3 0 V
3 0 V
2 0 V
1 0 V
3 0 V
3 0 V
102 0 V
3 0 V
3 0 V
45 3 V
3 0 V
3 0 V
46 -3 V
3 0 V
3 0 V
102 0 V
3 0 V
3 0 V
1 0 V
1 0 V
3 0 V
3 0 V
102 0 V
3 0 V
3 0 V
46 3 V
15 0 V
25 -2 V
14 0 V
58 -1 V
15 0 V
58 -1 V
14 0 V
1 0 V
40 1 V
6 0 V
6 0 V
24 2 V
6 0 V
6 0 V
stroke
8527 4878 M
42 -2 V
6 0 V
5 0 V
42 0 V
6 0 V
6 0 V
40 -1 V
6 0 V
5 0 V
53 1 V
6 0 V
6 0 V
2 0 V
12 1 V
12 0 V
12 1 V
13 1 V
12 1 V
12 2 V
12 1 V
12 2 V
13 2 V
12 2 V
2 0 V
5 1 V
6 -1 V
212 -14 V
6 1 V
6 0 V
2 0 V
5 0 V
6 0 V
205 9 V
3 1 V
3 0 V
2 0 V
5 1 V
6 1 V
2 0 V
6 2 V
5 2 V
148 135 V
6 9 V
6 8 V
5 8 V
99 178 V
6 18 V
6 31 V
1 12 V
6 47 V
6 65 V
2 24 V
3 40 V
3 41 V
51 960 V
11 278 V
6 125 V
6 84 V
2 20 V
2 32 V
3 33 V
2 20 V
6 41 V
6 -6 V
168 -801 V
52 -213 V
52 -195 V
52 -179 V
52 -160 V
53 -144 V
52 -126 V
52 -109 V
52 -92 V
52 -75 V
53 -57 V
1 -2 V
6 -5 V
6 -4 V
2 -2 V
10 -7 V
11 -7 V
10 -7 V
11 -6 V
11 -5 V
10 -5 V
11 -4 V
11 -4 V
10 -3 V
11 -3 V
2 0 V
5 -1 V
6 -1 V
2 0 V
10 -1 V
11 -1 V
11 -1 V
10 0 V
11 1 V
11 1 V
10 1 V
11 2 V
10 2 V
11 2 V
2 0 V
stroke
10687 4884 M
6 2 V
5 1 V
2 0 V
11 3 V
10 2 V
11 2 V
11 3 V
10 3 V
11 3 V
10 3 V
11 3 V
11 4 V
10 3 V
2 1 V
11 4 V
10 4 V
11 4 V
10 4 V
11 5 V
11 5 V
10 5 V
11 5 V
11 5 V
10 5 V
2 1 V
11 6 V
10 6 V
11 5 V
10 7 V
11 6 V
11 6 V
10 7 V
11 7 V
10 7 V
11 7 V
2 1 V
10 7 V
11 8 V
11 8 V
10 7 V
11 8 V
11 9 V
10 8 V
11 9 V
10 8 V
11 9 V
2 2 V
10 9 V
11 9 V
11 9 V
10 10 V
11 10 V
10 10 V
11 10 V
11 10 V
10 11 V
11 10 V
2 2 V
10 11 V
11 11 V
11 11 V
10 11 V
11 12 V
10 11 V
11 12 V
11 12 V
10 13 V
11 12 V
2 2 V
10 13 V
11 12 V
11 13 V
10 13 V
11 14 V
10 13 V
11 14 V
11 13 V
10 14 V
11 14 V
83 117 V
11 17 V
2 2 V
2 3 V
2 3 V
11 99 V
12 307 V
6 245 V
12 536 V
3 180 V
2 94 V
2 95 V
2 98 V
1 99 V
10 4 V
10 -944 V
25 -1543 V
3.000 UL
LT1
LTb
3300 6824 M
[ [(Helvetica) 250.0 0.0 true true 0 (D)]
[(Helvetica) 200.0 -75.0 true true 0 (x)]
] -58.3 MRshow
LT1
3450 6824 M
213 0 V
1620 4875 M
3 0 V
29 0 V
3 0 V
29 0 V
3 0 V
29 0 V
3 0 V
3 0 V
13 0 V
12 0 V
13 0 V
13 0 V
6 0 V
13 0 V
13 0 V
13 0 V
13 0 V
2 0 V
3 0 V
6 0 V
6 0 V
6 0 V
3 0 V
3 0 V
6 0 V
6 0 V
6 0 V
3 0 V
3 0 V
6 0 V
6 0 V
6 0 V
2 0 V
3 0 V
6 0 V
6 0 V
6 0 V
3 0 V
3 0 V
13 0 V
13 0 V
13 0 V
12 0 V
3 0 V
3 0 V
13 0 V
13 0 V
13 0 V
13 0 V
3 0 V
3 0 V
13 0 V
12 0 V
13 0 V
13 0 V
6 0 V
26 0 V
27 0 V
26 0 V
26 0 V
3 0 V
3 0 V
27 0 V
26 0 V
26 0 V
27 0 V
3 0 V
3 0 V
26 0 V
26 0 V
27 0 V
26 0 V
3 0 V
3 0 V
26 0 V
27 0 V
26 0 V
26 0 V
3 0 V
3 0 V
27 0 V
26 0 V
26 0 V
27 0 V
3 0 V
3 0 V
26 0 V
26 0 V
27 0 V
26 0 V
6 0 V
22 0 V
6 0 V
11 0 V
6 0 V
29 0 V
8 0 V
7 0 V
3 0 V
15 0 V
4 0 V
32 1 V
stroke
2914 4876 M
33 0 V
4 0 V
33 1 V
32 2 V
4 0 V
33 2 V
33 2 V
3 0 V
33 3 V
33 3 V
4 0 V
32 3 V
33 4 V
4 1 V
33 4 V
32 4 V
2 1 V
2 0 V
33 5 V
33 5 V
3 1 V
33 6 V
33 6 V
4 1 V
32 6 V
33 7 V
4 1 V
33 7 V
32 8 V
4 1 V
33 8 V
33 9 V
3 1 V
33 9 V
33 9 V
4 1 V
3 1 V
4 1 V
3 1 V
4 1 V
4 1 V
7 3 V
7 2 V
29 12 V
29 11 V
7 3 V
8 3 V
3 2 V
4 2 V
4 2 V
3 2 V
4 2 V
3 2 V
33 16 V
33 17 V
4 2 V
33 17 V
32 16 V
4 2 V
33 16 V
33 17 V
3 1 V
33 17 V
33 16 V
3 2 V
33 16 V
33 16 V
4 1 V
33 16 V
32 16 V
2 1 V
2 1 V
33 16 V
33 15 V
3 2 V
33 15 V
33 16 V
3 2 V
33 15 V
33 15 V
4 2 V
32 15 V
33 15 V
4 2 V
33 15 V
33 15 V
3 1 V
33 15 V
33 15 V
3 2 V
4 1 V
4 2 V
3 1 V
4 2 V
4 2 V
7 2 V
7 1 V
29 0 V
29 0 V
7 -1 V
8 -2 V
3 -2 V
4 -2 V
4 -1 V
stroke
4787 5450 M
3 -2 V
4 -1 V
3 -2 V
33 -15 V
33 -15 V
4 -1 V
32 -15 V
33 -15 V
4 -2 V
33 -15 V
32 -15 V
4 -2 V
33 -15 V
33 -15 V
3 -2 V
33 -16 V
33 -15 V
4 -2 V
32 -15 V
33 -16 V
2 -1 V
2 -1 V
33 -16 V
32 -16 V
4 -1 V
33 -16 V
33 -16 V
3 -2 V
33 -16 V
33 -17 V
4 -1 V
32 -17 V
33 -16 V
4 -2 V
33 -16 V
32 -17 V
4 -2 V
33 -17 V
33 -16 V
3 -2 V
4 -2 V
4 -2 V
3 -2 V
4 -2 V
3 -2 V
8 -3 V
7 -3 V
29 -11 V
29 -12 V
7 -2 V
7 -3 V
4 -1 V
4 -1 V
3 -1 V
4 -1 V
4 -1 V
3 -1 V
33 -9 V
33 -9 V
4 -1 V
32 -9 V
33 -8 V
4 -1 V
33 -8 V
32 -7 V
4 -1 V
33 -7 V
33 -6 V
3 -1 V
33 -6 V
33 -6 V
4 -1 V
32 -5 V
33 -5 V
2 0 V
2 -1 V
33 -4 V
32 -4 V
4 -1 V
33 -4 V
33 -3 V
3 0 V
33 -3 V
33 -3 V
3 0 V
33 -2 V
33 -2 V
4 0 V
33 -2 V
32 -1 V
4 0 V
33 0 V
33 -1 V
3 0 V
15 0 V
3 0 V
8 0 V
7 0 V
29 0 V
3 0 V
3 0 V
1 0 V
3 0 V
3 0 V
stroke
6661 4875 M
1 0 V
2 0 V
3 0 V
1 0 V
3 0 V
3 0 V
1 0 V
2 0 V
3 0 V
1 0 V
3 0 V
3 0 V
67 0 V
3 0 V
3 0 V
1 0 V
3 0 V
3 0 V
1 0 V
1 0 V
3 0 V
3 0 V
102 0 V
3 0 V
3 0 V
46 0 V
3 0 V
3 0 V
46 0 V
2 0 V
3 0 V
102 0 V
3 0 V
3 0 V
1 0 V
2 0 V
3 0 V
3 0 V
102 0 V
3 0 V
2 0 V
46 0 V
3 0 V
3 0 V
46 0 V
3 0 V
3 0 V
102 0 V
3 0 V
3 0 V
1 0 V
1 0 V
3 0 V
3 0 V
102 0 V
3 0 V
3 0 V
46 0 V
3 0 V
3 0 V
46 0 V
3 0 V
2 0 V
102 0 V
3 0 V
3 0 V
2 0 V
1 0 V
3 0 V
3 0 V
102 0 V
3 0 V
3 0 V
45 0 V
3 0 V
3 0 V
46 0 V
3 0 V
3 0 V
102 0 V
3 0 V
3 0 V
1 0 V
1 0 V
3 0 V
3 0 V
102 0 V
3 0 V
3 0 V
46 0 V
15 0 V
25 0 V
14 0 V
58 0 V
15 0 V
58 0 V
14 0 V
1 0 V
40 0 V
6 0 V
6 0 V
24 0 V
6 0 V
6 0 V
stroke
8527 4875 M
42 0 V
6 0 V
5 0 V
42 0 V
6 0 V
6 0 V
40 0 V
6 0 V
5 0 V
53 0 V
6 0 V
6 0 V
2 0 V
12 0 V
12 0 V
12 0 V
13 1 V
12 0 V
12 0 V
12 0 V
12 0 V
13 0 V
12 1 V
2 0 V
5 0 V
6 0 V
212 8 V
6 0 V
6 1 V
2 0 V
5 1 V
6 0 V
205 38 V
3 1 V
3 0 V
2 0 V
5 1 V
6 0 V
2 -1 V
6 -1 V
5 -2 V
148 -64 V
6 -3 V
6 -2 V
5 -3 V
99 -43 V
6 -2 V
6 0 V
1 0 V
6 0 V
6 1 V
2 1 V
3 1 V
3 1 V
51 18 V
11 4 V
6 2 V
6 1 V
2 0 V
2 1 V
3 0 V
2 1 V
6 1 V
6 0 V
168 8 V
52 2 V
52 0 V
52 -1 V
52 -2 V
53 -4 V
52 -5 V
52 -7 V
52 -8 V
52 -10 V
53 -11 V
1 0 V
6 -1 V
6 -1 V
2 -1 V
10 -1 V
11 -2 V
10 -2 V
11 -2 V
11 -2 V
10 -2 V
11 -2 V
11 -2 V
10 -2 V
11 -3 V
2 0 V
5 -1 V
6 1 V
2 0 V
10 2 V
11 2 V
11 1 V
10 2 V
11 1 V
11 2 V
10 1 V
11 2 V
10 1 V
11 1 V
2 0 V
stroke
10687 4792 M
6 0 V
5 -1 V
2 0 V
11 -3 V
10 -3 V
11 -3 V
11 -2 V
10 -3 V
11 -3 V
10 -3 V
11 -3 V
11 -3 V
10 -3 V
2 0 V
11 -3 V
10 -3 V
11 -3 V
10 -4 V
11 -3 V
11 -3 V
10 -3 V
11 -3 V
11 -3 V
10 -3 V
2 -1 V
11 -3 V
10 -3 V
11 -3 V
10 -3 V
11 -4 V
11 -3 V
10 -3 V
11 -4 V
10 -3 V
11 -3 V
2 -1 V
10 -3 V
11 -3 V
11 -4 V
10 -3 V
11 -4 V
11 -3 V
10 -4 V
11 -3 V
10 -3 V
11 -4 V
2 -1 V
10 -3 V
11 -4 V
11 -3 V
10 -4 V
11 -3 V
10 -4 V
11 -4 V
11 -3 V
10 -4 V
11 -4 V
2 0 V
10 -4 V
11 -4 V
11 -3 V
10 -4 V
11 -4 V
10 -4 V
11 -3 V
11 -4 V
10 -4 V
11 -4 V
2 -1 V
10 -4 V
11 -3 V
11 -4 V
10 -4 V
11 -4 V
10 -4 V
11 -4 V
11 -4 V
10 -4 V
11 -4 V
83 -32 V
11 -4 V
2 -1 V
2 -1 V
2 0 V
11 15 V
12 52 V
6 37 V
12 69 V
3 21 V
2 11 V
2 11 V
2 10 V
1 11 V
10 46 V
10 28 V
25 54 V
1.000 UL
LTb
1200 4381 M
10740 0 V
0 3131 V
-10740 0 V
0 -3131 V
1.000 UP
stroke
grestore
end
showpage
%%Trailer
%%DocumentFonts: Symbol Helvetica
%%Pages: 1
