%!PS-Adobe-2.0
%%Title: layout500G.eps
%%Creator: gnuplot 4.0 patchlevel 0
%%CreationDate: Mon Aug  9 17:39:17 2010
%%DocumentFonts: (atend)
%%BoundingBox: 140 50 554 1274
%%Orientation: Landscape
%%Pages: (atend)
%%EndComments
/gnudict 256 dict def
gnudict begin
/Color true def
/Solid true def
/gnulinewidth 5.000 def
/userlinewidth gnulinewidth def
/vshift -83 def
/dl {10.0 mul} def
/hpt_ 31.5 def
/vpt_ 31.5 def
/hpt hpt_ def
/vpt vpt_ def
/Rounded false def
/M {moveto} bind def
/L {lineto} bind def
/R {rmoveto} bind def
/V {rlineto} bind def
/N {newpath moveto} bind def
/C {setrgbcolor} bind def
/f {rlineto fill} bind def
/vpt2 vpt 2 mul def
/hpt2 hpt 2 mul def
/Lshow { currentpoint stroke M
  0 vshift R show } def
/Rshow { currentpoint stroke M
  dup stringwidth pop neg vshift R show } def
/Cshow { currentpoint stroke M
  dup stringwidth pop -2 div vshift R show } def
/UP { dup vpt_ mul /vpt exch def hpt_ mul /hpt exch def
  /hpt2 hpt 2 mul def /vpt2 vpt 2 mul def } def
/DL { Color {setrgbcolor Solid {pop []} if 0 setdash }
 {pop pop pop 0 setgray Solid {pop []} if 0 setdash} ifelse } def
/BL { stroke userlinewidth 2 mul setlinewidth
      Rounded { 1 setlinejoin 1 setlinecap } if } def
/AL { stroke userlinewidth 2 div setlinewidth
      Rounded { 1 setlinejoin 1 setlinecap } if } def
/UL { dup gnulinewidth mul /userlinewidth exch def
      dup 1 lt {pop 1} if 10 mul /udl exch def } def
/PL { stroke userlinewidth setlinewidth
      Rounded { 1 setlinejoin 1 setlinecap } if } def
/LTw { PL [] 1 setgray } def
/LTb { BL [] 0 0 0 DL } def
/LTa { AL [1 udl mul 2 udl mul] 0 setdash 0 0 0 setrgbcolor } def
/LT0 { PL [] 1 0 0 DL } def
/LT1 { PL [4 dl 2 dl] 0 1 0 DL } def
/LT2 { PL [2 dl 3 dl] 0 0 1 DL } def
/LT3 { PL [1 dl 1.5 dl] 1 0 1 DL } def
/LT4 { PL [5 dl 2 dl 1 dl 2 dl] 0 1 1 DL } def
/LT5 { PL [4 dl 3 dl 1 dl 3 dl] 1 1 0 DL } def
/LT6 { PL [2 dl 2 dl 2 dl 4 dl] 0 0 0 DL } def
/LT7 { PL [2 dl 2 dl 2 dl 2 dl 2 dl 4 dl] 1 0.3 0 DL } def
/LT8 { PL [2 dl 2 dl 2 dl 2 dl 2 dl 2 dl 2 dl 4 dl] 0.5 0.5 0.5 DL } def
/Pnt { stroke [] 0 setdash
   gsave 1 setlinecap M 0 0 V stroke grestore } def
/Dia { stroke [] 0 setdash 2 copy vpt add M
  hpt neg vpt neg V hpt vpt neg V
  hpt vpt V hpt neg vpt V closepath stroke
  Pnt } def
/Pls { stroke [] 0 setdash vpt sub M 0 vpt2 V
  currentpoint stroke M
  hpt neg vpt neg R hpt2 0 V stroke
  } def
/Box { stroke [] 0 setdash 2 copy exch hpt sub exch vpt add M
  0 vpt2 neg V hpt2 0 V 0 vpt2 V
  hpt2 neg 0 V closepath stroke
  Pnt } def
/Crs { stroke [] 0 setdash exch hpt sub exch vpt add M
  hpt2 vpt2 neg V currentpoint stroke M
  hpt2 neg 0 R hpt2 vpt2 V stroke } def
/TriU { stroke [] 0 setdash 2 copy vpt 1.12 mul add M
  hpt neg vpt -1.62 mul V
  hpt 2 mul 0 V
  hpt neg vpt 1.62 mul V closepath stroke
  Pnt  } def
/Star { 2 copy Pls Crs } def
/BoxF { stroke [] 0 setdash exch hpt sub exch vpt add M
  0 vpt2 neg V  hpt2 0 V  0 vpt2 V
  hpt2 neg 0 V  closepath fill } def
/TriUF { stroke [] 0 setdash vpt 1.12 mul add M
  hpt neg vpt -1.62 mul V
  hpt 2 mul 0 V
  hpt neg vpt 1.62 mul V closepath fill } def
/TriD { stroke [] 0 setdash 2 copy vpt 1.12 mul sub M
  hpt neg vpt 1.62 mul V
  hpt 2 mul 0 V
  hpt neg vpt -1.62 mul V closepath stroke
  Pnt  } def
/TriDF { stroke [] 0 setdash vpt 1.12 mul sub M
  hpt neg vpt 1.62 mul V
  hpt 2 mul 0 V
  hpt neg vpt -1.62 mul V closepath fill} def
/DiaF { stroke [] 0 setdash vpt add M
  hpt neg vpt neg V hpt vpt neg V
  hpt vpt V hpt neg vpt V closepath fill } def
/Pent { stroke [] 0 setdash 2 copy gsave
  translate 0 hpt M 4 {72 rotate 0 hpt L} repeat
  closepath stroke grestore Pnt } def
/PentF { stroke [] 0 setdash gsave
  translate 0 hpt M 4 {72 rotate 0 hpt L} repeat
  closepath fill grestore } def
/Circle { stroke [] 0 setdash 2 copy
  hpt 0 360 arc stroke Pnt } def
/CircleF { stroke [] 0 setdash hpt 0 360 arc fill } def
/C0 { BL [] 0 setdash 2 copy moveto vpt 90 450  arc } bind def
/C1 { BL [] 0 setdash 2 copy        moveto
       2 copy  vpt 0 90 arc closepath fill
               vpt 0 360 arc closepath } bind def
/C2 { BL [] 0 setdash 2 copy moveto
       2 copy  vpt 90 180 arc closepath fill
               vpt 0 360 arc closepath } bind def
/C3 { BL [] 0 setdash 2 copy moveto
       2 copy  vpt 0 180 arc closepath fill
               vpt 0 360 arc closepath } bind def
/C4 { BL [] 0 setdash 2 copy moveto
       2 copy  vpt 180 270 arc closepath fill
               vpt 0 360 arc closepath } bind def
/C5 { BL [] 0 setdash 2 copy moveto
       2 copy  vpt 0 90 arc
       2 copy moveto
       2 copy  vpt 180 270 arc closepath fill
               vpt 0 360 arc } bind def
/C6 { BL [] 0 setdash 2 copy moveto
      2 copy  vpt 90 270 arc closepath fill
              vpt 0 360 arc closepath } bind def
/C7 { BL [] 0 setdash 2 copy moveto
      2 copy  vpt 0 270 arc closepath fill
              vpt 0 360 arc closepath } bind def
/C8 { BL [] 0 setdash 2 copy moveto
      2 copy vpt 270 360 arc closepath fill
              vpt 0 360 arc closepath } bind def
/C9 { BL [] 0 setdash 2 copy moveto
      2 copy  vpt 270 450 arc closepath fill
              vpt 0 360 arc closepath } bind def
/C10 { BL [] 0 setdash 2 copy 2 copy moveto vpt 270 360 arc closepath fill
       2 copy moveto
       2 copy vpt 90 180 arc closepath fill
               vpt 0 360 arc closepath } bind def
/C11 { BL [] 0 setdash 2 copy moveto
       2 copy  vpt 0 180 arc closepath fill
       2 copy moveto
       2 copy  vpt 270 360 arc closepath fill
               vpt 0 360 arc closepath } bind def
/C12 { BL [] 0 setdash 2 copy moveto
       2 copy  vpt 180 360 arc closepath fill
               vpt 0 360 arc closepath } bind def
/C13 { BL [] 0 setdash  2 copy moveto
       2 copy  vpt 0 90 arc closepath fill
       2 copy moveto
       2 copy  vpt 180 360 arc closepath fill
               vpt 0 360 arc closepath } bind def
/C14 { BL [] 0 setdash 2 copy moveto
       2 copy  vpt 90 360 arc closepath fill
               vpt 0 360 arc } bind def
/C15 { BL [] 0 setdash 2 copy vpt 0 360 arc closepath fill
               vpt 0 360 arc closepath } bind def
/Rec   { newpath 4 2 roll moveto 1 index 0 rlineto 0 exch rlineto
       neg 0 rlineto closepath } bind def
/Square { dup Rec } bind def
/Bsquare { vpt sub exch vpt sub exch vpt2 Square } bind def
/S0 { BL [] 0 setdash 2 copy moveto 0 vpt rlineto BL Bsquare } bind def
/S1 { BL [] 0 setdash 2 copy vpt Square fill Bsquare } bind def
/S2 { BL [] 0 setdash 2 copy exch vpt sub exch vpt Square fill Bsquare } bind def
/S3 { BL [] 0 setdash 2 copy exch vpt sub exch vpt2 vpt Rec fill Bsquare } bind def
/S4 { BL [] 0 setdash 2 copy exch vpt sub exch vpt sub vpt Square fill Bsquare } bind def
/S5 { BL [] 0 setdash 2 copy 2 copy vpt Square fill
       exch vpt sub exch vpt sub vpt Square fill Bsquare } bind def
/S6 { BL [] 0 setdash 2 copy exch vpt sub exch vpt sub vpt vpt2 Rec fill Bsquare } bind def
/S7 { BL [] 0 setdash 2 copy exch vpt sub exch vpt sub vpt vpt2 Rec fill
       2 copy vpt Square fill
       Bsquare } bind def
/S8 { BL [] 0 setdash 2 copy vpt sub vpt Square fill Bsquare } bind def
/S9 { BL [] 0 setdash 2 copy vpt sub vpt vpt2 Rec fill Bsquare } bind def
/S10 { BL [] 0 setdash 2 copy vpt sub vpt Square fill 2 copy exch vpt sub exch vpt Square fill
       Bsquare } bind def
/S11 { BL [] 0 setdash 2 copy vpt sub vpt Square fill 2 copy exch vpt sub exch vpt2 vpt Rec fill
       Bsquare } bind def
/S12 { BL [] 0 setdash 2 copy exch vpt sub exch vpt sub vpt2 vpt Rec fill Bsquare } bind def
/S13 { BL [] 0 setdash 2 copy exch vpt sub exch vpt sub vpt2 vpt Rec fill
       2 copy vpt Square fill Bsquare } bind def
/S14 { BL [] 0 setdash 2 copy exch vpt sub exch vpt sub vpt2 vpt Rec fill
       2 copy exch vpt sub exch vpt Square fill Bsquare } bind def
/S15 { BL [] 0 setdash 2 copy Bsquare fill Bsquare } bind def
/D0 { gsave translate 45 rotate 0 0 S0 stroke grestore } bind def
/D1 { gsave translate 45 rotate 0 0 S1 stroke grestore } bind def
/D2 { gsave translate 45 rotate 0 0 S2 stroke grestore } bind def
/D3 { gsave translate 45 rotate 0 0 S3 stroke grestore } bind def
/D4 { gsave translate 45 rotate 0 0 S4 stroke grestore } bind def
/D5 { gsave translate 45 rotate 0 0 S5 stroke grestore } bind def
/D6 { gsave translate 45 rotate 0 0 S6 stroke grestore } bind def
/D7 { gsave translate 45 rotate 0 0 S7 stroke grestore } bind def
/D8 { gsave translate 45 rotate 0 0 S8 stroke grestore } bind def
/D9 { gsave translate 45 rotate 0 0 S9 stroke grestore } bind def
/D10 { gsave translate 45 rotate 0 0 S10 stroke grestore } bind def
/D11 { gsave translate 45 rotate 0 0 S11 stroke grestore } bind def
/D12 { gsave translate 45 rotate 0 0 S12 stroke grestore } bind def
/D13 { gsave translate 45 rotate 0 0 S13 stroke grestore } bind def
/D14 { gsave translate 45 rotate 0 0 S14 stroke grestore } bind def
/D15 { gsave translate 45 rotate 0 0 S15 stroke grestore } bind def
/DiaE { stroke [] 0 setdash vpt add M
  hpt neg vpt neg V hpt vpt neg V
  hpt vpt V hpt neg vpt V closepath stroke } def
/BoxE { stroke [] 0 setdash exch hpt sub exch vpt add M
  0 vpt2 neg V hpt2 0 V 0 vpt2 V
  hpt2 neg 0 V closepath stroke } def
/TriUE { stroke [] 0 setdash vpt 1.12 mul add M
  hpt neg vpt -1.62 mul V
  hpt 2 mul 0 V
  hpt neg vpt 1.62 mul V closepath stroke } def
/TriDE { stroke [] 0 setdash vpt 1.12 mul sub M
  hpt neg vpt 1.62 mul V
  hpt 2 mul 0 V
  hpt neg vpt -1.62 mul V closepath stroke } def
/PentE { stroke [] 0 setdash gsave
  translate 0 hpt M 4 {72 rotate 0 hpt L} repeat
  closepath stroke grestore } def
/CircE { stroke [] 0 setdash 
  hpt 0 360 arc stroke } def
/Opaque { gsave closepath 1 setgray fill grestore 0 setgray closepath } def
/DiaW { stroke [] 0 setdash vpt add M
  hpt neg vpt neg V hpt vpt neg V
  hpt vpt V hpt neg vpt V Opaque stroke } def
/BoxW { stroke [] 0 setdash exch hpt sub exch vpt add M
  0 vpt2 neg V hpt2 0 V 0 vpt2 V
  hpt2 neg 0 V Opaque stroke } def
/TriUW { stroke [] 0 setdash vpt 1.12 mul add M
  hpt neg vpt -1.62 mul V
  hpt 2 mul 0 V
  hpt neg vpt 1.62 mul V Opaque stroke } def
/TriDW { stroke [] 0 setdash vpt 1.12 mul sub M
  hpt neg vpt 1.62 mul V
  hpt 2 mul 0 V
  hpt neg vpt -1.62 mul V Opaque stroke } def
/PentW { stroke [] 0 setdash gsave
  translate 0 hpt M 4 {72 rotate 0 hpt L} repeat
  Opaque stroke grestore } def
/CircW { stroke [] 0 setdash 
  hpt 0 360 arc Opaque stroke } def
/BoxFill { gsave Rec 1 setgray fill grestore } def
/BoxColFill {
  gsave Rec
  /Fillden exch def
  currentrgbcolor
  /ColB exch def /ColG exch def /ColR exch def
  /ColR ColR Fillden mul Fillden sub 1 add def
  /ColG ColG Fillden mul Fillden sub 1 add def
  /ColB ColB Fillden mul Fillden sub 1 add def
  ColR ColG ColB setrgbcolor
  fill grestore } def
%
% PostScript Level 1 Pattern Fill routine
% Usage: x y w h s a XX PatternFill
%	x,y = lower left corner of box to be filled
%	w,h = width and height of box
%	  a = angle in degrees between lines and x-axis
%	 XX = 0/1 for no/yes cross-hatch
%
/PatternFill { gsave /PFa [ 9 2 roll ] def
    PFa 0 get PFa 2 get 2 div add PFa 1 get PFa 3 get 2 div add translate
    PFa 2 get -2 div PFa 3 get -2 div PFa 2 get PFa 3 get Rec
    gsave 1 setgray fill grestore clip
    currentlinewidth 0.5 mul setlinewidth
    /PFs PFa 2 get dup mul PFa 3 get dup mul add sqrt def
    0 0 M PFa 5 get rotate PFs -2 div dup translate
	0 1 PFs PFa 4 get div 1 add floor cvi
	{ PFa 4 get mul 0 M 0 PFs V } for
    0 PFa 6 get ne {
	0 1 PFs PFa 4 get div 1 add floor cvi
	{ PFa 4 get mul 0 2 1 roll M PFs 0 V } for
    } if
    stroke grestore } def
%
/Symbol-Oblique /Symbol findfont [1 0 .167 1 0 0] makefont
dup length dict begin {1 index /FID eq {pop pop} {def} ifelse} forall
currentdict end definefont pop
/MFshow {
   { dup 5 get 3 ge
     { 5 get 3 eq {gsave} {grestore} ifelse }
     {dup dup 0 get findfont exch 1 get scalefont setfont
     [ currentpoint ] exch dup 2 get 0 exch R dup 5 get 2 ne {dup dup 6
     get exch 4 get {show} {stringwidth pop 0 R} ifelse }if dup 5 get 0 eq
     {dup 3 get {2 get neg 0 exch R pop} {pop aload pop M} ifelse} {dup 5
     get 1 eq {dup 2 get exch dup 3 get exch 6 get stringwidth pop -2 div
     dup 0 R} {dup 6 get stringwidth pop -2 div 0 R 6 get
     show 2 index {aload pop M neg 3 -1 roll neg R pop pop} {pop pop pop
     pop aload pop M} ifelse }ifelse }ifelse }
     ifelse }
   forall} bind def
/MFwidth {0 exch {dup 3 get{dup dup 0 get findfont exch 1 get scalefont
     setfont 6 get stringwidth pop add} {pop} ifelse} forall} bind def
/MLshow { currentpoint stroke M
  0 exch R MFshow } bind def
/MRshow { currentpoint stroke M
  exch dup MFwidth neg 3 -1 roll R MFshow } def
/MCshow { currentpoint stroke M
  exch dup MFwidth -2 div 3 -1 roll R MFshow } def
end
%%EndProlog
%%Page: 1 1
gnudict begin
gsave
50 50 translate
0.100 0.100 scale
90 rotate
0 -5040 translate
0 setgray
newpath
(Helvetica) findfont 250 scalefont setfont
1.000 UL
LTb
1275 750 M
63 0 V
10477 0 R
-63 0 V
stroke
1125 750 M
[ [(Helvetica) 250.0 0.0 true true 0 (-1)]
] -83.3 MRshow
1.000 UL
LTb
1275 1243 M
63 0 V
10477 0 R
-63 0 V
stroke
1125 1243 M
[ [(Helvetica) 250.0 0.0 true true 0 (-0.8)]
] -83.3 MRshow
1.000 UL
LTb
1275 1737 M
63 0 V
10477 0 R
-63 0 V
stroke
1125 1737 M
[ [(Helvetica) 250.0 0.0 true true 0 (-0.6)]
] -83.3 MRshow
1.000 UL
LTb
1275 2230 M
63 0 V
10477 0 R
-63 0 V
stroke
1125 2230 M
[ [(Helvetica) 250.0 0.0 true true 0 (-0.4)]
] -83.3 MRshow
1.000 UL
LTb
1275 2723 M
63 0 V
10477 0 R
-63 0 V
stroke
1125 2723 M
[ [(Helvetica) 250.0 0.0 true true 0 (-0.2)]
] -83.3 MRshow
1.000 UL
LTb
1275 3216 M
63 0 V
10477 0 R
-63 0 V
stroke
1125 3216 M
[ [(Helvetica) 250.0 0.0 true true 0 ( 0)]
] -83.3 MRshow
1.000 UL
LTb
1275 3710 M
63 0 V
10477 0 R
-63 0 V
stroke
1125 3710 M
[ [(Helvetica) 250.0 0.0 true true 0 ( 0.2)]
] -83.3 MRshow
1.000 UL
LTb
1275 750 M
0 63 V
0 3020 R
0 -63 V
stroke
1275 500 M
[ [(Helvetica) 250.0 0.0 true true 0 (-1800)]
] -83.3 MCshow
1.000 UL
LTb
2414 750 M
0 63 V
0 3020 R
0 -63 V
stroke
2414 500 M
[ [(Helvetica) 250.0 0.0 true true 0 (-1600)]
] -83.3 MCshow
1.000 UL
LTb
3554 750 M
0 63 V
0 3020 R
0 -63 V
stroke
3554 500 M
[ [(Helvetica) 250.0 0.0 true true 0 (-1400)]
] -83.3 MCshow
1.000 UL
LTb
4693 750 M
0 63 V
0 3020 R
0 -63 V
stroke
4693 500 M
[ [(Helvetica) 250.0 0.0 true true 0 (-1200)]
] -83.3 MCshow
1.000 UL
LTb
5833 750 M
0 63 V
0 3020 R
0 -63 V
stroke
5833 500 M
[ [(Helvetica) 250.0 0.0 true true 0 (-1000)]
] -83.3 MCshow
1.000 UL
LTb
6972 750 M
0 63 V
0 3020 R
0 -63 V
stroke
6972 500 M
[ [(Helvetica) 250.0 0.0 true true 0 (-800)]
] -83.3 MCshow
1.000 UL
LTb
8112 750 M
0 63 V
0 3020 R
0 -63 V
stroke
8112 500 M
[ [(Helvetica) 250.0 0.0 true true 0 (-600)]
] -83.3 MCshow
1.000 UL
LTb
9251 750 M
0 63 V
0 3020 R
0 -63 V
stroke
9251 500 M
[ [(Helvetica) 250.0 0.0 true true 0 (-400)]
] -83.3 MCshow
1.000 UL
LTb
10391 750 M
0 63 V
0 3020 R
0 -63 V
stroke
10391 500 M
[ [(Helvetica) 250.0 0.0 true true 0 (-200)]
] -83.3 MCshow
1.000 UL
LTb
11530 750 M
0 63 V
0 3020 R
0 -63 V
stroke
11530 500 M
[ [(Helvetica) 250.0 0.0 true true 0 ( 0)]
] -83.3 MCshow
1.000 UL
LTb
1.000 UL
LTb
1275 750 M
10540 0 V
0 3083 V
-10540 0 V
0 -3083 V
LTb
250 2291 M
currentpoint gsave translate 90 rotate 0 0 moveto
[ [(Helvetica) 250.0 0.0 true true 0 (x[m])]
] -83.3 MCshow
grestore
LTb
6545 125 M
[ [(Helvetica) 250.0 0.0 true true 0 (s[m])]
] -83.3 MCshow
1.000 UP
LTb
11530 2723 M
[ [(Helvetica) 250.0 0.0 true true 0 (IP)]
] -83.3 MCshow
2.000 UL
LT6
1687 1892 M
3 0 V
29 -8 V
2 -1 V
29 -7 V
3 -1 V
28 -7 V
3 -1 V
3 -1 V
13 -3 V
12 -3 V
13 -4 V
13 -3 V
5 -2 V
13 -3 V
13 -3 V
12 -3 V
13 -4 V
3 -1 V
3 0 V
5 -2 V
6 -1 V
6 -2 V
3 -1 V
3 0 V
6 -2 V
5 -1 V
6 -2 V
3 -1 V
3 0 V
6 -2 V
6 -1 V
5 -2 V
3 -1 V
3 0 V
6 -2 V
6 -2 V
6 -1 V
2 -1 V
3 -1 V
13 -3 V
13 -3 V
12 -3 V
13 -4 V
3 -1 V
3 0 V
12 -4 V
13 -3 V
13 -3 V
12 -4 V
3 0 V
3 -1 V
13 -3 V
12 -4 V
13 -3 V
12 -3 V
6 -2 V
26 -7 V
26 -6 V
26 -7 V
26 -7 V
3 -1 V
2 0 V
26 -7 V
26 -7 V
26 -7 V
26 -7 V
3 0 V
3 -1 V
26 -7 V
25 -7 V
26 -6 V
26 -7 V
3 -1 V
3 -1 V
26 -6 V
26 -7 V
26 -7 V
25 -7 V
3 0 V
3 -1 V
26 -7 V
26 -7 V
26 -7 V
26 -6 V
3 -1 V
2 -1 V
26 -7 V
26 -6 V
26 -7 V
26 -7 V
6 -1 V
21 -6 V
6 -2 V
12 -3 V
5 -1 V
29 -8 V
7 -1 V
7 -2 V
4 -1 V
14 -4 V
3 -1 V
33 -8 V
32 -8 V
3 0 V
stroke
2993 1552 M
32 -7 V
33 -7 V
3 0 V
32 -6 V
33 -5 V
3 -1 V
32 -4 V
33 -4 V
3 -1 V
32 -3 V
33 -3 V
3 0 V
32 -2 V
32 -2 V
2 0 V
2 0 V
32 -1 V
32 0 V
4 0 V
32 0 V
32 1 V
4 0 V
32 1 V
32 2 V
4 0 V
32 3 V
32 3 V
4 1 V
32 3 V
32 5 V
4 0 V
32 5 V
32 6 V
4 1 V
3 0 V
4 1 V
3 1 V
4 0 V
4 1 V
7 1 V
7 1 V
28 6 V
29 5 V
7 1 V
7 1 V
4 1 V
3 1 V
4 0 V
3 1 V
4 1 V
3 0 V
33 6 V
32 6 V
3 0 V
33 6 V
32 5 V
3 1 V
32 5 V
33 5 V
3 1 V
32 5 V
33 5 V
3 0 V
32 5 V
33 5 V
3 0 V
32 5 V
33 4 V
1 0 V
2 1 V
32 4 V
32 4 V
4 0 V
32 4 V
32 4 V
4 1 V
32 3 V
32 4 V
4 0 V
32 4 V
32 3 V
4 0 V
32 4 V
32 3 V
4 0 V
32 3 V
32 3 V
4 0 V
3 0 V
4 1 V
3 0 V
4 0 V
4 0 V
7 1 V
7 1 V
28 2 V
29 2 V
7 1 V
7 1 V
4 0 V
3 0 V
4 0 V
3 1 V
4 0 V
stroke
4802 1678 M
3 0 V
33 3 V
32 3 V
3 0 V
33 2 V
32 2 V
3 1 V
33 2 V
32 2 V
3 0 V
32 2 V
33 2 V
3 0 V
32 1 V
33 2 V
3 0 V
32 1 V
33 1 V
1 0 V
2 0 V
32 2 V
33 0 V
3 1 V
32 0 V
32 1 V
4 0 V
32 1 V
32 0 V
4 0 V
32 0 V
32 0 V
4 0 V
32 0 V
32 0 V
4 0 V
32 0 V
32 0 V
4 -1 V
3 0 V
4 0 V
4 0 V
3 0 V
4 0 V
7 0 V
7 0 V
28 0 V
29 -1 V
7 0 V
7 0 V
4 0 V
3 0 V
4 0 V
3 0 V
4 0 V
3 0 V
33 -1 V
32 1 V
3 0 V
33 1 V
32 2 V
3 0 V
33 2 V
32 3 V
3 0 V
33 4 V
32 4 V
3 0 V
32 5 V
33 5 V
3 0 V
32 6 V
33 7 V
1 0 V
2 0 V
32 7 V
33 8 V
3 1 V
32 8 V
33 9 V
3 1 V
32 9 V
32 10 V
4 1 V
32 11 V
32 11 V
4 1 V
32 12 V
32 12 V
4 2 V
32 13 V
32 13 V
4 2 V
14 6 V
4 1 V
7 3 V
7 3 V
28 13 V
1 0 V
3 1 V
3 1 V
0 1 V
3 1 V
3 1 V
1 0 V
stroke
6635 1906 M
3 2 V
3 1 V
3 1 V
3 2 V
1 0 V
2 1 V
3 1 V
1 1 V
3 1 V
3 1 V
66 29 V
3 1 V
3 1 V
3 2 V
3 1 V
1 0 V
1 1 V
3 1 V
3 1 V
100 43 V
3 2 V
3 1 V
45 19 V
3 1 V
3 2 V
45 19 V
3 1 V
3 1 V
100 44 V
3 1 V
2 1 V
2 1 V
1 0 V
3 1 V
3 2 V
100 43 V
3 1 V
2 1 V
46 19 V
2 2 V
3 1 V
45 19 V
3 1 V
3 2 V
100 43 V
3 1 V
3 1 V
1 1 V
1 0 V
3 1 V
3 2 V
100 43 V
3 1 V
3 1 V
45 20 V
3 1 V
3 1 V
45 19 V
3 2 V
2 1 V
101 43 V
2 1 V
3 1 V
2 1 V
1 0 V
3 2 V
3 1 V
100 43 V
3 1 V
2 1 V
45 20 V
3 1 V
3 1 V
45 20 V
3 1 V
3 1 V
100 43 V
3 1 V
3 2 V
1 0 V
1 1 V
3 1 V
3 1 V
100 43 V
3 1 V
3 2 V
45 19 V
14 6 V
25 11 V
14 6 V
57 24 V
15 7 V
56 24 V
15 6 V
40 17 V
5 3 V
6 2 V
24 11 V
6 2 V
6 2 V
41 18 V
5 3 V
6 2 V
41 18 V
stroke
8559 2734 M
6 2 V
5 2 V
40 17 V
5 3 V
6 2 V
52 23 V
6 2 V
5 3 V
2 0 V
12 5 V
12 6 V
12 5 V
12 5 V
12 5 V
12 6 V
12 5 V
12 6 V
12 5 V
12 6 V
2 0 V
5 3 V
6 3 V
208 96 V
6 2 V
6 3 V
1 1 V
6 2 V
6 3 V
201 93 V
2 1 V
3 1 V
2 1 V
6 3 V
5 2 V
2 1 V
6 3 V
5 2 V
145 67 V
6 3 V
6 2 V
5 3 V
97 45 V
6 2 V
6 3 V
1 1 V
6 2 V
6 3 V
1 1 V
3 1 V
3 1 V
50 24 V
12 5 V
5 2 V
6 3 V
2 1 V
3 1 V
2 1 V
2 1 V
6 3 V
5 2 V
165 76 V
51 23 V
52 20 V
51 19 V
51 16 V
51 14 V
52 12 V
51 9 V
51 8 V
51 5 V
51 4 V
2 0 V
6 0 V
5 0 V
2 0 V
11 1 V
10 0 V
10 0 V
11 1 V
10 0 V
11 0 V
10 -1 V
11 0 V
10 0 V
10 0 V
2 0 V
6 -1 V
5 0 V
2 0 V
11 -1 V
10 0 V
10 -1 V
11 0 V
10 -1 V
11 -1 V
10 -1 V
11 -1 V
10 -1 V
10 -2 V
2 0 V
6 -1 V
5 0 V
2 -1 V
11 -1 V
stroke
10609 3433 M
10 -1 V
10 -2 V
11 -1 V
10 -2 V
11 -1 V
10 -1 V
10 -2 V
11 -2 V
10 -1 V
2 0 V
10 -2 V
11 -2 V
10 -1 V
11 -2 V
10 -2 V
11 -1 V
10 -2 V
10 -2 V
11 -2 V
10 -1 V
2 -1 V
10 -2 V
11 -2 V
10 -1 V
11 -2 V
10 -2 V
10 -2 V
11 -2 V
10 -2 V
11 -2 V
10 -3 V
2 0 V
10 -2 V
11 -2 V
10 -2 V
11 -3 V
10 -2 V
10 -2 V
11 -2 V
10 -3 V
11 -2 V
10 -2 V
2 -1 V
10 -2 V
11 -3 V
10 -2 V
11 -3 V
10 -2 V
10 -3 V
11 -2 V
10 -3 V
11 -2 V
10 -3 V
2 0 V
10 -3 V
11 -3 V
10 -2 V
10 -3 V
11 -3 V
10 -3 V
11 -2 V
10 -3 V
11 -3 V
10 -3 V
2 -1 V
10 -3 V
11 -2 V
10 -3 V
10 -3 V
11 -3 V
10 -4 V
11 -3 V
10 -3 V
10 -3 V
11 -3 V
81 -25 V
12 -3 V
2 -1 V
1 0 V
2 -1 V
11 -3 V
12 -4 V
6 -2 V
11 -3 V
4 -1 V
1 -1 V
2 0 V
2 -1 V
2 0 V
9 -3 V
10 -3 V
24 -8 V
14.000 UL
LT0
1685 1842 M
5 0 V
26 -8 R
5 0 V
27 -8 R
5 0 V
26 -8 R
5 0 V
-2 -1 R
5 0 V
48 -15 R
8 0 V
49 -14 R
5 0 V
-3 -1 R
6 0 V
15 -5 R
5 0 V
-2 -1 R
5 0 V
15 -5 R
5 0 V
-2 -1 R
5 0 V
15 -5 R
5 0 V
-2 -1 R
5 0 V
15 -5 R
5 0 V
-2 -1 R
5 0 V
49 -14 R
5 0 V
-3 -1 R
6 0 V
48 -14 R
5 0 V
-2 0 R
5 0 V
48 -15 R
8 0 V
101 -28 R
6 0 V
-3 -1 R
5 0 V
102 -28 R
5 0 V
-2 0 R
5 0 V
101 -28 R
5 0 V
-2 -1 R
5 0 V
101 -28 R
5 0 V
-2 -1 R
5 0 V
101 -27 R
6 0 V
-3 -1 R
5 0 V
102 -29 R
8 0 V
19 -7 R
8 0 V
9 -4 R
8 0 V
26 -10 R
10 0 V
-2 0 R
2 0 V
-2 -2 R
9 0 V
852 -32 R
10 0 V
-3 0 R
3 0 V
-3 1 R
10 0 V
54 12 R
10 0 V
-2 0 R
2 0 V
-2 1 R
9 0 V
852 115 R
10 0 V
-3 0 R
3 0 V
-3 0 R
10 0 V
55 6 R
9 0 V
-2 0 R
2 0 V
-2 0 R
9 0 V
852 30 R
10 0 V
-3 0 R
3 0 V
-3 0 R
10 0 V
55 -1 R
9 0 V
stroke
5715 1656 M
2 0 V
-2 0 R
9 0 V
852 180 R
10 0 V
-2 0 R
2 0 V
-2 3 R
9 0 V
27 14 R
5 0 V
-2 0 R
2 0 V
-2 1 R
5 0 V
-2 2 R
5 0 V
-2 0 R
2 0 V
-2 1 R
5 0 V
-1 1 R
5 0 V
-3 0 R
3 0 V
-3 2 R
6 0 V
-2 1 R
5 0 V
-2 0 R
2 0 V
-2 1 R
5 0 V
-2 2 R
5 0 V
-2 0 R
2 0 V
-2 1 R
5 0 V
-1 2 R
5 0 V
-2 0 R
2 0 V
-2 1 R
5 0 V
64 30 R
5 0 V
-2 0 R
2 0 V
-2 1 R
5 0 V
-2 1 R
5 0 V
-2 0 R
2 0 V
-2 2 R
5 0 V
0 2 R
5 0 V
-2 0 R
2 0 V
-2 1 R
5 0 V
98 44 R
5 0 V
-2 0 R
2 0 V
-2 2 R
5 0 V
43 20 R
5 0 V
-2 0 R
2 0 V
-2 1 R
5 0 V
43 21 R
5 0 V
-3 0 R
3 0 V
-3 1 R
6 0 V
97 44 R
6 0 V
-3 0 R
3 0 V
-3 2 R
5 0 V
1 2 R
5 0 V
-3 0 R
3 0 V
-3 1 R
6 0 V
98 44 R
5 0 V
-3 0 R
3 0 V
-3 2 R
5 0 V
43 20 R
5 0 V
-2 0 R
2 0 V
-2 2 R
5 0 V
stroke
7267 2131 M
5 0 V
-2 0 R
2 0 V
-2 1 R
5 0 V
98 45 R
5 0 V
-2 0 R
2 0 V
-2 1 R
5 0 V
0 2 R
5 0 V
-2 0 R
2 0 V
-2 1 R
5 0 V
98 45 R
5 0 V
-2 0 R
2 0 V
-2 1 R
5 0 V
43 20 R
5 0 V
-2 0 R
2 0 V
-2 2 R
5 0 V
42 20 R
6 0 V
-3 0 R
3 0 V
-3 2 R
5 0 V
98 44 R
5 0 V
-2 0 R
2 0 V
-2 1 R
5 0 V
1 2 R
5 0 V
-3 0 R
3 0 V
-3 2 R
6 0 V
97 44 R
6 0 V
-3 0 R
3 0 V
-3 1 R
5 0 V
43 21 R
5 0 V
-2 0 R
2 0 V
-2 1 R
5 0 V
43 20 R
5 0 V
-2 0 R
2 0 V
-2 2 R
5 0 V
98 44 R
5 0 V
-2 0 R
2 0 V
-2 1 R
5 0 V
0 2 R
5 0 V
-2 0 R
2 0 V
-2 2 R
5 0 V
98 44 R
5 0 V
-2 0 R
2 0 V
-2 1 R
5 0 V
43 26 R
16 0 V
23 17 R
16 0 V
55 30 R
17 0 V
54 31 R
17 0 V
37 19 R
8 0 V
-2 3 R
8 0 V
22 13 R
8 0 V
-2 2 R
8 0 V
38 20 R
8 0 V
-2 3 R
8 0 V
39 20 R
8 0 V
stroke
8562 2689 M
8 0 V
37 20 R
8 0 V
-2 2 R
8 0 V
50 25 R
8 0 V
-3 2 R
8 0 V
121 58 R
8 0 V
-2 2 R
8 0 V
206 99 R
8 0 V
-2 3 R
8 0 V
-1 3 R
8 0 V
-2 3 R
8 0 V
206 98 R
8 0 V
-3 3 R
8 0 V
0 3 R
8 0 V
-3 3 R
8 0 V
257 122 R
8 0 V
-2 3 R
8 0 V
-1 3 R
8 0 V
-2 3 R
8 0 V
66 34 R
8 0 V
-2 3 R
8 0 V
7 7 R
8 0 V
-3 2 R
8 0 V
677 206 R
8 0 V
-2 0 R
7 0 V
106 0 R
8 0 V
-2 0 R
7 0 V
106 -10 R
8 0 V
-3 -1 R
8 0 V
838 -193 R
13 0 V
-2 -3 R
14 0 V
25 -12 R
12 0 V
-2 -2 R
12 0 V
14.000 UL
LT0
1685 1941 M
5 0 V
26 -8 R
5 0 V
27 -9 R
5 0 V
26 -8 R
5 0 V
-2 0 R
5 0 V
48 -15 R
8 0 V
49 -14 R
5 0 V
-3 -1 R
6 0 V
15 -5 R
5 0 V
-2 -1 R
5 0 V
15 -5 R
5 0 V
-2 -1 R
5 0 V
15 -5 R
5 0 V
-2 -1 R
5 0 V
15 -5 R
5 0 V
-2 -1 R
5 0 V
49 -14 R
5 0 V
-3 -1 R
6 0 V
48 -14 R
5 0 V
-2 -1 R
5 0 V
48 -14 R
8 0 V
101 -28 R
6 0 V
-3 -1 R
5 0 V
102 -28 R
5 0 V
-2 -1 R
5 0 V
101 -28 R
5 0 V
-2 0 R
5 0 V
101 -28 R
5 0 V
-2 -1 R
5 0 V
101 -28 R
6 0 V
-3 -1 R
5 0 V
102 -28 R
8 0 V
19 -7 R
8 0 V
9 -5 R
8 0 V
26 -9 R
10 0 V
-2 0 R
2 0 V
-2 -2 R
9 0 V
852 -33 R
10 0 V
-3 0 R
3 0 V
-3 2 R
10 0 V
54 11 R
10 0 V
-2 0 R
2 0 V
-2 2 R
9 0 V
852 114 R
10 0 V
-3 0 R
3 0 V
-3 1 R
10 0 V
55 5 R
9 0 V
-2 0 R
2 0 V
-2 1 R
9 0 V
852 29 R
10 0 V
-3 0 R
3 0 V
-3 0 R
10 0 V
55 -1 R
9 0 V
stroke
5715 1754 M
2 0 V
-2 0 R
9 0 V
852 181 R
10 0 V
-2 0 R
2 0 V
-2 3 R
9 0 V
27 14 R
5 0 V
-2 0 R
2 0 V
-2 1 R
5 0 V
-2 1 R
5 0 V
-2 0 R
2 0 V
-2 1 R
5 0 V
-1 2 R
5 0 V
-3 0 R
3 0 V
-3 1 R
6 0 V
-2 2 R
5 0 V
-2 0 R
2 0 V
-2 1 R
5 0 V
-2 2 R
5 0 V
-2 0 R
2 0 V
-2 1 R
5 0 V
-1 1 R
5 0 V
-2 0 R
2 0 V
-2 2 R
5 0 V
64 29 R
5 0 V
-2 0 R
2 0 V
-2 1 R
5 0 V
-2 2 R
5 0 V
-2 0 R
2 0 V
-2 1 R
5 0 V
0 2 R
5 0 V
-2 0 R
2 0 V
-2 2 R
5 0 V
98 44 R
5 0 V
-2 0 R
2 0 V
-2 1 R
5 0 V
43 21 R
5 0 V
-2 0 R
2 0 V
-2 1 R
5 0 V
43 21 R
5 0 V
-3 0 R
3 0 V
-3 1 R
6 0 V
97 44 R
6 0 V
-3 0 R
3 0 V
-3 1 R
5 0 V
1 3 R
5 0 V
-3 0 R
3 0 V
-3 1 R
6 0 V
98 44 R
5 0 V
-3 0 R
3 0 V
-3 1 R
5 0 V
43 21 R
5 0 V
-2 0 R
2 0 V
-2 1 R
5 0 V
stroke
7267 2230 M
5 0 V
-2 0 R
2 0 V
-2 1 R
5 0 V
98 44 R
5 0 V
-2 0 R
2 0 V
-2 2 R
5 0 V
0 2 R
5 0 V
-2 0 R
2 0 V
-2 1 R
5 0 V
98 44 R
5 0 V
-2 0 R
2 0 V
-2 2 R
5 0 V
43 20 R
5 0 V
-2 0 R
2 0 V
-2 1 R
5 0 V
42 21 R
6 0 V
-3 0 R
3 0 V
-3 1 R
5 0 V
98 44 R
5 0 V
-2 0 R
2 0 V
-2 2 R
5 0 V
1 2 R
5 0 V
-3 0 R
3 0 V
-3 1 R
6 0 V
97 44 R
6 0 V
-3 0 R
3 0 V
-3 2 R
5 0 V
43 20 R
5 0 V
-2 0 R
2 0 V
-2 2 R
5 0 V
43 20 R
5 0 V
-2 0 R
2 0 V
-2 1 R
5 0 V
98 45 R
5 0 V
-2 0 R
2 0 V
-2 1 R
5 0 V
0 2 R
5 0 V
-2 0 R
2 0 V
-2 1 R
5 0 V
98 45 R
5 0 V
-2 0 R
2 0 V
-2 1 R
5 0 V
43 25 R
16 0 V
23 17 R
16 0 V
55 31 R
17 0 V
54 30 R
17 0 V
37 20 R
8 0 V
-2 2 R
8 0 V
22 13 R
8 0 V
-2 3 R
8 0 V
38 20 R
8 0 V
-2 2 R
8 0 V
39 20 R
8 0 V
stroke
8562 2788 M
8 0 V
37 19 R
8 0 V
-2 3 R
8 0 V
50 24 R
8 0 V
-3 3 R
8 0 V
121 57 R
8 0 V
-2 3 R
8 0 V
206 99 R
8 0 V
-2 2 R
8 0 V
-1 4 R
8 0 V
-2 2 R
8 0 V
206 99 R
8 0 V
-3 3 R
8 0 V
0 3 R
8 0 V
-3 3 R
8 0 V
257 122 R
8 0 V
-2 2 R
8 0 V
-1 4 R
8 0 V
-2 2 R
8 0 V
66 35 R
8 0 V
-2 2 R
8 0 V
7 7 R
8 0 V
-3 3 R
8 0 V
677 205 R
8 0 V
-2 1 R
7 0 V
106 0 R
8 0 V
-2 -1 R
7 0 V
106 -9 R
8 0 V
-3 -1 R
8 0 V
838 -193 R
13 0 V
-2 -4 R
14 0 V
25 -11 R
12 0 V
-2 -3 R
12 0 V
14.000 UL
LT2
2925 1511 M
33 0 V
0 -8 R
32 0 V
3 -8 R
32 0 V
0 -6 R
33 0 V
3 -6 R
32 0 V
0 -6 R
33 0 V
3 -5 R
32 0 V
0 -4 R
33 0 V
3 -3 R
32 0 V
0 -3 R
33 0 V
3 -3 R
32 0 V
0 -1 R
32 0 V
4 -1 R
32 0 V
0 -1 R
32 0 V
4 1 R
32 0 V
32 0 V
4 2 R
32 0 V
0 2 R
32 0 V
4 3 R
32 0 V
0 3 R
32 0 V
4 4 R
32 0 V
0 5 R
32 0 V
4 5 R
32 0 V
0 6 R
32 0 V
128 29 R
33 0 V
0 6 R
32 0 V
3 6 R
33 0 V
-1 5 R
33 0 V
3 6 R
32 0 V
0 5 R
33 0 V
3 6 R
32 0 V
0 5 R
33 0 V
3 5 R
32 0 V
0 5 R
33 0 V
3 5 R
32 0 V
0 4 R
33 0 V
3 5 R
32 0 V
0 4 R
32 0 V
4 4 R
32 0 V
0 4 R
32 0 V
4 4 R
32 0 V
0 4 R
32 0 V
4 3 R
32 0 V
0 4 R
32 0 V
4 3 R
32 0 V
0 3 R
32 0 V
4 4 R
32 0 V
0 2 R
32 0 V
128 14 R
33 0 V
0 2 R
32 0 V
3 3 R
33 0 V
0 2 R
32 0 V
3 2 R
33 0 V
stroke
4974 1643 M
32 0 V
3 2 R
32 0 V
0 2 R
33 0 V
3 2 R
32 0 V
0 1 R
33 0 V
3 2 R
32 0 V
0 1 R
33 0 V
3 1 R
32 0 V
0 1 R
33 0 V
3 1 R
32 0 V
0 1 R
32 0 V
4 0 R
32 0 V
0 1 R
32 0 V
4 0 R
32 0 V
32 0 V
4 0 R
32 0 V
32 0 V
4 0 R
32 0 V
0 -1 R
32 0 V
128 -2 R
33 0 V
0 1 R
32 0 V
3 1 R
33 0 V
0 1 R
32 0 V
3 3 R
33 0 V
0 2 R
32 0 V
3 4 R
33 0 V
0 4 R
32 0 V
3 5 R
32 0 V
0 5 R
33 0 V
3 7 R
32 0 V
0 6 R
33 0 V
3 8 R
32 0 V
0 8 R
33 0 V
3 9 R
32 0 V
0 8 R
33 0 V
3 11 R
32 0 V
0 10 R
32 0 V
4 11 R
32 0 V
0 12 R
32 0 V
4 13 R
32 0 V
0 12 R
32 0 V
4 14 R
32 0 V
0 14 R
32 0 V
611 262 R
51 22 R
592 255 R
50 21 R
271 117 R
51 22 R
503 221 R
12 0 V
0 5 R
12 0 V
0 6 R
12 0 V
0 5 R
12 0 V
0 5 R
12 0 V
0 6 R
12 0 V
0 5 R
12 0 V
0 5 R
12 0 V
stroke
8782 2781 M
0 6 R
12 0 V
0 5 R
12 0 V
1027 497 R
51 0 V
0 20 R
52 0 V
0 18 R
51 0 V
0 17 R
51 0 V
0 14 R
51 0 V
0 11 R
52 0 V
0 10 R
51 0 V
0 8 R
51 0 V
0 5 R
51 0 V
0 3 R
51 0 V
15 2 R
11 0 V
10 0 V
10 0 V
11 0 V
10 0 V
11 0 V
10 0 V
11 0 V
10 0 V
0 -1 R
10 0 V
26 -1 R
10 0 R
10 -1 R
11 -1 R
10 -1 R
11 -1 R
10 -1 R
11 -1 R
10 -1 R
10 -1 R
15 -3 R
11 0 V
0 -2 R
10 0 V
0 -1 R
10 0 V
0 -1 R
11 0 V
0 -2 R
10 0 V
0 -1 R
11 0 V
0 -2 R
10 0 V
0 -1 R
10 0 V
0 -2 R
11 0 V
0 -1 R
10 0 V
2 -2 R
10 0 V
0 -2 R
11 0 V
0 -2 R
10 0 V
0 -1 R
11 0 V
0 -2 R
10 0 V
0 -2 R
11 0 V
0 -1 R
10 0 V
0 -2 R
10 0 V
0 -2 R
11 0 V
0 -2 R
10 0 V
2 -2 R
10 0 V
0 -2 R
11 0 V
0 -2 R
10 0 V
0 -2 R
11 0 V
0 -2 R
10 0 V
0 -2 R
10 0 V
1 0 R
-1 0 V
1 -2 R
10 0 V
0 -2 R
10 0 V
stroke
10893 3337 M
0 -2 R
11 0 V
0 -2 R
10 0 V
2 -2 R
10 0 V
0 -3 R
11 0 V
0 -2 R
10 0 V
0 -2 R
11 0 V
0 -2 R
10 0 V
0 -2 R
10 0 V
0 -3 R
11 0 V
0 -2 R
10 0 V
0 -2 R
11 0 V
0 -3 R
10 0 V
2 -3 R
10 0 V
0 -2 R
11 0 V
0 -2 R
10 0 V
0 -3 R
11 0 V
0 -2 R
10 0 V
0 -3 R
10 0 V
0 -2 R
11 0 V
0 -3 R
10 0 V
0 -3 R
11 0 V
0 -2 R
10 0 V
2 -3 R
10 0 V
0 -3 R
11 0 V
0 -3 R
10 0 V
0 -2 R
10 0 V
0 -3 R
11 0 V
0 -3 R
10 0 V
0 -3 R
11 0 V
0 -3 R
10 0 V
0 -3 R
11 0 V
0 -2 R
10 0 V
2 -4 R
10 0 V
0 -3 R
11 0 V
0 -3 R
10 0 V
0 -3 R
10 0 V
0 -3 R
11 0 V
0 -3 R
10 0 V
0 -3 R
11 0 V
0 -3 R
10 0 V
0 -3 R
10 0 V
0 -3 R
11 0 V
14.000 UL
LT2
2925 1609 M
33 0 V
0 -7 R
32 0 V
3 -8 R
32 0 V
0 -6 R
33 0 V
3 -7 R
32 0 V
0 -5 R
33 0 V
3 -5 R
32 0 V
0 -4 R
33 0 V
3 -4 R
32 0 V
0 -2 R
33 0 V
3 -3 R
32 0 V
0 -1 R
32 0 V
4 -2 R
32 0 V
32 0 V
4 0 R
32 0 V
0 1 R
32 0 V
4 2 R
32 0 V
0 2 R
32 0 V
4 2 R
32 0 V
0 4 R
32 0 V
4 4 R
32 0 V
0 4 R
32 0 V
4 6 R
32 0 V
0 5 R
32 0 V
128 30 R
33 0 V
0 5 R
32 0 V
3 6 R
33 0 V
-1 6 R
33 0 V
3 6 R
32 0 V
0 5 R
33 0 V
3 5 R
32 0 V
0 5 R
33 0 V
3 6 R
32 0 V
0 4 R
33 0 V
3 5 R
32 0 V
0 5 R
33 0 V
3 4 R
32 0 V
0 4 R
32 0 V
4 5 R
32 0 V
0 4 R
32 0 V
4 4 R
32 0 V
0 3 R
32 0 V
4 4 R
32 0 V
0 3 R
32 0 V
4 4 R
32 0 V
0 3 R
32 0 V
4 3 R
32 0 V
0 3 R
32 0 V
128 13 R
33 0 V
0 3 R
32 0 V
3 3 R
33 0 V
0 2 R
32 0 V
3 2 R
33 0 V
stroke
4974 1742 M
32 0 V
3 2 R
32 0 V
0 2 R
33 0 V
3 2 R
32 0 V
0 1 R
33 0 V
3 2 R
32 0 V
0 1 R
33 0 V
3 1 R
32 0 V
0 1 R
33 0 V
3 1 R
32 0 V
32 0 V
4 1 R
32 0 V
32 0 V
4 1 R
32 0 V
32 0 V
4 0 R
32 0 V
32 0 V
4 -1 R
32 0 V
32 0 V
128 -2 R
33 0 V
32 0 V
3 1 R
33 0 V
0 2 R
32 0 V
3 2 R
33 0 V
0 3 R
32 0 V
3 4 R
33 0 V
0 4 R
32 0 V
3 5 R
32 0 V
0 5 R
33 0 V
3 7 R
32 0 V
0 6 R
33 0 V
3 8 R
32 0 V
0 7 R
33 0 V
3 9 R
32 0 V
0 9 R
33 0 V
3 10 R
32 0 V
0 10 R
32 0 V
4 12 R
32 0 V
0 11 R
32 0 V
4 13 R
32 0 V
0 13 R
32 0 V
4 14 R
32 0 V
0 13 R
32 0 V
611 263 R
51 22 R
592 254 R
50 22 R
271 116 R
51 22 R
503 222 R
12 0 V
0 5 R
12 0 V
0 5 R
12 0 V
0 5 R
12 0 V
0 6 R
12 0 V
0 5 R
12 0 V
0 6 R
12 0 V
0 5 R
12 0 V
0 5 R
12 0 V
0 6 R
12 0 V
stroke
8806 2891 M
1027 496 R
51 0 V
0 21 R
52 0 V
0 18 R
51 0 V
0 16 R
51 0 V
0 14 R
51 0 V
0 12 R
52 0 V
0 10 R
51 0 V
0 7 R
51 0 V
0 6 R
51 0 V
0 3 R
51 0 V
15 1 R
11 0 V
0 1 R
10 0 V
10 0 V
11 0 V
10 0 V
11 0 V
10 0 V
11 0 V
0 -1 R
10 0 V
10 0 V
26 -1 R
10 -1 R
10 0 R
11 -1 R
10 -1 R
11 -1 R
10 -1 R
11 -1 R
10 -1 R
10 -1 R
15 -4 R
11 0 V
0 -1 R
10 0 V
0 -1 R
10 0 V
0 -2 R
11 0 V
0 -1 R
10 0 V
0 -2 R
11 0 V
0 -1 R
10 0 V
0 -2 R
10 0 V
0 -1 R
11 0 V
0 -2 R
10 0 V
2 -2 R
10 0 V
0 -1 R
11 0 V
0 -2 R
10 0 V
0 -2 R
11 0 V
0 -1 R
10 0 V
0 -2 R
11 0 V
0 -2 R
10 0 V
0 -2 R
10 0 V
0 -1 R
11 0 V
0 -2 R
10 0 V
2 -2 R
10 0 V
0 -2 R
11 0 V
0 -2 R
10 0 V
0 -2 R
11 0 V
0 -2 R
10 0 V
0 -2 R
10 0 V
1 0 R
-1 0 V
1 -2 R
10 0 V
0 -2 R
10 0 V
0 -2 R
11 0 V
0 -2 R
10 0 V
stroke
10914 3432 M
2 -3 R
10 0 V
0 -2 R
11 0 V
0 -2 R
10 0 V
0 -2 R
11 0 V
0 -3 R
10 0 V
0 -2 R
10 0 V
0 -2 R
11 0 V
0 -2 R
10 0 V
0 -3 R
11 0 V
0 -2 R
10 0 V
2 -3 R
10 0 V
0 -2 R
11 0 V
0 -3 R
10 0 V
0 -2 R
11 0 V
0 -3 R
10 0 V
0 -2 R
10 0 V
0 -3 R
11 0 V
0 -2 R
10 0 V
0 -3 R
11 0 V
0 -3 R
10 0 V
2 -3 R
10 0 V
0 -2 R
11 0 V
0 -3 R
10 0 V
0 -3 R
10 0 V
0 -3 R
11 0 V
0 -2 R
10 0 V
0 -3 R
11 0 V
0 -3 R
10 0 V
0 -3 R
11 0 V
0 -3 R
10 0 V
2 -3 R
10 0 V
0 -3 R
11 0 V
0 -3 R
10 0 V
0 -3 R
10 0 V
0 -3 R
11 0 V
0 -3 R
10 0 V
0 -3 R
11 0 V
0 -3 R
10 0 V
0 -4 R
10 0 V
0 -3 R
11 0 V
30.000 UL
LT6
4262 1734 M
18 0 V
-18 0 R
18 0 V
452 50 R
18 0 V
2144 349 R
17 0 V
-17 0 R
17 0 V
28 19 R
17 0 V
-17 0 R
17 0 V
203 95 R
17 0 V
33 21 R
18 0 V
-12 3 R
18 0 V
-18 0 R
18 0 V
27 19 R
18 0 V
-18 0 R
18 0 V
202 95 R
18 0 V
33 22 R
18 0 V
-12 2 R
17 0 V
-17 0 R
17 0 V
28 19 R
17 0 V
-17 0 R
17 0 V
203 95 R
17 0 V
33 22 R
18 0 V
-12 2 R
18 0 V
-18 0 R
18 0 V
27 20 R
18 0 V
-18 0 R
18 0 V
202 94 R
18 0 V
33 22 R
17 0 V
30.000 UL
LT6
4262 1512 M
18 0 V
-18 0 R
18 0 V
452 50 R
18 0 V
2144 349 R
17 0 V
-17 0 R
17 0 V
28 19 R
17 0 V
-17 0 R
17 0 V
203 95 R
17 0 V
33 21 R
18 0 V
-12 3 R
18 0 V
-18 0 R
18 0 V
27 19 R
18 0 V
-18 0 R
18 0 V
202 95 R
18 0 V
33 22 R
18 0 V
-12 2 R
17 0 V
-17 0 R
17 0 V
28 19 R
17 0 V
-17 0 R
17 0 V
203 95 R
17 0 V
33 22 R
18 0 V
-12 2 R
18 0 V
-18 0 R
18 0 V
27 20 R
18 0 V
-18 0 R
18 0 V
202 94 R
18 0 V
33 22 R
17 0 V
1.000 UL
LTb
1275 750 M
10540 0 V
0 3083 V
-10540 0 V
0 -3083 V
1.000 UP
stroke
grestore
end
showpage
%%Trailer
%%DocumentFonts: Helvetica
%%Pages: 1
