0 6.85639 0 -0.0336074 0 0.202223 0 20.0976 0 1
1 6.85579 0 -0.0273391 0 0.202222 0 13.7413 0 1
2 6.8559 0 -0.0320406 0 0.202222 0 12.7033 0 1
3 6.85583 0 -0.0506012 0 0.202224 0 18.7695 0 1
4 6.8559 0 -0.0521814 0 0.202224 0 19.3478 0 1
5 6.85709 0 -0.0236929 0 0.202225 0 10.1993 0 1
6 6.8567 0 -0.0171009 0 0.202221 0 18.0489 0 1
7 6.8566 0 -0.0163934 0 0.20222 0 18.1211 0 1
8 6.8571 0 -0.00280631 0 0.202221 0 9.20833 0 1
9 6.85708 0 -0.000896049 0 0.20222 0 8.08977 0 1
10 6.85712 0 0.0125099 0 0.202227 0 7.00931 0 1
11 6.85702 0 0.0142014 0 0.202223 0 7.30495 0 1
12 6.85694 0 0.0221166 0 0.202221 0 8.14672 0 1
13 6.85682 0 0.0236413 0 0.202225 0 8.69121 0 1
14 6.85666 0 0.0443325 0 0.202234 0 16.6853 0 1
15 6.85814 0 0.0461239 0 0.20223 0 17.5656 0 1
16 6.86037 0 0.0137229 0 0.202229 0 10.0452 0 1
17 6.86001 0 0.0122283 0 0.202222 0 9.88721 0 1
18 6.85974 0 -0.00077897 0 0.20223 0 21.8765 0 1
19 6.85904 0 -0.00144605 0 0.20223 0 22.3688 0 1
20 6.85879 0 -0.0127927 0 0.202231 0 13.8934 0 1
21 6.85964 0 -0.0640189 0 0.202379 0 31.7109 0 1
22 6.85846 0 -0.0649544 0 0.202361 0 32.0493 0 1
23 6.8575 0 -0.0528379 0 0.202344 0 21.7181 0 1
24 6.8576 0 -0.0527662 0 0.202353 0 21.5428 0 1
25 6.85773 0 -0.0794837 0 0.202366 0 28.913 0 1
26 6.85807 0 -0.0798084 0 0.202371 0 29.0281 0 1
27 6.85856 0 -0.0477691 0 0.202377 0 18.2995 0 1
28 6.85816 0 -0.0471381 0 0.202347 0 18.2533 0 1
29 6.85778 0 -0.0497075 0 0.20232 0 27.9534 0 1
30 6.85852 0 -0.0495324 0 0.202333 0 28.1052 0 1
31 6.85939 0 -0.0153859 0 0.202347 0 18.6283 0 1
32 6.85891 0 -0.0131751 0 0.202313 0 25.2808 0 1
33 6.86336 0 -0.0174413 0 0.202351 0 40.3079 0 1
34 6.86172 0 -0.0145362 0 0.202348 0 43.0745 0 1
35 6.86196 0 -0.0136547 0 0.202348 0 42.9951 0 1
36 263.94 0 -2.85545 0 0.250326 0 424.437 0 1
37 263.93 0 -2.90678 0 0.217079 0 431.699 0 1
38 263.953 0 -3.49919 0 0.202605 0 512.476 0 1
39 264.046 0 -3.57162 0 0.212158 0 522.233 0 1
40 234.834 0 -13.5116 0 0.20285 0 1882.17 0 1
41 215.143 0 -13.5787 0 0.203407 0 1890.09 0 1
42 211.359 0 -13.5801 0 0.207178 0 1892.38 0 1
43 224.445 0 -13.5546 0 0.213985 0 1889.69 0 1
44 271.465 0 -3.06299 0 0.300737 0 527.764 0 1
45 270.708 0 -2.97276 0 0.252123 0 516.544 0 1
46 270.05 0 -2.29757 0 0.217151 0 434.166 0 1
47 269.632 0 -2.22724 0 0.203171 0 425.692 0 1
48 7.00759 0 2.09411 0 0.221674 0 44.3213 0 1
49 7.00807 0 2.10195 0 0.221723 0 44.3777 0 1
50 7.00856 0 2.09995 0 0.221755 0 44.3007 0 1
51 7.02263 0 2.0725 0 0.221751 0 43.7454 0 1
52 7.04142 0 1.96488 0 0.221763 0 41.5115 0 1
53 7.06213 0 1.83302 0 0.221814 0 38.7624 0 1
54 7.08268 0 1.60359 0 0.221914 0 33.9671 0 1
55 7.06988 0 1.4185 0 0.221759 0 30.0993 0 1
56 7.06055 0 1.22796 0 0.221536 0 26.1498 0 1
57 7.05397 0 1.09902 0 0.221225 0 23.4945 0 1
58 7.04895 0 0.969513 0 0.220851 0 20.8491 0 1
59 7.0452 0 0.884431 0 0.220412 0 19.1291 0 1
60 7.04218 0 0.803589 0 0.219939 0 17.5283 0 1
61 7.03977 0 0.754242 0 0.219446 0 16.5799 0 1
62 7.0377 0 0.121396 0 0.218959 0 11.4587 0 1
63 7.03748 0 0.0952511 0 0.218989 0 11.4667 0 1
64 7.03725 0 0.0616967 0 0.219015 0 11.3705 0 1
65 7.03701 0 0.0344643 0 0.219037 0 11.2246 0 1
66 7.03678 0 -0.0154784 0 0.21905 0 10.7922 0 1
67 7.03783 0 -0.0433482 0 0.218987 0 10.6955 0 1
68 7.03894 0 -1.13263 0 0.218942 0 41.2498 0 1
69 7.03906 0 -1.15019 0 0.21924 0 41.7375 0 1
70 7.04158 0 -0.819441 0 0.219588 0 27.4505 0 1
71 7.03808 0 -0.812865 0 0.216619 0 27.0314 0 1
72 7.03533 0 -1.3895 0 0.214046 0 41.8639 0 1
73 7.04259 0 -1.40919 0 0.214378 0 42.321 0 1
74 7.05225 0 -0.454533 0 0.214684 0 9.83962 0 1
75 7.05092 0 -0.434486 0 0.214795 0 9.29827 0 1
76 7.04974 0 -0.42737 0 0.214904 0 9.25223 0 1
77 7.04873 0 -0.433539 0 0.214997 0 9.54983 0 1
78 7.04777 0 -1.37105 0 0.215075 0 40.1476 0 1
79 7.04408 0 -1.38198 0 0.214803 0 40.6843 0 1
80 7.04255 0 -0.815142 0 0.2145 0 27.9067 0 1
81 7.045 0 -0.794222 0 0.217544 0 27.583 0 1
82 7.04851 0 -1.11071 0 0.221133 0 44.5807 0 1
83 7.04073 0 -1.11804 0 0.220623 0 45.1375 0 1
84 7.03512 0 -0.0639099 0 0.22017 0 12.3704 0 1
85 7.03627 0 -0.0352459 0 0.220065 0 11.636 0 1
86 7.03735 0 0.0159804 0 0.219967 0 11.0705 0 1
87 7.03841 0 0.0437117 0 0.219893 0 11.025 0 1
88 7.03952 0 1.12869 0 0.219838 0 41.6123 0 1
89 7.03965 0 1.14618 0 0.220178 0 42.0948 0 1
90 7.04218 0 0.816123 0 0.220573 0 27.5383 0 1
91 7.03867 0 0.809538 0 0.217241 0 27.1042 0 1
92 7.03591 0 1.38336 0 0.214362 0 41.9964 0 1
93 7.04319 0 1.40294 0 0.214728 0 42.473 0 1
94 7.05284 0 0.451563 0 0.215066 0 9.82509 0 1
95 7.05151 0 0.431564 0 0.215169 0 9.27204 0 1
96 7.05034 0 0.424334 0 0.215269 0 9.07791 0 1
97 7.04933 0 0.430371 0 0.215352 0 9.41054 0 1
98 7.04837 0 1.35786 0 0.21542 0 40.0597 0 1
99 7.04469 0 1.36866 0 0.215161 0 40.4941 0 1
100 7.04316 0 0.807013 0 0.214871 0 26.8481 0 1
101 7.0456 0 0.78627 0 0.217776 0 26.5575 0 1
102 7.04909 0 1.0989 0 0.221156 0 43.2903 0 1
103 7.04135 0 1.10612 0 0.220677 0 43.844 0 1
104 7.0358 0 0.0626765 0 0.220251 0 12.4718 0 1
105 7.03693 0 0.0342927 0 0.220138 0 11.7774 0 1
106 7.038 0 -0.0164822 0 0.220032 0 11.2976 0 1
107 7.03905 0 -0.0439863 0 0.219951 0 11.3033 0 1
108 7.04015 0 -1.12128 0 0.219888 0 41.823 0 1
109 7.04029 0 -1.13863 0 0.220257 0 42.2986 0 1
110 7.04282 0 -0.809244 0 0.220685 0 27.4731 0 1
111 7.0366 0 -1.10878 0 0.214133 0 34.0063 0 1
112 7.04486 0 -1.00588 0 0.215474 0 27.2544 0 1
113 7.042 0 -1.08851 0 0.21524 0 25.1333 0 1
114 7.04255 0 -1.13843 0 0.215239 0 24.8692 0 1
115 7.05857 0 -1.07954 0 0.2151 0 23.4897 0 1
116 7.07291 0 0.0923069 0 0.214958 0 9.57023 0 1
117 7.07229 0 0.33445 0 0.215333 0 10.6529 0 1
118 7.06925 0 2.76767 0 0.216035 0 63.8831 0 1
119 7.19905 0 2.946 0 0.216028 0 67.8586 0 1
120 7.39956 0 1.46585 0 0.21606 0 32.8998 0 1
121 7.36909 0 1.30681 0 0.215917 0 29.2211 0 1
122 7.34484 0 0.813598 0 0.215781 0 17.812 0 1
123 7.30757 0 0.845659 0 0.215889 0 18.6326 0 1
124 7.26285 0 4.13066 0 0.216023 0 93.6048 0 1
125 7.54019 0 4.33771 0 0.216415 0 98.3797 0 1
126 32.4479 0 0.419034 0 0.216964 0 33.7115 0 1
127 32.4492 0 0.245943 0 0.213971 0 34.5628 0 1
128 32.4517 0 -5.95768 0 0.221961 0 140.88 0 1
129 32.1995 0 -6.17899 0 0.221959 0 145.923 0 1
130 31.9414 0 -6.64256 0 0.221966 0 156.615 0 1
131 31.663 0 -7.1091 0 0.222001 0 167.423 0 1
132 95.5653 0 -32.667 0 0.292932 0 761.522 0 1
133 87.5143 0 -33.0848 0 0.281981 0 770.942 0 1
134 83.6069 0 -32.7729 0 0.272103 0 763.335 0 1
135 84.3647 0 -32.0204 0 0.263563 0 745.591 0 1
136 94.8622 0 42.7799 0 2.02732 0 1002.91 0 1
137 108.185 0 44.0316 0 1.78969 0 1032.14 0 1
138 129.758 0 44.612 0 1.8958 0 1045.75 0 1
139 156.261 0 44.4104 0 2.3934 0 1041.13 0 1
140 183.116 0 27.8074 0 3.9508 0 657.01 0 1
141 176.545 0 26.6795 0 3.80814 0 631.174 0 1
142 171.31 0 24.7213 0 24.9142 0 599.077 0 1
143 165.348 0 24.1515 0 23.7427 0 592.204 0 1
144 1703.53 0 3.6826 0 22.929 0 299.602 0 1
145 1703.57 0 3.53575 0 22.9332 0 301.005 0 1
146 1737.86 0 0.380063 0 22.9369 0 370.52 0 1
147 1738.34 0 0.222163 0 22.9375 0 374.711 0 1
148 1654.67 0 -3.10805 0 22.9377 0 345.485 0 1
149 1654.09 0 -3.28731 0 22.9375 0 346.74 0 1
150 1540.76 0 -36.9309 0 31.2122 0 2111.31 0 1
151 783.718 0 -35.0986 0 29.4579 0 2022.33 0 1
152 227.689 0 -12.8146 0 79.6767 0 741.732 0 1
153 78.4684 0 -8.30123 0 35.5583 0 521.71 0 1
154 33.1566 0 -0.0408401 0 0.39346 0 0.613134 0 1
# set emitt_x {33.1566 }
# set emitt_y {0.39346 }
