%!PS-Adobe-2.0
%%Title: SigmasFFIN.eps
%%Creator: gnuplot 4.0 patchlevel 0
%%CreationDate: Mon Sep 20 13:43:21 2010
%%DocumentFonts: (atend)
%%BoundingBox: 0 50 554 842
%%Orientation: Landscape
%%Pages: (atend)
%%EndComments
/gnudict 256 dict def
gnudict begin
/Color true def
/Solid true def
/gnulinewidth 5.000 def
/userlinewidth gnulinewidth def
/vshift -53 def
/dl {10.0 mul} def
/hpt_ 31.5 def
/vpt_ 31.5 def
/hpt hpt_ def
/vpt vpt_ def
/Rounded false def
/M {moveto} bind def
/L {lineto} bind def
/R {rmoveto} bind def
/V {rlineto} bind def
/N {newpath moveto} bind def
/C {setrgbcolor} bind def
/f {rlineto fill} bind def
/vpt2 vpt 2 mul def
/hpt2 hpt 2 mul def
/Lshow { currentpoint stroke M
  0 vshift R show } def
/Rshow { currentpoint stroke M
  dup stringwidth pop neg vshift R show } def
/Cshow { currentpoint stroke M
  dup stringwidth pop -2 div vshift R show } def
/UP { dup vpt_ mul /vpt exch def hpt_ mul /hpt exch def
  /hpt2 hpt 2 mul def /vpt2 vpt 2 mul def } def
/DL { Color {setrgbcolor Solid {pop []} if 0 setdash }
 {pop pop pop 0 setgray Solid {pop []} if 0 setdash} ifelse } def
/BL { stroke userlinewidth 2 mul setlinewidth
      Rounded { 1 setlinejoin 1 setlinecap } if } def
/AL { stroke userlinewidth 2 div setlinewidth
      Rounded { 1 setlinejoin 1 setlinecap } if } def
/UL { dup gnulinewidth mul /userlinewidth exch def
      dup 1 lt {pop 1} if 10 mul /udl exch def } def
/PL { stroke userlinewidth setlinewidth
      Rounded { 1 setlinejoin 1 setlinecap } if } def
/LTw { PL [] 1 setgray } def
/LTb { BL [] 0 0 0 DL } def
/LTa { AL [1 udl mul 2 udl mul] 0 setdash 0 0 0 setrgbcolor } def
/LT0 { PL [] 1 0 0 DL } def
/LT1 { PL [4 dl 2 dl] 0 1 0 DL } def
/LT2 { PL [2 dl 3 dl] 0 0 1 DL } def
/LT3 { PL [1 dl 1.5 dl] 1 0 1 DL } def
/LT4 { PL [5 dl 2 dl 1 dl 2 dl] 0 1 1 DL } def
/LT5 { PL [4 dl 3 dl 1 dl 3 dl] 1 1 0 DL } def
/LT6 { PL [2 dl 2 dl 2 dl 4 dl] 0 0 0 DL } def
/LT7 { PL [2 dl 2 dl 2 dl 2 dl 2 dl 4 dl] 1 0.3 0 DL } def
/LT8 { PL [2 dl 2 dl 2 dl 2 dl 2 dl 2 dl 2 dl 4 dl] 0.5 0.5 0.5 DL } def
/Pnt { stroke [] 0 setdash
   gsave 1 setlinecap M 0 0 V stroke grestore } def
/Dia { stroke [] 0 setdash 2 copy vpt add M
  hpt neg vpt neg V hpt vpt neg V
  hpt vpt V hpt neg vpt V closepath stroke
  Pnt } def
/Pls { stroke [] 0 setdash vpt sub M 0 vpt2 V
  currentpoint stroke M
  hpt neg vpt neg R hpt2 0 V stroke
  } def
/Box { stroke [] 0 setdash 2 copy exch hpt sub exch vpt add M
  0 vpt2 neg V hpt2 0 V 0 vpt2 V
  hpt2 neg 0 V closepath stroke
  Pnt } def
/Crs { stroke [] 0 setdash exch hpt sub exch vpt add M
  hpt2 vpt2 neg V currentpoint stroke M
  hpt2 neg 0 R hpt2 vpt2 V stroke } def
/TriU { stroke [] 0 setdash 2 copy vpt 1.12 mul add M
  hpt neg vpt -1.62 mul V
  hpt 2 mul 0 V
  hpt neg vpt 1.62 mul V closepath stroke
  Pnt  } def
/Star { 2 copy Pls Crs } def
/BoxF { stroke [] 0 setdash exch hpt sub exch vpt add M
  0 vpt2 neg V  hpt2 0 V  0 vpt2 V
  hpt2 neg 0 V  closepath fill } def
/TriUF { stroke [] 0 setdash vpt 1.12 mul add M
  hpt neg vpt -1.62 mul V
  hpt 2 mul 0 V
  hpt neg vpt 1.62 mul V closepath fill } def
/TriD { stroke [] 0 setdash 2 copy vpt 1.12 mul sub M
  hpt neg vpt 1.62 mul V
  hpt 2 mul 0 V
  hpt neg vpt -1.62 mul V closepath stroke
  Pnt  } def
/TriDF { stroke [] 0 setdash vpt 1.12 mul sub M
  hpt neg vpt 1.62 mul V
  hpt 2 mul 0 V
  hpt neg vpt -1.62 mul V closepath fill} def
/DiaF { stroke [] 0 setdash vpt add M
  hpt neg vpt neg V hpt vpt neg V
  hpt vpt V hpt neg vpt V closepath fill } def
/Pent { stroke [] 0 setdash 2 copy gsave
  translate 0 hpt M 4 {72 rotate 0 hpt L} repeat
  closepath stroke grestore Pnt } def
/PentF { stroke [] 0 setdash gsave
  translate 0 hpt M 4 {72 rotate 0 hpt L} repeat
  closepath fill grestore } def
/Circle { stroke [] 0 setdash 2 copy
  hpt 0 360 arc stroke Pnt } def
/CircleF { stroke [] 0 setdash hpt 0 360 arc fill } def
/C0 { BL [] 0 setdash 2 copy moveto vpt 90 450  arc } bind def
/C1 { BL [] 0 setdash 2 copy        moveto
       2 copy  vpt 0 90 arc closepath fill
               vpt 0 360 arc closepath } bind def
/C2 { BL [] 0 setdash 2 copy moveto
       2 copy  vpt 90 180 arc closepath fill
               vpt 0 360 arc closepath } bind def
/C3 { BL [] 0 setdash 2 copy moveto
       2 copy  vpt 0 180 arc closepath fill
               vpt 0 360 arc closepath } bind def
/C4 { BL [] 0 setdash 2 copy moveto
       2 copy  vpt 180 270 arc closepath fill
               vpt 0 360 arc closepath } bind def
/C5 { BL [] 0 setdash 2 copy moveto
       2 copy  vpt 0 90 arc
       2 copy moveto
       2 copy  vpt 180 270 arc closepath fill
               vpt 0 360 arc } bind def
/C6 { BL [] 0 setdash 2 copy moveto
      2 copy  vpt 90 270 arc closepath fill
              vpt 0 360 arc closepath } bind def
/C7 { BL [] 0 setdash 2 copy moveto
      2 copy  vpt 0 270 arc closepath fill
              vpt 0 360 arc closepath } bind def
/C8 { BL [] 0 setdash 2 copy moveto
      2 copy vpt 270 360 arc closepath fill
              vpt 0 360 arc closepath } bind def
/C9 { BL [] 0 setdash 2 copy moveto
      2 copy  vpt 270 450 arc closepath fill
              vpt 0 360 arc closepath } bind def
/C10 { BL [] 0 setdash 2 copy 2 copy moveto vpt 270 360 arc closepath fill
       2 copy moveto
       2 copy vpt 90 180 arc closepath fill
               vpt 0 360 arc closepath } bind def
/C11 { BL [] 0 setdash 2 copy moveto
       2 copy  vpt 0 180 arc closepath fill
       2 copy moveto
       2 copy  vpt 270 360 arc closepath fill
               vpt 0 360 arc closepath } bind def
/C12 { BL [] 0 setdash 2 copy moveto
       2 copy  vpt 180 360 arc closepath fill
               vpt 0 360 arc closepath } bind def
/C13 { BL [] 0 setdash  2 copy moveto
       2 copy  vpt 0 90 arc closepath fill
       2 copy moveto
       2 copy  vpt 180 360 arc closepath fill
               vpt 0 360 arc closepath } bind def
/C14 { BL [] 0 setdash 2 copy moveto
       2 copy  vpt 90 360 arc closepath fill
               vpt 0 360 arc } bind def
/C15 { BL [] 0 setdash 2 copy vpt 0 360 arc closepath fill
               vpt 0 360 arc closepath } bind def
/Rec   { newpath 4 2 roll moveto 1 index 0 rlineto 0 exch rlineto
       neg 0 rlineto closepath } bind def
/Square { dup Rec } bind def
/Bsquare { vpt sub exch vpt sub exch vpt2 Square } bind def
/S0 { BL [] 0 setdash 2 copy moveto 0 vpt rlineto BL Bsquare } bind def
/S1 { BL [] 0 setdash 2 copy vpt Square fill Bsquare } bind def
/S2 { BL [] 0 setdash 2 copy exch vpt sub exch vpt Square fill Bsquare } bind def
/S3 { BL [] 0 setdash 2 copy exch vpt sub exch vpt2 vpt Rec fill Bsquare } bind def
/S4 { BL [] 0 setdash 2 copy exch vpt sub exch vpt sub vpt Square fill Bsquare } bind def
/S5 { BL [] 0 setdash 2 copy 2 copy vpt Square fill
       exch vpt sub exch vpt sub vpt Square fill Bsquare } bind def
/S6 { BL [] 0 setdash 2 copy exch vpt sub exch vpt sub vpt vpt2 Rec fill Bsquare } bind def
/S7 { BL [] 0 setdash 2 copy exch vpt sub exch vpt sub vpt vpt2 Rec fill
       2 copy vpt Square fill
       Bsquare } bind def
/S8 { BL [] 0 setdash 2 copy vpt sub vpt Square fill Bsquare } bind def
/S9 { BL [] 0 setdash 2 copy vpt sub vpt vpt2 Rec fill Bsquare } bind def
/S10 { BL [] 0 setdash 2 copy vpt sub vpt Square fill 2 copy exch vpt sub exch vpt Square fill
       Bsquare } bind def
/S11 { BL [] 0 setdash 2 copy vpt sub vpt Square fill 2 copy exch vpt sub exch vpt2 vpt Rec fill
       Bsquare } bind def
/S12 { BL [] 0 setdash 2 copy exch vpt sub exch vpt sub vpt2 vpt Rec fill Bsquare } bind def
/S13 { BL [] 0 setdash 2 copy exch vpt sub exch vpt sub vpt2 vpt Rec fill
       2 copy vpt Square fill Bsquare } bind def
/S14 { BL [] 0 setdash 2 copy exch vpt sub exch vpt sub vpt2 vpt Rec fill
       2 copy exch vpt sub exch vpt Square fill Bsquare } bind def
/S15 { BL [] 0 setdash 2 copy Bsquare fill Bsquare } bind def
/D0 { gsave translate 45 rotate 0 0 S0 stroke grestore } bind def
/D1 { gsave translate 45 rotate 0 0 S1 stroke grestore } bind def
/D2 { gsave translate 45 rotate 0 0 S2 stroke grestore } bind def
/D3 { gsave translate 45 rotate 0 0 S3 stroke grestore } bind def
/D4 { gsave translate 45 rotate 0 0 S4 stroke grestore } bind def
/D5 { gsave translate 45 rotate 0 0 S5 stroke grestore } bind def
/D6 { gsave translate 45 rotate 0 0 S6 stroke grestore } bind def
/D7 { gsave translate 45 rotate 0 0 S7 stroke grestore } bind def
/D8 { gsave translate 45 rotate 0 0 S8 stroke grestore } bind def
/D9 { gsave translate 45 rotate 0 0 S9 stroke grestore } bind def
/D10 { gsave translate 45 rotate 0 0 S10 stroke grestore } bind def
/D11 { gsave translate 45 rotate 0 0 S11 stroke grestore } bind def
/D12 { gsave translate 45 rotate 0 0 S12 stroke grestore } bind def
/D13 { gsave translate 45 rotate 0 0 S13 stroke grestore } bind def
/D14 { gsave translate 45 rotate 0 0 S14 stroke grestore } bind def
/D15 { gsave translate 45 rotate 0 0 S15 stroke grestore } bind def
/DiaE { stroke [] 0 setdash vpt add M
  hpt neg vpt neg V hpt vpt neg V
  hpt vpt V hpt neg vpt V closepath stroke } def
/BoxE { stroke [] 0 setdash exch hpt sub exch vpt add M
  0 vpt2 neg V hpt2 0 V 0 vpt2 V
  hpt2 neg 0 V closepath stroke } def
/TriUE { stroke [] 0 setdash vpt 1.12 mul add M
  hpt neg vpt -1.62 mul V
  hpt 2 mul 0 V
  hpt neg vpt 1.62 mul V closepath stroke } def
/TriDE { stroke [] 0 setdash vpt 1.12 mul sub M
  hpt neg vpt 1.62 mul V
  hpt 2 mul 0 V
  hpt neg vpt -1.62 mul V closepath stroke } def
/PentE { stroke [] 0 setdash gsave
  translate 0 hpt M 4 {72 rotate 0 hpt L} repeat
  closepath stroke grestore } def
/CircE { stroke [] 0 setdash 
  hpt 0 360 arc stroke } def
/Opaque { gsave closepath 1 setgray fill grestore 0 setgray closepath } def
/DiaW { stroke [] 0 setdash vpt add M
  hpt neg vpt neg V hpt vpt neg V
  hpt vpt V hpt neg vpt V Opaque stroke } def
/BoxW { stroke [] 0 setdash exch hpt sub exch vpt add M
  0 vpt2 neg V hpt2 0 V 0 vpt2 V
  hpt2 neg 0 V Opaque stroke } def
/TriUW { stroke [] 0 setdash vpt 1.12 mul add M
  hpt neg vpt -1.62 mul V
  hpt 2 mul 0 V
  hpt neg vpt 1.62 mul V Opaque stroke } def
/TriDW { stroke [] 0 setdash vpt 1.12 mul sub M
  hpt neg vpt 1.62 mul V
  hpt 2 mul 0 V
  hpt neg vpt -1.62 mul V Opaque stroke } def
/PentW { stroke [] 0 setdash gsave
  translate 0 hpt M 4 {72 rotate 0 hpt L} repeat
  Opaque stroke grestore } def
/CircW { stroke [] 0 setdash 
  hpt 0 360 arc Opaque stroke } def
/BoxFill { gsave Rec 1 setgray fill grestore } def
/BoxColFill {
  gsave Rec
  /Fillden exch def
  currentrgbcolor
  /ColB exch def /ColG exch def /ColR exch def
  /ColR ColR Fillden mul Fillden sub 1 add def
  /ColG ColG Fillden mul Fillden sub 1 add def
  /ColB ColB Fillden mul Fillden sub 1 add def
  ColR ColG ColB setrgbcolor
  fill grestore } def
%
% PostScript Level 1 Pattern Fill routine
% Usage: x y w h s a XX PatternFill
%	x,y = lower left corner of box to be filled
%	w,h = width and height of box
%	  a = angle in degrees between lines and x-axis
%	 XX = 0/1 for no/yes cross-hatch
%
/PatternFill { gsave /PFa [ 9 2 roll ] def
    PFa 0 get PFa 2 get 2 div add PFa 1 get PFa 3 get 2 div add translate
    PFa 2 get -2 div PFa 3 get -2 div PFa 2 get PFa 3 get Rec
    gsave 1 setgray fill grestore clip
    currentlinewidth 0.5 mul setlinewidth
    /PFs PFa 2 get dup mul PFa 3 get dup mul add sqrt def
    0 0 M PFa 5 get rotate PFs -2 div dup translate
	0 1 PFs PFa 4 get div 1 add floor cvi
	{ PFa 4 get mul 0 M 0 PFs V } for
    0 PFa 6 get ne {
	0 1 PFs PFa 4 get div 1 add floor cvi
	{ PFa 4 get mul 0 2 1 roll M PFs 0 V } for
    } if
    stroke grestore } def
%
/Symbol-Oblique /Symbol findfont [1 0 .167 1 0 0] makefont
dup length dict begin {1 index /FID eq {pop pop} {def} ifelse} forall
currentdict end definefont pop
/MFshow {
   { dup 5 get 3 ge
     { 5 get 3 eq {gsave} {grestore} ifelse }
     {dup dup 0 get findfont exch 1 get scalefont setfont
     [ currentpoint ] exch dup 2 get 0 exch R dup 5 get 2 ne {dup dup 6
     get exch 4 get {show} {stringwidth pop 0 R} ifelse }if dup 5 get 0 eq
     {dup 3 get {2 get neg 0 exch R pop} {pop aload pop M} ifelse} {dup 5
     get 1 eq {dup 2 get exch dup 3 get exch 6 get stringwidth pop -2 div
     dup 0 R} {dup 6 get stringwidth pop -2 div 0 R 6 get
     show 2 index {aload pop M neg 3 -1 roll neg R pop pop} {pop pop pop
     pop aload pop M} ifelse }ifelse }ifelse }
     ifelse }
   forall} bind def
/MFwidth {0 exch {dup 3 get{dup dup 0 get findfont exch 1 get scalefont
     setfont 6 get stringwidth pop add} {pop} ifelse} forall} bind def
/MLshow { currentpoint stroke M
  0 exch R MFshow } bind def
/MRshow { currentpoint stroke M
  exch dup MFwidth neg 3 -1 roll R MFshow } def
/MCshow { currentpoint stroke M
  exch dup MFwidth -2 div 3 -1 roll R MFshow } def
end
%%EndProlog
%%Page: 1 1
gnudict begin
gsave
50 50 translate
0.100 0.100 scale
90 rotate
0 -5040 translate
0 setgray
newpath
(Helvetica) findfont 160 scalefont setfont
1.000 UL
LTb
1008 3000 M
63 0 V
2617 0 R
-63 0 V
stroke
912 3000 M
[ [(Helvetica) 160.0 0.0 true true 0 ( 16.55)]
] -53.3 MRshow
1.000 UL
LTb
1008 3308 M
63 0 V
2617 0 R
-63 0 V
stroke
912 3308 M
[ [(Helvetica) 160.0 0.0 true true 0 ( 16.6)]
] -53.3 MRshow
1.000 UL
LTb
1008 3616 M
63 0 V
2617 0 R
-63 0 V
stroke
912 3616 M
[ [(Helvetica) 160.0 0.0 true true 0 ( 16.65)]
] -53.3 MRshow
1.000 UL
LTb
1008 3924 M
63 0 V
2617 0 R
-63 0 V
stroke
912 3924 M
[ [(Helvetica) 160.0 0.0 true true 0 ( 16.7)]
] -53.3 MRshow
1.000 UL
LTb
1008 4232 M
63 0 V
2617 0 R
-63 0 V
stroke
912 4232 M
[ [(Helvetica) 160.0 0.0 true true 0 ( 16.75)]
] -53.3 MRshow
1.000 UL
LTb
1008 4540 M
63 0 V
2617 0 R
-63 0 V
stroke
912 4540 M
[ [(Helvetica) 160.0 0.0 true true 0 ( 16.8)]
] -53.3 MRshow
1.000 UL
LTb
1008 4848 M
63 0 V
2617 0 R
-63 0 V
stroke
912 4848 M
[ [(Helvetica) 160.0 0.0 true true 0 ( 16.85)]
] -53.3 MRshow
1.000 UL
LTb
1008 3000 M
0 63 V
0 1785 R
0 -63 V
stroke
1008 2840 M
[ [(Helvetica) 160.0 0.0 true true 0 ( 1)]
] -53.3 MCshow
1.000 UL
LTb
1306 3000 M
0 63 V
0 1785 R
0 -63 V
stroke
1306 2840 M
[ [(Helvetica) 160.0 0.0 true true 0 ( 2)]
] -53.3 MCshow
1.000 UL
LTb
1604 3000 M
0 63 V
0 1785 R
0 -63 V
stroke
1604 2840 M
[ [(Helvetica) 160.0 0.0 true true 0 ( 3)]
] -53.3 MCshow
1.000 UL
LTb
1901 3000 M
0 63 V
0 1785 R
0 -63 V
stroke
1901 2840 M
[ [(Helvetica) 160.0 0.0 true true 0 ( 4)]
] -53.3 MCshow
1.000 UL
LTb
2199 3000 M
0 63 V
0 1785 R
0 -63 V
stroke
2199 2840 M
[ [(Helvetica) 160.0 0.0 true true 0 ( 5)]
] -53.3 MCshow
1.000 UL
LTb
2497 3000 M
0 63 V
0 1785 R
0 -63 V
stroke
2497 2840 M
[ [(Helvetica) 160.0 0.0 true true 0 ( 6)]
] -53.3 MCshow
1.000 UL
LTb
2795 3000 M
0 63 V
0 1785 R
0 -63 V
stroke
2795 2840 M
[ [(Helvetica) 160.0 0.0 true true 0 ( 7)]
] -53.3 MCshow
1.000 UL
LTb
3092 3000 M
0 63 V
0 1785 R
0 -63 V
stroke
3092 2840 M
[ [(Helvetica) 160.0 0.0 true true 0 ( 8)]
] -53.3 MCshow
1.000 UL
LTb
3390 3000 M
0 63 V
0 1785 R
0 -63 V
stroke
3390 2840 M
[ [(Helvetica) 160.0 0.0 true true 0 ( 9)]
] -53.3 MCshow
1.000 UL
LTb
3688 3000 M
0 63 V
0 1785 R
0 -63 V
stroke
3688 2840 M
[ [(Helvetica) 160.0 0.0 true true 0 ( 10)]
] -53.3 MCshow
1.000 UL
LTb
1.000 UL
LTb
1008 3000 M
2680 0 V
0 1848 V
-2680 0 V
0 -1848 V
LTb
160 3924 M
currentpoint gsave translate 90 rotate 0 0 moveto
[ [(Symbol) 160.0 0.0 true true 0 (s)]
[(Helvetica) 128.0 -48.0 true true 0 (x)]
[(Helvetica) 160.0 0.0 true true 0 ( [)]
[(Symbol) 160.0 0.0 true true 0 (m)]
[(Helvetica) 160.0 0.0 true true 0 (m])]
] -37.3 MCshow
grestore
LTb
2348 2600 M
[ [(Helvetica) 160.0 0.0 true true 0 (Maximum order considered)]
] -53.3 MCshow
1.000 UP
LTb
-479 -98222 M
[ [(Helvetica) 230.0 0.0 true true 0 (Beam at FFIN)]
] -76.7 MLshow
1.000 UL
LT0
LTb
3241 4705 M
[ [(Symbol) 160.0 0.0 true true 0 (s)]
[(Helvetica) 128.0 -48.0 true true 0 (x)]
[(Helvetica) 160.0 0.0 true true 0 ( )]
] -37.3 MRshow
LT0
3337 4705 M
159 0 V
1008 3980 M
298 778 V
1604 3179 L
297 -16 V
298 2 V
298 0 V
298 0 V
297 0 V
298 0 V
298 0 V
1.000 UL
LTb
1008 3000 M
2680 0 V
0 1848 V
-2680 0 V
0 -1848 V
1.000 UP
1.000 UL
LTb
4776 3000 M
63 0 V
2809 0 R
-63 0 V
stroke
4680 3000 M
[ [(Helvetica) 160.0 0.0 true true 0 ( 500)]
] -53.3 MRshow
1.000 UL
LTb
4776 3308 M
63 0 V
2809 0 R
-63 0 V
stroke
4680 3308 M
[ [(Helvetica) 160.0 0.0 true true 0 ( 505)]
] -53.3 MRshow
1.000 UL
LTb
4776 3616 M
63 0 V
2809 0 R
-63 0 V
stroke
4680 3616 M
[ [(Helvetica) 160.0 0.0 true true 0 ( 510)]
] -53.3 MRshow
1.000 UL
LTb
4776 3924 M
63 0 V
2809 0 R
-63 0 V
stroke
4680 3924 M
[ [(Helvetica) 160.0 0.0 true true 0 ( 515)]
] -53.3 MRshow
1.000 UL
LTb
4776 4232 M
63 0 V
2809 0 R
-63 0 V
stroke
4680 4232 M
[ [(Helvetica) 160.0 0.0 true true 0 ( 520)]
] -53.3 MRshow
1.000 UL
LTb
4776 4540 M
63 0 V
2809 0 R
-63 0 V
stroke
4680 4540 M
[ [(Helvetica) 160.0 0.0 true true 0 ( 525)]
] -53.3 MRshow
1.000 UL
LTb
4776 4848 M
63 0 V
2809 0 R
-63 0 V
stroke
4680 4848 M
[ [(Helvetica) 160.0 0.0 true true 0 ( 530)]
] -53.3 MRshow
1.000 UL
LTb
4776 3000 M
0 63 V
0 1785 R
0 -63 V
stroke
4776 2840 M
[ [(Helvetica) 160.0 0.0 true true 0 ( 1)]
] -53.3 MCshow
1.000 UL
LTb
5095 3000 M
0 63 V
0 1785 R
0 -63 V
stroke
5095 2840 M
[ [(Helvetica) 160.0 0.0 true true 0 ( 2)]
] -53.3 MCshow
1.000 UL
LTb
5414 3000 M
0 63 V
0 1785 R
0 -63 V
stroke
5414 2840 M
[ [(Helvetica) 160.0 0.0 true true 0 ( 3)]
] -53.3 MCshow
1.000 UL
LTb
5733 3000 M
0 63 V
0 1785 R
0 -63 V
stroke
5733 2840 M
[ [(Helvetica) 160.0 0.0 true true 0 ( 4)]
] -53.3 MCshow
1.000 UL
LTb
6052 3000 M
0 63 V
0 1785 R
0 -63 V
stroke
6052 2840 M
[ [(Helvetica) 160.0 0.0 true true 0 ( 5)]
] -53.3 MCshow
1.000 UL
LTb
6372 3000 M
0 63 V
0 1785 R
0 -63 V
stroke
6372 2840 M
[ [(Helvetica) 160.0 0.0 true true 0 ( 6)]
] -53.3 MCshow
1.000 UL
LTb
6691 3000 M
0 63 V
0 1785 R
0 -63 V
stroke
6691 2840 M
[ [(Helvetica) 160.0 0.0 true true 0 ( 7)]
] -53.3 MCshow
1.000 UL
LTb
7010 3000 M
0 63 V
0 1785 R
0 -63 V
stroke
7010 2840 M
[ [(Helvetica) 160.0 0.0 true true 0 ( 8)]
] -53.3 MCshow
1.000 UL
LTb
7329 3000 M
0 63 V
0 1785 R
0 -63 V
stroke
7329 2840 M
[ [(Helvetica) 160.0 0.0 true true 0 ( 9)]
] -53.3 MCshow
1.000 UL
LTb
7648 3000 M
0 63 V
0 1785 R
0 -63 V
stroke
7648 2840 M
[ [(Helvetica) 160.0 0.0 true true 0 ( 10)]
] -53.3 MCshow
1.000 UL
LTb
1.000 UL
LTb
4776 3000 M
2872 0 V
0 1848 V
-2872 0 V
0 -1848 V
LTb
4120 3924 M
currentpoint gsave translate 90 rotate 0 0 moveto
[ [(Symbol) 160.0 0.0 true true 0 (s)]
[(Helvetica) 128.0 -48.0 true true 0 (y)]
[(Helvetica) 160.0 0.0 true true 0 ( [nm] )]
] -37.3 MCshow
grestore
LTb
6212 2600 M
[ [(Helvetica) 160.0 0.0 true true 0 (Maximum order considered)]
] -53.3 MCshow
1.000 UP
LTb
3180 -27791 M
[ [(Helvetica) 230.0 0.0 true true 0 (Beam at FFIN)]
] -76.7 MLshow
1.000 UL
LT0
LTb
7201 4705 M
[ [(Symbol) 160.0 0.0 true true 0 (s)]
[(Helvetica) 128.0 -48.0 true true 0 (y)]
[(Helvetica) 160.0 0.0 true true 0 ( )]
] -37.3 MRshow
LT0
7297 4705 M
159 0 V
4776 3023 M
319 1464 V
319 103 V
319 -47 V
319 -19 V
320 0 V
319 0 V
319 0 V
319 0 V
319 0 V
1.000 UL
LTb
4776 3000 M
2872 0 V
0 1848 V
-2872 0 V
0 -1848 V
1.000 UP
1.000 UL
LTb
1008 480 M
63 0 V
2617 0 R
-63 0 V
stroke
912 480 M
[ [(Helvetica) 160.0 0.0 true true 0 ( 0.293)]
] -53.3 MRshow
1.000 UL
LTb
1008 711 M
63 0 V
2617 0 R
-63 0 V
stroke
912 711 M
[ [(Helvetica) 160.0 0.0 true true 0 ( 0.294)]
] -53.3 MRshow
1.000 UL
LTb
1008 942 M
63 0 V
2617 0 R
-63 0 V
stroke
912 942 M
[ [(Helvetica) 160.0 0.0 true true 0 ( 0.295)]
] -53.3 MRshow
1.000 UL
LTb
1008 1173 M
63 0 V
2617 0 R
-63 0 V
stroke
912 1173 M
[ [(Helvetica) 160.0 0.0 true true 0 ( 0.296)]
] -53.3 MRshow
1.000 UL
LTb
1008 1404 M
63 0 V
2617 0 R
-63 0 V
stroke
912 1404 M
[ [(Helvetica) 160.0 0.0 true true 0 ( 0.297)]
] -53.3 MRshow
1.000 UL
LTb
1008 1635 M
63 0 V
2617 0 R
-63 0 V
stroke
912 1635 M
[ [(Helvetica) 160.0 0.0 true true 0 ( 0.298)]
] -53.3 MRshow
1.000 UL
LTb
1008 1866 M
63 0 V
2617 0 R
-63 0 V
stroke
912 1866 M
[ [(Helvetica) 160.0 0.0 true true 0 ( 0.299)]
] -53.3 MRshow
1.000 UL
LTb
1008 2097 M
63 0 V
2617 0 R
-63 0 V
stroke
912 2097 M
[ [(Helvetica) 160.0 0.0 true true 0 ( 0.3)]
] -53.3 MRshow
1.000 UL
LTb
1008 2328 M
63 0 V
2617 0 R
-63 0 V
stroke
912 2328 M
[ [(Helvetica) 160.0 0.0 true true 0 ( 0.301)]
] -53.3 MRshow
1.000 UL
LTb
1008 480 M
0 63 V
0 1785 R
0 -63 V
stroke
1008 320 M
[ [(Helvetica) 160.0 0.0 true true 0 ( 1)]
] -53.3 MCshow
1.000 UL
LTb
1306 480 M
0 63 V
0 1785 R
0 -63 V
stroke
1306 320 M
[ [(Helvetica) 160.0 0.0 true true 0 ( 2)]
] -53.3 MCshow
1.000 UL
LTb
1604 480 M
0 63 V
0 1785 R
0 -63 V
stroke
1604 320 M
[ [(Helvetica) 160.0 0.0 true true 0 ( 3)]
] -53.3 MCshow
1.000 UL
LTb
1901 480 M
0 63 V
0 1785 R
0 -63 V
stroke
1901 320 M
[ [(Helvetica) 160.0 0.0 true true 0 ( 4)]
] -53.3 MCshow
1.000 UL
LTb
2199 480 M
0 63 V
0 1785 R
0 -63 V
stroke
2199 320 M
[ [(Helvetica) 160.0 0.0 true true 0 ( 5)]
] -53.3 MCshow
1.000 UL
LTb
2497 480 M
0 63 V
0 1785 R
0 -63 V
stroke
2497 320 M
[ [(Helvetica) 160.0 0.0 true true 0 ( 6)]
] -53.3 MCshow
1.000 UL
LTb
2795 480 M
0 63 V
0 1785 R
0 -63 V
stroke
2795 320 M
[ [(Helvetica) 160.0 0.0 true true 0 ( 7)]
] -53.3 MCshow
1.000 UL
LTb
3092 480 M
0 63 V
0 1785 R
0 -63 V
stroke
3092 320 M
[ [(Helvetica) 160.0 0.0 true true 0 ( 8)]
] -53.3 MCshow
1.000 UL
LTb
3390 480 M
0 63 V
0 1785 R
0 -63 V
stroke
3390 320 M
[ [(Helvetica) 160.0 0.0 true true 0 ( 9)]
] -53.3 MCshow
1.000 UL
LTb
3688 480 M
0 63 V
0 1785 R
0 -63 V
stroke
3688 320 M
[ [(Helvetica) 160.0 0.0 true true 0 ( 10)]
] -53.3 MCshow
1.000 UL
LTb
1.000 UL
LTb
1008 480 M
2680 0 V
0 1848 V
-2680 0 V
0 -1848 V
LTb
160 1404 M
currentpoint gsave translate 90 rotate 0 0 moveto
[ [(Symbol) 160.0 0.0 true true 0 (s)]
[(Helvetica) 128.0 -48.0 true true 0 (p)]
[(Helvetica) 160.0 0.0 true true 0 (x [10)]
[(Helvetica) 128.0 80.0 true true 0 (-6)]
[(Helvetica) 160.0 0.0 true true 0 (] )]
] -53.3 MCshow
grestore
LTb
2348 80 M
[ [(Helvetica) 160.0 0.0 true true 0 (Maximum order considered)]
] -53.3 MCshow
1.000 UP
LTb
-479 -40058 M
[ [(Helvetica) 230.0 0.0 true true 0 (Beam at FFIN)]
] -76.7 MLshow
1.000 UL
LT0
LTb
3241 2185 M
[ [(Symbol) 160.0 0.0 true true 0 (s)]
[(Helvetica) 128.0 -48.0 true true 0 (px)]
[(Helvetica) 160.0 0.0 true true 0 ( )]
] -37.3 MRshow
LT0
3337 2185 M
159 0 V
1008 616 M
298 1645 V
298 -482 V
297 -17 V
298 1 V
298 0 V
298 0 V
297 0 V
298 0 V
298 0 V
1.000 UL
LTb
1008 480 M
2680 0 V
0 1848 V
-2680 0 V
0 -1848 V
1.000 UP
1.000 UL
LTb
4968 480 M
63 0 V
2617 0 R
-63 0 V
stroke
4872 480 M
[ [(Helvetica) 160.0 0.0 true true 0 ( 0.102)]
] -53.3 MRshow
1.000 UL
LTb
4968 788 M
63 0 V
2617 0 R
-63 0 V
stroke
4872 788 M
[ [(Helvetica) 160.0 0.0 true true 0 ( 0.103)]
] -53.3 MRshow
1.000 UL
LTb
4968 1096 M
63 0 V
2617 0 R
-63 0 V
stroke
4872 1096 M
[ [(Helvetica) 160.0 0.0 true true 0 ( 0.104)]
] -53.3 MRshow
1.000 UL
LTb
4968 1404 M
63 0 V
2617 0 R
-63 0 V
stroke
4872 1404 M
[ [(Helvetica) 160.0 0.0 true true 0 ( 0.105)]
] -53.3 MRshow
1.000 UL
LTb
4968 1712 M
63 0 V
2617 0 R
-63 0 V
stroke
4872 1712 M
[ [(Helvetica) 160.0 0.0 true true 0 ( 0.106)]
] -53.3 MRshow
1.000 UL
LTb
4968 2020 M
63 0 V
2617 0 R
-63 0 V
stroke
4872 2020 M
[ [(Helvetica) 160.0 0.0 true true 0 ( 0.107)]
] -53.3 MRshow
1.000 UL
LTb
4968 2328 M
63 0 V
2617 0 R
-63 0 V
stroke
4872 2328 M
[ [(Helvetica) 160.0 0.0 true true 0 ( 0.108)]
] -53.3 MRshow
1.000 UL
LTb
4968 480 M
0 63 V
0 1785 R
0 -63 V
stroke
4968 320 M
[ [(Helvetica) 160.0 0.0 true true 0 ( 1)]
] -53.3 MCshow
1.000 UL
LTb
5266 480 M
0 63 V
0 1785 R
0 -63 V
stroke
5266 320 M
[ [(Helvetica) 160.0 0.0 true true 0 ( 2)]
] -53.3 MCshow
1.000 UL
LTb
5564 480 M
0 63 V
0 1785 R
0 -63 V
stroke
5564 320 M
[ [(Helvetica) 160.0 0.0 true true 0 ( 3)]
] -53.3 MCshow
1.000 UL
LTb
5861 480 M
0 63 V
0 1785 R
0 -63 V
stroke
5861 320 M
[ [(Helvetica) 160.0 0.0 true true 0 ( 4)]
] -53.3 MCshow
1.000 UL
LTb
6159 480 M
0 63 V
0 1785 R
0 -63 V
stroke
6159 320 M
[ [(Helvetica) 160.0 0.0 true true 0 ( 5)]
] -53.3 MCshow
1.000 UL
LTb
6457 480 M
0 63 V
0 1785 R
0 -63 V
stroke
6457 320 M
[ [(Helvetica) 160.0 0.0 true true 0 ( 6)]
] -53.3 MCshow
1.000 UL
LTb
6755 480 M
0 63 V
0 1785 R
0 -63 V
stroke
6755 320 M
[ [(Helvetica) 160.0 0.0 true true 0 ( 7)]
] -53.3 MCshow
1.000 UL
LTb
7052 480 M
0 63 V
0 1785 R
0 -63 V
stroke
7052 320 M
[ [(Helvetica) 160.0 0.0 true true 0 ( 8)]
] -53.3 MCshow
1.000 UL
LTb
7350 480 M
0 63 V
0 1785 R
0 -63 V
stroke
7350 320 M
[ [(Helvetica) 160.0 0.0 true true 0 ( 9)]
] -53.3 MCshow
1.000 UL
LTb
7648 480 M
0 63 V
0 1785 R
0 -63 V
stroke
7648 320 M
[ [(Helvetica) 160.0 0.0 true true 0 ( 10)]
] -53.3 MCshow
1.000 UL
LTb
1.000 UL
LTb
4968 480 M
2680 0 V
0 1848 V
-2680 0 V
0 -1848 V
LTb
4120 1404 M
currentpoint gsave translate 90 rotate 0 0 moveto
[ [(Symbol) 160.0 0.0 true true 0 (s)]
[(Helvetica) 128.0 -48.0 true true 0 (p)]
[(Helvetica) 160.0 0.0 true true 0 (y [10)]
[(Helvetica) 128.0 80.0 true true 0 (-6)]
[(Helvetica) 160.0 0.0 true true 0 (] )]
] -53.3 MCshow
grestore
LTb
6308 80 M
[ [(Helvetica) 160.0 0.0 true true 0 (Maximum order considered)]
] -53.3 MCshow
1.000 UP
LTb
3479 5254 M
[ [(Helvetica) 230.0 0.0 true true 0 (Beam at FFIN)]
] -76.7 MLshow
1.000 UL
LT0
LTb
7201 2185 M
[ [(Symbol) 160.0 0.0 true true 0 (s)]
[(Helvetica) 128.0 -48.0 true true 0 (py)]
[(Helvetica) 160.0 0.0 true true 0 ( )]
] -37.3 MRshow
LT0
7297 2185 M
159 0 V
4968 518 M
298 892 V
298 824 V
297 -16 V
298 -2 V
298 0 V
298 0 V
297 0 V
298 0 V
298 0 V
1.000 UL
LTb
4968 480 M
2680 0 V
0 1848 V
-2680 0 V
0 -1848 V
1.000 UP
stroke
grestore
end
showpage
%%Trailer
%%DocumentFonts: Symbol Helvetica
%%Pages: 1
