%!PS-Adobe-2.0 EPSF-2.0
%%Title: doublet.fig
%%Creator: fig2dev Version 3.2 Patchlevel 4
%%CreationDate: Mon Jun 21 17:08:26 2010
%%For: rtomas@abpc11073.cern.ch (Rogelio TOMAS GARCIA)
%%BoundingBox: 0 0 424 117
%%Magnification: 1.0000
%%EndComments
/$F2psDict 200 dict def
$F2psDict begin
$F2psDict /mtrx matrix put
/col-1 {0 setgray} bind def
/col0 {0.000 0.000 0.000 srgb} bind def
/col1 {0.000 0.000 1.000 srgb} bind def
/col2 {0.000 1.000 0.000 srgb} bind def
/col3 {0.000 1.000 1.000 srgb} bind def
/col4 {1.000 0.000 0.000 srgb} bind def
/col5 {1.000 0.000 1.000 srgb} bind def
/col6 {1.000 1.000 0.000 srgb} bind def
/col7 {1.000 1.000 1.000 srgb} bind def
/col8 {0.000 0.000 0.560 srgb} bind def
/col9 {0.000 0.000 0.690 srgb} bind def
/col10 {0.000 0.000 0.820 srgb} bind def
/col11 {0.530 0.810 1.000 srgb} bind def
/col12 {0.000 0.560 0.000 srgb} bind def
/col13 {0.000 0.690 0.000 srgb} bind def
/col14 {0.000 0.820 0.000 srgb} bind def
/col15 {0.000 0.560 0.560 srgb} bind def
/col16 {0.000 0.690 0.690 srgb} bind def
/col17 {0.000 0.820 0.820 srgb} bind def
/col18 {0.560 0.000 0.000 srgb} bind def
/col19 {0.690 0.000 0.000 srgb} bind def
/col20 {0.820 0.000 0.000 srgb} bind def
/col21 {0.560 0.000 0.560 srgb} bind def
/col22 {0.690 0.000 0.690 srgb} bind def
/col23 {0.820 0.000 0.820 srgb} bind def
/col24 {0.500 0.190 0.000 srgb} bind def
/col25 {0.630 0.250 0.000 srgb} bind def
/col26 {0.750 0.380 0.000 srgb} bind def
/col27 {1.000 0.500 0.500 srgb} bind def
/col28 {1.000 0.630 0.630 srgb} bind def
/col29 {1.000 0.750 0.750 srgb} bind def
/col30 {1.000 0.880 0.880 srgb} bind def
/col31 {1.000 0.840 0.000 srgb} bind def

end
save
newpath 0 117 moveto 0 0 lineto 424 0 lineto 424 117 lineto closepath clip newpath
-67.5 171.0 translate
1 -1 scale

/cp {closepath} bind def
/ef {eofill} bind def
/gr {grestore} bind def
/gs {gsave} bind def
/sa {save} bind def
/rs {restore} bind def
/l {lineto} bind def
/m {moveto} bind def
/rm {rmoveto} bind def
/n {newpath} bind def
/s {stroke} bind def
/sh {show} bind def
/slc {setlinecap} bind def
/slj {setlinejoin} bind def
/slw {setlinewidth} bind def
/srgb {setrgbcolor} bind def
/rot {rotate} bind def
/sc {scale} bind def
/sd {setdash} bind def
/ff {findfont} bind def
/sf {setfont} bind def
/scf {scalefont} bind def
/sw {stringwidth} bind def
/tr {translate} bind def
/tnt {dup dup currentrgbcolor
  4 -2 roll dup 1 exch sub 3 -1 roll mul add
  4 -2 roll dup 1 exch sub 3 -1 roll mul add
  4 -2 roll dup 1 exch sub 3 -1 roll mul add srgb}
  bind def
/shd {dup dup currentrgbcolor 4 -2 roll mul 4 -2 roll mul
  4 -2 roll mul srgb} bind def
/$F2psBegin {$F2psDict begin /$F2psEnteredState save def} def
/$F2psEnd {$F2psEnteredState restore end} def

$F2psBegin
10 setmiterlimit
0 slj 0 slc
 0.06000 0.06000 sc
%
% Fig objects follow
%
% 
% here starts figure with depth 50
% Polyline
7.500 slw
n 1200 2100 m
 8175 2100 l gs col0 s gr 
% Polyline
n 2400 1800 m 3300 1800 l 3300 2475 l 2400 2475 l
 cp gs col0 s gr 
% Polyline
gs  clippath
2415 1380 m 2415 1320 l 2264 1320 l 2384 1350 l 2264 1380 l cp
1185 1320 m 1185 1380 l 1336 1380 l 1216 1350 l 1336 1320 l cp
eoclip
n 1200 1350 m
 2400 1350 l gs col0 s gr gr

% arrowhead
n 1336 1320 m 1216 1350 l 1336 1380 l 1336 1320 l  cp gs 0.00 setgray ef gr  col0 s
% arrowhead
n 2264 1380 m 2384 1350 l 2264 1320 l 2264 1380 l  cp gs 0.00 setgray ef gr  col0 s
% Polyline
gs  clippath
3315 1380 m 3315 1320 l 3164 1320 l 3284 1350 l 3164 1380 l cp
2385 1320 m 2385 1380 l 2536 1380 l 2416 1350 l 2536 1320 l cp
eoclip
n 2400 1350 m
 3300 1350 l gs col0 s gr gr

% arrowhead
n 2536 1320 m 2416 1350 l 2536 1380 l 2536 1320 l  cp gs 0.00 setgray ef gr  col0 s
% arrowhead
n 3164 1380 m 3284 1350 l 3164 1320 l 3164 1380 l  cp gs 0.00 setgray ef gr  col0 s
% Polyline
n 3630 1800 m 3525 1800 3525 2370 105 arcto 4 {pop} repeat
  3525 2475 3945 2475 105 arcto 4 {pop} repeat
  4050 2475 4050 1905 105 arcto 4 {pop} repeat
  4050 1800 3630 1800 105 arcto 4 {pop} repeat
 cp gs col0 s gr 
% Polyline
gs  clippath
4065 1380 m 4065 1320 l 3914 1320 l 4034 1350 l 3914 1380 l cp
3510 1320 m 3510 1380 l 3661 1380 l 3541 1350 l 3661 1320 l cp
eoclip
n 3525 1350 m
 4050 1350 l gs col0 s gr gr

% arrowhead
n 3661 1320 m 3541 1350 l 3661 1380 l 3661 1320 l  cp gs 0.00 setgray ef gr  col0 s
% arrowhead
n 3914 1380 m 4034 1350 l 3914 1320 l 3914 1380 l  cp gs 0.00 setgray ef gr  col0 s
% Polyline
1 slc
gs  clippath
3615 1755 m 3615 1695 l 3464 1695 l 3584 1725 l 3464 1755 l cp
3285 1695 m 3285 1755 l 3436 1755 l 3316 1725 l 3436 1695 l cp
eoclip
n 3300 1725 m
 3600 1725 l gs col0 s gr gr

% arrowhead
0 slc
n 3436 1695 m 3316 1725 l 3436 1755 l 3436 1695 l  cp gs 0.00 setgray ef gr  col0 s
% arrowhead
n 3464 1755 m 3584 1725 l 3464 1695 l 3464 1755 l  cp gs 0.00 setgray ef gr  col0 s
% Polyline
1 slc
n 4155 1800 m 4050 1800 4050 2370 105 arcto 4 {pop} repeat
  4050 2475 4470 2475 105 arcto 4 {pop} repeat
  4575 2475 4575 1905 105 arcto 4 {pop} repeat
  4575 1800 4155 1800 105 arcto 4 {pop} repeat
 cp gs col0 s gr 
% Polyline
gs  clippath
4590 1380 m 4590 1320 l 4439 1320 l 4559 1350 l 4439 1380 l cp
4035 1320 m 4035 1380 l 4186 1380 l 4066 1350 l 4186 1320 l cp
eoclip
n 4050 1350 m
 4575 1350 l gs col0 s gr gr

% arrowhead
0 slc
n 4186 1320 m 4066 1350 l 4186 1380 l 4186 1320 l  cp gs 0.00 setgray ef gr  col0 s
% arrowhead
n 4439 1380 m 4559 1350 l 4439 1320 l 4439 1380 l  cp gs 0.00 setgray ef gr  col0 s
% Polyline
1 slc
n 5475 1800 m 6750 1800 l 6750 2475 l 5475 2475 l
 cp gs col0 s gr 
% Polyline
gs  clippath
5490 1380 m 5490 1320 l 5339 1320 l 5459 1350 l 5339 1380 l cp
4635 1320 m 4635 1380 l 4786 1380 l 4666 1350 l 4786 1320 l cp
eoclip
n 4650 1350 m
 5475 1350 l gs col0 s gr gr

% arrowhead
0 slc
n 4786 1320 m 4666 1350 l 4786 1380 l 4786 1320 l  cp gs 0.00 setgray ef gr  col0 s
% arrowhead
n 5339 1380 m 5459 1350 l 5339 1320 l 5339 1380 l  cp gs 0.00 setgray ef gr  col0 s
% Polyline
1 slc
gs  clippath
6765 1380 m 6765 1320 l 6614 1320 l 6734 1350 l 6614 1380 l cp
5460 1320 m 5460 1380 l 5611 1380 l 5491 1350 l 5611 1320 l cp
eoclip
n 5475 1350 m
 6750 1350 l gs col0 s gr gr

% arrowhead
0 slc
n 5611 1320 m 5491 1350 l 5611 1380 l 5611 1320 l  cp gs 0.00 setgray ef gr  col0 s
% arrowhead
n 6614 1380 m 6734 1350 l 6614 1320 l 6614 1380 l  cp gs 0.00 setgray ef gr  col0 s
% Polyline
1 slc
gs  clippath
7065 1755 m 7065 1695 l 6914 1695 l 7034 1725 l 6914 1755 l cp
6735 1695 m 6735 1755 l 6886 1755 l 6766 1725 l 6886 1695 l cp
eoclip
n 6750 1725 m
 7050 1725 l gs col0 s gr gr

% arrowhead
0 slc
n 6886 1695 m 6766 1725 l 6886 1755 l 6886 1695 l  cp gs 0.00 setgray ef gr  col0 s
% arrowhead
n 6914 1755 m 7034 1725 l 6914 1695 l 6914 1755 l  cp gs 0.00 setgray ef gr  col0 s
% Polyline
n 7155 1800 m 7050 1800 7050 2370 105 arcto 4 {pop} repeat
  7050 2475 7470 2475 105 arcto 4 {pop} repeat
  7575 2475 7575 1905 105 arcto 4 {pop} repeat
  7575 1800 7155 1800 105 arcto 4 {pop} repeat
 cp gs col0 s gr 
% Polyline
gs  clippath
7665 1380 m 7665 1320 l 7514 1320 l 7634 1350 l 7514 1380 l cp
7110 1320 m 7110 1380 l 7261 1380 l 7141 1350 l 7261 1320 l cp
eoclip
n 7125 1350 m
 7650 1350 l gs col0 s gr gr

% arrowhead
n 7261 1320 m 7141 1350 l 7261 1380 l 7261 1320 l  cp gs 0.00 setgray ef gr  col0 s
% arrowhead
n 7514 1380 m 7634 1350 l 7514 1320 l 7514 1380 l  cp gs 0.00 setgray ef gr  col0 s
/Times-Roman ff 285.00 scf sf
1125 2400 m
gs 1 -1 sc (IP) col0 sh gr
/Times-Roman ff 285.00 scf sf
1575 1125 m
gs 1 -1 sc (3.5m) col0 sh gr
/Times-Roman ff 285.00 scf sf
2625 1125 m
gs 1 -1 sc (2.7m) col0 sh gr
/Times-Roman ff 285.00 scf sf
2625 2850 m
gs 1 -1 sc (QD0) col0 sh gr
/Times-Roman ff 285.00 scf sf
3150 1650 m
gs 1 -1 sc (25cm) col0 sh gr
/Times-Roman ff 285.00 scf sf
4050 1125 m
gs 1 -1 sc (0.5m) col0 sh gr
/Times-Roman ff 285.00 scf sf
3375 1125 m
gs 1 -1 sc (0.5m) col0 sh gr
/Times-Roman ff 285.00 scf sf
3450 2850 m
gs 1 -1 sc (SD0) col0 sh gr
/Times-Roman ff 285.00 scf sf
4125 2850 m
gs 1 -1 sc (MULT) col0 sh gr
/Times-Roman ff 285.00 scf sf
4800 1200 m
gs 1 -1 sc (2.5m) col0 sh gr
/Times-Roman ff 285.00 scf sf
5775 1275 m
gs 1 -1 sc (3.5m) col0 sh gr
/Times-Roman ff 285.00 scf sf
6675 1650 m
gs 1 -1 sc (25cm) col0 sh gr
/Times-Roman ff 285.00 scf sf
7050 2850 m
gs 1 -1 sc (SF1) col0 sh gr
/Times-Roman ff 285.00 scf sf
5850 2850 m
gs 1 -1 sc (QF1) col0 sh gr
/Times-Roman ff 285.00 scf sf
7050 1200 m
gs 1 -1 sc (0.5m) col0 sh gr
% here ends figure;
$F2psEnd
rs
showpage
