\relax 
\ifx\hyper@anchor\@undefined
\global \let \oldcontentsline\contentsline
\gdef \contentsline#1#2#3#4{\oldcontentsline{#1}{#2}{#3}}
\global \let \oldnewlabel\newlabel
\gdef \newlabel#1#2{\newlabelxx{#1}#2}
\gdef \newlabelxx#1#2#3#4#5#6{\oldnewlabel{#1}{{#2}{#3}}}
\AtEndDocument{\let \contentsline\oldcontentsline
\let \newlabel\oldnewlabel}
\else
\global \let \hyper@last\relax 
\fi

\citation{CLICr}
\@writefile{toc}{\contentsline {subsection}{\numberline {3.5}Beam Delivery Systems}{1}{subsection.0.3.5}}
\newlabel{BDS}{{3.5}{1}{Beam Delivery Systems\relax }{subsection.0.3.5}{}}
\@writefile{toc}{\contentsline {subsubsection}{\numberline {3.5.1}Overview}{1}{subsubsection.0.3.5.1}}
\newlabel{BDS:Overview}{{3.5.1}{1}{Overview\relax }{subsubsection.0.3.5.1}{}}
\@writefile{toc}{\contentsline {subsubsection}{\numberline {3.5.2}Beam parameters}{1}{subsubsection.0.3.5.2}}
\newlabel{BDS:parameters}{{3.5.2}{1}{Beam parameters\relax }{subsubsection.0.3.5.2}{}}
\@writefile{toc}{\contentsline {subsubsection}{\numberline {3.5.3}Subsystems}{1}{subsubsection.0.3.5.3}}
\newlabel{BDS:Systems}{{3.5.3}{1}{Subsystems\relax }{subsubsection.0.3.5.3}{}}
\@writefile{toc}{\contentsline {paragraph}{\numberline {3.5.3.1}Diagnostics}{1}{paragraph.0.3.5.3.1}}
\newlabel{BDS:Diagnostics}{{3.5.3.1}{1}{Diagnostics\relax }{paragraph.0.3.5.3.1}{}}
\@writefile{lot}{\contentsline {table}{\numberline {1}{\ignorespaces Key parameters of the BDS. The range of L$^*$, the distance from the final quadrupole to the IP, corresponds to values considered for different detector and FFS concepts. }}{2}{table.0.1}}
\newlabel{BDS:parameters:table}{{1}{2}{Beam parameters\relax }{table.0.1}{}}
\@writefile{lof}{\contentsline {figure}{\numberline {1}{\ignorespaces CLIC 3\nobreakspace  {}TeV layout. Dipoles, quadrupoles and collimators are shown in blue, red and black, respectively. The tune-up dump and its extraction line are also displayed.}}{2}{figure.0.1}}
\newlabel{3TeVlayout}{{1}{2}{Subsystems\relax }{figure.0.1}{}}
\citation{schuler}
\citation{vasilis}
\citation{Javier}
\@writefile{lof}{\contentsline {figure}{\numberline {2}{\ignorespaces Optics (top) and layout (bottom) of the CLIC diagnostics and energy collimation sections.}}{3}{figure.0.2}}
\newlabel{diagnostics}{{2}{3}{Diagnostics\relax }{figure.0.2}{}}
\@writefile{toc}{\contentsline {paragraph}{\numberline {3.5.3.2}Tune-up extraction lines \& dumps}{3}{paragraph.0.3.5.3.2}}
\newlabel{BDS:tune-up}{{3.5.3.2}{3}{Tune-up extraction lines \& dumps\relax }{paragraph.0.3.5.3.2}{}}
\@writefile{toc}{\contentsline {paragraph}{\numberline {3.5.3.3}Collimation}{3}{paragraph.0.3.5.3.3}}
\newlabel{BDS:Collimation}{{3.5.3.3}{3}{Collimation\relax }{paragraph.0.3.5.3.3}{}}
\citation{vasilis}
\citation{PLACET}
\citation{EUROTeV-Report-2008-076}
\citation{Agapov2009708}
\@writefile{lot}{\contentsline {table}{\numberline {2}{\ignorespaces Geometry of the BDS spoilers and absorbers. The radiation lengths for Be and Ti are $X_0$=0.353\nobreakspace  {}m and $X_0$=0.036\nobreakspace  {}m, respectively. The material (Ti-Cu) of the transverse spoilers (YSP and XSP) is Ti with a Cu coating. }}{4}{table.0.2}}
\newlabel{colltab}{{2}{4}{Collimation\relax }{table.0.2}{}}
\@writefile{lof}{\contentsline {figure}{\numberline {3}{\ignorespaces Optics (top) and layout (bottom) of the CLIC betatron collimation and final focus sections.}}{4}{figure.0.3}}
\newlabel{ffs}{{3}{4}{Collimation\relax }{figure.0.3}{}}
\citation{Lucie}
\citation{Burkhardt:2010zz}
\citation{Raimondi}
\citation{Tomas}
\@writefile{toc}{\contentsline {paragraph}{\numberline {3.5.3.4}Muon suppression}{5}{paragraph.0.3.5.3.4}}
\newlabel{BDS:Muon}{{3.5.3.4}{5}{Muon suppression\relax }{paragraph.0.3.5.3.4}{}}
\@writefile{toc}{\contentsline {paragraph}{\numberline {3.5.3.5}Final Focus}{5}{paragraph.0.3.5.3.5}}
\newlabel{BDS:FFS}{{3.5.3.5}{5}{Final Focus\relax }{paragraph.0.3.5.3.5}{}}
\@writefile{toc}{\contentsline {paragraph}{\numberline {3.5.3.6}Crab Cavity}{5}{paragraph.0.3.5.3.6}}
\newlabel{BDS:CrabCavity}{{3.5.3.6}{5}{Crab Cavity\relax }{paragraph.0.3.5.3.6}{}}
\citation{Guillermo}
\citation{Dalena}
\citation{Oide}
\citation{CLIC08}
\citation{barbSol}
\citation{ian}
\citation{JB}
\citation{AS}
\citation{RaphaelMuntzner}
\citation{RaphaelMuntzner}
\@writefile{lot}{\contentsline {table}{\numberline {3}{\ignorespaces Total luminosity and luminosity in the 1\% energy peak for the various L* under consideration.}}{6}{table.0.3}}
\newlabel{l*}{{3}{6}{Alternative L$^*$\relax }{table.0.3}{}}
\@writefile{toc}{\contentsline {paragraph}{\numberline {3.5.3.7}Alternative L$^*$}{6}{paragraph.0.3.5.3.7}}
\newlabel{BDS:Lstar}{{3.5.3.7}{6}{Alternative L$^*$\relax }{paragraph.0.3.5.3.7}{}}
\@writefile{toc}{\contentsline {subsubsection}{\numberline {3.5.4}Accelerator physics issues}{6}{subsubsection.0.3.5.4}}
\newlabel{BDS:issues}{{3.5.4}{6}{Accelerator physics issues\relax }{subsubsection.0.3.5.4}{}}
\@writefile{toc}{\contentsline {paragraph}{\numberline {3.5.4.1}Synchrotron radiation and the detector solenoid}{6}{paragraph.0.3.5.4.1}}
\@writefile{toc}{\contentsline {paragraph}{\numberline {3.5.4.2}Crab Cavity effects}{6}{paragraph.0.3.5.4.2}}
\@writefile{toc}{\contentsline {paragraph}{\numberline {3.5.4.3}Beam pipe aperture}{6}{paragraph.0.3.5.4.3}}
\@writefile{lof}{\contentsline {figure}{\numberline {4}{\ignorespaces Beam pipe aperture radius along the BDS.}}{7}{figure.0.4}}
\newlabel{aper}{{4}{7}{Beam pipe aperture\relax }{figure.0.4}{}}
\@writefile{lof}{\contentsline {figure}{\numberline {5}{\ignorespaces Relative CLIC luminosity versus initial beam offsets for the cases with and without collimator wakefield effects.}}{7}{figure.0.5}}
\newlabel{collwakes}{{5}{7}{Collimators wakefields\relax }{figure.0.5}{}}
\@writefile{toc}{\contentsline {paragraph}{\numberline {3.5.4.4}Collimators wakefields}{7}{paragraph.0.3.5.4.4}}
\@writefile{toc}{\contentsline {paragraph}{\numberline {3.5.4.5}FFS tuning}{7}{paragraph.0.3.5.4.5}}
\citation{lumimeas}
\citation{Eliasson}
\citation{BarbaLumi}
\citation{antisolenoid}
\@writefile{toc}{\contentsline {subsubsection}{\numberline {3.5.5}Component specifications}{8}{subsubsection.0.3.5.5}}
\newlabel{BDS:components}{{3.5.5}{8}{Component specifications\relax }{subsubsection.0.3.5.5}{}}
\@writefile{toc}{\contentsline {paragraph}{\numberline {3.5.5.1}Magnets}{8}{paragraph.0.3.5.5.1}}
\newlabel{BDS:magnets}{{3.5.5.1}{8}{Magnets\relax }{paragraph.0.3.5.5.1}{}}
\@writefile{lof}{\contentsline {figure}{\numberline {6}{\ignorespaces Top: Luminosity performance for 100 statistical realizations of the CLIC FFS after tuning using 3 different approaches. Bottom: Required number of luminosity measurements for the 3 different approaches.}}{9}{figure.0.6}}
\newlabel{tuning}{{6}{9}{FFS tuning\relax }{figure.0.6}{}}
\@writefile{lot}{\contentsline {table}{\numberline {4}{\ignorespaces Specifications of the FD QD0 quadrupole for the different L$^*$ cases.}}{9}{table.0.4}}
\newlabel{qd0}{{4}{9}{Magnets\relax }{table.0.4}{}}
\citation{crab}
\citation{gio}
\citation{Garion}
\citation{Helene}
\@writefile{lof}{\contentsline {figure}{\numberline {7}{\ignorespaces 12 cell crab cavity design including wakefield dampers (length $\approx $300\nobreakspace  {}mm).}}{10}{figure.0.7}}
\newlabel{CC}{{7}{10}{Crab cavities\relax }{figure.0.7}{}}
\@writefile{toc}{\contentsline {paragraph}{\numberline {3.5.5.2}Instrumentation}{10}{paragraph.0.3.5.5.2}}
\newlabel{BDS:instrumentation}{{3.5.5.2}{10}{Instrumentation\relax }{paragraph.0.3.5.5.2}{}}
\@writefile{toc}{\contentsline {paragraph}{\numberline {3.5.5.3}Crab cavities}{10}{paragraph.0.3.5.5.3}}
\newlabel{BDS:CC}{{3.5.5.3}{10}{Crab cavities\relax }{paragraph.0.3.5.5.3}{}}
\@writefile{toc}{\contentsline {paragraph}{\numberline {3.5.5.4}Vacuum}{10}{paragraph.0.3.5.5.4}}
\newlabel{BDS:Vaccum}{{3.5.5.4}{10}{Vacuum\relax }{paragraph.0.3.5.5.4}{}}
\bibcite{CLICr}{1}
\bibcite{schuler}{2}
\bibcite{vasilis}{3}
\bibcite{Javier}{4}
\bibcite{PLACET}{5}
\bibcite{EUROTeV-Report-2008-076}{6}
\bibcite{Agapov2009708}{7}
\bibcite{Lucie}{8}
\bibcite{Burkhardt:2010zz}{9}
\bibcite{Raimondi}{10}
\bibcite{Tomas}{11}
\bibcite{Guillermo}{12}
\bibcite{Dalena}{13}
\bibcite{Oide}{14}
\@writefile{toc}{\contentsline {paragraph}{\numberline {3.5.5.5}Alignment}{11}{paragraph.0.3.5.5.5}}
\newlabel{BDS:Alignment}{{3.5.5.5}{11}{Alignment\relax }{paragraph.0.3.5.5.5}{}}
\bibcite{CLIC08}{15}
\bibcite{barbSol}{16}
\bibcite{ian}{17}
\bibcite{JB}{18}
\bibcite{AS}{19}
\bibcite{RaphaelMuntzner}{20}
\bibcite{lumimeas}{21}
\bibcite{Eliasson}{22}
\bibcite{BarbaLumi}{23}
\bibcite{antisolenoid}{24}
\bibcite{crab}{25}
\bibcite{gio}{26}
\bibcite{Garion}{27}
\bibcite{Helene}{28}
