%!PS-Adobe-2.0 EPSF-2.0
%%BoundingBox:  0 0 567 309
%%Title: /home/marco/bds_cdr/bds_tuning_3res_iter.eps: c1
%%Creator: ROOT Version 5.18/00b
%%CreationDate: Thu May 19 12:35:47 2011
%%EndComments
%%BeginProlog
80 dict begin
/s {stroke} def /l {lineto} def /m {moveto} def /t {translate} def
/sw {stringwidth} def /r {rotate} def /rl {roll}  def /R {repeat} def
/d {rlineto} def /rm {rmoveto} def /gr {grestore} def /f {eofill} def
/c {setrgbcolor} def /black {0 setgray} def /sd {setdash} def
/cl {closepath} def /sf {scalefont setfont} def /lw {setlinewidth} def
/box {m dup 0 exch d exch 0 d 0 exch neg d cl} def
/NC{systemdict begin initclip end}def/C{NC box clip newpath}def
/bl {box s} def /bf {box f} def /Y { 0 exch d} def /X { 0 d} def 
/mp {newpath /y exch def /x exch def} def
/side {[w .77 mul w .23 mul] .385 w mul sd w 0 l currentpoint t -144 r} def
/mr {mp x y w2 0 360 arc} def /m24 {mr s} def /m20 {mr f} def
/mb {mp x y w2 add m w2 neg 0 d 0 w neg d w 0 d 0 w d cl} def
/mt {mp x y w2 add m w2 neg w neg d w 0 d cl} def
/m21 {mb f} def /m25 {mb s} def /m22 {mt f} def /m26{mt s} def
/m23 {mp x y w2 sub m w2 w d w neg 0 d cl f} def
/m27 {mp x y w2 add m w3 neg w2 neg d w3 w2 neg d w3 w2 d cl s} def
/m28 {mp x w2 sub y w2 sub w3 add m w3 0 d  0 w3 neg d w3 0 d 0 w3 d w3 0 d  0 w3 d w3 neg 0 d 0 w3 d w3 neg 0 d
 0 w3 neg d w3 neg 0 d cl s } def
/m29 {mp gsave x w2 sub y w2 add w3 sub m currentpoint t
 4 {side} repeat cl fill gr} def
/m30 {mp gsave x w2 sub y w2 add w3 sub m currentpoint t
 4 {side} repeat cl s gr} def
/m31 {mp x y w2 sub m 0 w d x w2 sub y m w 0 d x w2 sub y w2 add m w w neg d x w2 sub y w2
 sub m w w d s} def
/m2 {mp x y w2 sub m 0 w d x w2 sub y m w 0 d s} def
/m5 {mp x w2 sub y w2 sub m w w d x w2 sub y w2 add m w w neg d s} def
/reencdict 24 dict def /ReEncode {reencdict begin /nco&na exch def
/nfnam exch def /basefontname exch def /basefontdict basefontname findfont def
/newfont basefontdict maxlength dict def basefontdict {exch dup /FID ne
{dup /Encoding eq {exch dup length array copy newfont 3 1 roll put} {exch 
newfont 3 1 roll put} ifelse} {pop pop} ifelse } forall newfont
/FontName nfnam put nco&na aload pop nco&na length 2 idiv {newfont
/Encoding get 3 1 roll put} repeat nfnam newfont definefont pop end } def
/accvec [ 176 /agrave 181 /Agrave 190 /acircumflex 192 /Acircumflex
201 /adieresis 204 /Adieresis 209 /ccedilla 210 /Ccedilla 211 /eacute
212 /Eacute 213 /egrave 214 /Egrave 215 /ecircumflex 216 /Ecircumflex
217 /edieresis 218 /Edieresis 219 /icircumflex 220 /Icircumflex
221 /idieresis 222 /Idieresis 223 /ntilde 224 /Ntilde 226 /ocircumflex
228 /Ocircumflex 230 /Odieresis 231 /ucircumflex 236 /Ucircumflex
237 /udieresis 238 /Udieresis 239 /aring 240 /odieresis 242 /Aring 243 /ydieresis
244 /Ydieresis 246 /aacute 247 /Aacute 252 /ugrave 253 /Ugrave
127 /atilde 128 /Atilde 129 /oacute 130 /Oacute 131 /iacute
132 /Iacute 133 /igrave 134 /Igrave 135 /otilde 136 /Otilde
137 /uacute 138 /Uacute] def
/Times-Roman /Times-Roman accvec ReEncode
/Times-Italic /Times-Italic accvec ReEncode
/Times-Bold /Times-Bold accvec ReEncode
/Times-BoldItalic /Times-BoldItalic accvec ReEncode
/Helvetica /Helvetica accvec ReEncode
/Helvetica-Oblique /Helvetica-Oblique accvec ReEncode
/Helvetica-Bold /Helvetica-Bold accvec ReEncode
/Helvetica-BoldOblique /Helvetica-BoldOblique  accvec ReEncode
/Courier /Courier accvec ReEncode
/Courier-Oblique /Courier-Oblique accvec ReEncode
/Courier-Bold /Courier-Bold accvec ReEncode
/Courier-BoldOblique /Courier-BoldOblique accvec ReEncode
/oshow {gsave [] 0 sd true charpath stroke gr} def
/stwn { /fs exch def /fn exch def /text exch def fn findfont fs sf
 text sw pop xs add /xs exch def} def
/stwb { /fs exch def /fn exch def /nbas exch def /textf exch deftextf length /tlen exch def nbas tlen gt {/nbas tlendef} iffn findfont fs sf textf dup length nbas sub nbas getinterval sw
pop neg xs add /xs exch def} def
/accspe [ 65 /plusminus  66 /bar  67 /existential  68 /universal 
69 /exclam  70 /numbersign 71 /greater  72 /question  73 /integral 
74 /colon  75 /semicolon  76 /less  77 /bracketleft  78 /bracketright
79 /greaterequal 80 /braceleft 81 /braceright 82 /radical
83 /spade 84 /heart 85 /diamond 86 /club 87 /lessequal
88 /multiply 89 /percent 90 /infinity 48 /circlemultiply 49 /circleplus
50 /emptyset  51 /lozenge 52 /bullet 53 /arrowright 54 /arrowup
55 /arrowleft 56 /arrowdown 57 /arrowboth 48 /degree 44 /comma 43 /plus 45 /angle 42 /angleleft 47 /divide 61 /notequal 40 /equivalence 41 /second 97 /approxequal 98 /congruent 99 /perpendicular 100 /partialdiff 101 /florin 102 /intersection
 103 /union 104 /propersuperset 105 /reflexsuperset 106 /notsubset 107 /propersubset 108 /reflexsubset 109 /element 110 /notelement 111 /gradient 112 /logicaland 113 /logicalor 114 /arrowdblboth 115 /arrowdblleft 116 /arrowdblup 117 /arrowdblright
 118 /arrowdbldown 119 /ampersand 120 /omega1 121 /similar 122 /aleph ] def
/Symbol /Special accspe ReEncode
%%EndProlog
%%BeginSetup
%%EndSetup
newpath  gsave  .25 .25 scale  gsave  0 0 t black[  ] 0 sd 3 lw 0.999 0.999 0.999 c 2268 1235 0 0 bf black 0.999 0.999 0.999 c 1877 923 238 158 bf 1 1 1 c 238 158 m 4 4 d 915 Y 1869 X 4 4 d -1877 X -923 Y f 0.999 0.999 0.999 c 238 158 m 4 4 d 1869 X
 915 Y 4 4 d -923 Y -1877 X f black 1877 923 238 158 bl 0.999 0.999 0.999 c 1877 923 238 158 bf 1 1 1 c 238 158 m 4 4 d 915 Y 1869 X 4 4 d -1877 X -923 Y f 0.999 0.999 0.999 c 238 158 m 4 4 d 1869 X 915 Y 4 4 d -923 Y -1877 X f black 1877 923 238
 158 bl 0 0 1 c 6 lw 1 1 1 c black 0 0 1 c 238 158 m 56 X 203 Y 10 X -135 Y 9 X 135 Y 10 X 67 Y 18 X 68 Y 10 X -135 Y 9 X 203 Y 10 X 473 Y 9 X -338 Y 9 X 270 Y 10 X -338 Y 9 X 203 Y 9 X -406 Y 10 X 68 Y 9 X -135 Y 10 X -68 Y 9 X -67 Y 9 X 202 Y 10 X
 -202 Y 19 X -68 Y 1623 X s 3 lw 1 1 1 c 453 96 599 974 bf 0 0 1 c 599 974 m 453 X s 1052 974 m 96 Y s 1052 1070 m -453 X s 599 1070 m -96 Y s black 0 0 1 c
 gsave  2268 1235 0 0 C 620 1029 t 0 r /Helvetica-Bold findfont 40.8758 sf 0 0 m (Mean  ) show NC gr 
 gsave  2268 1235 0 0 C 905 1029 t 0 r /Helvetica-Bold findfont 40.8758 sf 0 0 m (   1587) show NC gr 
 gsave  2268 1235 0 0 C 620 979 t 0 r /Helvetica-Bold findfont 40.8758 sf 0 0 m (RMS   ) show NC gr 
 gsave  2268 1235 0 0 C 905 981 t 0 r /Helvetica-Bold findfont 40.8758 sf 0 0 m (  441.6) show NC gr  black 238 158 m 1877 X s
 gsave  2268 1235 0 0 C 1020 9 t 0 r /Helvetica-Bold findfont 69.3111 sf 0 0 m (iterations) show NC gr  238 189 m -31 Y s 285 174 m -16 Y s 332 174 m -16 Y s 379 174 m -16 Y s 426 189 m -31 Y s 473 174 m -16 Y s 520 174 m -16 Y s 567 174 m -16 Y s
 613 189 m -31 Y s 660 174 m -16 Y s 707 174 m -16 Y s 754 174 m -16 Y s 801 189 m -31 Y s 848 174 m -16 Y s 895 174 m -16 Y s 942 174 m -16 Y s 989 189 m -31 Y s 1036 174 m -16 Y s 1083 174 m -16 Y s 1130 174 m -16 Y s 1177 189 m -31 Y s 1223 174 m
 -16 Y s 1270 174 m -16 Y s 1317 174 m -16 Y s 1364 189 m -31 Y s 1411 174 m -16 Y s 1458 174 m -16 Y s 1505 174 m -16 Y s 1552 189 m -31 Y s 1599 174 m -16 Y s 1646 174 m -16 Y s 1693 174 m -16 Y s 1740 189 m -31 Y s 1786 174 m -16 Y s 1833 174 m
 -16 Y s 1880 174 m -16 Y s 1927 189 m -31 Y s 1974 174 m -16 Y s 2021 174 m -16 Y s 2068 174 m -16 Y s 2115 189 m -31 Y s
 gsave  2268 1235 0 0 C 222 103 t 0 r /Helvetica-Bold findfont 56.8706 sf 0 0 m (0) show NC gr 
 gsave  2268 1235 0 0 C 363 103 t 0 r /Helvetica-Bold findfont 56.8706 sf 0 0 m (2000) show NC gr 
 gsave  2268 1235 0 0 C 551 103 t 0 r /Helvetica-Bold findfont 56.8706 sf 0 0 m (4000) show NC gr 
 gsave  2268 1235 0 0 C 738 103 t 0 r /Helvetica-Bold findfont 56.8706 sf 0 0 m (6000) show NC gr 
 gsave  2268 1235 0 0 C 926 103 t 0 r /Helvetica-Bold findfont 56.8706 sf 0 0 m (8000) show NC gr 
 gsave  2268 1235 0 0 C 1098 103 t 0 r /Helvetica-Bold findfont 56.8706 sf 0 0 m (10000) show NC gr 
 gsave  2268 1235 0 0 C 1285 103 t 0 r /Helvetica-Bold findfont 56.8706 sf 0 0 m (12000) show NC gr 
 gsave  2268 1235 0 0 C 1473 103 t 0 r /Helvetica-Bold findfont 56.8706 sf 0 0 m (14000) show NC gr 
 gsave  2268 1235 0 0 C 1660 103 t 0 r /Helvetica-Bold findfont 56.8706 sf 0 0 m (16000) show NC gr 
 gsave  2268 1235 0 0 C 1848 103 t 0 r /Helvetica-Bold findfont 56.8706 sf 0 0 m (18000) show NC gr 
 gsave  2268 1235 0 0 C 2037 103 t 0 r /Helvetica-Bold findfont 56.8706 sf 0 0 m (20000) show NC gr  238 158 m 923 Y s 289 158 m -51 X s 264 192 m -26 X s 264 226 m -26 X s 264 260 m -26 X s 289 293 m -51 X s 264 327 m -26 X s 264 361 m -26 X s 264
 395 m -26 X s 289 428 m -51 X s 264 462 m -26 X s 264 496 m -26 X s 264 530 m -26 X s 289 564 m -51 X s 264 597 m -26 X s 264 631 m -26 X s 264 665 m -26 X s 289 699 m -51 X s 264 733 m -26 X s 264 766 m -26 X s 264 800 m -26 X s 289 834 m -51 X s
 264 868 m -26 X s 264 901 m -26 X s 264 935 m -26 X s 289 969 m -51 X s 289 969 m -51 X s 264 1003 m -26 X s 264 1037 m -26 X s 264 1070 m -26 X s
 gsave  2268 1235 0 0 C 195 132 t 0 r /Helvetica-Bold findfont 56.8706 sf 0 0 m (0) show NC gr 
 gsave  2268 1235 0 0 C 195 267 t 0 r /Helvetica-Bold findfont 56.8706 sf 0 0 m (2) show NC gr 
 gsave  2268 1235 0 0 C 195 403 t 0 r /Helvetica-Bold findfont 56.8706 sf 0 0 m (4) show NC gr 
 gsave  2268 1235 0 0 C 195 538 t 0 r /Helvetica-Bold findfont 56.8706 sf 0 0 m (6) show NC gr 
 gsave  2268 1235 0 0 C 195 674 t 0 r /Helvetica-Bold findfont 56.8706 sf 0 0 m (8) show NC gr 
 gsave  2268 1235 0 0 C 164 809 t 0 r /Helvetica-Bold findfont 56.8706 sf 0 0 m (10) show NC gr 
 gsave  2268 1235 0 0 C 164 942 t 0 r /Helvetica-Bold findfont 56.8706 sf 0 0 m (12) show NC gr  0 0 1 c 1 1 1 c 453 96 599 974 bf 0 0 1 c 599 974 m 453 X s 1052 974 m 96 Y s 1052 1070 m -453 X s 599 1070 m -96 Y s black 0 0 1 c
 gsave  2268 1235 0 0 C 620 1029 t 0 r /Helvetica-Bold findfont 40.8758 sf 0 0 m (Mean  ) show NC gr 
 gsave  2268 1235 0 0 C 905 1029 t 0 r /Helvetica-Bold findfont 40.8758 sf 0 0 m (   1587) show NC gr 
 gsave  2268 1235 0 0 C 620 979 t 0 r /Helvetica-Bold findfont 40.8758 sf 0 0 m (RMS   ) show NC gr 
 gsave  2268 1235 0 0 C 905 981 t 0 r /Helvetica-Bold findfont 40.8758 sf 0 0 m (  441.6) show NC gr  1 0 1 c 6 lw 1 1 1 c black 1 0 1 c 238 158 m 1304 X 135 Y 10 X -135 Y 28 X 68 Y 9 X -68 Y 10 X 68 Y 9 X 67 Y 10 X 68 Y 9 X 135 Y 9 X 68 Y 10 X -68
 Y 9 X -203 Y 9 X 135 Y 29 X 68 Y 9 X 135 Y 9 X -203 Y 10 X 68 Y 9 X -68 Y 28 X -67 Y 10 X 270 Y 9 X -338 Y 9 X 203 Y 10 X -338 Y 19 X 135 Y 9 X -135 Y 9 X 135 Y 10 X 68 Y 9 X -203 Y 10 X 68 Y 18 X -68 Y 19 X 68 Y 9 X -68 Y 29 X 68 Y 9 X -68 Y 169 X
 s 3 lw 1 1 1 c 451 96 1063 974 bf 1 0 1 c 1063 974 m 451 X s 1514 974 m 96 Y s 1514 1070 m -451 X s 1063 1070 m -96 Y s black 1 0 1 c
 gsave  2268 1235 0 0 C 1084 1029 t 0 r /Helvetica-Bold findfont 40.8758 sf 0 0 m (Mean  ) show NC gr 
 gsave  2268 1235 0 0 C 1287 1029 t 0 r /Helvetica-Bold findfont 40.8758 sf 0 0 m ( 1.575e+04) show NC gr 
 gsave  2268 1235 0 0 C 1084 979 t 0 r /Helvetica-Bold findfont 40.8758 sf 0 0 m (RMS   ) show NC gr 
 gsave  2268 1235 0 0 C 1367 981 t 0 r /Helvetica-Bold findfont 40.8758 sf 0 0 m (  799.2) show NC gr  1 1 1 c 451 96 1063 974 bf 1 0 1 c 1063 974 m 451 X s 1514 974 m 96 Y s 1514 1070 m -451 X s 1063 1070 m -96 Y s black 1 0 1 c
 gsave  2268 1235 0 0 C 1084 1029 t 0 r /Helvetica-Bold findfont 40.8758 sf 0 0 m (Mean  ) show NC gr 
 gsave  2268 1235 0 0 C 1287 1029 t 0 r /Helvetica-Bold findfont 40.8758 sf 0 0 m ( 1.575e+04) show NC gr 
 gsave  2268 1235 0 0 C 1084 979 t 0 r /Helvetica-Bold findfont 40.8758 sf 0 0 m (RMS   ) show NC gr 
 gsave  2268 1235 0 0 C 1367 981 t 0 r /Helvetica-Bold findfont 40.8758 sf 0 0 m (  799.2) show NC gr  black 6 lw 1 1 1 c black 238 158 m 1248 X 135 Y 10 X -135 Y 18 X 68 Y 10 X -68 Y 18 X 68 Y 10 X 135 Y 9 X 135 Y 19 X -135 Y 9 X 203 Y 10 X -203 Y
 9 X 67 Y 10 X -67 Y 9 X 135 Y 9 X 135 Y 10 X -135 Y 18 X -203 Y 10 X 338 Y 9 X -203 Y 10 X -67 Y 9 X 135 Y 9 X -135 Y 10 X 135 Y 9 X -203 Y 10 X -135 Y 18 X 135 Y 10 X -67 Y 9 X 67 Y 19 X -135 Y 9 X 68 Y 19 X -68 Y 19 X 68 Y 9 X -68 Y 19 X 68 Y 9 X
 -68 Y 235 X s 3 lw 1 1 1 c 453 98 1527 972 bf black 1527 972 m 453 X s 1980 972 m 98 Y s 1980 1070 m -453 X s 1527 1070 m -98 Y s
 gsave  2268 1235 0 0 C 1548 1029 t 0 r /Helvetica-Bold findfont 40.8758 sf 0 0 m (Mean  ) show NC gr 
 gsave  2268 1235 0 0 C 1752 1029 t 0 r /Helvetica-Bold findfont 40.8758 sf 0 0 m ( 1.511e+04) show NC gr 
 gsave  2268 1235 0 0 C 1548 977 t 0 r /Helvetica-Bold findfont 40.8758 sf 0 0 m (RMS   ) show NC gr 
 gsave  2268 1235 0 0 C 1832 979 t 0 r /Helvetica-Bold findfont 40.8758 sf 0 0 m (  799.2) show NC gr  1 1 1 c 453 98 1527 972 bf black 1527 972 m 453 X s 1980 972 m 98 Y s 1980 1070 m -453 X s 1527 1070 m -98 Y s
 gsave  2268 1235 0 0 C 1548 1029 t 0 r /Helvetica-Bold findfont 40.8758 sf 0 0 m (Mean  ) show NC gr 
 gsave  2268 1235 0 0 C 1752 1029 t 0 r /Helvetica-Bold findfont 40.8758 sf 0 0 m ( 1.511e+04) show NC gr 
 gsave  2268 1235 0 0 C 1548 977 t 0 r /Helvetica-Bold findfont 40.8758 sf 0 0 m (RMS   ) show NC gr 
 gsave  2268 1235 0 0 C 1832 979 t 0 r /Helvetica-Bold findfont 40.8758 sf 0 0 m (  799.2) show NC gr  1 1 1 c 1879 138 238 1086 bf black 238 1086 m 1879 X s 2117 1086 m 138 Y s 2117 1224 m -1879 X s 238 1224 m -138 Y s
 gsave  2268 1235 0 0 C 707 1189 t 0 r /Helvetica-Bold findfont 40.8758 sf 0 0 m (lumi optimization) show NC gr  6 lw 309 1201 m 328 X s
 gsave  2268 1235 0 0 C 1209 1137 t 0 r /Helvetica-Bold findfont 40.8758 sf 0 0 m ( iter) show NC gr 
 gsave  2268 1235 0 0 C 1175 1157 t 0 r /Helvetica-Bold findfont 28.4353 sf 0 0 m (nd) show NC gr 
 gsave  2268 1235 0 0 C 707 1137 t 0 r /Helvetica-Bold findfont 40.8758 sf 0 0 m (lumi opt. + H&V knobs 2) show NC gr  1 0 1 c 309 1155 m 328 X s black
 gsave  2268 1235 0 0 C 707 1091 t 0 r /Helvetica-Bold findfont 40.8758 sf 0 0 m (BBA + H&V knobs ) show NC gr  0 0 1 c 309 1109 m 328 X s
 gr  gr 
showpage
end
%%EOF
