%!PS-Adobe-2.0 EPSF-2.0
%%BoundingBox:  0 0 567 309
%%Title: /home/marco/bds_cdr/bds_tuning_3res_out.eps: c1
%%Creator: ROOT Version 5.18/00b
%%CreationDate: Mon May 16 17:43:21 2011
%%EndComments
%%BeginProlog
80 dict begin
/s {stroke} def /l {lineto} def /m {moveto} def /t {translate} def
/sw {stringwidth} def /r {rotate} def /rl {roll}  def /R {repeat} def
/d {rlineto} def /rm {rmoveto} def /gr {grestore} def /f {eofill} def
/c {setrgbcolor} def /black {0 setgray} def /sd {setdash} def
/cl {closepath} def /sf {scalefont setfont} def /lw {setlinewidth} def
/box {m dup 0 exch d exch 0 d 0 exch neg d cl} def
/NC{systemdict begin initclip end}def/C{NC box clip newpath}def
/bl {box s} def /bf {box f} def /Y { 0 exch d} def /X { 0 d} def 
/mp {newpath /y exch def /x exch def} def
/side {[w .77 mul w .23 mul] .385 w mul sd w 0 l currentpoint t -144 r} def
/mr {mp x y w2 0 360 arc} def /m24 {mr s} def /m20 {mr f} def
/mb {mp x y w2 add m w2 neg 0 d 0 w neg d w 0 d 0 w d cl} def
/mt {mp x y w2 add m w2 neg w neg d w 0 d cl} def
/m21 {mb f} def /m25 {mb s} def /m22 {mt f} def /m26{mt s} def
/m23 {mp x y w2 sub m w2 w d w neg 0 d cl f} def
/m27 {mp x y w2 add m w3 neg w2 neg d w3 w2 neg d w3 w2 d cl s} def
/m28 {mp x w2 sub y w2 sub w3 add m w3 0 d  0 w3 neg d w3 0 d 0 w3 d w3 0 d  0 w3 d w3 neg 0 d 0 w3 d w3 neg 0 d
 0 w3 neg d w3 neg 0 d cl s } def
/m29 {mp gsave x w2 sub y w2 add w3 sub m currentpoint t
 4 {side} repeat cl fill gr} def
/m30 {mp gsave x w2 sub y w2 add w3 sub m currentpoint t
 4 {side} repeat cl s gr} def
/m31 {mp x y w2 sub m 0 w d x w2 sub y m w 0 d x w2 sub y w2 add m w w neg d x w2 sub y w2
 sub m w w d s} def
/m2 {mp x y w2 sub m 0 w d x w2 sub y m w 0 d s} def
/m5 {mp x w2 sub y w2 sub m w w d x w2 sub y w2 add m w w neg d s} def
/reencdict 24 dict def /ReEncode {reencdict begin /nco&na exch def
/nfnam exch def /basefontname exch def /basefontdict basefontname findfont def
/newfont basefontdict maxlength dict def basefontdict {exch dup /FID ne
{dup /Encoding eq {exch dup length array copy newfont 3 1 roll put} {exch 
newfont 3 1 roll put} ifelse} {pop pop} ifelse } forall newfont
/FontName nfnam put nco&na aload pop nco&na length 2 idiv {newfont
/Encoding get 3 1 roll put} repeat nfnam newfont definefont pop end } def
/accvec [ 176 /agrave 181 /Agrave 190 /acircumflex 192 /Acircumflex
201 /adieresis 204 /Adieresis 209 /ccedilla 210 /Ccedilla 211 /eacute
212 /Eacute 213 /egrave 214 /Egrave 215 /ecircumflex 216 /Ecircumflex
217 /edieresis 218 /Edieresis 219 /icircumflex 220 /Icircumflex
221 /idieresis 222 /Idieresis 223 /ntilde 224 /Ntilde 226 /ocircumflex
228 /Ocircumflex 230 /Odieresis 231 /ucircumflex 236 /Ucircumflex
237 /udieresis 238 /Udieresis 239 /aring 240 /odieresis 242 /Aring 243 /ydieresis
244 /Ydieresis 246 /aacute 247 /Aacute 252 /ugrave 253 /Ugrave
127 /atilde 128 /Atilde 129 /oacute 130 /Oacute 131 /iacute
132 /Iacute 133 /igrave 134 /Igrave 135 /otilde 136 /Otilde
137 /uacute 138 /Uacute] def
/Times-Roman /Times-Roman accvec ReEncode
/Times-Italic /Times-Italic accvec ReEncode
/Times-Bold /Times-Bold accvec ReEncode
/Times-BoldItalic /Times-BoldItalic accvec ReEncode
/Helvetica /Helvetica accvec ReEncode
/Helvetica-Oblique /Helvetica-Oblique accvec ReEncode
/Helvetica-Bold /Helvetica-Bold accvec ReEncode
/Helvetica-BoldOblique /Helvetica-BoldOblique  accvec ReEncode
/Courier /Courier accvec ReEncode
/Courier-Oblique /Courier-Oblique accvec ReEncode
/Courier-Bold /Courier-Bold accvec ReEncode
/Courier-BoldOblique /Courier-BoldOblique accvec ReEncode
/oshow {gsave [] 0 sd true charpath stroke gr} def
/stwn { /fs exch def /fn exch def /text exch def fn findfont fs sf
 text sw pop xs add /xs exch def} def
/stwb { /fs exch def /fn exch def /nbas exch def /textf exch deftextf length /tlen exch def nbas tlen gt {/nbas tlendef} iffn findfont fs sf textf dup length nbas sub nbas getinterval sw
pop neg xs add /xs exch def} def
/accspe [ 65 /plusminus  66 /bar  67 /existential  68 /universal 
69 /exclam  70 /numbersign 71 /greater  72 /question  73 /integral 
74 /colon  75 /semicolon  76 /less  77 /bracketleft  78 /bracketright
79 /greaterequal 80 /braceleft 81 /braceright 82 /radical
83 /spade 84 /heart 85 /diamond 86 /club 87 /lessequal
88 /multiply 89 /percent 90 /infinity 48 /circlemultiply 49 /circleplus
50 /emptyset  51 /lozenge 52 /bullet 53 /arrowright 54 /arrowup
55 /arrowleft 56 /arrowdown 57 /arrowboth 48 /degree 44 /comma 43 /plus 45 /angle 42 /angleleft 47 /divide 61 /notequal 40 /equivalence 41 /second 97 /approxequal 98 /congruent 99 /perpendicular 100 /partialdiff 101 /florin 102 /intersection
 103 /union 104 /propersuperset 105 /reflexsuperset 106 /notsubset 107 /propersubset 108 /reflexsubset 109 /element 110 /notelement 111 /gradient 112 /logicaland 113 /logicalor 114 /arrowdblboth 115 /arrowdblleft 116 /arrowdblup 117 /arrowdblright
 118 /arrowdbldown 119 /ampersand 120 /omega1 121 /similar 122 /aleph ] def
/Symbol /Special accspe ReEncode
%%EndProlog
%%BeginSetup
%%EndSetup
newpath  gsave  .25 .25 scale  gsave  0 0 t black[  ] 0 sd 3 lw 1 1 1 c 2268 1235 0 0 bf black 1 1 1 c 1815 912 311 140 bf black 1815 912 311 140 bl 1 1 1 c 1815 912 311 140 bf black 1815 912 311 140 bl 311 140 m 1815 X s[ 4 8] 0 sd 311 1052 m -912
 Y s 434 1052 m -912 Y s 557 1052 m -912 Y s 680 1052 m -912 Y s 803 1052 m -912 Y s 926 1052 m -912 Y s 1049 1052 m -912 Y s 1172 1052 m -912 Y s 1296 1052 m -912 Y s 1419 1052 m -912 Y s 1542 1052 m -912 Y s 1665 1052 m -912 Y s 1788 1052 m -912 Y
 s 1911 1052 m -912 Y s 2034 1052 m -912 Y s 2034 1052 m -912 Y s[  ] 0 sd 311 140 m 912 Y s[ 4 8] 0 sd 2126 140 m -1815 X s 2126 223 m -1815 X s 2126 306 m -1815 X s 2126 389 m -1815 X s 2126 472 m -1815 X s 2126 555 m -1815 X s 2126 638 m -1815 X
 s 2126 721 m -1815 X s 2126 803 m -1815 X s 2126 886 m -1815 X s 2126 969 m -1815 X s 2126 1052 m -1815 X s[  ] 0 sd 311 140 m 1815 X s
 gsave  2268 1235 0 0 C 1248 11 t 0 r /Helvetica-Bold findfont 39.0986 sf 0 0 m (0) show NC gr 
 gsave  2268 1235 0 0 C 1164 28 t 0 r /Helvetica-Bold findfont 56.8706 sf 0 0 m (L/L) show NC gr  311 170 m -30 Y s 336 155 m -15 Y s 360 155 m -15 Y s 385 155 m -15 Y s 409 155 m -15 Y s 434 170 m -30 Y s 459 155 m -15 Y s 483 155 m -15 Y s 508 155
 m -15 Y s 533 155 m -15 Y s 557 170 m -30 Y s 582 155 m -15 Y s 606 155 m -15 Y s 631 155 m -15 Y s 656 155 m -15 Y s 680 170 m -30 Y s 705 155 m -15 Y s 729 155 m -15 Y s 754 155 m -15 Y s 779 155 m -15 Y s 803 170 m -30 Y s 828 155 m -15 Y s 853
 155 m -15 Y s 877 155 m -15 Y s 902 155 m -15 Y s 926 170 m -30 Y s 951 155 m -15 Y s 976 155 m -15 Y s 1000 155 m -15 Y s 1025 155 m -15 Y s 1049 170 m -30 Y s 1074 155 m -15 Y s 1099 155 m -15 Y s 1123 155 m -15 Y s 1148 155 m -15 Y s 1172 170 m
 -30 Y s 1197 155 m -15 Y s 1222 155 m -15 Y s 1246 155 m -15 Y s 1271 155 m -15 Y s 1296 170 m -30 Y s 1320 155 m -15 Y s 1345 155 m -15 Y s 1369 155 m -15 Y s 1394 155 m -15 Y s 1419 170 m -30 Y s 1443 155 m -15 Y s 1468 155 m -15 Y s 1492 155 m
 -15 Y s 1517 155 m -15 Y s 1542 170 m -30 Y s 1566 155 m -15 Y s 1591 155 m -15 Y s 1616 155 m -15 Y s 1640 155 m -15 Y s 1665 170 m -30 Y s 1689 155 m -15 Y s 1714 155 m -15 Y s 1739 155 m -15 Y s 1763 155 m -15 Y s 1788 170 m -30 Y s 1812 155 m
 -15 Y s 1837 155 m -15 Y s 1862 155 m -15 Y s 1886 155 m -15 Y s 1911 170 m -30 Y s 1936 155 m -15 Y s 1960 155 m -15 Y s 1985 155 m -15 Y s 2009 155 m -15 Y s 2034 170 m -30 Y s 2034 170 m -30 Y s 2059 155 m -15 Y s 2083 155 m -15 Y s 2108 155 m
 -15 Y s
 gsave  2268 1235 0 0 C 299 96 t 0 r /Helvetica-Bold findfont 46.2074 sf 0 0 m (0) show NC gr 
 gsave  2268 1235 0 0 C 405 96 t 0 r /Helvetica-Bold findfont 46.2074 sf 0 0 m (0.1) show NC gr 
 gsave  2268 1235 0 0 C 524 96 t 0 r /Helvetica-Bold findfont 46.2074 sf 0 0 m (0.2) show NC gr 
 gsave  2268 1235 0 0 C 647 96 t 0 r /Helvetica-Bold findfont 46.2074 sf 0 0 m (0.3) show NC gr 
 gsave  2268 1235 0 0 C 770 96 t 0 r /Helvetica-Bold findfont 46.2074 sf 0 0 m (0.4) show NC gr 
 gsave  2268 1235 0 0 C 894 96 t 0 r /Helvetica-Bold findfont 46.2074 sf 0 0 m (0.5) show NC gr 
 gsave  2268 1235 0 0 C 1017 96 t 0 r /Helvetica-Bold findfont 46.2074 sf 0 0 m (0.6) show NC gr 
 gsave  2268 1235 0 0 C 1139 96 t 0 r /Helvetica-Bold findfont 46.2074 sf 0 0 m (0.7) show NC gr 
 gsave  2268 1235 0 0 C 1262 96 t 0 r /Helvetica-Bold findfont 46.2074 sf 0 0 m (0.8) show NC gr 
 gsave  2268 1235 0 0 C 1386 96 t 0 r /Helvetica-Bold findfont 46.2074 sf 0 0 m (0.9) show NC gr 
 gsave  2268 1235 0 0 C 1532 96 t 0 r /Helvetica-Bold findfont 46.2074 sf 0 0 m (1) show NC gr 
 gsave  2268 1235 0 0 C 1635 96 t 0 r /Helvetica-Bold findfont 46.2074 sf 0 0 m (1.1) show NC gr 
 gsave  2268 1235 0 0 C 1754 96 t 0 r /Helvetica-Bold findfont 46.2074 sf 0 0 m (1.2) show NC gr 
 gsave  2268 1235 0 0 C 1879 96 t 0 r /Helvetica-Bold findfont 46.2074 sf 0 0 m (1.3) show NC gr 
 gsave  2268 1235 0 0 C 2001 96 t 0 r /Helvetica-Bold findfont 46.2074 sf 0 0 m (1.4) show NC gr  311 140 m 912 Y s
 gsave  2268 1235 0 0 C 142 668 t 90 r /Helvetica-Bold findfont 56.8706 sf 0 0 m ( > x axis value) show NC gr 
 gsave  2268 1235 0 0 C 160 647 t 90 r /Helvetica-Bold findfont 39.0986 sf 0 0 m (0) show NC gr 
 gsave  2268 1235 0 0 C 142 89 t 90 r /Helvetica-Bold findfont 56.8706 sf 0 0 m (% machines with L/L) show NC gr  361 140 m -50 X s 336 157 m -25 X s 336 174 m -25 X s 336 190 m -25 X s 336 207 m -25 X s 361 223 m -50 X s 336 240 m -25 X s 336 256 m
 -25 X s 336 273 m -25 X s 336 290 m -25 X s 361 306 m -50 X s 336 323 m -25 X s 336 339 m -25 X s 336 356 m -25 X s 336 372 m -25 X s 361 389 m -50 X s 336 406 m -25 X s 336 422 m -25 X s 336 439 m -25 X s 336 455 m -25 X s 361 472 m -50 X s 336
 489 m -25 X s 336 505 m -25 X s 336 522 m -25 X s 336 538 m -25 X s 361 555 m -50 X s 336 571 m -25 X s 336 588 m -25 X s 336 605 m -25 X s 336 621 m -25 X s 361 638 m -50 X s 336 654 m -25 X s 336 671 m -25 X s 336 687 m -25 X s 336 704 m -25 X s
 361 721 m -50 X s 336 737 m -25 X s 336 754 m -25 X s 336 770 m -25 X s 336 787 m -25 X s 361 803 m -50 X s 336 820 m -25 X s 336 837 m -25 X s 336 853 m -25 X s 336 870 m -25 X s 361 886 m -50 X s 336 903 m -25 X s 336 919 m -25 X s 336 936 m -25
 X s 336 953 m -25 X s 361 969 m -50 X s 336 986 m -25 X s 336 1002 m -25 X s 336 1019 m -25 X s 336 1036 m -25 X s 361 1052 m -50 X s
 gsave  2268 1235 0 0 C 274 119 t 0 r /Helvetica-Bold findfont 46.2074 sf 0 0 m (0) show NC gr 
 gsave  2268 1235 0 0 C 249 203 t 0 r /Helvetica-Bold findfont 46.2074 sf 0 0 m (10) show NC gr 
 gsave  2268 1235 0 0 C 249 286 t 0 r /Helvetica-Bold findfont 46.2074 sf 0 0 m (20) show NC gr 
 gsave  2268 1235 0 0 C 249 368 t 0 r /Helvetica-Bold findfont 46.2074 sf 0 0 m (30) show NC gr 
 gsave  2268 1235 0 0 C 249 451 t 0 r /Helvetica-Bold findfont 46.2074 sf 0 0 m (40) show NC gr 
 gsave  2268 1235 0 0 C 249 535 t 0 r /Helvetica-Bold findfont 46.2074 sf 0 0 m (50) show NC gr 
 gsave  2268 1235 0 0 C 249 617 t 0 r /Helvetica-Bold findfont 46.2074 sf 0 0 m (60) show NC gr 
 gsave  2268 1235 0 0 C 249 700 t 0 r /Helvetica-Bold findfont 46.2074 sf 0 0 m (70) show NC gr 
 gsave  2268 1235 0 0 C 249 784 t 0 r /Helvetica-Bold findfont 46.2074 sf 0 0 m (80) show NC gr 
 gsave  2268 1235 0 0 C 249 865 t 0 r /Helvetica-Bold findfont 46.2074 sf 0 0 m (90) show NC gr 
 gsave  2268 1235 0 0 C 222 949 t 0 r /Helvetica-Bold findfont 46.2074 sf 0 0 m (100) show NC gr 
 gsave  2268 1235 0 0 C 222 1031 t 0 r /Helvetica-Bold findfont 46.2074 sf 0 0 m (110) show NC gr  6 lw 311 969 m 332 X 13 -8 d 209 X 12 -8 d 99 X 12 -9 d 25 X 12 -16 d 12 X 12 -17 d 74 X 13 -8 d 36 X 13 -8 d 12 -9 d 37 X 12 -8 d 13 -8 d 12 -9 d 12
 -8 d 13 X 12 -41 d 24 X 13 -9 d 12 X 12 -16 d 13 X 12 -17 d 25 X 12 -41 d 25 X 12 -8 d 12 -17 d 12 -8 d 13 -17 d 12 -25 d 12 -41 d 13 -17 d 24 X 13 -16 d 12 -50 d 12 -33 d 13 -8 d 12 -9 d 12 -8 d 12 -8 d 13 -9 d 12 -33 d 12 X 13 -8 d 12 -17 d 12
 -25 d 13 -24 d 12 -25 d 12 -17 d 13 X 12 -25 d 12 -33 d 12 -25 d 13 -8 d 12 -8 d 12 -17 d 13 -25 d 12 -8 d 12 -8 d 13 X 12 -9 d 111 X s 1 0 1 c black 1 0 1 c 311 969 m 382 X 12 -8 d 246 X 12 -8 d 136 X 12 -9 d 12 -16 d 49 X 13 -9 d 24 X 13 -8 d 123
 X 12 -8 d 25 X 12 -8 d 25 X 12 -9 d 12 -16 d 13 -33 d 12 -9 d 12 -16 d 12 X 13 -9 d 12 -16 d 37 X 12 -25 d 13 -8 d 24 X 13 -9 d 12 -16 d 12 -25 d 12 -8 d 13 -17 d 12 -8 d 12 -66 d 13 -25 d 12 -17 d 12 -33 d 13 -17 d 12 -16 d 12 -33 d 13 -42 d 12 -8
 d 12 -42 d 12 -16 d 13 -33 d 12 -50 d 12 -25 d 13 -25 d 12 -33 d 12 -16 d 13 -9 d 12 -16 d 12 -9 d 99 X s 0 0 1 c black 0 0 1 c 311 969 m 12 -74 d 13 -158 d 12 -25 d 12 -33 d 13 -8 d 12 X 12 -8 d 222 X 12 -9 d 394 X 12 -8 d 123 X 12 -8 d 13 -9 d 74
 X 12 -8 d 12 -8 d 13 -8 d 12 -9 d 37 X 12 -8 d 37 X 12 -17 d 62 X 12 -16 d 12 -8 d 13 X 12 -9 d 12 -8 d 13 -8 d 12 -17 d 12 -16 d 13 -9 d 12 -8 d 12 -42 d 13 -8 d 12 -8 d 12 X 12 -8 d 50 X 12 -9 d 12 -16 d 13 -9 d 12 X 12 -33 d 13 -8 d 12 -25 d 12
 -8 d 12 X 13 -17 d 12 -33 d 12 -16 d 13 -17 d 12 -17 d 25 X 12 -8 d 12 -16 d 13 X 12 -9 d 12 -8 d 25 X 12 -8 d 12 -9 d 13 X s black 3 lw 1 1 1 c 1809 165 313 1059 bf black 313 1059 m 1809 X s 2122 1059 m 165 Y s 2122 1224 m -1809 X s 313 1224 m
 -165 Y s
 gsave  2268 1235 0 0 C 764 1180 t 0 r /Helvetica-Bold findfont 55.0934 sf 0 0 m (lumi optimization) show NC gr  6 lw 381 1197 m 316 X s
 gsave  2268 1235 0 0 C 1440 1116 t 0 r /Helvetica-Bold findfont 55.0934 sf 0 0 m ( iter) show NC gr 
 gsave  2268 1235 0 0 C 1395 1143 t 0 r /Helvetica-Bold findfont 37.3214 sf 0 0 m (nd) show NC gr 
 gsave  2268 1235 0 0 C 764 1116 t 0 r /Helvetica-Bold findfont 55.0934 sf 0 0 m (lumi opt. + H&V knobs 2) show NC gr  1 0 1 c 381 1142 m 316 X s black
 gsave  2268 1235 0 0 C 764 1063 t 0 r /Helvetica-Bold findfont 55.0934 sf 0 0 m (BBA + H&V knobs ) show NC gr  0 0 1 c 381 1087 m 316 X s
 gr  gr 
showpage
end
%%EOF
