%!PS-Adobe-2.0 EPSF-2.0
%%Title: spoiler_flat_geometry3.fig
%%Creator: fig2dev Version 3.2 Patchlevel 4
%%CreationDate: Sun Apr 18 21:53:23 2010
%%For: root@localhost.localdomain (root)
%%BoundingBox: 0 0 440 174
%%Magnification: 1.0000
%%EndComments
/MyAppDict 100 dict dup begin def
/$F2psDict 200 dict def
$F2psDict begin
$F2psDict /mtrx matrix put
/col-1 {0 setgray} bind def
/col0 {0.000 0.000 0.000 srgb} bind def
/col1 {0.000 0.000 1.000 srgb} bind def
/col2 {0.000 1.000 0.000 srgb} bind def
/col3 {0.000 1.000 1.000 srgb} bind def
/col4 {1.000 0.000 0.000 srgb} bind def
/col5 {1.000 0.000 1.000 srgb} bind def
/col6 {1.000 1.000 0.000 srgb} bind def
/col7 {1.000 1.000 1.000 srgb} bind def
/col8 {0.000 0.000 0.560 srgb} bind def
/col9 {0.000 0.000 0.690 srgb} bind def
/col10 {0.000 0.000 0.820 srgb} bind def
/col11 {0.530 0.810 1.000 srgb} bind def
/col12 {0.000 0.560 0.000 srgb} bind def
/col13 {0.000 0.690 0.000 srgb} bind def
/col14 {0.000 0.820 0.000 srgb} bind def
/col15 {0.000 0.560 0.560 srgb} bind def
/col16 {0.000 0.690 0.690 srgb} bind def
/col17 {0.000 0.820 0.820 srgb} bind def
/col18 {0.560 0.000 0.000 srgb} bind def
/col19 {0.690 0.000 0.000 srgb} bind def
/col20 {0.820 0.000 0.000 srgb} bind def
/col21 {0.560 0.000 0.560 srgb} bind def
/col22 {0.690 0.000 0.690 srgb} bind def
/col23 {0.820 0.000 0.820 srgb} bind def
/col24 {0.500 0.190 0.000 srgb} bind def
/col25 {0.630 0.250 0.000 srgb} bind def
/col26 {0.750 0.380 0.000 srgb} bind def
/col27 {1.000 0.500 0.500 srgb} bind def
/col28 {1.000 0.630 0.630 srgb} bind def
/col29 {1.000 0.750 0.750 srgb} bind def
/col30 {1.000 0.880 0.880 srgb} bind def
/col31 {1.000 0.840 0.000 srgb} bind def

end
save
newpath 0 174 moveto 0 0 lineto 440 0 lineto 440 174 lineto closepath clip newpath
-25.0 294.0 translate
1 -1 scale

% This junk string is used by the show operators
/PATsstr 1 string def
/PATawidthshow { 	% cx cy cchar rx ry string
  % Loop over each character in the string
  {  % cx cy cchar rx ry char
    % Show the character
    dup				% cx cy cchar rx ry char char
    PATsstr dup 0 4 -1 roll put	% cx cy cchar rx ry char (char)
    false charpath		% cx cy cchar rx ry char
    /clip load PATdraw
    % Move past the character (charpath modified the
    % current point)
    currentpoint			% cx cy cchar rx ry char x y
    newpath
    moveto			% cx cy cchar rx ry char
    % Reposition by cx,cy if the character in the string is cchar
    3 index eq {			% cx cy cchar rx ry
      4 index 4 index rmoveto
    } if
    % Reposition all characters by rx ry
    2 copy rmoveto		% cx cy cchar rx ry
  } forall
  pop pop pop pop pop		% -
  currentpoint
  newpath
  moveto
} bind def
/PATcg {
  7 dict dup begin
    /lw currentlinewidth def
    /lc currentlinecap def
    /lj currentlinejoin def
    /ml currentmiterlimit def
    /ds [ currentdash ] def
    /cc [ currentrgbcolor ] def
    /cm matrix currentmatrix def
  end
} bind def
% PATdraw - calculates the boundaries of the object and
% fills it with the current pattern
/PATdraw {			% proc
  save exch
    PATpcalc			% proc nw nh px py
    5 -1 roll exec		% nw nh px py
    newpath
    PATfill			% -
  restore
} bind def
% PATfill - performs the tiling for the shape
/PATfill { % nw nh px py PATfill -
  PATDict /CurrentPattern get dup begin
    setfont
    % Set the coordinate system to Pattern Space
    PatternGState PATsg
    % Set the color for uncolored pattezns
    PaintType 2 eq { PATDict /PColor get PATsc } if
    % Create the string for showing
    3 index string		% nw nh px py str
    % Loop for each of the pattern sources
    0 1 Multi 1 sub {		% nw nh px py str source
	% Move to the starting location
	3 index 3 index		% nw nh px py str source px py
	moveto			% nw nh px py str source
	% For multiple sources, set the appropriate color
	Multi 1 ne { dup PC exch get PATsc } if
	% Set the appropriate string for the source
	0 1 7 index 1 sub { 2 index exch 2 index put } for pop
	% Loop over the number of vertical cells
	3 index 		% nw nh px py str nh
	{			% nw nh px py str
	  currentpoint		% nw nh px py str cx cy
	  2 index oldshow	% nw nh px py str cx cy
	  YStep add moveto	% nw nh px py str
	} repeat		% nw nh px py str
    } for
    5 { pop } repeat
  end
} bind def

% PATkshow - kshow with the current pattezn
/PATkshow {			% proc string
  exch bind			% string proc
  1 index 0 get			% string proc char
  % Loop over all but the last character in the string
  0 1 4 index length 2 sub {
				% string proc char idx
    % Find the n+1th character in the string
    3 index exch 1 add get	% string proc char char+1
    exch 2 copy			% strinq proc char+1 char char+1 char
    % Now show the nth character
    PATsstr dup 0 4 -1 roll put	% string proc chr+1 chr chr+1 (chr)
    false charpath		% string proc char+1 char char+1
    /clip load PATdraw
    % Move past the character (charpath modified the current point)
    currentpoint newpath moveto
    % Execute the user proc (should consume char and char+1)
    mark 3 1 roll		% string proc char+1 mark char char+1
    4 index exec		% string proc char+1 mark...
    cleartomark			% string proc char+1
  } for
  % Now display the last character
  PATsstr dup 0 4 -1 roll put	% string proc (char+1)
  false charpath		% string proc
  /clip load PATdraw
  neewath
  pop pop			% -
} bind def
% PATmp - the makepattern equivalent
/PATmp {			% patdict patmtx PATmp patinstance
  exch dup length 7 add		% We will add 6 new entries plus 1 FID
  dict copy			% Create a new dictionary
  begin
    % Matrix to install when painting the pattern
    TilingType PATtcalc
    /PatternGState PATcg def
    PatternGState /cm 3 -1 roll put
    % Check for multi pattern sources (Level 1 fast color patterns)
    currentdict /Multi known not { /Multi 1 def } if
    % Font dictionary definitions
    /FontType 3 def
    % Create a dummy encoding vector
    /Encoding 256 array def
    3 string 0 1 255 {
      Encoding exch dup 3 index cvs cvn put } for pop
    /FontMatrix matrix def
    /FontBBox BBox def
    /BuildChar {
	mark 3 1 roll		% mark dict char
	exch begin
	Multi 1 ne {PaintData exch get}{pop} ifelse  % mark [paintdata]
	  PaintType 2 eq Multi 1 ne or
	  { XStep 0 FontBBox aload pop setcachedevice }
	  { XStep 0 setcharwidth } ifelse
	  currentdict		% mark [paintdata] dict
	  /PaintProc load	% mark [paintdata] dict paintproc
	end
	gsave
	  false PATredef exec true PATredef
	grestore
	cleartomark		% -
    } bind def
    currentdict
  end				% newdict
  /foo exch			% /foo newlict
  definefont			% newfont
} bind def
% PATpcalc - calculates the starting point and width/height
% of the tile fill for the shape
/PATpcalc {	% - PATpcalc nw nh px py
  PATDict /CurrentPattern get begin
    gsave
	% Set up the coordinate system to Pattern Space
	% and lock down pattern
	PatternGState /cm get setmatrix
	BBox aload pop pop pop translate
	% Determine the bounding box of the shape
	pathbbox			% llx lly urx ury
    grestore
    % Determine (nw, nh) the # of cells to paint width and height
    PatHeight div ceiling		% llx lly urx qh
    4 1 roll				% qh llx lly urx
    PatWidth div ceiling		% qh llx lly qw
    4 1 roll				% qw qh llx lly
    PatHeight div floor			% qw qh llx ph
    4 1 roll				% ph qw qh llx
    PatWidth div floor			% ph qw qh pw
    4 1 roll				% pw ph qw qh
    2 index sub cvi abs			% pw ph qs qh-ph
    exch 3 index sub cvi abs exch	% pw ph nw=qw-pw nh=qh-ph
    % Determine the starting point of the pattern fill
    %(px, py)
    4 2 roll				% nw nh pw ph
    PatHeight mul			% nw nh pw py
    exch				% nw nh py pw
    PatWidth mul exch			% nw nh px py
  end
} bind def

% Save the original routines so that we can use them later on
/oldfill	/fill load def
/oldeofill	/eofill load def
/oldstroke	/stroke load def
/oldshow	/show load def
/oldashow	/ashow load def
/oldwidthshow	/widthshow load def
/oldawidthshow	/awidthshow load def
/oldkshow	/kshow load def

% These defs are necessary so that subsequent procs don't bind in
% the originals
/fill	   { oldfill } bind def
/eofill	   { oldeofill } bind def
/stroke	   { oldstroke } bind def
/show	   { oldshow } bind def
/ashow	   { oldashow } bind def
/widthshow { oldwidthshow } bind def
/awidthshow { oldawidthshow } bind def
/kshow 	   { oldkshow } bind def
/PATredef {
  MyAppDict begin
    {
    /fill { /clip load PATdraw newpath } bind def
    /eofill { /eoclip load PATdraw newpath } bind def
    /stroke { PATstroke } bind def
    /show { 0 0 null 0 0 6 -1 roll PATawidthshow } bind def
    /ashow { 0 0 null 6 3 roll PATawidthshow }
    bind def
    /widthshow { 0 0 3 -1 roll PATawidthshow }
    bind def
    /awidthshow { PATawidthshow } bind def
    /kshow { PATkshow } bind def
  } {
    /fill   { oldfill } bind def
    /eofill { oldeofill } bind def
    /stroke { oldstroke } bind def
    /show   { oldshow } bind def
    /ashow  { oldashow } bind def
    /widthshow { oldwidthshow } bind def
    /awidthshow { oldawidthshow } bind def
    /kshow  { oldkshow } bind def
    } ifelse
  end
} bind def
false PATredef
% Conditionally define setcmykcolor if not available
/setcmykcolor where { pop } {
  /setcmykcolor {
    1 sub 4 1 roll
    3 {
	3 index add neg dup 0 lt { pop 0 } if 3 1 roll
    } repeat
    setrgbcolor - pop
  } bind def
} ifelse
/PATsc {		% colorarray
  aload length		% c1 ... cn length
    dup 1 eq { pop setgray } { 3 eq { setrgbcolor } { setcmykcolor
  } ifelse } ifelse
} bind def
/PATsg {		% dict
  begin
    lw setlinewidth
    lc setlinecap
    lj setlinejoin
    ml setmiterlimit
    ds aload pop setdash
    cc aload pop setrgbcolor
    cm setmatrix
  end
} bind def

/PATDict 3 dict def
/PATsp {
  true PATredef
  PATDict begin
    /CurrentPattern exch def
    % If it's an uncolored pattern, save the color
    CurrentPattern /PaintType get 2 eq {
      /PColor exch def
    } if
    /CColor [ currentrgbcolor ] def
  end
} bind def
% PATstroke - stroke with the current pattern
/PATstroke {
  countdictstack
  save
  mark
  {
    currentpoint strokepath moveto
    PATpcalc				% proc nw nh px py
    clip newpath PATfill
    } stopped {
	(*** PATstroke Warning: Path is too complex, stroking
	  with gray) =
    cleartomark
    restore
    countdictstack exch sub dup 0 gt
	{ { end } repeat } { pop } ifelse
    gsave 0.5 setgray oldstroke grestore
  } { pop restore pop } ifelse
  newpath
} bind def
/PATtcalc {		% modmtx tilingtype PATtcalc tilematrix
  % Note: tiling types 2 and 3 are not supported
  gsave
    exch concat					% tilingtype
    matrix currentmatrix exch			% cmtx tilingtype
    % Tiling type 1 and 3: constant spacing
    2 ne {
	% Distort the pattern so that it occupies
	% an integral number of device pixels
	dup 4 get exch dup 5 get exch		% tx ty cmtx
	XStep 0 dtransform
	round exch round exch			% tx ty cmtx dx.x dx.y
	XStep div exch XStep div exch		% tx ty cmtx a b
	0 YStep dtransform
	round exch round exch			% tx ty cmtx a b dy.x dy.y
	YStep div exch YStep div exch		% tx ty cmtx a b c d
	7 -3 roll astore			% { a b c d tx ty }
    } if
  grestore
} bind def
/PATusp {
  false PATredef
  PATDict begin
    CColor PATsc
  end
} bind def

% right30
11 dict begin
/PaintType 1 def
/PatternType 1 def
/TilingType 1 def
/BBox [0 0 1 1] def
/XStep 1 def
/YStep 1 def
/PatWidth 1 def
/PatHeight 1 def
/Multi 2 def
/PaintData [
  { clippath } bind
  { 32 16 true [ 32 0 0 -16 0 16 ]
	{<00030003000c000c0030003000c000c0030003000c000c00
	30003000c000c00000030003000c000c0030003000c000c0
	030003000c000c0030003000c000c000>}
     imagemask } bind
] def
/PaintProc {
	pop
	exec fill
} def
currentdict
end
/P2 exch def

% right45
11 dict begin
/PaintType 1 def
/PatternType 1 def
/TilingType 1 def
/BBox [0 0 1 1] def
/XStep 1 def
/YStep 1 def
/PatWidth 1 def
/PatHeight 1 def
/Multi 2 def
/PaintData [
  { clippath } bind
  { 20 20 true [ 20 0 0 -20 0 20 ]
	{<0040100080200100400200800401000802001004
	0020080040100080200000401000802001004002
	0080040100080200100400200800401000802000>}
     imagemask } bind
] def
/PaintProc {
	pop
	exec fill
} def
currentdict
end
/P5 exch def

/cp {closepath} bind def
/ef {eofill} bind def
/gr {grestore} bind def
/gs {gsave} bind def
/sa {save} bind def
/rs {restore} bind def
/l {lineto} bind def
/m {moveto} bind def
/rm {rmoveto} bind def
/n {newpath} bind def
/s {stroke} bind def
/sh {show} bind def
/slc {setlinecap} bind def
/slj {setlinejoin} bind def
/slw {setlinewidth} bind def
/srgb {setrgbcolor} bind def
/rot {rotate} bind def
/sc {scale} bind def
/sd {setdash} bind def
/ff {findfont} bind def
/sf {setfont} bind def
/scf {scalefont} bind def
/sw {stringwidth} bind def
/tr {translate} bind def
/tnt {dup dup currentrgbcolor
  4 -2 roll dup 1 exch sub 3 -1 roll mul add
  4 -2 roll dup 1 exch sub 3 -1 roll mul add
  4 -2 roll dup 1 exch sub 3 -1 roll mul add srgb}
  bind def
/shd {dup dup currentrgbcolor 4 -2 roll mul 4 -2 roll mul
  4 -2 roll mul srgb} bind def
/$F2psBegin {$F2psDict begin /$F2psEnteredState save def} def
/$F2psEnd {$F2psEnteredState restore end} def

$F2psBegin
10 setmiterlimit
0 slj 0 slc
 0.06000 0.06000 sc
%
% Fig objects follow
%
% 
% here starts figure with depth 50
% Arc
7.500 slw
gs  clippath
2736 3854 m 2688 3779 l 2555 3864 l 2681 3837 l 2604 3939 l cp
eoclip
n 2737.5 4012.5 191.2 101.3 -101.3 arc
gs col0 s gr
 gr

% arrowhead
15.000 slw
n 2604 3939 m 2681 3837 l 2555 3864 l 2604 3939 l  cp gs 0.00 setgray ef gr  col0 s
% Arc
7.500 slw
n 6225.0 3375.0 75.0 -90.0 90.0 arc
gs col0 s gr

% Polyline
n 1350 2850 m 3300 4200 l 4500 4200 l 6450 2850 l
 cp gs /PC [[1.00 1.00 1.00] [0.00 0.00 0.00]] def
15.00 15.00 sc P2 [16 0 0 -8 90.00 190.00] PATmp PATsp ef gr PATusp gs col0 s gr 
% Polyline
2 slj
30.000 slw
 [90] 0 sd
gs  clippath
7215 4867 m 7215 4732 l 7064 4732 l 7184 4800 l 7064 4867 l cp
eoclip
n 450 4800 m
 7200 4800 l gs /PC [[1.00 1.00 1.00] [0.00 0.00 0.00]] def
15.00 15.00 sc P5 [16 0 0 -16 30.00 320.00] PATmp PATsp ef gr PATusp gs col0 s gr gr
 [] 0 sd
% arrowhead
0 slj
15.000 slw
n 7064 4867 m 7184 4800 l 7064 4732 l  col0 s
% Polyline
2 slj
7.500 slw
n 1725 4200 m
 3300 4200 l gs /PC [[1.00 1.00 1.00] [0.00 0.00 0.00]] def
15.00 15.00 sc P5 [16 0 0 -16 115.00 280.00] PATmp PATsp ef gr PATusp gs col0 s gr 
% Polyline
n 525 2850 m
 1350 2850 l gs /PC [[1.00 1.00 1.00] [0.00 0.00 0.00]] def
15.00 15.00 sc P2 [16 0 0 -8 35.00 190.00] PATmp PATsp ef gr PATusp gs col0 s gr 
% Polyline
15.000 slw
gs  clippath
3855 4815 m 3945 4815 l 3945 4658 l 3900 4778 l 3855 4658 l cp
3945 4185 m 3855 4185 l 3855 4342 l 3900 4222 l 3945 4342 l cp
eoclip
n 3900 4200 m
 3900 4800 l gs col0 s gr gr

% arrowhead
0 slj
n 3945 4342 m 3900 4222 l 3855 4342 l 3945 4342 l  cp gs 0.00 setgray ef gr  col0 s
% arrowhead
n 3855 4658 m 3900 4778 l 3945 4658 l 3855 4658 l  cp gs 0.00 setgray ef gr  col0 s
% Polyline
2 slj
gs  clippath
705 4815 m 795 4815 l 795 4658 l 750 4778 l 705 4658 l cp
795 2835 m 705 2835 l 705 2992 l 750 2872 l 795 2992 l cp
eoclip
n 750 2850 m
 750 4800 l gs /PC [[1.00 1.00 1.00] [0.00 0.00 0.00]] def
15.00 15.00 sc P2 [16 0 0 -8 50.00 190.00] PATmp PATsp ef gr PATusp gs col0 s gr gr

% arrowhead
0 slj
n 795 2992 m 750 2872 l 705 2992 l 795 2992 l  cp gs 0.00 setgray ef gr  col0 s
% arrowhead
n 705 4658 m 750 4778 l 795 4658 l 705 4658 l  cp gs 0.00 setgray ef gr  col0 s
% Polyline
2 slj
45.000 slw
gs  clippath
2790 3495 m 2790 3405 l 2633 3405 l 2753 3450 l 2633 3495 l cp
eoclip
n 975 3450 m
 2775 3450 l gs col0 s gr gr

% arrowhead
0 slj
15.000 slw
n 2633 3495 m 2753 3450 l 2633 3405 l 2633 3495 l  cp gs 0.00 setgray ef gr  col0 s
% Polyline
2 slj
gs  clippath
1470 3435 m 1380 3435 l 1380 3592 l 1425 3472 l 1470 3592 l cp
1380 4815 m 1470 4815 l 1470 4658 l 1425 4778 l 1380 4658 l cp
eoclip
n 1425 4800 m
 1425 3450 l gs col0 s gr gr

% arrowhead
0 slj
n 1380 4658 m 1425 4778 l 1470 4658 l 1380 4658 l  cp gs 0.00 setgray ef gr  col0 s
% arrowhead
n 1470 3592 m 1425 3472 l 1380 3592 l 1470 3592 l  cp gs 0.00 setgray ef gr  col0 s
% Polyline
2 slj
45.000 slw
gs  clippath
6844 3167 m 6824 3079 l 6670 3115 l 6798 3132 l 6691 3202 l cp
eoclip
n 5316 3476 m
 6820 3127 l gs col0 s gr gr

% arrowhead
0 slj
15.000 slw
n 6691 3202 m 6798 3132 l 6670 3115 l 6691 3202 l  cp gs 0.00 setgray ef gr  col0 s
% Polyline
2 slj
7.500 slw
n 5550 3450 m
 6900 3450 l gs /PC [[1.00 1.00 1.00] [0.00 0.00 0.00]] def
15.00 15.00 sc P5 [16 0 0 -16 370.00 230.00] PATmp PATsp ef gr PATusp gs col0 s gr 
% Polyline
15.000 slw
 [90 45 15 45] 0 sd
n 4500 2400 m
 4500 4200 l gs col0 s gr  [] 0 sd
% Polyline
 [90 45 15 45] 0 sd
n 3300 2400 m
 3300 4215 l gs col0 s gr  [] 0 sd
% Polyline
gs  clippath
3345 2595 m 3345 2505 l 3188 2505 l 3308 2550 l 3188 2595 l cp
1335 2505 m 1335 2595 l 1492 2595 l 1372 2550 l 1492 2505 l cp
eoclip
n 1350 2550 m
 3330 2550 l gs /PC [[1.00 1.00 1.00] [0.00 0.00 0.00]] def
15.00 15.00 sc P2 [16 0 0 -8 90.00 170.00] PATmp PATsp ef gr PATusp gs col0 s gr gr

% arrowhead
0 slj
n 1492 2505 m 1372 2550 l 1492 2595 l 1492 2505 l  cp gs 0.00 setgray ef gr  col0 s
% arrowhead
n 3188 2595 m 3308 2550 l 3188 2505 l 3188 2595 l  cp gs 0.00 setgray ef gr  col0 s
% Polyline
2 slj
gs  clippath
4515 2595 m 4515 2505 l 4358 2505 l 4478 2550 l 4358 2595 l cp
3285 2505 m 3285 2595 l 3442 2595 l 3322 2550 l 3442 2505 l cp
eoclip
n 3300 2550 m
 4500 2550 l gs col0 s gr gr

% arrowhead
0 slj
n 3442 2505 m 3322 2550 l 3442 2595 l 3442 2505 l  cp gs 0.00 setgray ef gr  col0 s
% arrowhead
n 4358 2595 m 4478 2550 l 4358 2505 l 4358 2595 l  cp gs 0.00 setgray ef gr  col0 s
% Polyline
2 slj
gs  clippath
6465 2595 m 6465 2505 l 6308 2505 l 6428 2550 l 6308 2595 l cp
4440 2505 m 4440 2595 l 4597 2595 l 4477 2550 l 4597 2505 l cp
eoclip
n 4455 2550 m
 6450 2550 l gs /PC [[1.00 1.00 1.00] [0.00 0.00 0.00]] def
15.00 15.00 sc P2 [16 0 0 -8 297.00 170.00] PATmp PATsp ef gr PATusp gs col0 s gr gr

% arrowhead
0 slj
n 4597 2505 m 4477 2550 l 4597 2595 l 4597 2505 l  cp gs 0.00 setgray ef gr  col0 s
% arrowhead
n 6308 2595 m 6428 2550 l 6308 2505 l 6308 2595 l  cp gs 0.00 setgray ef gr  col0 s
% Polyline
2 slj
7.500 slw
n 6375 2850 m
 7125 2850 l gs /PC [[1.00 1.00 1.00] [0.00 0.00 0.00]] def
15.00 15.00 sc P5 [16 0 0 -16 425.00 190.00] PATmp PATsp ef gr PATusp gs col0 s gr 
/Times-Bold ff 390.00 scf sf
3675 3975 m
gs 1 -1 sc () col0 sh gr
%gs 1 -1 sc (Be) col0 sh gr
/Times-Roman ff 390.00 scf sf
4050 4575 m
gs 1 -1 sc (a) col0 sh gr
/Symbol ff 390.00 scf sf
6975 3375 m
gs 1 -1 sc (f) col0 sh gr
/Times-Roman ff 390.00 scf sf
6750 4650 m
gs 1 -1 sc (z) col0 sh gr
/Times-Roman ff 270.00 scf sf
2265 4080 m
gs 1 -1 sc (T) col0 sh gr
/Times-Roman ff 390.00 scf sf
1950 2370 m
gs 1 -1 sc (L) col0 sh gr
/Times-Roman ff 390.00 scf sf
3630 2355 m
gs 1 -1 sc (L) col0 sh gr
/Times-Roman ff 390.00 scf sf
5100 2370 m
gs 1 -1 sc (L) col0 sh gr
/Times-Roman ff 390.00 scf sf
1095 4275 m
gs 1 -1 sc (d) col0 sh gr
/Times-Roman ff 390.00 scf sf
420 3975 m
gs 1 -1 sc (b) col0 sh gr
/Times-Roman ff 270.00 scf sf
3930 2415 m
gs 1 -1 sc (F) col0 sh gr
/Times-Roman ff 270.00 scf sf
5385 2445 m
gs 1 -1 sc (T) col0 sh gr
/Times-Roman ff 240.00 scf sf
7200 3480 m
%gs 1 -1 sc (MCS) col0 sh gr
gs 1 -1 sc () col0 sh gr
/Times-Roman ff 270.00 scf sf
2235 2430 m
gs 1 -1 sc (T) col0 sh gr
/Symbol ff 390.00 scf sf
2040 4020 m
gs 1 -1 sc (q   ) col0 sh gr
% here ends figure;
$F2psEnd
rs
end
showpage
