%!PS-Adobe-2.0 EPSF-2.0
%%Title: Lumi_COLL_vs_NOCOLL_Nov2010.eps
%%Creator: gnuplot 4.0 patchlevel 0
%%CreationDate: Wed Nov 24 18:16:22 2010
%%DocumentFonts: (atend)
%%BoundingBox: 50 50 482 302
%%Orientation: Portrait
%%EndComments
/gnudict 256 dict def
gnudict begin
/Color true def
/Solid false def
/gnulinewidth 5.000 def
/userlinewidth gnulinewidth def
/vshift -133 def
/dl {10.0 mul} def
/hpt_ 31.5 def
/vpt_ 31.5 def
/hpt hpt_ def
/vpt vpt_ def
/Rounded false def
/M {moveto} bind def
/L {lineto} bind def
/R {rmoveto} bind def
/V {rlineto} bind def
/N {newpath moveto} bind def
/C {setrgbcolor} bind def
/f {rlineto fill} bind def
/vpt2 vpt 2 mul def
/hpt2 hpt 2 mul def
/Lshow { currentpoint stroke M
  0 vshift R show } def
/Rshow { currentpoint stroke M
  dup stringwidth pop neg vshift R show } def
/Cshow { currentpoint stroke M
  dup stringwidth pop -2 div vshift R show } def
/UP { dup vpt_ mul /vpt exch def hpt_ mul /hpt exch def
  /hpt2 hpt 2 mul def /vpt2 vpt 2 mul def } def
/DL { Color {setrgbcolor Solid {pop []} if 0 setdash }
 {pop pop pop 0 setgray Solid {pop []} if 0 setdash} ifelse } def
/BL { stroke userlinewidth 2 mul setlinewidth
      Rounded { 1 setlinejoin 1 setlinecap } if } def
/AL { stroke userlinewidth 2 div setlinewidth
      Rounded { 1 setlinejoin 1 setlinecap } if } def
/UL { dup gnulinewidth mul /userlinewidth exch def
      dup 1 lt {pop 1} if 10 mul /udl exch def } def
/PL { stroke userlinewidth setlinewidth
      Rounded { 1 setlinejoin 1 setlinecap } if } def
/LTw { PL [] 1 setgray } def
/LTb { BL [] 0 0 0 DL } def
/LTa { AL [1 udl mul 2 udl mul] 0 setdash 0 0 0 setrgbcolor } def
/LT0 { PL [] 1 0 0 DL } def
/LT1 { PL [4 dl 2 dl] 0 1 0 DL } def
/LT2 { PL [2 dl 3 dl] 0 0 1 DL } def
/LT3 { PL [1 dl 1.5 dl] 1 0 1 DL } def
/LT4 { PL [5 dl 2 dl 1 dl 2 dl] 0 1 1 DL } def
/LT5 { PL [4 dl 3 dl 1 dl 3 dl] 1 1 0 DL } def
/LT6 { PL [2 dl 2 dl 2 dl 4 dl] 0 0 0 DL } def
/LT7 { PL [2 dl 2 dl 2 dl 2 dl 2 dl 4 dl] 1 0.3 0 DL } def
/LT8 { PL [2 dl 2 dl 2 dl 2 dl 2 dl 2 dl 2 dl 4 dl] 0.5 0.5 0.5 DL } def
/Pnt { stroke [] 0 setdash
   gsave 1 setlinecap M 0 0 V stroke grestore } def
/Dia { stroke [] 0 setdash 2 copy vpt add M
  hpt neg vpt neg V hpt vpt neg V
  hpt vpt V hpt neg vpt V closepath stroke
  Pnt } def
/Pls { stroke [] 0 setdash vpt sub M 0 vpt2 V
  currentpoint stroke M
  hpt neg vpt neg R hpt2 0 V stroke
  } def
/Box { stroke [] 0 setdash 2 copy exch hpt sub exch vpt add M
  0 vpt2 neg V hpt2 0 V 0 vpt2 V
  hpt2 neg 0 V closepath stroke
  Pnt } def
/Crs { stroke [] 0 setdash exch hpt sub exch vpt add M
  hpt2 vpt2 neg V currentpoint stroke M
  hpt2 neg 0 R hpt2 vpt2 V stroke } def
/TriU { stroke [] 0 setdash 2 copy vpt 1.12 mul add M
  hpt neg vpt -1.62 mul V
  hpt 2 mul 0 V
  hpt neg vpt 1.62 mul V closepath stroke
  Pnt  } def
/Star { 2 copy Pls Crs } def
/BoxF { stroke [] 0 setdash exch hpt sub exch vpt add M
  0 vpt2 neg V  hpt2 0 V  0 vpt2 V
  hpt2 neg 0 V  closepath fill } def
/TriUF { stroke [] 0 setdash vpt 1.12 mul add M
  hpt neg vpt -1.62 mul V
  hpt 2 mul 0 V
  hpt neg vpt 1.62 mul V closepath fill } def
/TriD { stroke [] 0 setdash 2 copy vpt 1.12 mul sub M
  hpt neg vpt 1.62 mul V
  hpt 2 mul 0 V
  hpt neg vpt -1.62 mul V closepath stroke
  Pnt  } def
/TriDF { stroke [] 0 setdash vpt 1.12 mul sub M
  hpt neg vpt 1.62 mul V
  hpt 2 mul 0 V
  hpt neg vpt -1.62 mul V closepath fill} def
/DiaF { stroke [] 0 setdash vpt add M
  hpt neg vpt neg V hpt vpt neg V
  hpt vpt V hpt neg vpt V closepath fill } def
/Pent { stroke [] 0 setdash 2 copy gsave
  translate 0 hpt M 4 {72 rotate 0 hpt L} repeat
  closepath stroke grestore Pnt } def
/PentF { stroke [] 0 setdash gsave
  translate 0 hpt M 4 {72 rotate 0 hpt L} repeat
  closepath fill grestore } def
/Circle { stroke [] 0 setdash 2 copy
  hpt 0 360 arc stroke Pnt } def
/CircleF { stroke [] 0 setdash hpt 0 360 arc fill } def
/C0 { BL [] 0 setdash 2 copy moveto vpt 90 450  arc } bind def
/C1 { BL [] 0 setdash 2 copy        moveto
       2 copy  vpt 0 90 arc closepath fill
               vpt 0 360 arc closepath } bind def
/C2 { BL [] 0 setdash 2 copy moveto
       2 copy  vpt 90 180 arc closepath fill
               vpt 0 360 arc closepath } bind def
/C3 { BL [] 0 setdash 2 copy moveto
       2 copy  vpt 0 180 arc closepath fill
               vpt 0 360 arc closepath } bind def
/C4 { BL [] 0 setdash 2 copy moveto
       2 copy  vpt 180 270 arc closepath fill
               vpt 0 360 arc closepath } bind def
/C5 { BL [] 0 setdash 2 copy moveto
       2 copy  vpt 0 90 arc
       2 copy moveto
       2 copy  vpt 180 270 arc closepath fill
               vpt 0 360 arc } bind def
/C6 { BL [] 0 setdash 2 copy moveto
      2 copy  vpt 90 270 arc closepath fill
              vpt 0 360 arc closepath } bind def
/C7 { BL [] 0 setdash 2 copy moveto
      2 copy  vpt 0 270 arc closepath fill
              vpt 0 360 arc closepath } bind def
/C8 { BL [] 0 setdash 2 copy moveto
      2 copy vpt 270 360 arc closepath fill
              vpt 0 360 arc closepath } bind def
/C9 { BL [] 0 setdash 2 copy moveto
      2 copy  vpt 270 450 arc closepath fill
              vpt 0 360 arc closepath } bind def
/C10 { BL [] 0 setdash 2 copy 2 copy moveto vpt 270 360 arc closepath fill
       2 copy moveto
       2 copy vpt 90 180 arc closepath fill
               vpt 0 360 arc closepath } bind def
/C11 { BL [] 0 setdash 2 copy moveto
       2 copy  vpt 0 180 arc closepath fill
       2 copy moveto
       2 copy  vpt 270 360 arc closepath fill
               vpt 0 360 arc closepath } bind def
/C12 { BL [] 0 setdash 2 copy moveto
       2 copy  vpt 180 360 arc closepath fill
               vpt 0 360 arc closepath } bind def
/C13 { BL [] 0 setdash  2 copy moveto
       2 copy  vpt 0 90 arc closepath fill
       2 copy moveto
       2 copy  vpt 180 360 arc closepath fill
               vpt 0 360 arc closepath } bind def
/C14 { BL [] 0 setdash 2 copy moveto
       2 copy  vpt 90 360 arc closepath fill
               vpt 0 360 arc } bind def
/C15 { BL [] 0 setdash 2 copy vpt 0 360 arc closepath fill
               vpt 0 360 arc closepath } bind def
/Rec   { newpath 4 2 roll moveto 1 index 0 rlineto 0 exch rlineto
       neg 0 rlineto closepath } bind def
/Square { dup Rec } bind def
/Bsquare { vpt sub exch vpt sub exch vpt2 Square } bind def
/S0 { BL [] 0 setdash 2 copy moveto 0 vpt rlineto BL Bsquare } bind def
/S1 { BL [] 0 setdash 2 copy vpt Square fill Bsquare } bind def
/S2 { BL [] 0 setdash 2 copy exch vpt sub exch vpt Square fill Bsquare } bind def
/S3 { BL [] 0 setdash 2 copy exch vpt sub exch vpt2 vpt Rec fill Bsquare } bind def
/S4 { BL [] 0 setdash 2 copy exch vpt sub exch vpt sub vpt Square fill Bsquare } bind def
/S5 { BL [] 0 setdash 2 copy 2 copy vpt Square fill
       exch vpt sub exch vpt sub vpt Square fill Bsquare } bind def
/S6 { BL [] 0 setdash 2 copy exch vpt sub exch vpt sub vpt vpt2 Rec fill Bsquare } bind def
/S7 { BL [] 0 setdash 2 copy exch vpt sub exch vpt sub vpt vpt2 Rec fill
       2 copy vpt Square fill
       Bsquare } bind def
/S8 { BL [] 0 setdash 2 copy vpt sub vpt Square fill Bsquare } bind def
/S9 { BL [] 0 setdash 2 copy vpt sub vpt vpt2 Rec fill Bsquare } bind def
/S10 { BL [] 0 setdash 2 copy vpt sub vpt Square fill 2 copy exch vpt sub exch vpt Square fill
       Bsquare } bind def
/S11 { BL [] 0 setdash 2 copy vpt sub vpt Square fill 2 copy exch vpt sub exch vpt2 vpt Rec fill
       Bsquare } bind def
/S12 { BL [] 0 setdash 2 copy exch vpt sub exch vpt sub vpt2 vpt Rec fill Bsquare } bind def
/S13 { BL [] 0 setdash 2 copy exch vpt sub exch vpt sub vpt2 vpt Rec fill
       2 copy vpt Square fill Bsquare } bind def
/S14 { BL [] 0 setdash 2 copy exch vpt sub exch vpt sub vpt2 vpt Rec fill
       2 copy exch vpt sub exch vpt Square fill Bsquare } bind def
/S15 { BL [] 0 setdash 2 copy Bsquare fill Bsquare } bind def
/D0 { gsave translate 45 rotate 0 0 S0 stroke grestore } bind def
/D1 { gsave translate 45 rotate 0 0 S1 stroke grestore } bind def
/D2 { gsave translate 45 rotate 0 0 S2 stroke grestore } bind def
/D3 { gsave translate 45 rotate 0 0 S3 stroke grestore } bind def
/D4 { gsave translate 45 rotate 0 0 S4 stroke grestore } bind def
/D5 { gsave translate 45 rotate 0 0 S5 stroke grestore } bind def
/D6 { gsave translate 45 rotate 0 0 S6 stroke grestore } bind def
/D7 { gsave translate 45 rotate 0 0 S7 stroke grestore } bind def
/D8 { gsave translate 45 rotate 0 0 S8 stroke grestore } bind def
/D9 { gsave translate 45 rotate 0 0 S9 stroke grestore } bind def
/D10 { gsave translate 45 rotate 0 0 S10 stroke grestore } bind def
/D11 { gsave translate 45 rotate 0 0 S11 stroke grestore } bind def
/D12 { gsave translate 45 rotate 0 0 S12 stroke grestore } bind def
/D13 { gsave translate 45 rotate 0 0 S13 stroke grestore } bind def
/D14 { gsave translate 45 rotate 0 0 S14 stroke grestore } bind def
/D15 { gsave translate 45 rotate 0 0 S15 stroke grestore } bind def
/DiaE { stroke [] 0 setdash vpt add M
  hpt neg vpt neg V hpt vpt neg V
  hpt vpt V hpt neg vpt V closepath stroke } def
/BoxE { stroke [] 0 setdash exch hpt sub exch vpt add M
  0 vpt2 neg V hpt2 0 V 0 vpt2 V
  hpt2 neg 0 V closepath stroke } def
/TriUE { stroke [] 0 setdash vpt 1.12 mul add M
  hpt neg vpt -1.62 mul V
  hpt 2 mul 0 V
  hpt neg vpt 1.62 mul V closepath stroke } def
/TriDE { stroke [] 0 setdash vpt 1.12 mul sub M
  hpt neg vpt 1.62 mul V
  hpt 2 mul 0 V
  hpt neg vpt -1.62 mul V closepath stroke } def
/PentE { stroke [] 0 setdash gsave
  translate 0 hpt M 4 {72 rotate 0 hpt L} repeat
  closepath stroke grestore } def
/CircE { stroke [] 0 setdash 
  hpt 0 360 arc stroke } def
/Opaque { gsave closepath 1 setgray fill grestore 0 setgray closepath } def
/DiaW { stroke [] 0 setdash vpt add M
  hpt neg vpt neg V hpt vpt neg V
  hpt vpt V hpt neg vpt V Opaque stroke } def
/BoxW { stroke [] 0 setdash exch hpt sub exch vpt add M
  0 vpt2 neg V hpt2 0 V 0 vpt2 V
  hpt2 neg 0 V Opaque stroke } def
/TriUW { stroke [] 0 setdash vpt 1.12 mul add M
  hpt neg vpt -1.62 mul V
  hpt 2 mul 0 V
  hpt neg vpt 1.62 mul V Opaque stroke } def
/TriDW { stroke [] 0 setdash vpt 1.12 mul sub M
  hpt neg vpt 1.62 mul V
  hpt 2 mul 0 V
  hpt neg vpt -1.62 mul V Opaque stroke } def
/PentW { stroke [] 0 setdash gsave
  translate 0 hpt M 4 {72 rotate 0 hpt L} repeat
  Opaque stroke grestore } def
/CircW { stroke [] 0 setdash 
  hpt 0 360 arc Opaque stroke } def
/BoxFill { gsave Rec 1 setgray fill grestore } def
/BoxColFill {
  gsave Rec
  /Fillden exch def
  currentrgbcolor
  /ColB exch def /ColG exch def /ColR exch def
  /ColR ColR Fillden mul Fillden sub 1 add def
  /ColG ColG Fillden mul Fillden sub 1 add def
  /ColB ColB Fillden mul Fillden sub 1 add def
  ColR ColG ColB setrgbcolor
  fill grestore } def
%
% PostScript Level 1 Pattern Fill routine
% Usage: x y w h s a XX PatternFill
%	x,y = lower left corner of box to be filled
%	w,h = width and height of box
%	  a = angle in degrees between lines and x-axis
%	 XX = 0/1 for no/yes cross-hatch
%
/PatternFill { gsave /PFa [ 9 2 roll ] def
    PFa 0 get PFa 2 get 2 div add PFa 1 get PFa 3 get 2 div add translate
    PFa 2 get -2 div PFa 3 get -2 div PFa 2 get PFa 3 get Rec
    gsave 1 setgray fill grestore clip
    currentlinewidth 0.5 mul setlinewidth
    /PFs PFa 2 get dup mul PFa 3 get dup mul add sqrt def
    0 0 M PFa 5 get rotate PFs -2 div dup translate
	0 1 PFs PFa 4 get div 1 add floor cvi
	{ PFa 4 get mul 0 M 0 PFs V } for
    0 PFa 6 get ne {
	0 1 PFs PFa 4 get div 1 add floor cvi
	{ PFa 4 get mul 0 2 1 roll M PFs 0 V } for
    } if
    stroke grestore } def
%
/Symbol-Oblique /Symbol findfont [1 0 .167 1 0 0] makefont
dup length dict begin {1 index /FID eq {pop pop} {def} ifelse} forall
currentdict end definefont pop
/MFshow {
   { dup 5 get 3 ge
     { 5 get 3 eq {gsave} {grestore} ifelse }
     {dup dup 0 get findfont exch 1 get scalefont setfont
     [ currentpoint ] exch dup 2 get 0 exch R dup 5 get 2 ne {dup dup 6
     get exch 4 get {show} {stringwidth pop 0 R} ifelse }if dup 5 get 0 eq
     {dup 3 get {2 get neg 0 exch R pop} {pop aload pop M} ifelse} {dup 5
     get 1 eq {dup 2 get exch dup 3 get exch 6 get stringwidth pop -2 div
     dup 0 R} {dup 6 get stringwidth pop -2 div 0 R 6 get
     show 2 index {aload pop M neg 3 -1 roll neg R pop pop} {pop pop pop
     pop aload pop M} ifelse }ifelse }ifelse }
     ifelse }
   forall} bind def
/MFwidth {0 exch {dup 3 get{dup dup 0 get findfont exch 1 get scalefont
     setfont 6 get stringwidth pop add} {pop} ifelse} forall} bind def
/MLshow { currentpoint stroke M
  0 exch R MFshow } bind def
/MRshow { currentpoint stroke M
  exch dup MFwidth neg 3 -1 roll R MFshow } def
/MCshow { currentpoint stroke M
  exch dup MFwidth -2 div 3 -1 roll R MFshow } def
end
%%EndProlog
gnudict begin
gsave
50 50 translate
0.050 0.050 scale
0 setgray
newpath
(Times-Roman) findfont 400 scalefont setfont
1.000 UL
LTb
1640 1200 M
63 0 V
6257 0 R
-63 0 V
stroke
1400 1200 M
[ [(Times-Roman) 400.0 0.0 true true 0 ( 0.6)]
] -133.3 MRshow
1.000 UL
LTb
1640 1536 M
31 0 V
6289 0 R
-31 0 V
1640 1872 M
63 0 V
6257 0 R
-63 0 V
stroke
1400 1872 M
[ [(Times-Roman) 400.0 0.0 true true 0 ( 0.7)]
] -133.3 MRshow
1.000 UL
LTb
1640 2208 M
31 0 V
6289 0 R
-31 0 V
1640 2544 M
63 0 V
6257 0 R
-63 0 V
stroke
1400 2544 M
[ [(Times-Roman) 400.0 0.0 true true 0 ( 0.8)]
] -133.3 MRshow
1.000 UL
LTb
1640 2880 M
31 0 V
6289 0 R
-31 0 V
1640 3216 M
63 0 V
6257 0 R
-63 0 V
stroke
1400 3216 M
[ [(Times-Roman) 400.0 0.0 true true 0 ( 0.9)]
] -133.3 MRshow
1.000 UL
LTb
1640 3552 M
31 0 V
6289 0 R
-31 0 V
1640 3888 M
63 0 V
6257 0 R
-63 0 V
stroke
1400 3888 M
[ [(Times-Roman) 400.0 0.0 true true 0 ( 1)]
] -133.3 MRshow
1.000 UL
LTb
1640 4224 M
31 0 V
6289 0 R
-31 0 V
1640 4560 M
63 0 V
6257 0 R
-63 0 V
stroke
1400 4560 M
[ [(Times-Roman) 400.0 0.0 true true 0 ( 1.1)]
] -133.3 MRshow
1.000 UL
LTb
1766 1200 M
0 31 V
0 3329 R
0 -31 V
2019 1200 M
0 31 V
0 3329 R
0 -31 V
2272 1200 M
0 31 V
0 3329 R
0 -31 V
0 -3329 R
0 63 V
0 3297 R
0 -63 V
stroke
2272 800 M
[ [(Times-Roman) 400.0 0.0 true true 0 (-0.4)]
] -133.3 MCshow
1.000 UL
LTb
2525 1200 M
0 31 V
0 3329 R
0 -31 V
2778 1200 M
0 31 V
0 3329 R
0 -31 V
3030 1200 M
0 31 V
0 3329 R
0 -31 V
3283 1200 M
0 31 V
0 3329 R
0 -31 V
3536 1200 M
0 31 V
0 3329 R
0 -31 V
0 -3329 R
0 63 V
0 3297 R
0 -63 V
stroke
3536 800 M
[ [(Times-Roman) 400.0 0.0 true true 0 (-0.2)]
] -133.3 MCshow
1.000 UL
LTb
3789 1200 M
0 31 V
0 3329 R
0 -31 V
4042 1200 M
0 31 V
0 3329 R
0 -31 V
4294 1200 M
0 31 V
0 3329 R
0 -31 V
4547 1200 M
0 31 V
0 3329 R
0 -31 V
4800 1200 M
0 31 V
0 3329 R
0 -31 V
0 -3329 R
0 63 V
0 3297 R
0 -63 V
stroke
4800 800 M
[ [(Times-Roman) 400.0 0.0 true true 0 ( 0)]
] -133.3 MCshow
1.000 UL
LTb
5053 1200 M
0 31 V
0 3329 R
0 -31 V
5306 1200 M
0 31 V
0 3329 R
0 -31 V
5558 1200 M
0 31 V
0 3329 R
0 -31 V
5811 1200 M
0 31 V
0 3329 R
0 -31 V
6064 1200 M
0 31 V
0 3329 R
0 -31 V
0 -3329 R
0 63 V
0 3297 R
0 -63 V
stroke
6064 800 M
[ [(Times-Roman) 400.0 0.0 true true 0 ( 0.2)]
] -133.3 MCshow
1.000 UL
LTb
6317 1200 M
0 31 V
0 3329 R
0 -31 V
6570 1200 M
0 31 V
0 3329 R
0 -31 V
6822 1200 M
0 31 V
0 3329 R
0 -31 V
7075 1200 M
0 31 V
0 3329 R
0 -31 V
7328 1200 M
0 31 V
0 3329 R
0 -31 V
0 -3329 R
0 63 V
0 3297 R
0 -63 V
stroke
7328 800 M
[ [(Times-Roman) 400.0 0.0 true true 0 ( 0.4)]
] -133.3 MCshow
1.000 UL
LTb
7581 1200 M
0 31 V
0 3329 R
0 -31 V
7834 1200 M
0 31 V
0 3329 R
0 -31 V
1.000 UL
LTb
1640 1200 M
6320 0 V
0 3360 V
-6320 0 V
0 -3360 V
LTb
400 2880 M
currentpoint gsave translate 90 rotate 0 0 moveto
[ [(Times-Roman) 400.0 0.0 true true 0 (L/L)]
[(Times-Roman) 320.0 -120.0 true true 0 (0)]
] -93.3 MCshow
grestore
LTb
4800 270 M
[ [(Times-Roman) 400.0 0.0 true true 0 (y offset / )]
[(Symbol) 400.0 0.0 true true 0 (s)]
[(Times-Roman) 320.0 -120.0 true true 0 (y)]
] -93.3 MCshow
2.000 UP
2.000 UP
4.000 UL
LT2
LTb
6154 1863 M
[ [(Times-Roman) 340.0 0.0 true true 0 (no coll.)]
] -133.3 MRshow
LT2
6394 1863 M
1086 0 V
1640 2865 M
153 89 V
167 65 V
167 73 V
167 72 V
167 67 V
167 84 V
167 44 V
167 86 V
167 45 V
167 74 V
167 75 V
168 30 V
167 48 V
167 39 V
167 56 V
167 31 V
167 16 V
167 34 V
167 -5 V
167 -12 V
167 2 V
167 -35 V
167 -20 V
167 -58 V
167 -31 V
167 -37 V
168 -57 V
167 -46 V
167 -64 V
167 -51 V
167 -54 V
167 -84 V
167 -66 V
167 -68 V
167 -65 V
167 -76 V
167 -68 V
153 -83 V
1793 2954 BoxF
1960 3019 BoxF
2127 3092 BoxF
2294 3164 BoxF
2461 3231 BoxF
2628 3315 BoxF
2795 3359 BoxF
2962 3445 BoxF
3129 3490 BoxF
3296 3564 BoxF
3463 3639 BoxF
3631 3669 BoxF
3798 3717 BoxF
3965 3756 BoxF
4132 3812 BoxF
4299 3843 BoxF
4466 3859 BoxF
4633 3893 BoxF
4800 3888 BoxF
4967 3876 BoxF
5134 3878 BoxF
5301 3843 BoxF
5468 3823 BoxF
5635 3765 BoxF
5802 3734 BoxF
5969 3697 BoxF
6137 3640 BoxF
6304 3594 BoxF
6471 3530 BoxF
6638 3479 BoxF
6805 3425 BoxF
6972 3341 BoxF
7139 3275 BoxF
7306 3207 BoxF
7473 3142 BoxF
7640 3066 BoxF
7807 2998 BoxF
6937 1863 BoxF
2.000 UP
4.000 UL
LT0
LTb
6154 1463 M
[ [(Times-Roman) 340.0 0.0 true true 0 (with coll.)]
] -133.3 MRshow
LT0
6394 1463 M
1086 0 V
1640 2374 M
153 102 V
167 94 V
167 102 V
167 122 V
167 72 V
167 96 V
167 110 V
167 98 V
167 104 V
167 72 V
167 101 V
168 74 V
167 76 V
167 68 V
167 43 V
167 58 V
167 48 V
167 26 V
167 1 V
167 -3 V
167 -2 V
167 -23 V
167 -47 V
167 -72 V
167 -55 V
167 -50 V
168 -90 V
167 -68 V
167 -102 V
167 -100 V
167 -62 V
167 -117 V
167 -68 V
167 -130 V
167 -63 V
167 -125 V
167 -99 V
153 -89 V
1793 2476 CircleF
1960 2570 CircleF
2127 2672 CircleF
2294 2794 CircleF
2461 2866 CircleF
2628 2962 CircleF
2795 3072 CircleF
2962 3170 CircleF
3129 3274 CircleF
3296 3346 CircleF
3463 3447 CircleF
3631 3521 CircleF
3798 3597 CircleF
3965 3665 CircleF
4132 3708 CircleF
4299 3766 CircleF
4466 3814 CircleF
4633 3840 CircleF
4800 3841 CircleF
4967 3838 CircleF
5134 3836 CircleF
5301 3813 CircleF
5468 3766 CircleF
5635 3694 CircleF
5802 3639 CircleF
5969 3589 CircleF
6137 3499 CircleF
6304 3431 CircleF
6471 3329 CircleF
6638 3229 CircleF
6805 3167 CircleF
6972 3050 CircleF
7139 2982 CircleF
7306 2852 CircleF
7473 2789 CircleF
7640 2664 CircleF
7807 2565 CircleF
6937 1463 CircleF
1.000 UL
LTb
1640 1200 M
6320 0 V
0 3360 V
-6320 0 V
0 -3360 V
2.000 UP
stroke
grestore
end
showpage
%%Trailer
%%DocumentFonts: Symbol Times-Roman
