%!PS-Adobe-2.0
%%Title: diagnostics3TeV.eps
%%Creator: gnuplot 4.0 patchlevel 0
%%CreationDate: Thu Jun  9 15:01:34 2011
%%DocumentFonts: (atend)
%%BoundingBox: 50 50 554 1274
%%Orientation: Landscape
%%Pages: (atend)
%%EndComments
/gnudict 256 dict def
gnudict begin
/Color true def
/Solid true def
/gnulinewidth 5.000 def
/userlinewidth gnulinewidth def
/vshift -83 def
/dl {10.0 mul} def
/hpt_ 31.5 def
/vpt_ 31.5 def
/hpt hpt_ def
/vpt vpt_ def
/Rounded false def
/M {moveto} bind def
/L {lineto} bind def
/R {rmoveto} bind def
/V {rlineto} bind def
/N {newpath moveto} bind def
/C {setrgbcolor} bind def
/f {rlineto fill} bind def
/vpt2 vpt 2 mul def
/hpt2 hpt 2 mul def
/Lshow { currentpoint stroke M
  0 vshift R show } def
/Rshow { currentpoint stroke M
  dup stringwidth pop neg vshift R show } def
/Cshow { currentpoint stroke M
  dup stringwidth pop -2 div vshift R show } def
/UP { dup vpt_ mul /vpt exch def hpt_ mul /hpt exch def
  /hpt2 hpt 2 mul def /vpt2 vpt 2 mul def } def
/DL { Color {setrgbcolor Solid {pop []} if 0 setdash }
 {pop pop pop 0 setgray Solid {pop []} if 0 setdash} ifelse } def
/BL { stroke userlinewidth 2 mul setlinewidth
      Rounded { 1 setlinejoin 1 setlinecap } if } def
/AL { stroke userlinewidth 2 div setlinewidth
      Rounded { 1 setlinejoin 1 setlinecap } if } def
/UL { dup gnulinewidth mul /userlinewidth exch def
      dup 1 lt {pop 1} if 10 mul /udl exch def } def
/PL { stroke userlinewidth setlinewidth
      Rounded { 1 setlinejoin 1 setlinecap } if } def
/LTw { PL [] 1 setgray } def
/LTb { BL [] 0 0 0 DL } def
/LTa { AL [1 udl mul 2 udl mul] 0 setdash 0 0 0 setrgbcolor } def
/LT0 { PL [] 1 0 0 DL } def
/LT1 { PL [4 dl 2 dl] 0 1 0 DL } def
/LT2 { PL [2 dl 3 dl] 0 0 1 DL } def
/LT3 { PL [1 dl 1.5 dl] 1 0 1 DL } def
/LT4 { PL [5 dl 2 dl 1 dl 2 dl] 0 1 1 DL } def
/LT5 { PL [4 dl 3 dl 1 dl 3 dl] 1 1 0 DL } def
/LT6 { PL [2 dl 2 dl 2 dl 4 dl] 0 0 0 DL } def
/LT7 { PL [2 dl 2 dl 2 dl 2 dl 2 dl 4 dl] 1 0.3 0 DL } def
/LT8 { PL [2 dl 2 dl 2 dl 2 dl 2 dl 2 dl 2 dl 4 dl] 0.5 0.5 0.5 DL } def
/Pnt { stroke [] 0 setdash
   gsave 1 setlinecap M 0 0 V stroke grestore } def
/Dia { stroke [] 0 setdash 2 copy vpt add M
  hpt neg vpt neg V hpt vpt neg V
  hpt vpt V hpt neg vpt V closepath stroke
  Pnt } def
/Pls { stroke [] 0 setdash vpt sub M 0 vpt2 V
  currentpoint stroke M
  hpt neg vpt neg R hpt2 0 V stroke
  } def
/Box { stroke [] 0 setdash 2 copy exch hpt sub exch vpt add M
  0 vpt2 neg V hpt2 0 V 0 vpt2 V
  hpt2 neg 0 V closepath stroke
  Pnt } def
/Crs { stroke [] 0 setdash exch hpt sub exch vpt add M
  hpt2 vpt2 neg V currentpoint stroke M
  hpt2 neg 0 R hpt2 vpt2 V stroke } def
/TriU { stroke [] 0 setdash 2 copy vpt 1.12 mul add M
  hpt neg vpt -1.62 mul V
  hpt 2 mul 0 V
  hpt neg vpt 1.62 mul V closepath stroke
  Pnt  } def
/Star { 2 copy Pls Crs } def
/BoxF { stroke [] 0 setdash exch hpt sub exch vpt add M
  0 vpt2 neg V  hpt2 0 V  0 vpt2 V
  hpt2 neg 0 V  closepath fill } def
/TriUF { stroke [] 0 setdash vpt 1.12 mul add M
  hpt neg vpt -1.62 mul V
  hpt 2 mul 0 V
  hpt neg vpt 1.62 mul V closepath fill } def
/TriD { stroke [] 0 setdash 2 copy vpt 1.12 mul sub M
  hpt neg vpt 1.62 mul V
  hpt 2 mul 0 V
  hpt neg vpt -1.62 mul V closepath stroke
  Pnt  } def
/TriDF { stroke [] 0 setdash vpt 1.12 mul sub M
  hpt neg vpt 1.62 mul V
  hpt 2 mul 0 V
  hpt neg vpt -1.62 mul V closepath fill} def
/DiaF { stroke [] 0 setdash vpt add M
  hpt neg vpt neg V hpt vpt neg V
  hpt vpt V hpt neg vpt V closepath fill } def
/Pent { stroke [] 0 setdash 2 copy gsave
  translate 0 hpt M 4 {72 rotate 0 hpt L} repeat
  closepath stroke grestore Pnt } def
/PentF { stroke [] 0 setdash gsave
  translate 0 hpt M 4 {72 rotate 0 hpt L} repeat
  closepath fill grestore } def
/Circle { stroke [] 0 setdash 2 copy
  hpt 0 360 arc stroke Pnt } def
/CircleF { stroke [] 0 setdash hpt 0 360 arc fill } def
/C0 { BL [] 0 setdash 2 copy moveto vpt 90 450  arc } bind def
/C1 { BL [] 0 setdash 2 copy        moveto
       2 copy  vpt 0 90 arc closepath fill
               vpt 0 360 arc closepath } bind def
/C2 { BL [] 0 setdash 2 copy moveto
       2 copy  vpt 90 180 arc closepath fill
               vpt 0 360 arc closepath } bind def
/C3 { BL [] 0 setdash 2 copy moveto
       2 copy  vpt 0 180 arc closepath fill
               vpt 0 360 arc closepath } bind def
/C4 { BL [] 0 setdash 2 copy moveto
       2 copy  vpt 180 270 arc closepath fill
               vpt 0 360 arc closepath } bind def
/C5 { BL [] 0 setdash 2 copy moveto
       2 copy  vpt 0 90 arc
       2 copy moveto
       2 copy  vpt 180 270 arc closepath fill
               vpt 0 360 arc } bind def
/C6 { BL [] 0 setdash 2 copy moveto
      2 copy  vpt 90 270 arc closepath fill
              vpt 0 360 arc closepath } bind def
/C7 { BL [] 0 setdash 2 copy moveto
      2 copy  vpt 0 270 arc closepath fill
              vpt 0 360 arc closepath } bind def
/C8 { BL [] 0 setdash 2 copy moveto
      2 copy vpt 270 360 arc closepath fill
              vpt 0 360 arc closepath } bind def
/C9 { BL [] 0 setdash 2 copy moveto
      2 copy  vpt 270 450 arc closepath fill
              vpt 0 360 arc closepath } bind def
/C10 { BL [] 0 setdash 2 copy 2 copy moveto vpt 270 360 arc closepath fill
       2 copy moveto
       2 copy vpt 90 180 arc closepath fill
               vpt 0 360 arc closepath } bind def
/C11 { BL [] 0 setdash 2 copy moveto
       2 copy  vpt 0 180 arc closepath fill
       2 copy moveto
       2 copy  vpt 270 360 arc closepath fill
               vpt 0 360 arc closepath } bind def
/C12 { BL [] 0 setdash 2 copy moveto
       2 copy  vpt 180 360 arc closepath fill
               vpt 0 360 arc closepath } bind def
/C13 { BL [] 0 setdash  2 copy moveto
       2 copy  vpt 0 90 arc closepath fill
       2 copy moveto
       2 copy  vpt 180 360 arc closepath fill
               vpt 0 360 arc closepath } bind def
/C14 { BL [] 0 setdash 2 copy moveto
       2 copy  vpt 90 360 arc closepath fill
               vpt 0 360 arc } bind def
/C15 { BL [] 0 setdash 2 copy vpt 0 360 arc closepath fill
               vpt 0 360 arc closepath } bind def
/Rec   { newpath 4 2 roll moveto 1 index 0 rlineto 0 exch rlineto
       neg 0 rlineto closepath } bind def
/Square { dup Rec } bind def
/Bsquare { vpt sub exch vpt sub exch vpt2 Square } bind def
/S0 { BL [] 0 setdash 2 copy moveto 0 vpt rlineto BL Bsquare } bind def
/S1 { BL [] 0 setdash 2 copy vpt Square fill Bsquare } bind def
/S2 { BL [] 0 setdash 2 copy exch vpt sub exch vpt Square fill Bsquare } bind def
/S3 { BL [] 0 setdash 2 copy exch vpt sub exch vpt2 vpt Rec fill Bsquare } bind def
/S4 { BL [] 0 setdash 2 copy exch vpt sub exch vpt sub vpt Square fill Bsquare } bind def
/S5 { BL [] 0 setdash 2 copy 2 copy vpt Square fill
       exch vpt sub exch vpt sub vpt Square fill Bsquare } bind def
/S6 { BL [] 0 setdash 2 copy exch vpt sub exch vpt sub vpt vpt2 Rec fill Bsquare } bind def
/S7 { BL [] 0 setdash 2 copy exch vpt sub exch vpt sub vpt vpt2 Rec fill
       2 copy vpt Square fill
       Bsquare } bind def
/S8 { BL [] 0 setdash 2 copy vpt sub vpt Square fill Bsquare } bind def
/S9 { BL [] 0 setdash 2 copy vpt sub vpt vpt2 Rec fill Bsquare } bind def
/S10 { BL [] 0 setdash 2 copy vpt sub vpt Square fill 2 copy exch vpt sub exch vpt Square fill
       Bsquare } bind def
/S11 { BL [] 0 setdash 2 copy vpt sub vpt Square fill 2 copy exch vpt sub exch vpt2 vpt Rec fill
       Bsquare } bind def
/S12 { BL [] 0 setdash 2 copy exch vpt sub exch vpt sub vpt2 vpt Rec fill Bsquare } bind def
/S13 { BL [] 0 setdash 2 copy exch vpt sub exch vpt sub vpt2 vpt Rec fill
       2 copy vpt Square fill Bsquare } bind def
/S14 { BL [] 0 setdash 2 copy exch vpt sub exch vpt sub vpt2 vpt Rec fill
       2 copy exch vpt sub exch vpt Square fill Bsquare } bind def
/S15 { BL [] 0 setdash 2 copy Bsquare fill Bsquare } bind def
/D0 { gsave translate 45 rotate 0 0 S0 stroke grestore } bind def
/D1 { gsave translate 45 rotate 0 0 S1 stroke grestore } bind def
/D2 { gsave translate 45 rotate 0 0 S2 stroke grestore } bind def
/D3 { gsave translate 45 rotate 0 0 S3 stroke grestore } bind def
/D4 { gsave translate 45 rotate 0 0 S4 stroke grestore } bind def
/D5 { gsave translate 45 rotate 0 0 S5 stroke grestore } bind def
/D6 { gsave translate 45 rotate 0 0 S6 stroke grestore } bind def
/D7 { gsave translate 45 rotate 0 0 S7 stroke grestore } bind def
/D8 { gsave translate 45 rotate 0 0 S8 stroke grestore } bind def
/D9 { gsave translate 45 rotate 0 0 S9 stroke grestore } bind def
/D10 { gsave translate 45 rotate 0 0 S10 stroke grestore } bind def
/D11 { gsave translate 45 rotate 0 0 S11 stroke grestore } bind def
/D12 { gsave translate 45 rotate 0 0 S12 stroke grestore } bind def
/D13 { gsave translate 45 rotate 0 0 S13 stroke grestore } bind def
/D14 { gsave translate 45 rotate 0 0 S14 stroke grestore } bind def
/D15 { gsave translate 45 rotate 0 0 S15 stroke grestore } bind def
/DiaE { stroke [] 0 setdash vpt add M
  hpt neg vpt neg V hpt vpt neg V
  hpt vpt V hpt neg vpt V closepath stroke } def
/BoxE { stroke [] 0 setdash exch hpt sub exch vpt add M
  0 vpt2 neg V hpt2 0 V 0 vpt2 V
  hpt2 neg 0 V closepath stroke } def
/TriUE { stroke [] 0 setdash vpt 1.12 mul add M
  hpt neg vpt -1.62 mul V
  hpt 2 mul 0 V
  hpt neg vpt 1.62 mul V closepath stroke } def
/TriDE { stroke [] 0 setdash vpt 1.12 mul sub M
  hpt neg vpt 1.62 mul V
  hpt 2 mul 0 V
  hpt neg vpt -1.62 mul V closepath stroke } def
/PentE { stroke [] 0 setdash gsave
  translate 0 hpt M 4 {72 rotate 0 hpt L} repeat
  closepath stroke grestore } def
/CircE { stroke [] 0 setdash 
  hpt 0 360 arc stroke } def
/Opaque { gsave closepath 1 setgray fill grestore 0 setgray closepath } def
/DiaW { stroke [] 0 setdash vpt add M
  hpt neg vpt neg V hpt vpt neg V
  hpt vpt V hpt neg vpt V Opaque stroke } def
/BoxW { stroke [] 0 setdash exch hpt sub exch vpt add M
  0 vpt2 neg V hpt2 0 V 0 vpt2 V
  hpt2 neg 0 V Opaque stroke } def
/TriUW { stroke [] 0 setdash vpt 1.12 mul add M
  hpt neg vpt -1.62 mul V
  hpt 2 mul 0 V
  hpt neg vpt 1.62 mul V Opaque stroke } def
/TriDW { stroke [] 0 setdash vpt 1.12 mul sub M
  hpt neg vpt 1.62 mul V
  hpt 2 mul 0 V
  hpt neg vpt -1.62 mul V Opaque stroke } def
/PentW { stroke [] 0 setdash gsave
  translate 0 hpt M 4 {72 rotate 0 hpt L} repeat
  Opaque stroke grestore } def
/CircW { stroke [] 0 setdash 
  hpt 0 360 arc Opaque stroke } def
/BoxFill { gsave Rec 1 setgray fill grestore } def
/BoxColFill {
  gsave Rec
  /Fillden exch def
  currentrgbcolor
  /ColB exch def /ColG exch def /ColR exch def
  /ColR ColR Fillden mul Fillden sub 1 add def
  /ColG ColG Fillden mul Fillden sub 1 add def
  /ColB ColB Fillden mul Fillden sub 1 add def
  ColR ColG ColB setrgbcolor
  fill grestore } def
%
% PostScript Level 1 Pattern Fill routine
% Usage: x y w h s a XX PatternFill
%	x,y = lower left corner of box to be filled
%	w,h = width and height of box
%	  a = angle in degrees between lines and x-axis
%	 XX = 0/1 for no/yes cross-hatch
%
/PatternFill { gsave /PFa [ 9 2 roll ] def
    PFa 0 get PFa 2 get 2 div add PFa 1 get PFa 3 get 2 div add translate
    PFa 2 get -2 div PFa 3 get -2 div PFa 2 get PFa 3 get Rec
    gsave 1 setgray fill grestore clip
    currentlinewidth 0.5 mul setlinewidth
    /PFs PFa 2 get dup mul PFa 3 get dup mul add sqrt def
    0 0 M PFa 5 get rotate PFs -2 div dup translate
	0 1 PFs PFa 4 get div 1 add floor cvi
	{ PFa 4 get mul 0 M 0 PFs V } for
    0 PFa 6 get ne {
	0 1 PFs PFa 4 get div 1 add floor cvi
	{ PFa 4 get mul 0 2 1 roll M PFs 0 V } for
    } if
    stroke grestore } def
%
/Symbol-Oblique /Symbol findfont [1 0 .167 1 0 0] makefont
dup length dict begin {1 index /FID eq {pop pop} {def} ifelse} forall
currentdict end definefont pop
/MFshow {
   { dup 5 get 3 ge
     { 5 get 3 eq {gsave} {grestore} ifelse }
     {dup dup 0 get findfont exch 1 get scalefont setfont
     [ currentpoint ] exch dup 2 get 0 exch R dup 5 get 2 ne {dup dup 6
     get exch 4 get {show} {stringwidth pop 0 R} ifelse }if dup 5 get 0 eq
     {dup 3 get {2 get neg 0 exch R pop} {pop aload pop M} ifelse} {dup 5
     get 1 eq {dup 2 get exch dup 3 get exch 6 get stringwidth pop -2 div
     dup 0 R} {dup 6 get stringwidth pop -2 div 0 R 6 get
     show 2 index {aload pop M neg 3 -1 roll neg R pop pop} {pop pop pop
     pop aload pop M} ifelse }ifelse }ifelse }
     ifelse }
   forall} bind def
/MFwidth {0 exch {dup 3 get{dup dup 0 get findfont exch 1 get scalefont
     setfont 6 get stringwidth pop add} {pop} ifelse} forall} bind def
/MLshow { currentpoint stroke M
  0 exch R MFshow } bind def
/MRshow { currentpoint stroke M
  exch dup MFwidth neg 3 -1 roll R MFshow } def
/MCshow { currentpoint stroke M
  exch dup MFwidth -2 div 3 -1 roll R MFshow } def
end
%%EndProlog
%%Page: 1 1
gnudict begin
gsave
50 50 translate
0.100 0.100 scale
90 rotate
0 -5040 translate
0 setgray
newpath
(Helvetica) findfont 250 scalefont setfont
1.000 UL
LTb
1200 750 M
63 0 V
10552 0 R
-63 0 V
stroke
1050 750 M
[ [(Helvetica) 250.0 0.0 true true 0 (-0.4)]
] -83.3 MRshow
1.000 UL
LTb
1200 1015 M
63 0 V
10552 0 R
-63 0 V
stroke
1050 1015 M
[ [(Helvetica) 250.0 0.0 true true 0 (-0.3)]
] -83.3 MRshow
1.000 UL
LTb
1200 1280 M
63 0 V
10552 0 R
-63 0 V
stroke
1050 1280 M
[ [(Helvetica) 250.0 0.0 true true 0 (-0.2)]
] -83.3 MRshow
1.000 UL
LTb
1200 1545 M
63 0 V
10552 0 R
-63 0 V
stroke
1050 1545 M
[ [(Helvetica) 250.0 0.0 true true 0 (-0.1)]
] -83.3 MRshow
1.000 UL
LTb
1200 1810 M
63 0 V
10552 0 R
-63 0 V
stroke
1050 1810 M
[ [(Helvetica) 250.0 0.0 true true 0 ( 0)]
] -83.3 MRshow
1.000 UL
LTb
1200 2075 M
63 0 V
10552 0 R
-63 0 V
stroke
1050 2075 M
[ [(Helvetica) 250.0 0.0 true true 0 ( 0.1)]
] -83.3 MRshow
1.000 UL
LTb
1200 2340 M
63 0 V
10552 0 R
-63 0 V
stroke
1050 2340 M
[ [(Helvetica) 250.0 0.0 true true 0 ( 0.2)]
] -83.3 MRshow
1.000 UL
LTb
1390 750 M
0 63 V
0 1659 R
0 -63 V
stroke
1390 500 M
[ [(Helvetica) 250.0 0.0 true true 0 (-2800)]
] -83.3 MCshow
1.000 UL
LTb
3285 750 M
0 63 V
0 1659 R
0 -63 V
stroke
3285 500 M
[ [(Helvetica) 250.0 0.0 true true 0 (-2600)]
] -83.3 MCshow
1.000 UL
LTb
5181 750 M
0 63 V
0 1659 R
0 -63 V
stroke
5181 500 M
[ [(Helvetica) 250.0 0.0 true true 0 (-2400)]
] -83.3 MCshow
1.000 UL
LTb
7076 750 M
0 63 V
0 1659 R
0 -63 V
stroke
7076 500 M
[ [(Helvetica) 250.0 0.0 true true 0 (-2200)]
] -83.3 MCshow
1.000 UL
LTb
8972 750 M
0 63 V
0 1659 R
0 -63 V
stroke
8972 500 M
[ [(Helvetica) 250.0 0.0 true true 0 (-2000)]
] -83.3 MCshow
1.000 UL
LTb
10867 750 M
0 63 V
0 1659 R
0 -63 V
stroke
10867 500 M
[ [(Helvetica) 250.0 0.0 true true 0 (-1800)]
] -83.3 MCshow
1.000 UL
LTb
1.000 UL
LTb
1200 750 M
10615 0 V
0 1722 V
-10615 0 V
0 -1722 V
LTb
175 1611 M
currentpoint gsave translate 90 rotate 0 0 moveto
[ [(Helvetica) 250.0 0.0 true true 0 (x[m])]
] -83.3 MCshow
grestore
LTb
6507 125 M
[ [(Helvetica) 250.0 0.0 true true 0 (s[m])]
] -83.3 MCshow
1.000 UP
LTb
1579 1545 M
[ [(Helvetica) 250.0 0.0 true true 0 (Coupling)]
] -83.3 MLshow
LTb
1579 1280 M
[ [(Helvetica) 250.0 0.0 true true 0 (correction)]
] -83.3 MLshow
LT1
3475 2075 M
[ [(Helvetica) 250.0 0.0 true true 0 (laser wires)]
] -83.3 MLshow
LT7
7171 1624 M
[ [(Helvetica) 250.0 0.0 true true 0 (Polarization laser IP)]
] -83.3 MLshow
LTb
10062 1889 M
[ [(Helvetica) 250.0 0.0 true true 0 (energy)]
] -83.3 MCshow
LTb
10062 1651 M
[ [(Helvetica) 250.0 0.0 true true 0 (spoiler)]
] -83.3 MCshow
LTb
11256 1545 M
[ [(Helvetica) 250.0 0.0 true true 0 (absorber)]
] -83.3 MCshow
2.000 UL
LT6
1428 2104 M
10 -2 V
94 -16 V
10 -1 V
95 -16 V
9 -2 V
95 -16 V
9 -1 V
10 -2 V
42 -7 V
42 -7 V
42 -7 V
42 -7 V
19 -3 V
42 -7 V
42 -7 V
42 -7 V
42 -7 V
10 -2 V
9 -2 V
20 -3 V
19 -3 V
19 -3 V
10 -2 V
9 -2 V
20 -3 V
19 -3 V
20 -3 V
9 -2 V
10 -2 V
19 -3 V
19 -3 V
20 -3 V
9 -2 V
10 -2 V
19 -3 V
20 -3 V
19 -3 V
10 -2 V
9 -2 V
42 -7 V
42 -7 V
42 -7 V
42 -7 V
10 -1 V
9 -2 V
42 -7 V
42 -7 V
42 -7 V
42 -7 V
10 -2 V
9 -2 V
42 -7 V
43 -7 V
42 -7 V
42 -7 V
19 -3 V
86 -14 V
86 -15 V
86 -14 V
86 -15 V
10 -1 V
9 -2 V
86 -15 V
86 -14 V
87 -15 V
86 -14 V
9 -2 V
10 -1 V
86 -15 V
86 -14 V
86 -15 V
86 -14 V
10 -2 V
9 -1 V
86 -15 V
86 -14 V
87 -15 V
86 -14 V
9 -2 V
10 -1 V
86 -15 V
86 -14 V
86 -15 V
86 -14 V
10 -2 V
9 -1 V
86 -15 V
86 -14 V
87 -15 V
86 -14 V
19 -4 V
72 -12 V
19 -3 V
38 -6 V
19 -4 V
95 -15 V
23 -4 V
24 -4 V
12 -2 V
47 -8 V
12 -2 V
107 -18 V
107 -17 V
12 -2 V
stroke
5773 1375 M
107 -16 V
107 -15 V
12 -2 V
107 -14 V
107 -14 V
12 -2 V
107 -13 V
108 -12 V
11 -2 V
108 -11 V
107 -11 V
11 -1 V
108 -10 V
107 -10 V
6 0 V
6 0 V
107 -9 V
107 -8 V
12 -1 V
107 -7 V
107 -6 V
12 -1 V
107 -5 V
107 -5 V
12 -1 V
107 -4 V
107 -3 V
12 0 V
107 -3 V
107 -2 V
12 0 V
107 -1 V
107 0 V
12 0 V
12 0 V
12 0 V
12 0 V
11 0 V
12 0 V
24 0 V
24 0 V
94 0 V
95 0 V
24 0 V
24 0 V
11 0 V
12 0 V
12 0 V
12 0 V
12 0 V
12 1 V
107 0 V
107 -1 V
12 0 V
107 0 V
107 0 V
12 0 V
107 -1 V
107 -1 V
12 0 V
107 -1 V
107 -1 V
12 0 V
107 -2 V
107 -1 V
12 0 V
107 -2 V
107 -2 V
6 0 V
6 0 V
107 -2 V
107 -2 V
12 0 V
107 -3 V
108 -2 V
11 0 V
107 -3 V
108 -3 V
11 0 V
108 -3 V
107 -3 V
12 -1 V
107 -3 V
107 -3 V
12 -1 V
107 -4 V
107 -3 V
12 -1 V
12 0 V
11 -1 V
12 0 V
12 -1 V
12 0 V
24 -1 V
23 -1 V
95 -3 V
95 -4 V
24 0 V
23 -1 V
12 -1 V
12 0 V
12 -1 V
12 0 V
11 0 V
stroke
11790 1124 M
12 -1 V
13 0 V
14.000 UL
LT0
1424 2063 M
14 0 V
90 -18 R
14 0 V
91 -17 R
13 0 V
91 -18 R
13 0 V
-4 -1 R
14 0 V
164 -32 R
23 0 V
164 -30 R
14 0 V
-4 -1 R
13 0 V
55 -12 R
13 0 V
-4 -1 R
13 0 V
55 -12 R
13 0 V
-4 -1 R
14 0 V
54 -12 R
13 0 V
-3 -1 R
13 0 V
54 -12 R
14 0 V
-4 -1 R
13 0 V
164 -30 R
14 0 V
-4 -2 R
13 0 V
165 -30 R
13 0 V
-4 -1 R
13 0 V
165 -32 R
23 0 V
340 -59 R
14 0 V
-4 -2 R
13 0 V
341 -59 R
13 0 V
-4 -2 R
14 0 V
340 -59 R
14 0 V
-4 -2 R
13 0 V
341 -60 R
13 0 V
-4 -1 R
14 0 V
340 -60 R
14 0 V
-4 -1 R
13 0 V
341 -61 R
23 0 V
68 -16 R
23 0 V
34 -9 R
23 0 V
91 -20 R
27 0 V
-4 0 R
4 0 V
-4 -4 R
28 0 V
8315 1146 M
28 0 V
-4 0 R
4 0 V
-4 0 R
28 0 V
185 1 R
28 0 V
-4 0 R
4 0 V
-4 0 R
28 0 V
2839 -52 R
28 0 V
-4 0 R
4 0 V
-4 0 R
27 0 V
186 -8 R
28 0 V
-4 0 R
4 0 V
-4 -1 R
27 0 V
14.000 UL
LT0
1424 2142 M
14 0 V
90 -17 R
14 0 V
91 -18 R
13 0 V
91 -17 R
13 0 V
-4 -2 R
14 0 V
164 -31 R
23 0 V
164 -30 R
14 0 V
-4 -2 R
13 0 V
55 -11 R
13 0 V
-4 -2 R
13 0 V
55 -11 R
13 0 V
-4 -2 R
14 0 V
54 -11 R
13 0 V
-3 -2 R
13 0 V
54 -11 R
14 0 V
-4 -2 R
13 0 V
164 -30 R
14 0 V
-4 -1 R
13 0 V
165 -30 R
13 0 V
-4 -2 R
13 0 V
165 -31 R
23 0 V
340 -60 R
14 0 V
-4 -1 R
13 0 V
341 -60 R
13 0 V
-4 -1 R
14 0 V
340 -60 R
14 0 V
-4 -2 R
13 0 V
341 -59 R
13 0 V
-4 -2 R
14 0 V
340 -59 R
14 0 V
-4 -2 R
13 0 V
341 -61 R
23 0 V
68 -15 R
23 0 V
34 -10 R
23 0 V
91 -20 R
27 0 V
-4 0 R
4 0 V
-4 -4 R
28 0 V
8315 1226 M
28 0 V
-4 0 R
4 0 V
-4 0 R
28 0 V
185 0 R
28 0 V
-4 0 R
4 0 V
-4 0 R
28 0 V
2839 -51 R
28 0 V
-4 0 R
4 0 V
-4 -1 R
27 0 V
186 -8 R
28 0 V
-4 0 R
4 0 V
-4 -1 R
27 0 V
14.000 UL
LT2
5547 1354 M
107 0 V
0 -17 R
107 0 V
12 -18 R
107 0 V
0 -15 R
107 0 V
12 -16 R
107 0 V
0 -14 R
107 0 V
12 -15 R
107 0 V
0 -12 R
108 0 V
11 -13 R
108 0 V
-1 -11 R
108 0 V
11 -11 R
108 0 V
0 -9 R
107 0 V
12 -10 R
107 0 V
0 -8 R
107 0 V
12 -8 R
107 0 V
0 -6 R
107 0 V
12 -6 R
107 0 V
0 -5 R
107 0 V
12 -4 R
107 0 V
0 -4 R
107 0 V
12 -2 R
107 0 V
0 -2 R
107 0 V
12 -1 R
107 0 V
0 -1 R
107 0 V
427 1 R
107 0 V
107 0 V
12 -1 R
107 0 V
107 0 V
12 -1 R
107 0 V
0 -1 R
107 0 V
12 -1 R
107 0 V
0 -1 R
107 0 V
12 -1 R
107 0 V
0 -2 R
107 0 V
12 -2 R
107 0 V
0 -1 R
107 0 V
12 -3 R
107 0 V
0 -2 R
107 0 V
12 -2 R
107 0 V
0 -3 R
108 0 V
11 -3 R
107 0 V
0 -3 R
108 0 V
11 -3 R
108 0 V
0 -3 R
107 0 V
11 -4 R
108 0 V
0 -3 R
107 0 V
12 -4 R
107 0 V
0 -4 R
107 0 V
426 -20 R
13 0 V
14.000 UL
LT2
5547 1434 M
107 0 V
0 -17 R
107 0 V
12 -18 R
107 0 V
0 -15 R
107 0 V
12 -17 R
107 0 V
0 -14 R
107 0 V
12 -14 R
107 0 V
0 -12 R
108 0 V
11 -13 R
108 0 V
-1 -11 R
108 0 V
11 -11 R
108 0 V
0 -10 R
107 0 V
12 -9 R
107 0 V
0 -8 R
107 0 V
12 -8 R
107 0 V
0 -6 R
107 0 V
12 -7 R
107 0 V
0 -4 R
107 0 V
12 -5 R
107 0 V
0 -3 R
107 0 V
12 -3 R
107 0 V
0 -2 R
107 0 V
12 -1 R
107 0 V
107 0 V
427 0 R
107 0 V
107 0 V
12 0 R
107 0 V
0 -1 R
107 0 V
12 0 R
107 0 V
0 -1 R
107 0 V
12 -1 R
107 0 V
0 -1 R
107 0 V
12 -2 R
107 0 V
0 -1 R
107 0 V
12 -2 R
107 0 V
0 -2 R
107 0 V
12 -2 R
107 0 V
0 -2 R
107 0 V
12 -3 R
107 0 V
0 -2 R
108 0 V
11 -3 R
107 0 V
0 -3 R
108 0 V
11 -3 R
108 0 V
0 -4 R
107 0 V
11 -3 R
108 0 V
0 -4 R
107 0 V
12 -4 R
107 0 V
0 -4 R
107 0 V
426 -19 R
13 0 V
30.000 UL
LT6
10010 1255 M
29 0 V
-29 0 R
29 0 V
1535 -45 R
29 0 V
-29 0 R
29 0 V
30.000 UL
LT6
10010 1096 M
29 0 V
-29 0 R
29 0 V
1535 -45 R
29 0 V
-29 0 R
29 0 V
30.000 UL
LT1
3001 1919 M
23 0 V
704 -121 R
13 0 V
-4 -2 R
14 0 V
704 -120 R
13 0 V
-4 -2 R
14 0 V
704 -122 R
23 0 V
30.000 UL
LT1
3001 1760 M
23 0 V
704 -121 R
13 0 V
-4 -2 R
14 0 V
704 -120 R
13 0 V
-4 -2 R
14 0 V
704 -122 R
23 0 V
9.000 UL
LT7
8403 1068 M
95 212 V
2.000 UL
LT6
6332 1291 M
108 -13 V
11 -1 V
108 -16 V
107 -18 V
11 -2 V
108 -21 V
107 -24 V
6 -2 V
6 -1 V
107 -27 V
107 -30 V
12 -3 V
107 -33 V
107 -35 V
12 -4 V
107 -39 V
107 -41 V
12 -4 V
107 -44 V
107 -47 V
12 -6 V
107 -49 V
107 -53 V
1.000 UL
LTb
1200 750 M
10615 0 V
0 1722 V
-10615 0 V
0 -1722 V
1.000 UP
1.000 UL
LTb
1200 2919 M
63 0 V
4014 0 R
-63 0 V
stroke
1050 2919 M
[ [(Helvetica) 250.0 0.0 true true 0 ( 0)]
] -83.3 MRshow
1.000 UL
LTb
1200 3412 M
63 0 V
4014 0 R
-63 0 V
stroke
1050 3412 M
[ [(Helvetica) 250.0 0.0 true true 0 ( 50)]
] -83.3 MRshow
1.000 UL
LTb
1200 3905 M
63 0 V
4014 0 R
-63 0 V
stroke
1050 3905 M
[ [(Helvetica) 250.0 0.0 true true 0 ( 100)]
] -83.3 MRshow
1.000 UL
LTb
1200 4398 M
63 0 V
4014 0 R
-63 0 V
stroke
1050 4398 M
[ [(Helvetica) 250.0 0.0 true true 0 ( 150)]
] -83.3 MRshow
1.000 UL
LTb
1200 4891 M
63 0 V
4014 0 R
-63 0 V
stroke
1050 4891 M
[ [(Helvetica) 250.0 0.0 true true 0 ( 200)]
] -83.3 MRshow
1.000 UL
LTb
1390 2919 M
0 63 V
0 1909 R
0 -63 V
stroke
1390 2669 M
[ [(Helvetica) 250.0 0.0 true true 0 (-2800)]
] -83.3 MCshow
1.000 UL
LTb
3286 2919 M
0 63 V
0 1909 R
0 -63 V
stroke
3286 2669 M
[ [(Helvetica) 250.0 0.0 true true 0 (-2600)]
] -83.3 MCshow
1.000 UL
LTb
5182 2919 M
0 63 V
0 1909 R
0 -63 V
stroke
5182 2669 M
[ [(Helvetica) 250.0 0.0 true true 0 (-2400)]
] -83.3 MCshow
1.000 UL
LTb
1.000 UL
LTb
1200 2919 M
4077 0 V
0 1972 V
-4077 0 V
0 -1972 V
LTb
175 3905 M
currentpoint gsave translate 90 rotate 0 0 moveto
[ [(Symbol) 250.0 0.0 true true 0 (b)]
[(Helvetica) 200.0 -75.0 true true 0 (x,y)]
[(Helvetica) 250.0 0.0 true true 0 ( [m])]
] -58.3 MCshow
grestore
1.000 UP
3.000 UL
LT0
LTb
1714 4645 M
[ [(Symbol) 250.0 0.0 true true 0 (b)]
[(Helvetica) 200.0 -75.0 true true 0 (x)]
] -58.3 MRshow
LT0
1864 4645 M
213 0 V
1428 3571 M
10 -23 V
94 -364 V
10 -15 V
95 -1 V
9 15 V
95 347 V
10 41 V
9 1 V
42 -152 V
42 -125 V
42 -98 V
42 -72 V
19 0 V
42 71 V
42 97 V
43 124 V
42 150 V
9 3 V
10 -61 V
19 -172 V
19 -140 V
20 -110 V
9 -36 V
10 -20 V
19 -23 V
20 -12 V
19 -1 V
10 1 V
9 -1 V
19 3 V
20 13 V
19 24 V
10 20 V
9 36 V
20 107 V
19 136 V
20 166 V
9 59 V
10 -5 V
42 -157 V
42 -127 V
42 -99 V
42 -69 V
9 -4 V
10 14 V
42 127 V
42 174 V
42 222 V
42 269 V
10 37 V
9 -20 V
42 -205 V
42 -177 V
42 -149 V
42 -122 V
19 -9 V
86 170 V
87 244 V
86 318 V
86 391 V
9 28 V
10 -11 V
86 -253 V
86 -218 V
86 -182 V
87 -146 V
9 -7 V
10 6 V
86 141 V
86 176 V
86 211 V
86 246 V
10 14 V
9 -14 V
86 -246 V
87 -211 V
86 -177 V
86 -141 V
9 -7 V
10 7 V
86 145 V
86 180 V
86 216 V
87 251 V
9 15 V
10 -15 V
86 -250 V
86 -215 V
86 -179 V
86 -144 V
19 44 V
72 533 V
18 363 V
3.000 UL
LT2
LTb
1714 4395 M
[ [(Symbol) 250.0 0.0 true true 0 (b)]
[(Helvetica) 200.0 -75.0 true true 0 (y)]
] -58.3 MRshow
LT2
1864 4395 M
213 0 V
1428 3096 M
10 7 V
94 225 V
10 15 V
95 -2 V
9 -14 V
95 -219 V
10 -12 V
9 0 V
42 64 V
42 92 V
42 120 V
42 149 V
19 2 V
42 -140 V
42 -114 V
43 -89 V
42 -63 V
9 -1 V
10 22 V
19 76 V
19 90 V
20 105 V
9 34 V
10 -9 V
19 -60 V
20 -55 V
19 -50 V
10 -13 V
9 8 V
19 37 V
20 42 V
19 46 V
10 4 V
9 -31 V
20 -93 V
19 -80 V
20 -67 V
9 -19 V
10 3 V
42 70 V
42 99 V
42 129 V
42 157 V
9 10 V
10 -48 V
42 -280 V
42 -185 V
42 -90 V
42 6 V
10 16 V
9 27 V
42 214 V
42 358 V
42 501 V
42 645 V
19 120 V
86 -392 V
87 -339 V
86 -284 V
86 -232 V
9 -13 V
10 5 V
86 142 V
86 178 V
86 213 V
87 247 V
9 15 V
10 -15 V
86 -248 V
86 -213 V
86 -178 V
86 -143 V
10 -7 V
9 7 V
86 143 V
87 178 V
86 214 V
86 249 V
9 15 V
10 -15 V
86 -246 V
86 -211 V
86 -177 V
87 -142 V
9 -7 V
10 7 V
86 149 V
86 184 V
86 220 V
86 255 V
19 -93 V
72 -758 V
18 -213 V
1.000 UL
LTb
1200 2919 M
4077 0 V
0 1972 V
-4077 0 V
0 -1972 V
1.000 UP
1.000 UL
LTb
6606 2919 M
63 0 V
5150 0 R
-63 0 V
stroke
6456 2919 M
[ [(Helvetica) 250.0 0.0 true true 0 ( 0)]
] -83.3 MRshow
1.000 UL
LTb
6606 3248 M
63 0 V
5150 0 R
-63 0 V
stroke
6456 3248 M
[ [(Helvetica) 250.0 0.0 true true 0 ( 20)]
] -83.3 MRshow
1.000 UL
LTb
6606 3576 M
63 0 V
5150 0 R
-63 0 V
stroke
6456 3576 M
[ [(Helvetica) 250.0 0.0 true true 0 ( 40)]
] -83.3 MRshow
1.000 UL
LTb
6606 3905 M
63 0 V
5150 0 R
-63 0 V
stroke
6456 3905 M
[ [(Helvetica) 250.0 0.0 true true 0 ( 60)]
] -83.3 MRshow
1.000 UL
LTb
6606 4234 M
63 0 V
5150 0 R
-63 0 V
stroke
6456 4234 M
[ [(Helvetica) 250.0 0.0 true true 0 ( 80)]
] -83.3 MRshow
1.000 UL
LTb
6606 4562 M
63 0 V
5150 0 R
-63 0 V
stroke
6456 4562 M
[ [(Helvetica) 250.0 0.0 true true 0 ( 100)]
] -83.3 MRshow
1.000 UL
LTb
6606 4891 M
63 0 V
5150 0 R
-63 0 V
stroke
6456 4891 M
[ [(Helvetica) 250.0 0.0 true true 0 ( 120)]
] -83.3 MRshow
1.000 UL
LTb
7080 2919 M
0 63 V
0 1909 R
0 -63 V
stroke
7080 2669 M
[ [(Helvetica) 250.0 0.0 true true 0 (-2200)]
] -83.3 MCshow
1.000 UL
LTb
8976 2919 M
0 63 V
0 1909 R
0 -63 V
stroke
8976 2669 M
[ [(Helvetica) 250.0 0.0 true true 0 (-2000)]
] -83.3 MCshow
1.000 UL
LTb
10871 2919 M
0 63 V
0 1909 R
0 -63 V
stroke
10871 2669 M
[ [(Helvetica) 250.0 0.0 true true 0 (-1800)]
] -83.3 MCshow
1.000 UL
LTb
1.000 UL
LTb
6606 2919 M
5213 0 V
0 1972 V
-5213 0 V
0 -1972 V
LTb
5831 3905 M
currentpoint gsave translate 90 rotate 0 0 moveto
[ [(Symbol) 250.0 0.0 true true 0 (b)]
[(Helvetica) 200.0 -75.0 true true 0 (x,y)]
[(Helvetica) 250.0 0.0 true true 0 ([km], -D)]
[(Helvetica) 200.0 -75.0 true true 0 (x)]
[(Helvetica) 250.0 0.0 true true 0 ([cm])]
] -58.3 MCshow
grestore
1.000 UP
3.000 UL
LT0
LTb
7167 4727 M
[ [(Symbol) 250.0 0.0 true true 0 (b)]
[(Helvetica) 200.0 -75.0 true true 0 (x)]
] -58.3 MRshow
LT0
7317 4727 M
213 0 V
6606 2923 M
63 0 V
12 0 V
107 0 V
107 0 V
6 0 V
6 0 V
107 0 V
108 0 V
11 0 V
108 0 V
107 0 V
11 0 V
108 0 V
107 0 V
12 0 V
107 0 V
107 0 V
12 0 V
107 0 V
107 0 V
12 0 V
107 0 V
107 1 V
12 0 V
12 0 V
12 0 V
11 0 V
12 0 V
12 0 V
24 0 V
23 0 V
95 0 V
95 1 V
24 0 V
23 0 V
12 0 V
12 0 V
12 0 V
12 0 V
12 1 V
12 0 V
107 1 V
107 1 V
12 0 V
107 1 V
107 1 V
12 0 V
107 1 V
107 1 V
12 1 V
107 1 V
107 1 V
12 0 V
107 2 V
107 2 V
12 0 V
107 1 V
107 2 V
6 0 V
6 0 V
107 2 V
107 2 V
12 0 V
107 2 V
107 2 V
12 0 V
107 2 V
108 2 V
11 1 V
108 2 V
107 2 V
11 0 V
108 3 V
107 2 V
12 0 V
107 3 V
107 2 V
12 1 V
12 0 V
11 0 V
12 1 V
12 0 V
12 0 V
24 1 V
23 0 V
95 0 V
95 0 V
24 0 V
23 -1 V
12 0 V
12 0 V
12 -1 V
12 0 V
11 0 V
12 -1 V
13 0 V
3.000 UL
LT2
LTb
7167 4477 M
[ [(Symbol) 250.0 0.0 true true 0 (b)]
[(Helvetica) 200.0 -75.0 true true 0 (y)]
] -58.3 MRshow
LT2
7317 4477 M
213 0 V
6606 3229 M
63 31 V
12 6 V
107 58 V
107 62 V
6 4 V
6 3 V
107 68 V
108 71 V
11 8 V
108 77 V
107 81 V
11 9 V
108 86 V
107 90 V
12 10 V
107 95 V
107 100 V
12 11 V
107 105 V
107 109 V
12 12 V
107 114 V
107 118 V
12 14 V
12 13 V
12 14 V
11 13 V
12 14 V
12 13 V
24 23 V
23 13 V
95 32 V
95 33 V
24 3 V
23 -7 V
12 -6 V
12 -6 V
12 -6 V
12 -6 V
12 -6 V
12 -6 V
107 -54 V
107 -53 V
12 -6 V
107 -52 V
107 -51 V
12 -6 V
107 -50 V
107 -50 V
12 -5 V
107 -49 V
107 -47 V
12 -6 V
107 -47 V
107 -46 V
12 -5 V
107 -45 V
107 -44 V
6 -2 V
6 -3 V
107 -43 V
107 -43 V
12 -4 V
107 -42 V
107 -41 V
12 -4 V
107 -40 V
108 -39 V
11 -5 V
108 -38 V
107 -37 V
11 -4 V
108 -36 V
107 -36 V
12 -4 V
107 -35 V
107 -33 V
12 -4 V
12 -4 V
11 -3 V
12 -4 V
12 -4 V
12 -3 V
24 -6 V
23 -2 V
95 0 V
95 0 V
24 2 V
23 6 V
12 3 V
12 4 V
12 4 V
12 3 V
11 4 V
12 4 V
13 4 V
3.000 UL
LT1
LTb
7167 4227 M
[ [(Helvetica) 250.0 0.0 true true 0 (-D)]
[(Helvetica) 200.0 -75.0 true true 0 (x)]
] -58.3 MRshow
LT1
7317 4227 M
213 0 V
6606 2941 M
63 2 V
12 1 V
107 5 V
107 5 V
6 1 V
6 0 V
107 6 V
108 6 V
11 1 V
108 7 V
107 7 V
11 1 V
108 7 V
107 9 V
12 1 V
107 8 V
107 9 V
12 1 V
107 10 V
107 10 V
12 1 V
107 11 V
107 11 V
12 1 V
12 1 V
12 1 V
11 2 V
12 1 V
12 1 V
24 3 V
23 3 V
95 13 V
95 14 V
24 3 V
23 4 V
12 3 V
12 2 V
12 2 V
12 2 V
12 2 V
12 2 V
107 20 V
107 20 V
12 2 V
107 19 V
107 20 V
12 2 V
107 19 V
107 19 V
12 3 V
107 19 V
107 19 V
12 2 V
107 19 V
107 18 V
12 2 V
107 19 V
107 19 V
6 1 V
6 1 V
107 18 V
107 19 V
12 2 V
107 18 V
107 18 V
12 2 V
107 18 V
108 18 V
11 2 V
108 18 V
107 18 V
11 1 V
108 18 V
107 18 V
12 2 V
107 17 V
107 17 V
12 2 V
12 2 V
11 2 V
12 2 V
12 2 V
12 2 V
24 3 V
23 1 V
95 0 V
95 0 V
24 -1 V
23 -3 V
12 -2 V
12 -2 V
12 -2 V
12 -2 V
11 -2 V
12 -2 V
13 -2 V
1.000 UL
LTb
6606 2919 M
5213 0 V
0 1972 V
-5213 0 V
0 -1972 V
1.000 UP
stroke
grestore
end
showpage
%%Trailer
%%DocumentFonts: Symbol Helvetica
%%Pages: 1
