%!PS-Adobe-2.0
%%Title: ffs3TeV.eps
%%Creator: gnuplot 4.0 patchlevel 0
%%CreationDate: Thu Jun  9 15:01:34 2011
%%DocumentFonts: (atend)
%%BoundingBox: 50 50 554 1274
%%Orientation: Landscape
%%Pages: (atend)
%%EndComments
/gnudict 256 dict def
gnudict begin
/Color true def
/Solid true def
/gnulinewidth 5.000 def
/userlinewidth gnulinewidth def
/vshift -83 def
/dl {10.0 mul} def
/hpt_ 31.5 def
/vpt_ 31.5 def
/hpt hpt_ def
/vpt vpt_ def
/Rounded false def
/M {moveto} bind def
/L {lineto} bind def
/R {rmoveto} bind def
/V {rlineto} bind def
/N {newpath moveto} bind def
/C {setrgbcolor} bind def
/f {rlineto fill} bind def
/vpt2 vpt 2 mul def
/hpt2 hpt 2 mul def
/Lshow { currentpoint stroke M
  0 vshift R show } def
/Rshow { currentpoint stroke M
  dup stringwidth pop neg vshift R show } def
/Cshow { currentpoint stroke M
  dup stringwidth pop -2 div vshift R show } def
/UP { dup vpt_ mul /vpt exch def hpt_ mul /hpt exch def
  /hpt2 hpt 2 mul def /vpt2 vpt 2 mul def } def
/DL { Color {setrgbcolor Solid {pop []} if 0 setdash }
 {pop pop pop 0 setgray Solid {pop []} if 0 setdash} ifelse } def
/BL { stroke userlinewidth 2 mul setlinewidth
      Rounded { 1 setlinejoin 1 setlinecap } if } def
/AL { stroke userlinewidth 2 div setlinewidth
      Rounded { 1 setlinejoin 1 setlinecap } if } def
/UL { dup gnulinewidth mul /userlinewidth exch def
      dup 1 lt {pop 1} if 10 mul /udl exch def } def
/PL { stroke userlinewidth setlinewidth
      Rounded { 1 setlinejoin 1 setlinecap } if } def
/LTw { PL [] 1 setgray } def
/LTb { BL [] 0 0 0 DL } def
/LTa { AL [1 udl mul 2 udl mul] 0 setdash 0 0 0 setrgbcolor } def
/LT0 { PL [] 1 0 0 DL } def
/LT1 { PL [4 dl 2 dl] 0 1 0 DL } def
/LT2 { PL [2 dl 3 dl] 0 0 1 DL } def
/LT3 { PL [1 dl 1.5 dl] 1 0 1 DL } def
/LT4 { PL [5 dl 2 dl 1 dl 2 dl] 0 1 1 DL } def
/LT5 { PL [4 dl 3 dl 1 dl 3 dl] 1 1 0 DL } def
/LT6 { PL [2 dl 2 dl 2 dl 4 dl] 0 0 0 DL } def
/LT7 { PL [2 dl 2 dl 2 dl 2 dl 2 dl 4 dl] 1 0.3 0 DL } def
/LT8 { PL [2 dl 2 dl 2 dl 2 dl 2 dl 2 dl 2 dl 4 dl] 0.5 0.5 0.5 DL } def
/Pnt { stroke [] 0 setdash
   gsave 1 setlinecap M 0 0 V stroke grestore } def
/Dia { stroke [] 0 setdash 2 copy vpt add M
  hpt neg vpt neg V hpt vpt neg V
  hpt vpt V hpt neg vpt V closepath stroke
  Pnt } def
/Pls { stroke [] 0 setdash vpt sub M 0 vpt2 V
  currentpoint stroke M
  hpt neg vpt neg R hpt2 0 V stroke
  } def
/Box { stroke [] 0 setdash 2 copy exch hpt sub exch vpt add M
  0 vpt2 neg V hpt2 0 V 0 vpt2 V
  hpt2 neg 0 V closepath stroke
  Pnt } def
/Crs { stroke [] 0 setdash exch hpt sub exch vpt add M
  hpt2 vpt2 neg V currentpoint stroke M
  hpt2 neg 0 R hpt2 vpt2 V stroke } def
/TriU { stroke [] 0 setdash 2 copy vpt 1.12 mul add M
  hpt neg vpt -1.62 mul V
  hpt 2 mul 0 V
  hpt neg vpt 1.62 mul V closepath stroke
  Pnt  } def
/Star { 2 copy Pls Crs } def
/BoxF { stroke [] 0 setdash exch hpt sub exch vpt add M
  0 vpt2 neg V  hpt2 0 V  0 vpt2 V
  hpt2 neg 0 V  closepath fill } def
/TriUF { stroke [] 0 setdash vpt 1.12 mul add M
  hpt neg vpt -1.62 mul V
  hpt 2 mul 0 V
  hpt neg vpt 1.62 mul V closepath fill } def
/TriD { stroke [] 0 setdash 2 copy vpt 1.12 mul sub M
  hpt neg vpt 1.62 mul V
  hpt 2 mul 0 V
  hpt neg vpt -1.62 mul V closepath stroke
  Pnt  } def
/TriDF { stroke [] 0 setdash vpt 1.12 mul sub M
  hpt neg vpt 1.62 mul V
  hpt 2 mul 0 V
  hpt neg vpt -1.62 mul V closepath fill} def
/DiaF { stroke [] 0 setdash vpt add M
  hpt neg vpt neg V hpt vpt neg V
  hpt vpt V hpt neg vpt V closepath fill } def
/Pent { stroke [] 0 setdash 2 copy gsave
  translate 0 hpt M 4 {72 rotate 0 hpt L} repeat
  closepath stroke grestore Pnt } def
/PentF { stroke [] 0 setdash gsave
  translate 0 hpt M 4 {72 rotate 0 hpt L} repeat
  closepath fill grestore } def
/Circle { stroke [] 0 setdash 2 copy
  hpt 0 360 arc stroke Pnt } def
/CircleF { stroke [] 0 setdash hpt 0 360 arc fill } def
/C0 { BL [] 0 setdash 2 copy moveto vpt 90 450  arc } bind def
/C1 { BL [] 0 setdash 2 copy        moveto
       2 copy  vpt 0 90 arc closepath fill
               vpt 0 360 arc closepath } bind def
/C2 { BL [] 0 setdash 2 copy moveto
       2 copy  vpt 90 180 arc closepath fill
               vpt 0 360 arc closepath } bind def
/C3 { BL [] 0 setdash 2 copy moveto
       2 copy  vpt 0 180 arc closepath fill
               vpt 0 360 arc closepath } bind def
/C4 { BL [] 0 setdash 2 copy moveto
       2 copy  vpt 180 270 arc closepath fill
               vpt 0 360 arc closepath } bind def
/C5 { BL [] 0 setdash 2 copy moveto
       2 copy  vpt 0 90 arc
       2 copy moveto
       2 copy  vpt 180 270 arc closepath fill
               vpt 0 360 arc } bind def
/C6 { BL [] 0 setdash 2 copy moveto
      2 copy  vpt 90 270 arc closepath fill
              vpt 0 360 arc closepath } bind def
/C7 { BL [] 0 setdash 2 copy moveto
      2 copy  vpt 0 270 arc closepath fill
              vpt 0 360 arc closepath } bind def
/C8 { BL [] 0 setdash 2 copy moveto
      2 copy vpt 270 360 arc closepath fill
              vpt 0 360 arc closepath } bind def
/C9 { BL [] 0 setdash 2 copy moveto
      2 copy  vpt 270 450 arc closepath fill
              vpt 0 360 arc closepath } bind def
/C10 { BL [] 0 setdash 2 copy 2 copy moveto vpt 270 360 arc closepath fill
       2 copy moveto
       2 copy vpt 90 180 arc closepath fill
               vpt 0 360 arc closepath } bind def
/C11 { BL [] 0 setdash 2 copy moveto
       2 copy  vpt 0 180 arc closepath fill
       2 copy moveto
       2 copy  vpt 270 360 arc closepath fill
               vpt 0 360 arc closepath } bind def
/C12 { BL [] 0 setdash 2 copy moveto
       2 copy  vpt 180 360 arc closepath fill
               vpt 0 360 arc closepath } bind def
/C13 { BL [] 0 setdash  2 copy moveto
       2 copy  vpt 0 90 arc closepath fill
       2 copy moveto
       2 copy  vpt 180 360 arc closepath fill
               vpt 0 360 arc closepath } bind def
/C14 { BL [] 0 setdash 2 copy moveto
       2 copy  vpt 90 360 arc closepath fill
               vpt 0 360 arc } bind def
/C15 { BL [] 0 setdash 2 copy vpt 0 360 arc closepath fill
               vpt 0 360 arc closepath } bind def
/Rec   { newpath 4 2 roll moveto 1 index 0 rlineto 0 exch rlineto
       neg 0 rlineto closepath } bind def
/Square { dup Rec } bind def
/Bsquare { vpt sub exch vpt sub exch vpt2 Square } bind def
/S0 { BL [] 0 setdash 2 copy moveto 0 vpt rlineto BL Bsquare } bind def
/S1 { BL [] 0 setdash 2 copy vpt Square fill Bsquare } bind def
/S2 { BL [] 0 setdash 2 copy exch vpt sub exch vpt Square fill Bsquare } bind def
/S3 { BL [] 0 setdash 2 copy exch vpt sub exch vpt2 vpt Rec fill Bsquare } bind def
/S4 { BL [] 0 setdash 2 copy exch vpt sub exch vpt sub vpt Square fill Bsquare } bind def
/S5 { BL [] 0 setdash 2 copy 2 copy vpt Square fill
       exch vpt sub exch vpt sub vpt Square fill Bsquare } bind def
/S6 { BL [] 0 setdash 2 copy exch vpt sub exch vpt sub vpt vpt2 Rec fill Bsquare } bind def
/S7 { BL [] 0 setdash 2 copy exch vpt sub exch vpt sub vpt vpt2 Rec fill
       2 copy vpt Square fill
       Bsquare } bind def
/S8 { BL [] 0 setdash 2 copy vpt sub vpt Square fill Bsquare } bind def
/S9 { BL [] 0 setdash 2 copy vpt sub vpt vpt2 Rec fill Bsquare } bind def
/S10 { BL [] 0 setdash 2 copy vpt sub vpt Square fill 2 copy exch vpt sub exch vpt Square fill
       Bsquare } bind def
/S11 { BL [] 0 setdash 2 copy vpt sub vpt Square fill 2 copy exch vpt sub exch vpt2 vpt Rec fill
       Bsquare } bind def
/S12 { BL [] 0 setdash 2 copy exch vpt sub exch vpt sub vpt2 vpt Rec fill Bsquare } bind def
/S13 { BL [] 0 setdash 2 copy exch vpt sub exch vpt sub vpt2 vpt Rec fill
       2 copy vpt Square fill Bsquare } bind def
/S14 { BL [] 0 setdash 2 copy exch vpt sub exch vpt sub vpt2 vpt Rec fill
       2 copy exch vpt sub exch vpt Square fill Bsquare } bind def
/S15 { BL [] 0 setdash 2 copy Bsquare fill Bsquare } bind def
/D0 { gsave translate 45 rotate 0 0 S0 stroke grestore } bind def
/D1 { gsave translate 45 rotate 0 0 S1 stroke grestore } bind def
/D2 { gsave translate 45 rotate 0 0 S2 stroke grestore } bind def
/D3 { gsave translate 45 rotate 0 0 S3 stroke grestore } bind def
/D4 { gsave translate 45 rotate 0 0 S4 stroke grestore } bind def
/D5 { gsave translate 45 rotate 0 0 S5 stroke grestore } bind def
/D6 { gsave translate 45 rotate 0 0 S6 stroke grestore } bind def
/D7 { gsave translate 45 rotate 0 0 S7 stroke grestore } bind def
/D8 { gsave translate 45 rotate 0 0 S8 stroke grestore } bind def
/D9 { gsave translate 45 rotate 0 0 S9 stroke grestore } bind def
/D10 { gsave translate 45 rotate 0 0 S10 stroke grestore } bind def
/D11 { gsave translate 45 rotate 0 0 S11 stroke grestore } bind def
/D12 { gsave translate 45 rotate 0 0 S12 stroke grestore } bind def
/D13 { gsave translate 45 rotate 0 0 S13 stroke grestore } bind def
/D14 { gsave translate 45 rotate 0 0 S14 stroke grestore } bind def
/D15 { gsave translate 45 rotate 0 0 S15 stroke grestore } bind def
/DiaE { stroke [] 0 setdash vpt add M
  hpt neg vpt neg V hpt vpt neg V
  hpt vpt V hpt neg vpt V closepath stroke } def
/BoxE { stroke [] 0 setdash exch hpt sub exch vpt add M
  0 vpt2 neg V hpt2 0 V 0 vpt2 V
  hpt2 neg 0 V closepath stroke } def
/TriUE { stroke [] 0 setdash vpt 1.12 mul add M
  hpt neg vpt -1.62 mul V
  hpt 2 mul 0 V
  hpt neg vpt 1.62 mul V closepath stroke } def
/TriDE { stroke [] 0 setdash vpt 1.12 mul sub M
  hpt neg vpt 1.62 mul V
  hpt 2 mul 0 V
  hpt neg vpt -1.62 mul V closepath stroke } def
/PentE { stroke [] 0 setdash gsave
  translate 0 hpt M 4 {72 rotate 0 hpt L} repeat
  closepath stroke grestore } def
/CircE { stroke [] 0 setdash 
  hpt 0 360 arc stroke } def
/Opaque { gsave closepath 1 setgray fill grestore 0 setgray closepath } def
/DiaW { stroke [] 0 setdash vpt add M
  hpt neg vpt neg V hpt vpt neg V
  hpt vpt V hpt neg vpt V Opaque stroke } def
/BoxW { stroke [] 0 setdash exch hpt sub exch vpt add M
  0 vpt2 neg V hpt2 0 V 0 vpt2 V
  hpt2 neg 0 V Opaque stroke } def
/TriUW { stroke [] 0 setdash vpt 1.12 mul add M
  hpt neg vpt -1.62 mul V
  hpt 2 mul 0 V
  hpt neg vpt 1.62 mul V Opaque stroke } def
/TriDW { stroke [] 0 setdash vpt 1.12 mul sub M
  hpt neg vpt 1.62 mul V
  hpt 2 mul 0 V
  hpt neg vpt -1.62 mul V Opaque stroke } def
/PentW { stroke [] 0 setdash gsave
  translate 0 hpt M 4 {72 rotate 0 hpt L} repeat
  Opaque stroke grestore } def
/CircW { stroke [] 0 setdash 
  hpt 0 360 arc Opaque stroke } def
/BoxFill { gsave Rec 1 setgray fill grestore } def
/BoxColFill {
  gsave Rec
  /Fillden exch def
  currentrgbcolor
  /ColB exch def /ColG exch def /ColR exch def
  /ColR ColR Fillden mul Fillden sub 1 add def
  /ColG ColG Fillden mul Fillden sub 1 add def
  /ColB ColB Fillden mul Fillden sub 1 add def
  ColR ColG ColB setrgbcolor
  fill grestore } def
%
% PostScript Level 1 Pattern Fill routine
% Usage: x y w h s a XX PatternFill
%	x,y = lower left corner of box to be filled
%	w,h = width and height of box
%	  a = angle in degrees between lines and x-axis
%	 XX = 0/1 for no/yes cross-hatch
%
/PatternFill { gsave /PFa [ 9 2 roll ] def
    PFa 0 get PFa 2 get 2 div add PFa 1 get PFa 3 get 2 div add translate
    PFa 2 get -2 div PFa 3 get -2 div PFa 2 get PFa 3 get Rec
    gsave 1 setgray fill grestore clip
    currentlinewidth 0.5 mul setlinewidth
    /PFs PFa 2 get dup mul PFa 3 get dup mul add sqrt def
    0 0 M PFa 5 get rotate PFs -2 div dup translate
	0 1 PFs PFa 4 get div 1 add floor cvi
	{ PFa 4 get mul 0 M 0 PFs V } for
    0 PFa 6 get ne {
	0 1 PFs PFa 4 get div 1 add floor cvi
	{ PFa 4 get mul 0 2 1 roll M PFs 0 V } for
    } if
    stroke grestore } def
%
/Symbol-Oblique /Symbol findfont [1 0 .167 1 0 0] makefont
dup length dict begin {1 index /FID eq {pop pop} {def} ifelse} forall
currentdict end definefont pop
/MFshow {
   { dup 5 get 3 ge
     { 5 get 3 eq {gsave} {grestore} ifelse }
     {dup dup 0 get findfont exch 1 get scalefont setfont
     [ currentpoint ] exch dup 2 get 0 exch R dup 5 get 2 ne {dup dup 6
     get exch 4 get {show} {stringwidth pop 0 R} ifelse }if dup 5 get 0 eq
     {dup 3 get {2 get neg 0 exch R pop} {pop aload pop M} ifelse} {dup 5
     get 1 eq {dup 2 get exch dup 3 get exch 6 get stringwidth pop -2 div
     dup 0 R} {dup 6 get stringwidth pop -2 div 0 R 6 get
     show 2 index {aload pop M neg 3 -1 roll neg R pop pop} {pop pop pop
     pop aload pop M} ifelse }ifelse }ifelse }
     ifelse }
   forall} bind def
/MFwidth {0 exch {dup 3 get{dup dup 0 get findfont exch 1 get scalefont
     setfont 6 get stringwidth pop add} {pop} ifelse} forall} bind def
/MLshow { currentpoint stroke M
  0 exch R MFshow } bind def
/MRshow { currentpoint stroke M
  exch dup MFwidth neg 3 -1 roll R MFshow } def
/MCshow { currentpoint stroke M
  exch dup MFwidth -2 div 3 -1 roll R MFshow } def
end
%%EndProlog
%%Page: 1 1
gnudict begin
gsave
50 50 translate
0.100 0.100 scale
90 rotate
0 -5040 translate
0 setgray
newpath
(Helvetica) findfont 250 scalefont setfont
1.000 UL
LTb
1200 750 M
63 0 V
10552 0 R
-63 0 V
stroke
1050 750 M
[ [(Helvetica) 250.0 0.0 true true 0 (-0.4)]
] -83.3 MRshow
1.000 UL
LTb
1200 1015 M
63 0 V
10552 0 R
-63 0 V
stroke
1050 1015 M
[ [(Helvetica) 250.0 0.0 true true 0 (-0.3)]
] -83.3 MRshow
1.000 UL
LTb
1200 1280 M
63 0 V
10552 0 R
-63 0 V
stroke
1050 1280 M
[ [(Helvetica) 250.0 0.0 true true 0 (-0.2)]
] -83.3 MRshow
1.000 UL
LTb
1200 1545 M
63 0 V
10552 0 R
-63 0 V
stroke
1050 1545 M
[ [(Helvetica) 250.0 0.0 true true 0 (-0.1)]
] -83.3 MRshow
1.000 UL
LTb
1200 1810 M
63 0 V
10552 0 R
-63 0 V
stroke
1050 1810 M
[ [(Helvetica) 250.0 0.0 true true 0 ( 0)]
] -83.3 MRshow
1.000 UL
LTb
1200 2075 M
63 0 V
10552 0 R
-63 0 V
stroke
1050 2075 M
[ [(Helvetica) 250.0 0.0 true true 0 ( 0.1)]
] -83.3 MRshow
1.000 UL
LTb
1200 2340 M
63 0 V
10552 0 R
-63 0 V
stroke
1050 2340 M
[ [(Helvetica) 250.0 0.0 true true 0 ( 0.2)]
] -83.3 MRshow
1.000 UL
LTb
1200 750 M
0 63 V
0 1659 R
0 -63 V
stroke
1200 500 M
[ [(Helvetica) 250.0 0.0 true true 0 (-1000)]
] -83.3 MCshow
1.000 UL
LTb
2251 750 M
0 31 V
0 1691 R
0 -31 V
3302 750 M
0 63 V
0 1659 R
0 -63 V
stroke
3302 500 M
[ [(Helvetica) 250.0 0.0 true true 0 (-800)]
] -83.3 MCshow
1.000 UL
LTb
4353 750 M
0 31 V
0 1691 R
0 -31 V
5404 750 M
0 63 V
0 1659 R
0 -63 V
stroke
5404 500 M
[ [(Helvetica) 250.0 0.0 true true 0 (-600)]
] -83.3 MCshow
1.000 UL
LTb
6455 750 M
0 31 V
0 1691 R
0 -31 V
7506 750 M
0 63 V
0 1659 R
0 -63 V
stroke
7506 500 M
[ [(Helvetica) 250.0 0.0 true true 0 (-400)]
] -83.3 MCshow
1.000 UL
LTb
8557 750 M
0 31 V
0 1691 R
0 -31 V
9608 750 M
0 63 V
0 1659 R
0 -63 V
stroke
9608 500 M
[ [(Helvetica) 250.0 0.0 true true 0 (-200)]
] -83.3 MCshow
1.000 UL
LTb
10659 750 M
0 31 V
0 1691 R
0 -31 V
11710 750 M
0 63 V
0 1659 R
0 -63 V
stroke
11710 500 M
[ [(Helvetica) 250.0 0.0 true true 0 ( 0)]
] -83.3 MCshow
1.000 UL
LTb
1.000 UL
LTb
1200 750 M
10615 0 V
0 1722 V
-10615 0 V
0 -1722 V
LTb
175 1611 M
currentpoint gsave translate 90 rotate 0 0 moveto
[ [(Helvetica) 250.0 0.0 true true 0 (x[m])]
] -83.3 MCshow
grestore
LTb
6507 125 M
[ [(Helvetica) 250.0 0.0 true true 0 (s[m])]
] -83.3 MCshow
1.000 UP
LT0
11605 2075 M
[ [(Helvetica) 250.0 0.0 true true 0 (FD)]
] -83.3 MCshow
LT6
3827 1810 M
[ [(Helvetica) 250.0 0.0 true true 0 (betatron collimators)]
] -83.3 MCshow
LT8
4038 935 M
[ [(Helvetica) 250.0 0.0 true true 0 (muon spoilers)]
] -83.3 MLshow
LT1
11500 1545 M
[ [(Helvetica) 250.0 0.0 true true 0 (crab)]
] -83.3 MCshow
LT1
11426 1280 M
[ [(Helvetica) 250.0 0.0 true true 0 (cavity)]
] -83.3 MCshow
2.000 UL
LT6
1200 1048 M
159 14 V
10 1 V
11 1 V
166 14 V
11 1 V
10 1 V
166 14 V
11 1 V
10 1 V
370 32 V
11 1 V
10 1 V
5 0 V
4 0 V
11 1 V
10 1 V
370 32 V
10 1 V
11 1 V
166 14 V
11 1 V
10 1 V
166 14 V
11 1 V
10 1 V
370 31 V
11 1 V
10 1 V
5 1 V
4 0 V
11 1 V
10 1 V
370 32 V
10 0 V
11 1 V
166 15 V
11 1 V
10 0 V
166 15 V
11 1 V
10 0 V
370 32 V
11 1 V
10 1 V
5 0 V
4 1 V
11 1 V
10 1 V
370 31 V
10 1 V
11 1 V
166 14 V
11 1 V
10 1 V
166 14 V
11 1 V
10 1 V
370 32 V
11 1 V
10 1 V
5 0 V
4 0 V
11 1 V
10 1 V
370 32 V
10 1 V
11 1 V
166 14 V
1 0 V
52 5 V
92 7 V
52 5 V
210 18 V
53 4 V
210 18 V
52 5 V
1 0 V
60 5 V
8 1 V
9 1 V
36 3 V
9 0 V
8 1 V
62 6 V
9 0 V
8 1 V
62 5 V
8 1 V
9 1 V
59 5 V
9 1 V
8 0 V
78 7 V
9 1 V
8 0 V
3 1 V
18 1 V
18 2 V
18 1 V
18 2 V
18 1 V
18 2 V
18 2 V
18 1 V
stroke
7619 1599 M
18 2 V
18 1 V
3 1 V
8 0 V
9 1 V
272 24 V
9 1 V
8 1 V
3 0 V
8 1 V
9 1 V
302 27 V
4 0 V
4 0 V
3 1 V
8 0 V
9 1 V
3 0 V
8 1 V
8 1 V
180 16 V
10 1 V
11 1 V
10 1 V
179 16 V
8 0 V
9 1 V
2 0 V
9 1 V
8 1 V
3 0 V
4 1 V
4 0 V
72 6 V
21 2 V
9 1 V
8 1 V
3 0 V
4 0 V
4 1 V
3 0 V
8 1 V
9 0 V
248 23 V
77 6 V
77 6 V
77 6 V
77 6 V
77 5 V
77 5 V
77 4 V
77 4 V
77 4 V
77 3 V
2 1 V
9 0 V
8 0 V
3 0 V
16 1 V
15 1 V
16 0 V
16 1 V
15 0 V
16 1 V
16 0 V
15 1 V
16 0 V
16 1 V
2 0 V
9 0 V
8 1 V
3 0 V
16 0 V
15 1 V
16 0 V
15 0 V
16 1 V
16 0 V
15 1 V
16 0 V
16 0 V
15 1 V
3 0 V
9 0 V
8 0 V
3 0 V
15 0 V
16 1 V
16 0 V
15 0 V
16 1 V
16 0 V
15 0 V
16 1 V
16 0 V
15 0 V
3 0 V
16 0 V
15 1 V
16 0 V
16 0 V
15 1 V
16 0 V
16 0 V
stroke
10578 1803 M
15 0 V
16 1 V
16 0 V
2 0 V
16 0 V
16 0 V
15 0 V
16 1 V
16 0 V
15 0 V
16 0 V
16 1 V
15 0 V
16 0 V
2 0 V
16 0 V
16 0 V
15 0 V
16 1 V
16 0 V
15 0 V
16 0 V
16 0 V
15 0 V
16 1 V
3 0 V
15 0 V
16 0 V
16 0 V
15 0 V
16 0 V
16 0 V
15 0 V
16 1 V
16 0 V
15 0 V
3 0 V
16 0 V
15 0 V
16 0 V
16 0 V
15 0 V
16 0 V
16 0 V
15 0 V
16 0 V
16 0 V
2 0 V
16 1 V
16 0 V
15 0 V
16 0 V
16 0 V
15 0 V
16 0 V
16 0 V
15 0 V
16 0 V
119 0 V
21 0 V
2 0 V
3 0 V
2 0 V
17 0 V
18 0 V
5 0 V
21 0 V
5 0 V
3 0 V
2 0 V
3 0 V
2 0 V
15 0 V
14 0 V
37 0 V
14.000 UL
LT0
1355 1023 M
14 0 V
-4 0 R
4 0 V
-4 1 R
15 0 V
162 15 R
15 0 V
-5 0 R
5 0 V
-5 1 R
15 0 V
162 15 R
15 0 V
-4 0 R
4 0 V
-4 1 R
14 0 V
366 33 R
15 0 V
-5 0 R
5 0 V
-5 1 R
15 0 V
5 1 R
15 0 V
-5 0 R
5 0 V
-5 1 R
15 0 V
366 33 R
14 0 V
-4 0 R
4 0 V
-4 1 R
15 0 V
162 15 R
15 0 V
-5 0 R
5 0 V
-5 1 R
15 0 V
162 15 R
15 0 V
-4 0 R
4 0 V
-4 1 R
14 0 V
366 33 R
15 0 V
-5 0 R
5 0 V
-5 1 R
15 0 V
5 1 R
15 0 V
-5 0 R
5 0 V
-5 1 R
15 0 V
366 33 R
14 0 V
-4 0 R
4 0 V
-4 1 R
15 0 V
162 15 R
15 0 V
-5 0 R
5 0 V
-5 1 R
15 0 V
162 15 R
15 0 V
-4 0 R
4 0 V
-4 1 R
14 0 V
366 32 R
15 0 V
-5 0 R
5 0 V
-5 1 R
15 0 V
5 2 R
15 0 V
-5 0 R
5 0 V
-5 1 R
15 0 V
366 32 R
14 0 V
-4 0 R
4 0 V
-4 1 R
15 0 V
162 15 R
15 0 V
-5 0 R
5 0 V
-5 1 R
15 0 V
162 16 R
15 0 V
-4 0 R
4 0 V
stroke
5298 1361 M
14 0 V
366 33 R
15 0 V
-5 0 R
5 0 V
-5 1 R
15 0 V
5 2 R
15 0 V
-5 0 R
5 0 V
-5 1 R
15 0 V
366 32 R
14 0 V
-4 0 R
4 0 V
-4 1 R
15 0 V
162 19 R
57 0 V
87 12 R
57 0 V
206 23 R
57 0 V
206 22 R
56 0 V
56 6 R
13 0 V
-4 1 R
13 0 V
32 4 R
13 0 V
-4 0 R
12 0 V
58 7 R
13 0 V
-5 0 R
13 0 V
58 6 R
12 0 V
-4 1 R
13 0 V
55 6 R
13 0 V
-5 1 R
13 0 V
74 7 R
13 0 V
-4 1 R
12 0 V
181 17 R
13 0 V
-4 0 R
13 0 V
268 25 R
13 0 V
-5 1 R
13 0 V
-2 1 R
13 0 V
-4 1 R
13 0 V
309 29 R
12 0 V
-4 0 R
13 0 V
-2 1 R
13 0 V
-4 1 R
12 0 V
386 36 R
12 0 V
-4 0 R
13 0 V
-2 1 R
13 0 V
-4 1 R
12 0 V
100 10 R
13 0 V
-5 1 R
13 0 V
10 2 R
12 0 V
-4 1 R
13 0 V
1016 72 R
13 0 V
-4 1 R
12 0 V
158 6 R
13 0 V
-4 0 R
12 0 V
158 4 R
13 0 V
-5 0 R
13 0 V
1258 12 R
21 0 V
-4 0 R
22 0 V
37 0 R
19 0 V
stroke
11655 1770 M
18 0 V
14.000 UL
LT0
1355 1103 M
14 0 V
-4 0 R
4 0 V
-4 1 R
15 0 V
162 15 R
15 0 V
-5 0 R
5 0 V
-5 1 R
15 0 V
162 15 R
15 0 V
-4 0 R
4 0 V
-4 1 R
14 0 V
366 32 R
15 0 V
-5 0 R
5 0 V
-5 1 R
15 0 V
5 2 R
15 0 V
-5 0 R
5 0 V
-5 1 R
15 0 V
366 32 R
14 0 V
-4 0 R
4 0 V
-4 1 R
15 0 V
162 16 R
15 0 V
-5 0 R
5 0 V
-5 0 R
15 0 V
162 16 R
15 0 V
-4 0 R
4 0 V
-4 1 R
14 0 V
366 32 R
15 0 V
-5 0 R
5 0 V
-5 1 R
15 0 V
5 2 R
15 0 V
-5 0 R
5 0 V
-5 1 R
15 0 V
366 32 R
14 0 V
-4 0 R
4 0 V
-4 1 R
15 0 V
162 15 R
15 0 V
-5 0 R
5 0 V
-5 1 R
15 0 V
162 15 R
15 0 V
-4 0 R
4 0 V
-4 1 R
14 0 V
366 33 R
15 0 V
-5 0 R
5 0 V
-5 1 R
15 0 V
5 1 R
15 0 V
-5 0 R
5 0 V
-5 1 R
15 0 V
366 33 R
14 0 V
-4 0 R
4 0 V
-4 1 R
15 0 V
162 15 R
15 0 V
-5 0 R
5 0 V
-5 1 R
15 0 V
162 15 R
15 0 V
-4 0 R
4 0 V
stroke
5298 1441 M
14 0 V
366 33 R
15 0 V
-5 0 R
5 0 V
-5 0 R
15 0 V
5 2 R
15 0 V
-5 0 R
5 0 V
-5 1 R
15 0 V
366 33 R
14 0 V
-4 0 R
4 0 V
-4 1 R
15 0 V
162 18 R
57 0 V
87 13 R
57 0 V
206 22 R
57 0 V
206 23 R
56 0 V
56 6 R
13 0 V
-4 0 R
13 0 V
32 4 R
13 0 V
-4 1 R
12 0 V
58 6 R
13 0 V
-5 1 R
13 0 V
58 6 R
12 0 V
-4 0 R
13 0 V
55 6 R
13 0 V
-5 1 R
13 0 V
74 7 R
13 0 V
-4 1 R
12 0 V
181 17 R
13 0 V
-4 1 R
13 0 V
268 25 R
13 0 V
-5 1 R
13 0 V
-2 1 R
13 0 V
-4 0 R
13 0 V
309 29 R
12 0 V
-4 1 R
13 0 V
-2 1 R
13 0 V
-4 1 R
12 0 V
386 35 R
12 0 V
-4 1 R
13 0 V
-2 1 R
13 0 V
-4 1 R
12 0 V
100 10 R
13 0 V
-5 0 R
13 0 V
10 2 R
12 0 V
-4 1 R
13 0 V
1016 73 R
13 0 V
-4 0 R
12 0 V
158 6 R
13 0 V
-4 0 R
12 0 V
158 5 R
13 0 V
-5 0 R
13 0 V
1258 11 R
21 0 V
-4 0 R
22 0 V
37 0 R
19 0 V
stroke
11655 1849 M
18 0 V
14.000 UL
LT2
2545 1124 M
187 16 R
2185 188 R
187 16 R
999 85 R
187 16 R
1185 103 R
18 0 V
0 2 R
18 0 V
0 2 R
18 0 V
0 1 R
18 0 V
0 2 R
18 0 V
0 1 R
18 0 V
0 2 R
18 0 V
0 1 R
18 0 V
0 2 R
18 0 V
0 2 R
18 0 V
1504 140 R
77 0 V
0 7 R
77 0 V
0 6 R
77 0 V
0 5 R
77 0 V
0 5 R
77 0 V
0 5 R
77 0 V
0 5 R
77 0 V
0 4 R
77 0 V
0 3 R
77 0 V
0 4 R
77 0 V
22 1 R
16 0 V
0 1 R
15 0 V
16 0 V
0 1 R
16 0 V
0 1 R
15 0 V
16 0 V
0 1 R
16 0 V
15 0 V
0 1 R
16 0 V
16 0 V
38 1 R
15 1 R
16 0 R
16 1 R
-1 0 V
16 0 R
16 0 R
15 1 R
16 0 R
16 1 R
15 0 R
23 1 R
15 0 V
16 0 V
16 0 V
0 1 R
15 0 V
16 0 V
16 0 V
0 1 R
15 0 V
16 0 V
16 0 V
15 0 V
3 1 R
16 0 V
15 0 V
16 0 V
0 1 R
16 0 V
15 0 V
16 0 V
16 0 V
0 1 R
15 0 V
16 0 V
16 0 V
2 0 R
16 0 V
0 1 R
16 0 V
15 0 V
16 0 V
stroke
10690 1765 M
16 0 V
15 0 V
0 1 R
16 0 V
16 0 V
15 0 V
16 0 V
2 0 R
16 0 V
0 1 R
16 0 V
15 0 V
16 0 V
16 0 V
15 0 V
16 0 V
0 1 R
16 0 V
15 0 V
16 0 V
3 0 R
15 0 V
16 0 V
16 0 V
15 0 V
16 0 V
0 1 R
16 0 V
15 0 V
16 0 V
16 0 V
15 0 V
3 0 R
16 0 V
15 0 V
16 0 V
16 0 V
15 0 V
16 0 V
0 1 R
16 0 V
15 0 V
16 0 V
16 0 V
2 0 R
16 0 V
16 0 V
15 0 V
16 0 V
16 0 V
15 0 V
16 0 V
16 0 V
15 0 V
16 0 V
14.000 UL
LT2
2545 1204 M
187 16 R
2185 187 R
187 16 R
999 86 R
187 16 R
1185 103 R
18 0 V
0 2 R
18 0 V
0 1 R
18 0 V
0 2 R
18 0 V
0 1 R
18 0 V
0 2 R
18 0 V
0 1 R
18 0 V
0 2 R
18 0 V
0 2 R
18 0 V
0 1 R
18 0 V
1504 141 R
77 0 V
0 6 R
77 0 V
0 6 R
77 0 V
0 6 R
77 0 V
0 5 R
77 0 V
0 5 R
77 0 V
0 4 R
77 0 V
0 4 R
77 0 V
0 4 R
77 0 V
0 3 R
77 0 V
22 2 R
16 0 V
15 0 V
0 1 R
16 0 V
0 1 R
16 0 V
15 0 V
0 1 R
16 0 V
16 0 V
0 1 R
15 0 V
16 0 V
0 1 R
16 0 V
38 1 R
15 0 R
16 1 R
16 0 R
-1 0 V
16 1 R
16 0 R
15 0 R
16 1 R
16 0 R
15 0 R
23 1 R
15 0 V
0 1 R
16 0 V
16 0 V
15 0 V
16 0 V
0 1 R
16 0 V
15 0 V
16 0 V
0 1 R
16 0 V
15 0 V
3 0 R
16 0 V
15 0 V
0 1 R
16 0 V
16 0 V
15 0 V
0 1 R
16 0 V
16 0 V
15 0 V
16 0 V
16 0 V
2 1 R
16 0 V
16 0 V
15 0 V
16 0 V
stroke
10690 1844 M
0 1 R
16 0 V
15 0 V
16 0 V
16 0 V
15 0 V
0 1 R
16 0 V
2 0 R
16 0 V
16 0 V
15 0 V
16 0 V
0 1 R
16 0 V
15 0 V
16 0 V
16 0 V
15 0 V
16 0 V
3 0 R
15 0 V
0 1 R
16 0 V
16 0 V
15 0 V
16 0 V
16 0 V
15 0 V
16 0 V
16 0 V
15 0 V
3 1 R
16 0 V
15 0 V
16 0 V
16 0 V
15 0 V
16 0 V
16 0 V
15 0 V
16 0 V
16 0 V
2 0 R
16 0 V
16 0 V
15 0 V
16 0 V
16 0 V
15 0 V
16 0 V
16 0 V
15 0 V
16 0 V
30.000 UL
LT6
1550 1173 M
33 0 V
-33 0 R
33 0 V
134 14 R
32 0 V
-32 0 R
32 0 V
779 70 R
33 0 V
-33 0 R
33 0 V
154 16 R
33 0 V
-33 0 R
33 0 V
-12 1 R
33 0 V
-33 0 R
33 0 V
134 15 R
32 0 V
-32 0 R
32 0 V
779 69 R
33 0 V
-33 0 R
33 0 V
154 16 R
33 0 V
-33 0 R
33 0 V
-12 2 R
33 0 V
-33 0 R
33 0 V
134 14 R
32 0 V
-32 0 R
32 0 V
779 70 R
33 0 V
-33 0 R
33 0 V
154 16 R
33 0 V
-33 0 R
33 0 V
-12 2 R
33 0 V
-33 0 R
33 0 V
134 14 R
32 0 V
-32 0 R
32 0 V
779 70 R
32 0 V
-32 0 R
32 0 V
155 16 R
33 0 V
-33 0 R
33 0 V
30.000 UL
LT6
1550 987 M
33 0 V
-33 0 R
33 0 V
134 15 R
32 0 V
-32 0 R
32 0 V
779 69 R
33 0 V
-33 0 R
33 0 V
154 16 R
33 0 V
-33 0 R
33 0 V
-12 2 R
33 0 V
-33 0 R
33 0 V
134 14 R
32 0 V
-32 0 R
32 0 V
779 70 R
33 0 V
-33 0 R
33 0 V
154 16 R
33 0 V
-33 0 R
33 0 V
-12 2 R
33 0 V
-33 0 R
33 0 V
134 14 R
32 0 V
-32 0 R
32 0 V
779 70 R
33 0 V
-33 0 R
33 0 V
154 16 R
33 0 V
-33 0 R
33 0 V
-12 1 R
33 0 V
-33 0 R
33 0 V
134 15 R
32 0 V
-32 0 R
32 0 V
779 69 R
32 0 V
-32 0 R
32 0 V
155 16 R
33 0 V
-33 0 R
33 0 V
14.000 UL
LT8
1588 1036 M
119 10 V
880 76 R
119 10 V
68 6 R
119 10 V
880 76 R
119 9 V
68 7 R
119 9 V
880 77 R
119 9 V
68 7 R
119 9 V
880 76 R
119 10 V
14.000 UL
LT8
1588 1129 M
119 10 V
880 76 R
119 9 V
68 7 R
119 9 V
880 77 R
119 9 V
68 7 R
119 9 V
880 76 R
119 10 V
68 6 R
119 10 V
880 76 R
119 10 V
2.000 UP
1.000 UL
LT1
11500 1810 DiaF
1.000 UL
LTb
1200 750 M
10615 0 V
0 1722 V
-10615 0 V
0 -1722 V
1.000 UP
1.000 UL
LTb
1200 2919 M
63 0 V
5195 0 R
-63 0 V
stroke
1050 2919 M
[ [(Helvetica) 250.0 0.0 true true 0 ( 0)]
] -83.3 MRshow
1.000 UL
LTb
1200 3248 M
63 0 V
5195 0 R
-63 0 V
stroke
1050 3248 M
[ [(Helvetica) 250.0 0.0 true true 0 ( 100)]
] -83.3 MRshow
1.000 UL
LTb
1200 3576 M
63 0 V
5195 0 R
-63 0 V
stroke
1050 3576 M
[ [(Helvetica) 250.0 0.0 true true 0 ( 200)]
] -83.3 MRshow
1.000 UL
LTb
1200 3905 M
63 0 V
5195 0 R
-63 0 V
stroke
1050 3905 M
[ [(Helvetica) 250.0 0.0 true true 0 ( 300)]
] -83.3 MRshow
1.000 UL
LTb
1200 4234 M
63 0 V
5195 0 R
-63 0 V
stroke
1050 4234 M
[ [(Helvetica) 250.0 0.0 true true 0 ( 400)]
] -83.3 MRshow
1.000 UL
LTb
1200 4562 M
63 0 V
5195 0 R
-63 0 V
stroke
1050 4562 M
[ [(Helvetica) 250.0 0.0 true true 0 ( 500)]
] -83.3 MRshow
1.000 UL
LTb
1200 4891 M
63 0 V
5195 0 R
-63 0 V
stroke
1050 4891 M
[ [(Helvetica) 250.0 0.0 true true 0 ( 600)]
] -83.3 MRshow
1.000 UL
LTb
1200 2919 M
0 63 V
0 1909 R
0 -63 V
stroke
1200 2669 M
[ [(Helvetica) 250.0 0.0 true true 0 (-1000)]
] -83.3 MCshow
1.000 UL
LTb
2252 2919 M
0 31 V
0 1941 R
0 -31 V
3303 2919 M
0 63 V
0 1909 R
0 -63 V
stroke
3303 2669 M
[ [(Helvetica) 250.0 0.0 true true 0 (-800)]
] -83.3 MCshow
1.000 UL
LTb
4355 2919 M
0 31 V
0 1941 R
0 -31 V
5406 2919 M
0 63 V
0 1909 R
0 -63 V
stroke
5406 2669 M
[ [(Helvetica) 250.0 0.0 true true 0 (-600)]
] -83.3 MCshow
1.000 UL
LTb
6458 2919 M
0 31 V
0 1941 R
0 -31 V
1.000 UL
LTb
1200 2919 M
5258 0 V
0 1972 V
-5258 0 V
0 -1972 V
LTb
175 3905 M
currentpoint gsave translate 90 rotate 0 0 moveto
[ [(Symbol) 250.0 0.0 true true 0 (b)]
[(Helvetica) 200.0 -75.0 true true 0 (x,y)]
[(Helvetica) 250.0 0.0 true true 0 ( [m])]
] -58.3 MCshow
grestore
1.000 UP
3.000 UL
LT0
LTb
-17351 3494 M
[ [(Symbol) 250.0 0.0 true true 0 (b)]
[(Helvetica) 200.0 -75.0 true true 0 (x)]
] -58.3 MRshow
LT0
-17201 3494 M
213 0 V
1200 3451 M
159 356 V
10 19 V
11 -20 V
166 -512 V
11 -13 V
10 13 V
167 512 V
10 20 V
11 -19 V
370 -829 V
10 -6 V
11 -2 V
4 0 V
5 0 V
10 2 V
11 6 V
370 829 V
10 19 V
11 -20 V
166 -512 V
11 -13 V
10 13 V
166 512 V
11 20 V
10 -19 V
370 -829 V
11 -6 V
10 -2 V
5 0 V
4 0 V
11 2 V
10 6 V
370 829 V
11 19 V
10 -20 V
167 -512 V
10 -13 V
11 13 V
166 512 V
11 20 V
10 -19 V
370 -829 V
10 -6 V
11 -2 V
5 0 V
4 0 V
11 2 V
10 6 V
370 829 V
10 19 V
11 -20 V
166 -512 V
11 -13 V
10 13 V
167 512 V
10 20 V
11 -19 V
370 -829 V
10 -6 V
11 -2 V
4 0 V
5 0 V
10 2 V
11 6 V
370 829 V
10 19 V
11 -20 V
166 -512 V
1 -1 V
52 -16 V
92 180 V
20 30 V
3.000 UL
LT2
LTb
-17351 3244 M
[ [(Symbol) 250.0 0.0 true true 0 (b)]
[(Helvetica) 200.0 -75.0 true true 0 (y)]
] -58.3 MRshow
LT2
-17201 3244 M
213 0 V
1200 3102 M
159 83 V
10 26 V
11 41 V
166 1255 V
11 55 V
10 -55 V
1734 3252 L
10 -41 V
11 -26 V
370 -193 V
10 6 V
11 2 V
4 0 V
5 0 V
10 -2 V
11 -6 V
370 193 V
10 26 V
11 41 V
166 1255 V
11 55 V
10 -55 V
2920 3252 L
11 -41 V
10 -26 V
370 -194 V
11 7 V
10 2 V
5 0 V
4 0 V
11 -2 V
10 -7 V
370 194 V
11 26 V
10 41 V
167 1255 V
10 55 V
11 -55 V
4107 3252 L
11 -41 V
10 -26 V
370 -193 V
10 6 V
11 2 V
5 0 V
4 0 V
11 -2 V
10 -6 V
370 193 V
10 26 V
11 41 V
166 1255 V
11 55 V
10 -55 V
5294 3252 L
10 -41 V
11 -26 V
370 -194 V
10 7 V
11 2 V
4 0 V
5 0 V
10 -2 V
11 -7 V
370 194 V
10 26 V
11 41 V
166 1255 V
1 6 V
52 49 V
92 -700 V
20 -99 V
1.000 UL
LTb
1200 2919 M
5258 0 V
0 1972 V
-5258 0 V
0 -1972 V
1.000 UP
1.000 UL
LTb
7772 2919 M
63 0 V
3969 0 R
-63 0 V
stroke
7622 2919 M
[ [(Helvetica) 250.0 0.0 true true 0 (-50)]
] -83.3 MRshow
1.000 UL
LTb
7772 3201 M
63 0 V
3969 0 R
-63 0 V
stroke
7622 3201 M
[ [(Helvetica) 250.0 0.0 true true 0 ( 0)]
] -83.3 MRshow
1.000 UL
LTb
7772 3482 M
63 0 V
3969 0 R
-63 0 V
stroke
7622 3482 M
[ [(Helvetica) 250.0 0.0 true true 0 ( 50)]
] -83.3 MRshow
1.000 UL
LTb
7772 3764 M
63 0 V
3969 0 R
-63 0 V
stroke
7622 3764 M
[ [(Helvetica) 250.0 0.0 true true 0 ( 100)]
] -83.3 MRshow
1.000 UL
LTb
7772 4046 M
63 0 V
3969 0 R
-63 0 V
stroke
7622 4046 M
[ [(Helvetica) 250.0 0.0 true true 0 ( 150)]
] -83.3 MRshow
1.000 UL
LTb
7772 4328 M
63 0 V
3969 0 R
-63 0 V
stroke
7622 4328 M
[ [(Helvetica) 250.0 0.0 true true 0 ( 200)]
] -83.3 MRshow
1.000 UL
LTb
7772 4609 M
63 0 V
3969 0 R
-63 0 V
stroke
7622 4609 M
[ [(Helvetica) 250.0 0.0 true true 0 ( 250)]
] -83.3 MRshow
1.000 UL
LTb
7772 4891 M
63 0 V
3969 0 R
-63 0 V
stroke
7622 4891 M
[ [(Helvetica) 250.0 0.0 true true 0 ( 300)]
] -83.3 MRshow
1.000 UL
LTb
8566 2919 M
0 31 V
0 1941 R
0 -31 V
9610 2919 M
0 63 V
0 1909 R
0 -63 V
stroke
9610 2669 M
[ [(Helvetica) 250.0 0.0 true true 0 (-200)]
] -83.3 MCshow
1.000 UL
LTb
10655 2919 M
0 31 V
0 1941 R
0 -31 V
11700 2919 M
0 63 V
0 1909 R
0 -63 V
stroke
11700 2669 M
[ [(Helvetica) 250.0 0.0 true true 0 ( 0)]
] -83.3 MCshow
1.000 UL
LTb
1.000 UL
LTb
7772 2919 M
4032 0 V
0 1972 V
-4032 0 V
0 -1972 V
LTb
6948 3905 M
currentpoint gsave translate 90 rotate 0 0 moveto
[ [(Symbol) 250.0 0.0 true true 0 (b)]
[(Helvetica) 200.0 -75.0 true true 0 (x,y)]
[(Helvetica) 250.0 0.0 true true 0 ([km], -D)]
[(Helvetica) 200.0 -75.0 true true 0 (x)]
[(Helvetica) 250.0 0.0 true true 0 ([mm])]
] -58.3 MCshow
grestore
1.000 UP
3.000 UL
LT0
LTb
10505 4609 M
[ [(Symbol) 250.0 0.0 true true 0 (b)]
[(Helvetica) 200.0 -75.0 true true 0 (x)]
] -58.3 MRshow
LT0
10655 4609 M
213 0 V
7772 3202 M
188 1 V
8 0 V
9 1 V
2 0 V
9 1 V
8 1 V
300 200 V
5 5 V
4 5 V
2 3 V
9 6 V
8 -2 V
3 -2 V
8 -10 V
9 -17 V
178 -191 V
10 3 V
11 5 V
10 6 V
178 358 V
8 22 V
9 10 V
2 1 V
9 -4 V
8 -16 V
3 -7 V
4 -12 V
4 -11 V
71 -161 V
21 -38 V
9 -13 V
8 -9 V
3 -2 V
4 -4 V
4 -3 V
3 -2 V
8 -6 V
9 -3 V
246 -45 V
76 -12 V
77 -10 V
77 -10 V
76 -8 V
77 -8 V
76 -6 V
77 -6 V
76 -4 V
77 -4 V
76 -2 V
3 0 V
8 0 V
9 0 V
2 0 V
16 -1 V
16 0 V
15 0 V
16 0 V
15 0 V
16 0 V
15 0 V
16 0 V
16 0 V
15 0 V
3 0 V
8 0 V
9 0 V
2 0 V
16 1 V
15 0 V
16 0 V
15 0 V
16 1 V
16 0 V
15 1 V
16 0 V
15 1 V
16 0 V
2 0 V
9 1 V
8 0 V
3 0 V
15 1 V
16 2 V
16 1 V
15 2 V
16 1 V
15 2 V
16 2 V
15 2 V
16 2 V
16 2 V
2 0 V
16 2 V
15 3 V
16 2 V
15 3 V
16 3 V
16 2 V
15 3 V
16 3 V
15 4 V
16 3 V
stroke
10621 3251 M
2 0 V
16 4 V
16 3 V
15 4 V
16 4 V
15 3 V
16 4 V
15 4 V
16 5 V
16 4 V
15 4 V
3 1 V
15 4 V
16 5 V
15 5 V
16 5 V
16 5 V
15 5 V
16 5 V
15 5 V
16 5 V
15 6 V
3 1 V
16 6 V
15 5 V
16 6 V
15 6 V
16 6 V
15 6 V
16 7 V
16 6 V
15 6 V
16 7 V
2 1 V
16 7 V
15 7 V
16 7 V
16 7 V
15 7 V
16 7 V
15 8 V
16 7 V
15 8 V
16 8 V
3 1 V
15 8 V
16 8 V
15 8 V
16 8 V
15 8 V
16 9 V
16 8 V
15 9 V
16 9 V
15 8 V
118 71 V
21 13 V
3 2 V
2 1 V
3 2 V
17 -36 V
17 -114 V
5 -40 V
21 -135 V
5 -26 V
3 -12 V
2 -11 V
3 -10 V
2 -10 V
15 -32 V
14 -13 V
37 -10 V
3.000 UL
LT2
LTb
10505 4359 M
[ [(Symbol) 250.0 0.0 true true 0 (b)]
[(Helvetica) 200.0 -75.0 true true 0 (y)]
] -58.3 MRshow
LT2
10655 4359 M
213 0 V
7772 3202 M
188 -1 V
8 0 V
9 0 V
2 0 V
9 0 V
8 0 V
300 5 V
5 0 V
4 0 V
2 1 V
9 0 V
8 1 V
3 0 V
8 1 V
9 1 V
178 66 V
10 6 V
11 6 V
10 6 V
178 138 V
8 12 V
9 20 V
2 8 V
9 31 V
8 43 V
3 15 V
4 26 V
4 28 V
71 590 V
21 222 V
9 82 V
8 56 V
3 12 V
4 22 V
4 21 V
3 13 V
8 27 V
9 -5 V
246 -530 V
76 -141 V
77 -129 V
77 -117 V
76 -106 V
77 -94 V
76 -82 V
77 -72 V
76 -59 V
77 -48 V
76 -36 V
3 -1 V
8 -3 V
9 -3 V
2 -1 V
16 -5 V
16 -4 V
15 -4 V
16 -4 V
15 -3 V
16 -3 V
15 -2 V
16 -2 V
16 -2 V
15 -1 V
3 -1 V
8 0 V
9 -1 V
2 0 V
16 0 V
15 0 V
16 0 V
15 0 V
16 1 V
16 1 V
15 2 V
16 1 V
15 2 V
16 2 V
2 1 V
9 1 V
8 1 V
3 0 V
15 2 V
16 2 V
16 2 V
15 2 V
16 2 V
15 2 V
16 2 V
15 3 V
16 2 V
16 3 V
2 1 V
16 2 V
15 3 V
16 3 V
15 3 V
16 3 V
16 4 V
15 3 V
16 4 V
15 3 V
16 4 V
stroke
10621 3268 M
2 0 V
16 4 V
16 4 V
15 4 V
16 4 V
15 5 V
16 4 V
15 4 V
16 5 V
16 5 V
15 4 V
3 1 V
15 5 V
16 5 V
15 5 V
16 5 V
16 6 V
15 5 V
16 6 V
15 5 V
16 6 V
15 6 V
3 1 V
16 6 V
15 6 V
16 6 V
15 6 V
16 7 V
15 6 V
16 7 V
16 7 V
15 6 V
16 7 V
2 1 V
16 7 V
15 8 V
16 7 V
16 7 V
15 8 V
16 7 V
15 8 V
16 8 V
15 8 V
16 8 V
3 1 V
15 8 V
16 8 V
15 8 V
16 9 V
15 8 V
16 9 V
16 9 V
15 9 V
16 9 V
15 9 V
118 72 V
21 13 V
3 2 V
2 1 V
3 2 V
17 66 V
17 203 V
5 90 V
21 427 V
5 119 V
3 62 V
2 63 V
3 64 V
2 66 V
15 2 V
14 -625 V
37 -1021 V
3.000 UL
LT1
LTb
10505 4109 M
[ [(Helvetica) 250.0 0.0 true true 0 (-D)]
[(Helvetica) 200.0 -75.0 true true 0 (x)]
] -58.3 MRshow
LT1
10655 4109 M
213 0 V
7772 3203 M
188 2 V
8 0 V
9 0 V
2 1 V
9 0 V
8 1 V
300 31 V
5 0 V
4 1 V
2 0 V
9 1 V
8 -1 V
3 0 V
8 -1 V
9 -1 V
178 -40 V
10 -2 V
11 -3 V
10 -2 V
178 -39 V
8 -2 V
9 -1 V
2 0 V
9 1 V
8 1 V
3 0 V
4 1 V
4 1 V
71 12 V
21 4 V
9 1 V
8 1 V
3 1 V
4 0 V
4 0 V
3 1 V
8 0 V
9 1 V
246 6 V
76 1 V
77 1 V
77 0 V
76 -1 V
77 -2 V
76 -2 V
77 -3 V
76 -5 V
77 -4 V
76 -6 V
3 0 V
8 -1 V
9 0 V
2 -1 V
16 0 V
16 -1 V
15 -1 V
16 -1 V
15 -1 V
16 -1 V
15 -1 V
16 -1 V
16 -1 V
15 -1 V
3 -1 V
8 0 V
9 0 V
2 0 V
16 1 V
15 1 V
16 1 V
15 1 V
16 1 V
16 1 V
15 1 V
16 1 V
15 1 V
16 0 V
2 0 V
9 1 V
8 -1 V
3 0 V
15 -2 V
16 -1 V
16 -2 V
15 -1 V
16 -1 V
15 -2 V
16 -1 V
15 -2 V
16 -1 V
16 -2 V
2 0 V
16 -2 V
15 -1 V
16 -2 V
15 -1 V
16 -2 V
16 -2 V
15 -1 V
16 -2 V
15 -1 V
16 -2 V
stroke
10621 3124 M
2 0 V
16 -2 V
16 -2 V
15 -1 V
16 -2 V
15 -2 V
16 -1 V
15 -2 V
16 -2 V
16 -1 V
15 -2 V
3 0 V
15 -2 V
16 -2 V
15 -2 V
16 -1 V
16 -2 V
15 -2 V
16 -2 V
15 -2 V
16 -1 V
15 -2 V
3 -1 V
16 -1 V
15 -2 V
16 -2 V
15 -2 V
16 -2 V
15 -2 V
16 -2 V
16 -1 V
15 -2 V
16 -2 V
2 -1 V
16 -2 V
15 -2 V
16 -1 V
16 -2 V
15 -2 V
16 -2 V
15 -2 V
16 -2 V
15 -2 V
16 -2 V
3 -1 V
15 -2 V
16 -2 V
15 -2 V
16 -2 V
15 -2 V
16 -2 V
16 -2 V
15 -2 V
16 -2 V
15 -3 V
118 -16 V
21 -2 V
3 -1 V
2 0 V
3 -1 V
17 8 V
17 28 V
5 11 V
21 45 V
5 11 V
3 5 V
2 6 V
3 6 V
2 5 V
15 24 V
14 15 V
37 29 V
1.000 UL
LTb
7772 2919 M
4032 0 V
0 1972 V
-4032 0 V
0 -1972 V
1.000 UP
stroke
grestore
end
showpage
%%Trailer
%%DocumentFonts: Symbol Helvetica
%%Pages: 1
