%!PS-Adobe-2.0
%%Title: layout3T500G.eps
%%Creator: gnuplot 4.0 patchlevel 0
%%CreationDate: Fri Jul 23 14:57:16 2010
%%DocumentFonts: (atend)
%%BoundingBox: 50 50 554 770
%%Orientation: Landscape
%%Pages: (atend)
%%EndComments
/gnudict 256 dict def
gnudict begin
/Color true def
/Solid true def
/gnulinewidth 5.000 def
/userlinewidth gnulinewidth def
/vshift -76 def
/dl {10.0 mul} def
/hpt_ 31.5 def
/vpt_ 31.5 def
/hpt hpt_ def
/vpt vpt_ def
/Rounded false def
/M {moveto} bind def
/L {lineto} bind def
/R {rmoveto} bind def
/V {rlineto} bind def
/N {newpath moveto} bind def
/C {setrgbcolor} bind def
/f {rlineto fill} bind def
/vpt2 vpt 2 mul def
/hpt2 hpt 2 mul def
/Lshow { currentpoint stroke M
  0 vshift R show } def
/Rshow { currentpoint stroke M
  dup stringwidth pop neg vshift R show } def
/Cshow { currentpoint stroke M
  dup stringwidth pop -2 div vshift R show } def
/UP { dup vpt_ mul /vpt exch def hpt_ mul /hpt exch def
  /hpt2 hpt 2 mul def /vpt2 vpt 2 mul def } def
/DL { Color {setrgbcolor Solid {pop []} if 0 setdash }
 {pop pop pop 0 setgray Solid {pop []} if 0 setdash} ifelse } def
/BL { stroke userlinewidth 2 mul setlinewidth
      Rounded { 1 setlinejoin 1 setlinecap } if } def
/AL { stroke userlinewidth 2 div setlinewidth
      Rounded { 1 setlinejoin 1 setlinecap } if } def
/UL { dup gnulinewidth mul /userlinewidth exch def
      dup 1 lt {pop 1} if 10 mul /udl exch def } def
/PL { stroke userlinewidth setlinewidth
      Rounded { 1 setlinejoin 1 setlinecap } if } def
/LTw { PL [] 1 setgray } def
/LTb { BL [] 0 0 0 DL } def
/LTa { AL [1 udl mul 2 udl mul] 0 setdash 0 0 0 setrgbcolor } def
/LT0 { PL [] 1 0 0 DL } def
/LT1 { PL [4 dl 2 dl] 0 1 0 DL } def
/LT2 { PL [2 dl 3 dl] 0 0 1 DL } def
/LT3 { PL [1 dl 1.5 dl] 1 0 1 DL } def
/LT4 { PL [5 dl 2 dl 1 dl 2 dl] 0 1 1 DL } def
/LT5 { PL [4 dl 3 dl 1 dl 3 dl] 1 1 0 DL } def
/LT6 { PL [2 dl 2 dl 2 dl 4 dl] 0 0 0 DL } def
/LT7 { PL [2 dl 2 dl 2 dl 2 dl 2 dl 4 dl] 1 0.3 0 DL } def
/LT8 { PL [2 dl 2 dl 2 dl 2 dl 2 dl 2 dl 2 dl 4 dl] 0.5 0.5 0.5 DL } def
/Pnt { stroke [] 0 setdash
   gsave 1 setlinecap M 0 0 V stroke grestore } def
/Dia { stroke [] 0 setdash 2 copy vpt add M
  hpt neg vpt neg V hpt vpt neg V
  hpt vpt V hpt neg vpt V closepath stroke
  Pnt } def
/Pls { stroke [] 0 setdash vpt sub M 0 vpt2 V
  currentpoint stroke M
  hpt neg vpt neg R hpt2 0 V stroke
  } def
/Box { stroke [] 0 setdash 2 copy exch hpt sub exch vpt add M
  0 vpt2 neg V hpt2 0 V 0 vpt2 V
  hpt2 neg 0 V closepath stroke
  Pnt } def
/Crs { stroke [] 0 setdash exch hpt sub exch vpt add M
  hpt2 vpt2 neg V currentpoint stroke M
  hpt2 neg 0 R hpt2 vpt2 V stroke } def
/TriU { stroke [] 0 setdash 2 copy vpt 1.12 mul add M
  hpt neg vpt -1.62 mul V
  hpt 2 mul 0 V
  hpt neg vpt 1.62 mul V closepath stroke
  Pnt  } def
/Star { 2 copy Pls Crs } def
/BoxF { stroke [] 0 setdash exch hpt sub exch vpt add M
  0 vpt2 neg V  hpt2 0 V  0 vpt2 V
  hpt2 neg 0 V  closepath fill } def
/TriUF { stroke [] 0 setdash vpt 1.12 mul add M
  hpt neg vpt -1.62 mul V
  hpt 2 mul 0 V
  hpt neg vpt 1.62 mul V closepath fill } def
/TriD { stroke [] 0 setdash 2 copy vpt 1.12 mul sub M
  hpt neg vpt 1.62 mul V
  hpt 2 mul 0 V
  hpt neg vpt -1.62 mul V closepath stroke
  Pnt  } def
/TriDF { stroke [] 0 setdash vpt 1.12 mul sub M
  hpt neg vpt 1.62 mul V
  hpt 2 mul 0 V
  hpt neg vpt -1.62 mul V closepath fill} def
/DiaF { stroke [] 0 setdash vpt add M
  hpt neg vpt neg V hpt vpt neg V
  hpt vpt V hpt neg vpt V closepath fill } def
/Pent { stroke [] 0 setdash 2 copy gsave
  translate 0 hpt M 4 {72 rotate 0 hpt L} repeat
  closepath stroke grestore Pnt } def
/PentF { stroke [] 0 setdash gsave
  translate 0 hpt M 4 {72 rotate 0 hpt L} repeat
  closepath fill grestore } def
/Circle { stroke [] 0 setdash 2 copy
  hpt 0 360 arc stroke Pnt } def
/CircleF { stroke [] 0 setdash hpt 0 360 arc fill } def
/C0 { BL [] 0 setdash 2 copy moveto vpt 90 450  arc } bind def
/C1 { BL [] 0 setdash 2 copy        moveto
       2 copy  vpt 0 90 arc closepath fill
               vpt 0 360 arc closepath } bind def
/C2 { BL [] 0 setdash 2 copy moveto
       2 copy  vpt 90 180 arc closepath fill
               vpt 0 360 arc closepath } bind def
/C3 { BL [] 0 setdash 2 copy moveto
       2 copy  vpt 0 180 arc closepath fill
               vpt 0 360 arc closepath } bind def
/C4 { BL [] 0 setdash 2 copy moveto
       2 copy  vpt 180 270 arc closepath fill
               vpt 0 360 arc closepath } bind def
/C5 { BL [] 0 setdash 2 copy moveto
       2 copy  vpt 0 90 arc
       2 copy moveto
       2 copy  vpt 180 270 arc closepath fill
               vpt 0 360 arc } bind def
/C6 { BL [] 0 setdash 2 copy moveto
      2 copy  vpt 90 270 arc closepath fill
              vpt 0 360 arc closepath } bind def
/C7 { BL [] 0 setdash 2 copy moveto
      2 copy  vpt 0 270 arc closepath fill
              vpt 0 360 arc closepath } bind def
/C8 { BL [] 0 setdash 2 copy moveto
      2 copy vpt 270 360 arc closepath fill
              vpt 0 360 arc closepath } bind def
/C9 { BL [] 0 setdash 2 copy moveto
      2 copy  vpt 270 450 arc closepath fill
              vpt 0 360 arc closepath } bind def
/C10 { BL [] 0 setdash 2 copy 2 copy moveto vpt 270 360 arc closepath fill
       2 copy moveto
       2 copy vpt 90 180 arc closepath fill
               vpt 0 360 arc closepath } bind def
/C11 { BL [] 0 setdash 2 copy moveto
       2 copy  vpt 0 180 arc closepath fill
       2 copy moveto
       2 copy  vpt 270 360 arc closepath fill
               vpt 0 360 arc closepath } bind def
/C12 { BL [] 0 setdash 2 copy moveto
       2 copy  vpt 180 360 arc closepath fill
               vpt 0 360 arc closepath } bind def
/C13 { BL [] 0 setdash  2 copy moveto
       2 copy  vpt 0 90 arc closepath fill
       2 copy moveto
       2 copy  vpt 180 360 arc closepath fill
               vpt 0 360 arc closepath } bind def
/C14 { BL [] 0 setdash 2 copy moveto
       2 copy  vpt 90 360 arc closepath fill
               vpt 0 360 arc } bind def
/C15 { BL [] 0 setdash 2 copy vpt 0 360 arc closepath fill
               vpt 0 360 arc closepath } bind def
/Rec   { newpath 4 2 roll moveto 1 index 0 rlineto 0 exch rlineto
       neg 0 rlineto closepath } bind def
/Square { dup Rec } bind def
/Bsquare { vpt sub exch vpt sub exch vpt2 Square } bind def
/S0 { BL [] 0 setdash 2 copy moveto 0 vpt rlineto BL Bsquare } bind def
/S1 { BL [] 0 setdash 2 copy vpt Square fill Bsquare } bind def
/S2 { BL [] 0 setdash 2 copy exch vpt sub exch vpt Square fill Bsquare } bind def
/S3 { BL [] 0 setdash 2 copy exch vpt sub exch vpt2 vpt Rec fill Bsquare } bind def
/S4 { BL [] 0 setdash 2 copy exch vpt sub exch vpt sub vpt Square fill Bsquare } bind def
/S5 { BL [] 0 setdash 2 copy 2 copy vpt Square fill
       exch vpt sub exch vpt sub vpt Square fill Bsquare } bind def
/S6 { BL [] 0 setdash 2 copy exch vpt sub exch vpt sub vpt vpt2 Rec fill Bsquare } bind def
/S7 { BL [] 0 setdash 2 copy exch vpt sub exch vpt sub vpt vpt2 Rec fill
       2 copy vpt Square fill
       Bsquare } bind def
/S8 { BL [] 0 setdash 2 copy vpt sub vpt Square fill Bsquare } bind def
/S9 { BL [] 0 setdash 2 copy vpt sub vpt vpt2 Rec fill Bsquare } bind def
/S10 { BL [] 0 setdash 2 copy vpt sub vpt Square fill 2 copy exch vpt sub exch vpt Square fill
       Bsquare } bind def
/S11 { BL [] 0 setdash 2 copy vpt sub vpt Square fill 2 copy exch vpt sub exch vpt2 vpt Rec fill
       Bsquare } bind def
/S12 { BL [] 0 setdash 2 copy exch vpt sub exch vpt sub vpt2 vpt Rec fill Bsquare } bind def
/S13 { BL [] 0 setdash 2 copy exch vpt sub exch vpt sub vpt2 vpt Rec fill
       2 copy vpt Square fill Bsquare } bind def
/S14 { BL [] 0 setdash 2 copy exch vpt sub exch vpt sub vpt2 vpt Rec fill
       2 copy exch vpt sub exch vpt Square fill Bsquare } bind def
/S15 { BL [] 0 setdash 2 copy Bsquare fill Bsquare } bind def
/D0 { gsave translate 45 rotate 0 0 S0 stroke grestore } bind def
/D1 { gsave translate 45 rotate 0 0 S1 stroke grestore } bind def
/D2 { gsave translate 45 rotate 0 0 S2 stroke grestore } bind def
/D3 { gsave translate 45 rotate 0 0 S3 stroke grestore } bind def
/D4 { gsave translate 45 rotate 0 0 S4 stroke grestore } bind def
/D5 { gsave translate 45 rotate 0 0 S5 stroke grestore } bind def
/D6 { gsave translate 45 rotate 0 0 S6 stroke grestore } bind def
/D7 { gsave translate 45 rotate 0 0 S7 stroke grestore } bind def
/D8 { gsave translate 45 rotate 0 0 S8 stroke grestore } bind def
/D9 { gsave translate 45 rotate 0 0 S9 stroke grestore } bind def
/D10 { gsave translate 45 rotate 0 0 S10 stroke grestore } bind def
/D11 { gsave translate 45 rotate 0 0 S11 stroke grestore } bind def
/D12 { gsave translate 45 rotate 0 0 S12 stroke grestore } bind def
/D13 { gsave translate 45 rotate 0 0 S13 stroke grestore } bind def
/D14 { gsave translate 45 rotate 0 0 S14 stroke grestore } bind def
/D15 { gsave translate 45 rotate 0 0 S15 stroke grestore } bind def
/DiaE { stroke [] 0 setdash vpt add M
  hpt neg vpt neg V hpt vpt neg V
  hpt vpt V hpt neg vpt V closepath stroke } def
/BoxE { stroke [] 0 setdash exch hpt sub exch vpt add M
  0 vpt2 neg V hpt2 0 V 0 vpt2 V
  hpt2 neg 0 V closepath stroke } def
/TriUE { stroke [] 0 setdash vpt 1.12 mul add M
  hpt neg vpt -1.62 mul V
  hpt 2 mul 0 V
  hpt neg vpt 1.62 mul V closepath stroke } def
/TriDE { stroke [] 0 setdash vpt 1.12 mul sub M
  hpt neg vpt 1.62 mul V
  hpt 2 mul 0 V
  hpt neg vpt -1.62 mul V closepath stroke } def
/PentE { stroke [] 0 setdash gsave
  translate 0 hpt M 4 {72 rotate 0 hpt L} repeat
  closepath stroke grestore } def
/CircE { stroke [] 0 setdash 
  hpt 0 360 arc stroke } def
/Opaque { gsave closepath 1 setgray fill grestore 0 setgray closepath } def
/DiaW { stroke [] 0 setdash vpt add M
  hpt neg vpt neg V hpt vpt neg V
  hpt vpt V hpt neg vpt V Opaque stroke } def
/BoxW { stroke [] 0 setdash exch hpt sub exch vpt add M
  0 vpt2 neg V hpt2 0 V 0 vpt2 V
  hpt2 neg 0 V Opaque stroke } def
/TriUW { stroke [] 0 setdash vpt 1.12 mul add M
  hpt neg vpt -1.62 mul V
  hpt 2 mul 0 V
  hpt neg vpt 1.62 mul V Opaque stroke } def
/TriDW { stroke [] 0 setdash vpt 1.12 mul sub M
  hpt neg vpt 1.62 mul V
  hpt 2 mul 0 V
  hpt neg vpt -1.62 mul V Opaque stroke } def
/PentW { stroke [] 0 setdash gsave
  translate 0 hpt M 4 {72 rotate 0 hpt L} repeat
  Opaque stroke grestore } def
/CircW { stroke [] 0 setdash 
  hpt 0 360 arc Opaque stroke } def
/BoxFill { gsave Rec 1 setgray fill grestore } def
/BoxColFill {
  gsave Rec
  /Fillden exch def
  currentrgbcolor
  /ColB exch def /ColG exch def /ColR exch def
  /ColR ColR Fillden mul Fillden sub 1 add def
  /ColG ColG Fillden mul Fillden sub 1 add def
  /ColB ColB Fillden mul Fillden sub 1 add def
  ColR ColG ColB setrgbcolor
  fill grestore } def
%
% PostScript Level 1 Pattern Fill routine
% Usage: x y w h s a XX PatternFill
%	x,y = lower left corner of box to be filled
%	w,h = width and height of box
%	  a = angle in degrees between lines and x-axis
%	 XX = 0/1 for no/yes cross-hatch
%
/PatternFill { gsave /PFa [ 9 2 roll ] def
    PFa 0 get PFa 2 get 2 div add PFa 1 get PFa 3 get 2 div add translate
    PFa 2 get -2 div PFa 3 get -2 div PFa 2 get PFa 3 get Rec
    gsave 1 setgray fill grestore clip
    currentlinewidth 0.5 mul setlinewidth
    /PFs PFa 2 get dup mul PFa 3 get dup mul add sqrt def
    0 0 M PFa 5 get rotate PFs -2 div dup translate
	0 1 PFs PFa 4 get div 1 add floor cvi
	{ PFa 4 get mul 0 M 0 PFs V } for
    0 PFa 6 get ne {
	0 1 PFs PFa 4 get div 1 add floor cvi
	{ PFa 4 get mul 0 2 1 roll M PFs 0 V } for
    } if
    stroke grestore } def
%
/Symbol-Oblique /Symbol findfont [1 0 .167 1 0 0] makefont
dup length dict begin {1 index /FID eq {pop pop} {def} ifelse} forall
currentdict end definefont pop
/MFshow {
   { dup 5 get 3 ge
     { 5 get 3 eq {gsave} {grestore} ifelse }
     {dup dup 0 get findfont exch 1 get scalefont setfont
     [ currentpoint ] exch dup 2 get 0 exch R dup 5 get 2 ne {dup dup 6
     get exch 4 get {show} {stringwidth pop 0 R} ifelse }if dup 5 get 0 eq
     {dup 3 get {2 get neg 0 exch R pop} {pop aload pop M} ifelse} {dup 5
     get 1 eq {dup 2 get exch dup 3 get exch 6 get stringwidth pop -2 div
     dup 0 R} {dup 6 get stringwidth pop -2 div 0 R 6 get
     show 2 index {aload pop M neg 3 -1 roll neg R pop pop} {pop pop pop
     pop aload pop M} ifelse }ifelse }ifelse }
     ifelse }
   forall} bind def
/MFwidth {0 exch {dup 3 get{dup dup 0 get findfont exch 1 get scalefont
     setfont 6 get stringwidth pop add} {pop} ifelse} forall} bind def
/MLshow { currentpoint stroke M
  0 exch R MFshow } bind def
/MRshow { currentpoint stroke M
  exch dup MFwidth neg 3 -1 roll R MFshow } def
/MCshow { currentpoint stroke M
  exch dup MFwidth -2 div 3 -1 roll R MFshow } def
end
%%EndProlog
%%Page: 1 1
gnudict begin
gsave
50 50 translate
0.100 0.100 scale
90 rotate
0 -5040 translate
0 setgray
newpath
(Helvetica) findfont 230 scalefont setfont
1.000 UL
LTb
897 690 M
63 0 V
5849 0 R
-63 0 V
stroke
759 690 M
[ [(Helvetica) 230.0 0.0 true true 0 (-2)]
] -76.7 MRshow
1.000 UL
LTb
897 1369 M
63 0 V
5849 0 R
-63 0 V
stroke
759 1369 M
[ [(Helvetica) 230.0 0.0 true true 0 (-1)]
] -76.7 MRshow
1.000 UL
LTb
897 2048 M
63 0 V
5849 0 R
-63 0 V
stroke
759 2048 M
[ [(Helvetica) 230.0 0.0 true true 0 ( 0)]
] -76.7 MRshow
1.000 UL
LTb
897 2727 M
63 0 V
5849 0 R
-63 0 V
stroke
759 2727 M
[ [(Helvetica) 230.0 0.0 true true 0 ( 1)]
] -76.7 MRshow
1.000 UL
LTb
897 3406 M
63 0 V
5849 0 R
-63 0 V
stroke
759 3406 M
[ [(Helvetica) 230.0 0.0 true true 0 ( 2)]
] -76.7 MRshow
1.000 UL
LTb
897 4085 M
63 0 V
5849 0 R
-63 0 V
stroke
759 4085 M
[ [(Helvetica) 230.0 0.0 true true 0 ( 3)]
] -76.7 MRshow
1.000 UL
LTb
897 4764 M
63 0 V
5849 0 R
-63 0 V
stroke
759 4764 M
[ [(Helvetica) 230.0 0.0 true true 0 ( 4)]
] -76.7 MRshow
1.000 UL
LTb
897 690 M
0 63 V
0 4011 R
0 -63 V
stroke
897 460 M
[ [(Helvetica) 230.0 0.0 true true 0 (-3000)]
] -76.7 MCshow
1.000 UL
LTb
1793 690 M
0 63 V
0 4011 R
0 -63 V
stroke
1793 460 M
[ [(Helvetica) 230.0 0.0 true true 0 (-2500)]
] -76.7 MCshow
1.000 UL
LTb
2689 690 M
0 63 V
0 4011 R
0 -63 V
stroke
2689 460 M
[ [(Helvetica) 230.0 0.0 true true 0 (-2000)]
] -76.7 MCshow
1.000 UL
LTb
3584 690 M
0 63 V
0 4011 R
0 -63 V
stroke
3584 460 M
[ [(Helvetica) 230.0 0.0 true true 0 (-1500)]
] -76.7 MCshow
1.000 UL
LTb
4480 690 M
0 63 V
0 4011 R
0 -63 V
stroke
4480 460 M
[ [(Helvetica) 230.0 0.0 true true 0 (-1000)]
] -76.7 MCshow
1.000 UL
LTb
5376 690 M
0 63 V
0 4011 R
0 -63 V
stroke
5376 460 M
[ [(Helvetica) 230.0 0.0 true true 0 (-500)]
] -76.7 MCshow
1.000 UL
LTb
6272 690 M
0 63 V
0 4011 R
0 -63 V
stroke
6272 460 M
[ [(Helvetica) 230.0 0.0 true true 0 ( 0)]
] -76.7 MCshow
1.000 UL
LTb
1.000 UL
LTb
897 690 M
5912 0 V
0 4074 V
-5912 0 V
897 690 L
LTb
230 2727 M
currentpoint gsave translate 90 rotate 0 0 moveto
[ [(Helvetica) 230.0 0.0 true true 0 (x[m])]
] -76.7 MCshow
grestore
LTb
3853 115 M
[ [(Helvetica) 230.0 0.0 true true 0 (s[m])]
] -76.7 MCshow
1.000 UP
LTb
6343 2014 M
[ [(Helvetica) 230.0 0.0 true true 0 (IP)]
] -76.7 MLshow
LT0
5555 1709 M
[ [(Helvetica) 230.0 0.0 true true 0 (3TeV 20mrad)]
] -76.7 MLshow
LT2
5107 2320 M
[ [(Helvetica) 230.0 0.0 true true 0 (500GeV 18.6mrad)]
] -76.7 MLshow
LT1
897 2218 M
[ [(Helvetica) 230.0 0.0 true true 0 (linac \(0.6mrad\))]
] -76.7 MLshow
LTb
6343 2014 M
[ [(Helvetica) 230.0 0.0 true true 0 (IP)]
] -76.7 MLshow
LT0
5555 1709 M
[ [(Helvetica) 230.0 0.0 true true 0 (3TeV 20mrad)]
] -76.7 MLshow
LT2
5107 2320 M
[ [(Helvetica) 230.0 0.0 true true 0 (500GeV 18.6mrad)]
] -76.7 MLshow
LT1
897 2218 M
[ [(Helvetica) 230.0 0.0 true true 0 (linac \(0.6mrad\))]
] -76.7 MLshow
1.000 UP
1.000 UL
LT0
LTb
6134 3542 M
[ [(Helvetica) 230.0 0.0 true true 0 (3Tev e)]
[(Helvetica) 184.0 115.0 true true 0 (-)]
[(Helvetica) 230.0 0.0 true true 0 ( BDS)]
] -99.7 MRshow
LT0
6272 3542 M
201 0 V
1263 2123 M
1 0 V
18 -4 V
2 0 V
18 -5 V
2 0 V
18 -4 V
1 0 V
2 -1 V
8 -2 V
8 -1 V
8 -2 V
8 -2 V
4 -1 V
8 -2 V
8 -2 V
8 -1 V
7 -2 V
2 -1 V
2 0 V
4 -1 V
3 -1 V
4 0 V
2 -1 V
2 0 V
3 -1 V
4 -1 V
4 -1 V
1 0 V
2 -1 V
4 0 V
4 -1 V
3 -1 V
2 -1 V
2 0 V
4 -1 V
3 -1 V
4 0 V
2 -1 V
1 0 V
8 -2 V
8 -2 V
8 -2 V
8 -2 V
2 0 V
2 0 V
8 -2 V
8 -2 V
8 -2 V
8 -2 V
1 0 V
2 0 V
8 -2 V
8 -2 V
8 -2 V
8 -2 V
4 0 V
16 -4 V
16 -4 V
16 -4 V
17 -3 V
2 -1 V
1 0 V
17 -4 V
16 -4 V
16 -3 V
16 -4 V
2 0 V
2 -1 V
16 -4 V
17 -3 V
16 -4 V
16 -4 V
2 0 V
2 0 V
16 -4 V
16 -4 V
17 -4 V
16 -3 V
2 -1 V
1 0 V
17 -4 V
16 -4 V
16 -3 V
17 -4 V
1 0 V
2 -1 V
16 -3 V
17 -4 V
16 -4 V
16 -4 V
4 0 V
13 -4 V
4 0 V
7 -2 V
4 -1 V
18 -4 V
4 -1 V
5 -1 V
2 0 V
9 -3 V
2 0 V
20 -5 V
stroke
2061 1941 M
21 -4 V
2 0 V
20 -4 V
20 -4 V
3 -1 V
20 -4 V
20 -3 V
2 0 V
21 -4 V
20 -3 V
2 0 V
20 -3 V
21 -3 V
2 0 V
20 -3 V
20 -2 V
1 -1 V
2 0 V
20 -2 V
20 -2 V
2 0 V
21 -2 V
20 -1 V
2 -1 V
20 -1 V
21 -1 V
2 0 V
20 -1 V
20 -1 V
3 0 V
20 -1 V
20 0 V
2 -1 V
21 0 V
20 0 V
2 0 V
2 0 V
2 0 V
3 0 V
2 0 V
2 0 V
5 0 V
4 0 V
18 0 V
18 0 V
4 0 V
5 0 V
2 0 V
2 0 V
3 0 V
2 0 V
2 0 V
2 0 V
21 0 V
20 0 V
2 0 V
20 0 V
21 0 V
2 0 V
20 0 V
20 0 V
3 0 V
20 -1 V
20 0 V
2 0 V
21 0 V
20 -1 V
2 0 V
20 0 V
21 -1 V
1 0 V
1 0 V
20 0 V
20 -1 V
3 0 V
20 0 V
20 -1 V
2 0 V
21 -1 V
20 0 V
2 -1 V
20 0 V
20 -1 V
3 0 V
20 -1 V
20 -1 V
2 0 V
21 -1 V
20 -1 V
2 0 V
2 0 V
3 0 V
2 0 V
2 -1 V
2 0 V
5 0 V
4 0 V
18 -1 V
18 -1 V
5 0 V
4 0 V
2 0 V
3 -1 V
2 0 V
stroke
3217 1872 M
2 0 V
2 0 V
3 0 V
20 -1 V
20 -1 V
2 0 V
21 -1 V
20 -1 V
2 -1 V
20 -1 V
21 -1 V
2 0 V
20 -1 V
20 -2 V
3 0 V
20 -1 V
20 -2 V
2 0 V
20 -1 V
21 -2 V
1 0 V
1 0 V
20 -1 V
20 -2 V
3 0 V
20 -2 V
20 -2 V
2 0 V
21 -1 V
20 -2 V
2 0 V
20 -2 V
21 -2 V
2 0 V
20 -2 V
20 -2 V
3 0 V
20 -2 V
20 -2 V
2 0 V
3 -1 V
2 0 V
2 0 V
2 0 V
3 -1 V
4 0 V
5 0 V
17 -2 V
18 -2 V
5 -1 V
4 0 V
3 0 V
2 0 V
2 -1 V
2 0 V
3 0 V
2 0 V
20 -2 V
20 -2 V
3 0 V
20 -2 V
20 -1 V
2 0 V
20 -1 V
21 -1 V
2 0 V
20 -1 V
20 -1 V
3 0 V
20 0 V
20 0 V
2 0 V
21 0 V
20 0 V
1 0 V
1 0 V
20 0 V
21 1 V
2 0 V
20 1 V
20 1 V
3 0 V
20 1 V
20 1 V
2 0 V
21 2 V
20 2 V
2 0 V
20 2 V
21 2 V
2 0 V
20 2 V
20 3 V
3 0 V
9 1 V
2 1 V
4 0 V
5 1 V
18 2 V
2 0 V
2 1 V
2 0 V
2 0 V
2 0 V
stroke
4376 1839 M
2 1 V
2 0 V
2 0 V
2 1 V
2 0 V
2 0 V
2 0 V
41 6 V
2 0 V
2 0 V
2 0 V
2 1 V
1 0 V
1 0 V
1 0 V
2 0 V
63 8 V
2 1 V
2 0 V
28 4 V
2 0 V
2 0 V
28 4 V
2 0 V
2 0 V
63 8 V
1 0 V
2 1 V
1 0 V
1 0 V
1 0 V
2 0 V
63 8 V
2 1 V
2 0 V
28 4 V
2 0 V
2 0 V
28 4 V
2 0 V
2 0 V
63 8 V
2 1 V
1 0 V
1 0 V
1 0 V
2 0 V
1 0 V
63 9 V
2 0 V
2 0 V
28 4 V
2 0 V
2 0 V
28 4 V
2 0 V
2 0 V
63 8 V
2 1 V
1 0 V
1 0 V
1 0 V
2 0 V
2 0 V
63 9 V
1 0 V
2 0 V
29 4 V
1 0 V
2 0 V
28 4 V
2 0 V
2 0 V
63 8 V
2 1 V
2 0 V
1 0 V
2 0 V
2 1 V
63 8 V
2 0 V
1 0 V
29 4 V
9 1 V
15 2 V
9 1 V
36 5 V
9 1 V
36 5 V
9 1 V
10 1 V
2 0 V
1 0 V
6 1 V
2 0 V
1 1 V
11 1 V
1 0 V
2 0 V
10 2 V
2 0 V
1 0 V
10 1 V
2 0 V
stroke
5532 1988 M
1 1 V
13 1 V
2 1 V
1 0 V
1 0 V
3 0 V
3 1 V
3 0 V
3 0 V
3 1 V
3 0 V
3 1 V
3 0 V
3 0 V
3 1 V
1 0 V
1 0 V
2 0 V
46 7 V
2 0 V
1 0 V
2 0 V
1 0 V
52 7 V
1 0 V
1 1 V
1 0 V
2 0 V
2 0 V
1 0 V
31 4 V
1 1 V
2 0 V
2 0 V
30 4 V
2 0 V
1 1 V
1 0 V
1 0 V
2 0 V
1 0 V
13 2 V
3 0 V
2 1 V
1 0 V
1 0 V
1 0 V
1 0 V
1 0 V
1 1 V
43 5 V
13 2 V
13 2 V
13 1 V
13 2 V
13 1 V
13 1 V
14 1 V
13 1 V
13 1 V
13 1 V
2 0 V
1 0 V
1 0 V
2 0 V
3 1 V
3 0 V
2 0 V
3 0 V
3 0 V
2 0 V
3 0 V
3 1 V
2 0 V
1 0 V
1 0 V
2 0 V
3 0 V
3 0 V
2 0 V
3 0 V
3 0 V
2 1 V
3 0 V
3 0 V
2 0 V
3 0 V
2 0 V
1 0 V
1 0 V
2 0 V
3 0 V
3 0 V
2 0 V
3 0 V
3 1 V
2 0 V
3 0 V
3 0 V
2 0 V
1 0 V
3 0 V
2 0 V
3 0 V
stroke
6068 2046 M
3 0 V
2 0 V
3 0 V
3 0 V
2 0 V
3 0 V
3 0 V
3 1 V
2 0 V
3 0 V
3 0 V
2 0 V
3 0 V
3 0 V
2 0 V
3 0 V
3 0 V
3 0 V
2 0 V
3 0 V
3 0 V
2 0 V
3 0 V
3 0 V
2 0 V
3 0 V
3 0 V
3 0 V
3 1 V
2 0 V
3 0 V
3 0 V
2 0 V
3 0 V
3 0 V
2 0 V
3 0 V
3 0 V
3 0 V
2 0 V
3 0 V
3 0 V
2 0 V
3 0 V
3 0 V
2 0 V
3 0 V
1 0 V
2 0 V
3 0 V
3 0 V
2 0 V
3 0 V
3 0 V
2 0 V
3 0 V
3 0 V
2 0 V
21 0 V
3 0 V
1 0 V
3 0 V
3 0 V
1 0 V
4 0 V
1 0 V
1 0 V
3 0 V
2 0 V
7 0 V
1263 2123 Pls
1264 2123 Pls
1282 2119 Pls
1284 2119 Pls
1302 2114 Pls
1304 2114 Pls
1322 2110 Pls
1323 2110 Pls
1325 2109 Pls
1333 2107 Pls
1341 2106 Pls
1349 2104 Pls
1357 2102 Pls
1361 2101 Pls
1369 2099 Pls
1377 2097 Pls
1385 2096 Pls
1392 2094 Pls
1394 2093 Pls
1396 2093 Pls
1400 2092 Pls
1403 2091 Pls
1407 2091 Pls
1409 2090 Pls
1411 2090 Pls
1414 2089 Pls
1418 2088 Pls
1422 2087 Pls
1423 2087 Pls
1425 2086 Pls
1429 2086 Pls
1433 2085 Pls
1436 2084 Pls
1438 2083 Pls
1440 2083 Pls
1444 2082 Pls
1447 2081 Pls
1451 2081 Pls
1453 2080 Pls
1454 2080 Pls
1462 2078 Pls
1470 2076 Pls
1478 2074 Pls
1486 2072 Pls
1488 2072 Pls
1490 2072 Pls
1498 2070 Pls
1506 2068 Pls
1514 2066 Pls
1522 2064 Pls
1523 2064 Pls
1525 2064 Pls
1533 2062 Pls
1541 2060 Pls
1549 2058 Pls
1557 2056 Pls
1561 2056 Pls
1577 2052 Pls
1593 2048 Pls
1609 2044 Pls
1626 2041 Pls
1628 2040 Pls
1629 2040 Pls
1646 2036 Pls
1662 2032 Pls
1678 2029 Pls
1694 2025 Pls
1696 2025 Pls
1698 2024 Pls
1714 2020 Pls
1731 2017 Pls
1747 2013 Pls
1763 2009 Pls
1765 2009 Pls
1767 2009 Pls
1783 2005 Pls
1799 2001 Pls
1816 1997 Pls
1832 1994 Pls
1834 1993 Pls
1835 1993 Pls
1852 1989 Pls
1868 1985 Pls
1884 1982 Pls
1901 1978 Pls
1902 1978 Pls
1904 1977 Pls
1920 1974 Pls
1937 1970 Pls
1953 1966 Pls
1969 1962 Pls
1973 1962 Pls
1986 1958 Pls
1990 1958 Pls
1997 1956 Pls
2001 1955 Pls
2001 1955 Pls
2001 1955 Pls
2019 1951 Pls
2023 1950 Pls
2023 1950 Pls
2028 1949 Pls
2030 1949 Pls
2039 1946 Pls
2041 1946 Pls
2061 1941 Pls
2082 1937 Pls
2084 1937 Pls
2104 1933 Pls
2124 1929 Pls
2127 1928 Pls
2147 1924 Pls
2167 1921 Pls
2169 1921 Pls
2190 1917 Pls
2210 1914 Pls
2212 1914 Pls
2232 1911 Pls
2253 1908 Pls
2255 1908 Pls
2275 1905 Pls
2295 1903 Pls
2296 1902 Pls
2296 1902 Pls
2296 1902 Pls
2298 1902 Pls
2318 1900 Pls
2338 1898 Pls
2340 1898 Pls
2361 1896 Pls
2381 1895 Pls
2383 1894 Pls
2403 1893 Pls
2424 1892 Pls
2426 1892 Pls
2446 1891 Pls
2466 1890 Pls
2469 1890 Pls
2489 1889 Pls
2509 1889 Pls
2511 1888 Pls
2532 1888 Pls
2552 1888 Pls
2554 1888 Pls
2556 1888 Pls
2558 1888 Pls
2561 1888 Pls
2563 1888 Pls
2565 1888 Pls
2570 1888 Pls
2570 1888 Pls
2574 1888 Pls
2592 1888 Pls
2592 1888 Pls
2610 1888 Pls
2614 1888 Pls
2614 1888 Pls
2619 1888 Pls
2621 1888 Pls
2623 1888 Pls
2626 1888 Pls
2628 1888 Pls
2630 1888 Pls
2632 1888 Pls
2653 1888 Pls
2673 1888 Pls
2675 1888 Pls
2695 1888 Pls
2716 1888 Pls
2718 1888 Pls
2738 1888 Pls
2758 1888 Pls
2761 1888 Pls
2781 1887 Pls
2801 1887 Pls
2803 1887 Pls
2824 1887 Pls
2844 1886 Pls
2846 1886 Pls
2866 1886 Pls
2887 1885 Pls
2888 1885 Pls
2888 1885 Pls
2888 1885 Pls
2889 1885 Pls
2909 1885 Pls
2929 1884 Pls
2932 1884 Pls
2952 1884 Pls
2972 1883 Pls
2974 1883 Pls
2995 1882 Pls
3015 1882 Pls
3017 1881 Pls
3037 1881 Pls
3057 1880 Pls
3060 1880 Pls
3080 1879 Pls
3100 1878 Pls
3102 1878 Pls
3123 1877 Pls
3143 1876 Pls
3145 1876 Pls
3147 1876 Pls
3150 1876 Pls
3152 1876 Pls
3154 1875 Pls
3156 1875 Pls
3161 1875 Pls
3161 1875 Pls
3165 1875 Pls
3183 1874 Pls
3183 1874 Pls
3183 1874 Pls
3201 1873 Pls
3206 1873 Pls
3206 1873 Pls
3210 1873 Pls
3212 1873 Pls
3215 1872 Pls
3217 1872 Pls
3219 1872 Pls
3221 1872 Pls
3224 1872 Pls
3244 1871 Pls
3264 1870 Pls
3266 1870 Pls
3287 1869 Pls
3307 1868 Pls
3309 1867 Pls
3329 1866 Pls
3350 1865 Pls
3352 1865 Pls
3372 1864 Pls
3392 1862 Pls
3395 1862 Pls
3415 1861 Pls
3435 1859 Pls
3437 1859 Pls
3457 1858 Pls
3478 1856 Pls
3479 1856 Pls
3479 1856 Pls
3479 1856 Pls
3480 1856 Pls
3500 1855 Pls
3520 1853 Pls
3523 1853 Pls
3543 1851 Pls
3563 1849 Pls
3565 1849 Pls
3586 1848 Pls
3606 1846 Pls
3608 1846 Pls
3628 1844 Pls
3649 1842 Pls
3651 1842 Pls
3671 1840 Pls
3691 1838 Pls
3694 1838 Pls
3714 1836 Pls
3734 1834 Pls
3736 1834 Pls
3739 1833 Pls
3741 1833 Pls
3743 1833 Pls
3745 1833 Pls
3748 1832 Pls
3752 1832 Pls
3752 1832 Pls
3757 1832 Pls
3774 1830 Pls
3774 1830 Pls
3792 1828 Pls
3797 1827 Pls
3797 1827 Pls
3801 1827 Pls
3804 1827 Pls
3806 1827 Pls
3808 1826 Pls
3810 1826 Pls
3813 1826 Pls
3815 1826 Pls
3835 1824 Pls
3855 1822 Pls
3858 1822 Pls
3878 1820 Pls
3898 1819 Pls
3900 1819 Pls
3920 1818 Pls
3941 1817 Pls
3943 1817 Pls
3963 1816 Pls
3983 1815 Pls
3986 1815 Pls
4006 1815 Pls
4026 1815 Pls
4028 1815 Pls
4049 1815 Pls
4069 1815 Pls
4070 1815 Pls
4070 1815 Pls
4070 1815 Pls
4071 1815 Pls
4091 1815 Pls
4112 1816 Pls
4114 1816 Pls
4134 1817 Pls
4154 1818 Pls
4157 1818 Pls
4177 1819 Pls
4197 1820 Pls
4199 1820 Pls
4220 1822 Pls
4240 1824 Pls
4242 1824 Pls
4262 1826 Pls
4283 1828 Pls
4285 1828 Pls
4305 1830 Pls
4325 1833 Pls
4328 1833 Pls
4337 1834 Pls
4339 1835 Pls
4343 1835 Pls
4343 1835 Pls
4348 1836 Pls
4366 1838 Pls
4366 1838 Pls
4366 1838 Pls
4368 1838 Pls
4368 1838 Pls
4370 1839 Pls
4370 1839 Pls
4372 1839 Pls
4372 1839 Pls
4374 1839 Pls
4374 1839 Pls
4376 1839 Pls
4376 1839 Pls
4378 1840 Pls
4378 1840 Pls
4380 1840 Pls
4380 1840 Pls
4382 1840 Pls
4382 1840 Pls
4384 1841 Pls
4384 1841 Pls
4386 1841 Pls
4386 1841 Pls
4388 1841 Pls
4388 1841 Pls
4390 1841 Pls
4431 1847 Pls
4433 1847 Pls
4433 1847 Pls
4435 1847 Pls
4435 1847 Pls
4437 1847 Pls
4437 1847 Pls
4439 1848 Pls
4440 1848 Pls
4440 1848 Pls
4440 1848 Pls
4441 1848 Pls
4441 1848 Pls
4442 1848 Pls
4442 1848 Pls
4444 1848 Pls
4507 1856 Pls
4507 1856 Pls
4507 1856 Pls
4509 1857 Pls
4509 1857 Pls
4511 1857 Pls
4539 1861 Pls
4539 1861 Pls
4539 1861 Pls
4541 1861 Pls
4541 1861 Pls
4543 1861 Pls
4543 1861 Pls
4543 1861 Pls
4571 1865 Pls
4571 1865 Pls
4571 1865 Pls
4573 1865 Pls
4573 1865 Pls
4575 1865 Pls
4638 1873 Pls
4638 1873 Pls
4639 1873 Pls
4639 1873 Pls
4641 1874 Pls
4642 1874 Pls
4643 1874 Pls
4643 1874 Pls
4644 1874 Pls
4644 1874 Pls
4646 1874 Pls
4709 1882 Pls
4709 1882 Pls
4709 1882 Pls
4711 1883 Pls
4711 1883 Pls
4713 1883 Pls
4741 1887 Pls
4741 1887 Pls
4741 1887 Pls
4743 1887 Pls
4743 1887 Pls
4745 1887 Pls
4745 1887 Pls
4745 1887 Pls
4773 1891 Pls
4773 1891 Pls
4773 1891 Pls
4775 1891 Pls
4775 1891 Pls
4777 1891 Pls
4840 1899 Pls
4840 1899 Pls
4842 1900 Pls
4842 1900 Pls
4843 1900 Pls
4844 1900 Pls
4845 1900 Pls
4845 1900 Pls
4847 1900 Pls
4847 1900 Pls
4848 1900 Pls
4911 1909 Pls
4911 1909 Pls
4911 1909 Pls
4913 1909 Pls
4913 1909 Pls
4915 1909 Pls
4943 1913 Pls
4943 1913 Pls
4943 1913 Pls
4945 1913 Pls
4945 1913 Pls
4947 1913 Pls
4947 1913 Pls
4947 1913 Pls
4975 1917 Pls
4975 1917 Pls
4975 1917 Pls
4977 1917 Pls
4977 1917 Pls
4979 1917 Pls
5042 1925 Pls
5042 1925 Pls
5044 1926 Pls
5044 1926 Pls
5045 1926 Pls
5046 1926 Pls
5047 1926 Pls
5047 1926 Pls
5049 1926 Pls
5049 1926 Pls
5051 1926 Pls
5114 1935 Pls
5114 1935 Pls
5114 1935 Pls
5115 1935 Pls
5115 1935 Pls
5117 1935 Pls
5146 1939 Pls
5146 1939 Pls
5146 1939 Pls
5147 1939 Pls
5147 1939 Pls
5149 1939 Pls
5149 1939 Pls
5149 1939 Pls
5177 1943 Pls
5177 1943 Pls
5177 1943 Pls
5179 1943 Pls
5179 1943 Pls
5181 1943 Pls
5244 1951 Pls
5244 1951 Pls
5246 1952 Pls
5246 1952 Pls
5248 1952 Pls
5248 1952 Pls
5249 1952 Pls
5249 1952 Pls
5251 1952 Pls
5251 1952 Pls
5253 1953 Pls
5316 1961 Pls
5316 1961 Pls
5316 1961 Pls
5318 1961 Pls
5318 1961 Pls
5319 1961 Pls
5348 1965 Pls
5348 1965 Pls
5348 1965 Pls
5348 1965 Pls
5348 1965 Pls
5357 1966 Pls
5372 1968 Pls
5381 1969 Pls
5417 1974 Pls
5426 1975 Pls
5462 1980 Pls
5471 1981 Pls
5471 1981 Pls
5471 1981 Pls
5481 1982 Pls
5483 1982 Pls
5484 1982 Pls
5490 1983 Pls
5492 1983 Pls
5493 1984 Pls
5504 1985 Pls
5505 1985 Pls
5507 1985 Pls
5517 1987 Pls
5519 1987 Pls
5520 1987 Pls
5530 1988 Pls
5532 1988 Pls
5532 1988 Pls
5533 1989 Pls
5546 1990 Pls
5548 1991 Pls
5549 1991 Pls
5550 1991 Pls
5553 1991 Pls
5553 1991 Pls
5556 1992 Pls
5556 1992 Pls
5559 1992 Pls
5559 1992 Pls
5562 1992 Pls
5562 1992 Pls
5565 1993 Pls
5565 1993 Pls
5568 1993 Pls
5568 1993 Pls
5571 1994 Pls
5571 1994 Pls
5574 1994 Pls
5574 1994 Pls
5577 1994 Pls
5577 1994 Pls
5580 1995 Pls
5580 1995 Pls
5581 1995 Pls
5582 1995 Pls
5584 1995 Pls
5630 2002 Pls
5632 2002 Pls
5633 2002 Pls
5633 2002 Pls
5635 2002 Pls
5636 2002 Pls
5688 2009 Pls
5689 2009 Pls
5689 2009 Pls
5690 2010 Pls
5691 2010 Pls
5693 2010 Pls
5693 2010 Pls
5695 2010 Pls
5696 2010 Pls
5727 2014 Pls
5728 2015 Pls
5730 2015 Pls
5732 2015 Pls
5762 2019 Pls
5764 2019 Pls
5765 2020 Pls
5766 2020 Pls
5767 2020 Pls
5769 2020 Pls
5769 2020 Pls
5770 2020 Pls
5770 2020 Pls
5783 2022 Pls
5786 2022 Pls
5786 2022 Pls
5788 2023 Pls
5789 2023 Pls
5790 2023 Pls
5790 2023 Pls
5791 2023 Pls
5792 2023 Pls
5793 2023 Pls
5794 2024 Pls
5837 2029 Pls
5850 2031 Pls
5850 2031 Pls
5863 2033 Pls
5863 2033 Pls
5876 2034 Pls
5876 2034 Pls
5889 2036 Pls
5889 2036 Pls
5902 2037 Pls
5902 2037 Pls
5915 2038 Pls
5915 2038 Pls
5929 2039 Pls
5929 2039 Pls
5942 2040 Pls
5942 2040 Pls
5955 2041 Pls
5955 2041 Pls
5968 2042 Pls
5968 2042 Pls
5968 2042 Pls
5970 2042 Pls
5971 2042 Pls
5972 2042 Pls
5974 2042 Pls
5974 2042 Pls
5977 2043 Pls
5977 2043 Pls
5980 2043 Pls
5980 2043 Pls
5982 2043 Pls
5982 2043 Pls
5985 2043 Pls
5985 2043 Pls
5988 2043 Pls
5988 2043 Pls
5990 2043 Pls
5990 2043 Pls
5993 2043 Pls
5993 2043 Pls
5996 2044 Pls
5996 2044 Pls
5998 2044 Pls
5998 2044 Pls
5999 2044 Pls
6000 2044 Pls
6002 2044 Pls
6002 2044 Pls
6005 2044 Pls
6005 2044 Pls
6008 2044 Pls
6008 2044 Pls
6010 2044 Pls
6010 2044 Pls
6013 2044 Pls
6013 2044 Pls
6016 2044 Pls
6016 2044 Pls
6018 2045 Pls
6018 2045 Pls
6021 2045 Pls
6021 2045 Pls
6024 2045 Pls
6024 2045 Pls
6026 2045 Pls
6026 2045 Pls
6029 2045 Pls
6029 2045 Pls
6029 2045 Pls
6031 2045 Pls
6032 2045 Pls
6033 2045 Pls
6035 2045 Pls
6035 2045 Pls
6038 2045 Pls
6038 2045 Pls
6041 2045 Pls
6041 2045 Pls
6043 2045 Pls
6043 2045 Pls
6046 2045 Pls
6046 2045 Pls
6049 2046 Pls
6049 2046 Pls
6051 2046 Pls
6051 2046 Pls
6054 2046 Pls
6054 2046 Pls
6057 2046 Pls
6057 2046 Pls
6059 2046 Pls
6059 2046 Pls
6060 2046 Pls
6063 2046 Pls
6063 2046 Pls
6065 2046 Pls
6065 2046 Pls
6068 2046 Pls
6068 2046 Pls
6071 2046 Pls
6071 2046 Pls
6073 2046 Pls
6073 2046 Pls
6076 2046 Pls
6076 2046 Pls
6079 2046 Pls
6079 2046 Pls
6081 2046 Pls
6081 2046 Pls
6084 2046 Pls
6084 2046 Pls
6087 2046 Pls
6087 2046 Pls
6087 2046 Pls
6090 2047 Pls
6090 2047 Pls
6092 2047 Pls
6092 2047 Pls
6095 2047 Pls
6095 2047 Pls
6098 2047 Pls
6098 2047 Pls
6100 2047 Pls
6100 2047 Pls
6103 2047 Pls
6103 2047 Pls
6106 2047 Pls
6106 2047 Pls
6108 2047 Pls
6108 2047 Pls
6111 2047 Pls
6111 2047 Pls
6114 2047 Pls
6114 2047 Pls
6114 2047 Pls
6117 2047 Pls
6117 2047 Pls
6119 2047 Pls
6119 2047 Pls
6122 2047 Pls
6122 2047 Pls
6125 2047 Pls
6125 2047 Pls
6127 2047 Pls
6127 2047 Pls
6130 2047 Pls
6130 2047 Pls
6133 2047 Pls
6133 2047 Pls
6135 2047 Pls
6135 2047 Pls
6138 2047 Pls
6138 2047 Pls
6141 2047 Pls
6141 2047 Pls
6141 2047 Pls
6144 2047 Pls
6144 2047 Pls
6147 2048 Pls
6147 2048 Pls
6149 2048 Pls
6149 2048 Pls
6152 2048 Pls
6152 2048 Pls
6155 2048 Pls
6155 2048 Pls
6157 2048 Pls
6157 2048 Pls
6160 2048 Pls
6160 2048 Pls
6163 2048 Pls
6163 2048 Pls
6165 2048 Pls
6165 2048 Pls
6168 2048 Pls
6168 2048 Pls
6168 2048 Pls
6171 2048 Pls
6171 2048 Pls
6174 2048 Pls
6174 2048 Pls
6176 2048 Pls
6176 2048 Pls
6179 2048 Pls
6179 2048 Pls
6182 2048 Pls
6182 2048 Pls
6184 2048 Pls
6184 2048 Pls
6187 2048 Pls
6187 2048 Pls
6190 2048 Pls
6190 2048 Pls
6192 2048 Pls
6192 2048 Pls
6195 2048 Pls
6195 2048 Pls
6196 2048 Pls
6198 2048 Pls
6198 2048 Pls
6201 2048 Pls
6201 2048 Pls
6204 2048 Pls
6204 2048 Pls
6206 2048 Pls
6206 2048 Pls
6209 2048 Pls
6209 2048 Pls
6212 2048 Pls
6212 2048 Pls
6214 2048 Pls
6214 2048 Pls
6217 2048 Pls
6217 2048 Pls
6220 2048 Pls
6220 2048 Pls
6222 2048 Pls
6222 2048 Pls
6243 2048 Pls
6246 2048 Pls
6247 2048 Pls
6247 2048 Pls
6247 2048 Pls
6247 2048 Pls
6250 2048 Pls
6250 2048 Pls
6253 2048 Pls
6254 2048 Pls
6258 2048 Pls
6259 2048 Pls
6259 2048 Pls
6259 2048 Pls
6260 2048 Pls
6260 2048 Pls
6260 2048 Pls
6263 2048 Pls
6263 2048 Pls
6265 2048 Pls
6272 2048 Pls
6272 2048 Pls
6272 2048 Pls
6272 2048 Pls
6372 3542 Pls
1.000 UL
LTa
1263 2048 M
56 0 V
56 0 V
56 0 V
56 0 V
56 0 V
56 0 V
56 0 V
56 0 V
56 0 V
56 0 V
56 0 V
56 0 V
56 0 V
56 0 V
56 0 V
56 0 V
56 0 V
56 0 V
56 0 V
56 0 V
56 0 V
56 0 V
56 0 V
56 0 V
56 0 V
56 0 V
56 0 V
56 0 V
56 0 V
56 0 V
56 0 V
56 0 V
56 0 V
56 0 V
56 0 V
56 0 V
56 0 V
57 0 V
56 0 V
56 0 V
56 0 V
56 0 V
56 0 V
56 0 V
56 0 V
56 0 V
56 0 V
56 0 V
56 0 V
56 0 V
56 0 V
56 0 V
56 0 V
56 0 V
56 0 V
56 0 V
56 0 V
56 0 V
56 0 V
56 0 V
56 0 V
56 0 V
56 0 V
56 0 V
56 0 V
56 0 V
56 0 V
56 0 V
56 0 V
56 0 V
56 0 V
56 0 V
56 0 V
56 0 V
56 0 V
56 0 V
56 0 V
56 0 V
57 0 V
56 0 V
56 0 V
56 0 V
56 0 V
56 0 V
56 0 V
56 0 V
56 0 V
56 0 V
56 0 V
56 0 V
56 0 V
56 0 V
56 0 V
56 0 V
56 0 V
56 0 V
56 0 V
56 0 V
56 0 V
1.000 UP
1.000 UL
LT6
LTb
6134 3312 M
[ [(Helvetica) 230.0 0.0 true true 0 (tune-up dump\(?\))]
] -76.7 MRshow
LT6
6272 3312 M
201 0 V
2190 1915 M
20 -3 V
2 -1 V
20 -4 V
21 -4 V
2 -1 V
20 -5 V
20 -6 V
1 -1 V
2 0 V
20 -7 V
20 -8 V
2 0 V
21 -9 V
20 -9 V
2 -1 V
20 -10 V
21 -10 V
2 -2 V
20 -11 V
20 -12 V
3 -1 V
20 -13 V
20 -13 V
2190 1915 CircleF
2210 1912 CircleF
2212 1911 CircleF
2232 1907 CircleF
2253 1903 CircleF
2255 1902 CircleF
2275 1897 CircleF
2295 1891 CircleF
2296 1890 CircleF
2296 1890 CircleF
2296 1890 CircleF
2298 1890 CircleF
2318 1883 CircleF
2338 1875 CircleF
2340 1875 CircleF
2361 1866 CircleF
2381 1857 CircleF
2383 1856 CircleF
2403 1846 CircleF
2424 1836 CircleF
2426 1834 CircleF
2446 1823 CircleF
2466 1811 CircleF
2469 1810 CircleF
2489 1797 CircleF
2509 1784 CircleF
6372 3312 CircleF
1.000 UP
1.000 UL
LT2
LTb
6134 3082 M
[ [(Helvetica) 230.0 0.0 true true 0 (500Gev e)]
[(Helvetica) 184.0 115.0 true true 0 (-)]
[(Helvetica) 230.0 0.0 true true 0 ( BDS)]
] -99.7 MRshow
LT2
6272 3082 M
201 0 V
3176 1683 M
1 0 V
9 -2 V
1 0 V
9 -2 V
1 0 V
9 -2 V
1 -1 V
1 0 V
4 -1 V
4 -1 V
4 0 V
4 -1 V
2 -1 V
3 -1 V
4 -1 V
4 0 V
4 -1 V
1 -1 V
1 0 V
2 0 V
2 -1 V
2 0 V
1 0 V
2 -1 V
2 0 V
2 -1 V
1 0 V
1 0 V
2 -1 V
1 0 V
2 0 V
1 -1 V
1 0 V
2 0 V
2 -1 V
2 0 V
1 -1 V
4 0 V
4 -1 V
4 -1 V
4 -1 V
1 0 V
1 -1 V
4 0 V
4 -1 V
4 -1 V
4 -1 V
1 0 V
1 -1 V
4 -1 V
4 0 V
4 -1 V
4 -1 V
1 -1 V
9 -2 V
8 -1 V
8 -2 V
8 -2 V
1 0 V
1 -1 V
8 -1 V
8 -2 V
8 -2 V
8 -2 V
1 0 V
1 0 V
8 -2 V
8 -2 V
9 -2 V
8 -2 V
1 0 V
1 0 V
8 -2 V
8 -2 V
8 -2 V
8 -2 V
1 0 V
1 0 V
8 -2 V
8 -2 V
8 -2 V
8 -2 V
1 0 V
1 0 V
8 -2 V
9 -2 V
8 -2 V
8 -2 V
2 0 V
6 -2 V
2 0 V
4 -1 V
2 0 V
9 -2 V
2 -1 V
2 0 V
1 0 V
5 -2 V
1 0 V
10 -2 V
10 -2 V
1 0 V
stroke
3587 1590 M
10 -2 V
10 -2 V
1 0 V
11 -2 V
10 -1 V
1 0 V
10 -2 V
10 -1 V
1 0 V
10 -1 V
10 0 V
2 -1 V
10 0 V
10 -1 V
1 0 V
10 0 V
10 0 V
1 0 V
10 0 V
11 0 V
1 0 V
10 1 V
10 0 V
1 0 V
10 1 V
10 1 V
1 0 V
11 1 V
10 1 V
1 0 V
10 2 V
10 1 V
1 1 V
1 0 V
1 0 V
2 0 V
1 0 V
1 0 V
2 1 V
2 0 V
9 2 V
9 1 V
2 0 V
3 1 V
1 0 V
1 0 V
1 0 V
1 0 V
1 1 V
1 0 V
10 1 V
11 2 V
1 0 V
10 2 V
10 1 V
1 0 V
10 2 V
10 1 V
1 0 V
11 2 V
10 1 V
1 0 V
10 2 V
10 1 V
1 0 V
10 1 V
10 1 V
1 0 V
1 1 V
10 1 V
10 1 V
1 0 V
10 1 V
10 1 V
1 0 V
10 1 V
11 1 V
1 0 V
10 1 V
10 1 V
1 0 V
10 1 V
10 1 V
1 0 V
11 1 V
10 1 V
1 0 V
1 0 V
1 0 V
1 0 V
1 0 V
1 0 V
3 0 V
2 0 V
9 1 V
9 1 V
2 0 V
2 0 V
1 0 V
1 0 V
2 0 V
1 0 V
1 1 V
1 0 V
stroke
4157 1625 M
10 0 V
10 1 V
1 0 V
10 1 V
11 0 V
1 0 V
10 1 V
10 1 V
1 0 V
10 0 V
10 1 V
1 0 V
11 0 V
10 0 V
1 0 V
10 1 V
10 0 V
1 0 V
10 1 V
10 0 V
2 0 V
10 0 V
10 0 V
1 0 V
10 0 V
10 0 V
1 0 V
10 1 V
11 0 V
1 0 V
10 0 V
10 0 V
1 0 V
10 -1 V
10 0 V
1 0 V
1 0 V
2 0 V
1 0 V
1 0 V
1 0 V
2 0 V
2 0 V
9 0 V
9 0 V
3 0 V
2 0 V
1 0 V
1 0 V
1 0 V
1 0 V
1 0 V
2 0 V
10 0 V
10 0 V
1 0 V
10 0 V
10 1 V
1 0 V
10 0 V
11 1 V
1 0 V
10 1 V
10 1 V
1 0 V
10 2 V
10 1 V
1 0 V
11 2 V
10 2 V
1 0 V
10 2 V
10 2 V
1 0 V
10 2 V
10 3 V
1 0 V
11 3 V
10 2 V
1 1 V
10 2 V
10 4 V
1 0 V
10 3 V
10 4 V
2 0 V
10 3 V
10 4 V
1 1 V
4 1 V
2 1 V
2 1 V
2 0 V
9 4 V
1 0 V
1 1 V
1 0 V
1 0 V
1 1 V
1 0 V
1 0 V
1 1 V
1 0 V
1 1 V
stroke
4738 1690 M
1 0 V
1 0 V
21 8 V
1 1 V
1 0 V
1 0 V
1 1 V
1 0 V
1 1 V
32 11 V
1 1 V
1 0 V
14 5 V
1 1 V
15 5 V
1 1 V
32 12 V
1 0 V
1 1 V
1 0 V
1 1 V
32 11 V
1 1 V
1 0 V
14 5 V
1 1 V
1 0 V
14 5 V
1 1 V
1 0 V
31 12 V
1 0 V
1 1 V
1 0 V
1 1 V
32 11 V
1 1 V
1 0 V
14 5 V
1 1 V
1 0 V
14 6 V
1 0 V
1 0 V
31 12 V
1 0 V
1 1 V
1 0 V
1 0 V
0 1 V
32 12 V
1 0 V
1 0 V
14 6 V
1 0 V
1 0 V
14 6 V
1 0 V
1 0 V
31 12 V
1 0 V
1 1 V
1 0 V
1 0 V
1 1 V
31 12 V
1 0 V
1 0 V
14 6 V
5 1 V
7 3 V
5 2 V
18 7 V
4 1 V
18 7 V
5 2 V
12 4 V
2 1 V
2 1 V
7 3 V
2 0 V
2 1 V
13 5 V
2 1 V
1 0 V
13 5 V
2 1 V
2 0 V
12 5 V
2 1 V
2 0 V
16 7 V
2 0 V
2 1 V
4 2 V
4 1 V
4 1 V
3 2 V
4 1 V
4 2 V
4 1 V
3 2 V
4 1 V
4 2 V
stroke
5415 1945 M
2 1 V
2 0 V
66 27 V
1 1 V
2 0 V
1 1 V
1 0 V
2 1 V
63 26 V
1 0 V
1 0 V
1 0 V
1 1 V
2 1 V
1 0 V
2 1 V
1 1 V
46 18 V
2 1 V
2 0 V
1 1 V
31 12 V
2 1 V
1 1 V
1 0 V
2 1 V
1 1 V
1 0 V
1 0 V
1 0 V
16 7 V
3 1 V
2 1 V
2 1 V
1 0 V
1 1 V
1 0 V
1 1 V
2 0 V
52 21 V
16 6 V
16 6 V
16 5 V
16 5 V
16 3 V
17 4 V
16 2 V
16 2 V
16 2 V
16 1 V
1 0 V
1 0 V
2 0 V
1 0 V
3 0 V
3 0 V
3 0 V
4 0 V
3 0 V
3 0 V
4 0 V
3 0 V
3 0 V
3 0 V
1 0 V
2 0 V
2 0 V
3 0 V
4 0 V
3 -1 V
3 0 V
3 0 V
4 0 V
3 -1 V
3 0 V
4 0 V
3 0 V
0 -1 V
2 0 V
2 0 V
4 0 V
3 -1 V
3 0 V
4 0 V
3 -1 V
3 0 V
3 -1 V
4 0 V
3 -1 V
3 0 V
1 0 V
3 0 V
3 -1 V
4 0 V
3 -1 V
3 0 V
3 -1 V
4 0 V
3 -1 V
3 0 V
4 -1 V
3 0 V
4 -1 V
3 0 V
stroke
6055 2098 M
3 -1 V
3 0 V
4 -1 V
3 -1 V
3 0 V
4 -1 V
3 0 V
4 -1 V
3 -1 V
3 0 V
4 -1 V
3 0 V
3 -1 V
3 -1 V
4 0 V
3 -1 V
3 -1 V
1 0 V
3 0 V
3 -1 V
4 -1 V
3 0 V
3 -1 V
3 -1 V
4 0 V
3 -1 V
3 -1 V
3 -1 V
1 0 V
3 0 V
4 -1 V
3 -1 V
3 -1 V
3 0 V
4 -1 V
3 -1 V
3 -1 V
4 -1 V
3 0 V
4 -1 V
3 -1 V
3 -1 V
3 -1 V
4 -1 V
3 0 V
3 -1 V
4 -1 V
3 -1 V
3 -1 V
26 -7 V
3 -1 V
1 0 V
1 0 V
4 -1 V
3 -1 V
2 -1 V
4 0 V
1 -1 V
1 0 V
1 0 V
3 -1 V
3 -1 V
8 -2 V
3176 1683 Star
3177 1683 Star
3186 1681 Star
3187 1681 Star
3196 1679 Star
3197 1679 Star
3206 1677 Star
3207 1676 Star
3208 1676 Star
3212 1675 Star
3216 1674 Star
3220 1674 Star
3224 1673 Star
3226 1672 Star
3229 1671 Star
3233 1670 Star
3237 1670 Star
3241 1669 Star
3242 1668 Star
3243 1668 Star
3245 1668 Star
3247 1667 Star
3249 1667 Star
3250 1667 Star
3250 1667 Star
3252 1666 Star
3254 1666 Star
3256 1665 Star
3257 1665 Star
3258 1665 Star
3260 1664 Star
3261 1664 Star
3263 1664 Star
3264 1663 Star
3265 1663 Star
3267 1663 Star
3269 1662 Star
3271 1662 Star
3271 1662 Star
3272 1661 Star
3276 1661 Star
3280 1660 Star
3284 1659 Star
3288 1658 Star
3289 1658 Star
3290 1657 Star
3294 1657 Star
3298 1656 Star
3302 1655 Star
3306 1654 Star
3307 1654 Star
3308 1653 Star
3312 1652 Star
3316 1652 Star
3320 1651 Star
3324 1650 Star
3325 1649 Star
3334 1647 Star
3342 1646 Star
3350 1644 Star
3358 1642 Star
3359 1642 Star
3360 1641 Star
3368 1640 Star
3376 1638 Star
3384 1636 Star
3392 1634 Star
3393 1634 Star
3394 1634 Star
3402 1632 Star
3410 1630 Star
3419 1628 Star
3427 1626 Star
3428 1626 Star
3429 1626 Star
3437 1624 Star
3445 1622 Star
3453 1620 Star
3461 1618 Star
3462 1618 Star
3463 1618 Star
3471 1616 Star
3479 1614 Star
3487 1612 Star
3495 1610 Star
3496 1610 Star
3497 1610 Star
3505 1608 Star
3514 1606 Star
3522 1604 Star
3530 1602 Star
3532 1602 Star
3538 1600 Star
3540 1600 Star
3544 1599 Star
3546 1599 Star
3546 1599 Star
3546 1599 Star
3555 1597 Star
3557 1596 Star
3557 1596 Star
3559 1596 Star
3560 1596 Star
3565 1594 Star
3566 1594 Star
3576 1592 Star
3586 1590 Star
3587 1590 Star
3597 1588 Star
3607 1586 Star
3608 1586 Star
3619 1584 Star
3629 1583 Star
3630 1583 Star
3640 1581 Star
3650 1580 Star
3651 1580 Star
3661 1579 Star
3671 1579 Star
3673 1578 Star
3683 1578 Star
3693 1577 Star
3693 1577 Star
3693 1577 Star
3693 1577 Star
3694 1577 Star
3704 1577 Star
3714 1577 Star
3715 1577 Star
3725 1577 Star
3736 1577 Star
3737 1577 Star
3747 1578 Star
3757 1578 Star
3758 1578 Star
3768 1579 Star
3778 1580 Star
3779 1580 Star
3790 1581 Star
3800 1582 Star
3801 1582 Star
3811 1584 Star
3821 1585 Star
3822 1586 Star
3823 1586 Star
3824 1586 Star
3826 1586 Star
3827 1586 Star
3828 1586 Star
3830 1587 Star
3830 1587 Star
3832 1587 Star
3841 1589 Star
3841 1589 Star
3850 1590 Star
3852 1590 Star
3852 1590 Star
3855 1591 Star
3856 1591 Star
3857 1591 Star
3858 1591 Star
3859 1591 Star
3860 1592 Star
3861 1592 Star
3871 1593 Star
3882 1595 Star
3883 1595 Star
3893 1597 Star
3903 1598 Star
3904 1598 Star
3914 1600 Star
3924 1601 Star
3925 1601 Star
3936 1603 Star
3946 1604 Star
3947 1604 Star
3957 1606 Star
3967 1607 Star
3968 1607 Star
3978 1608 Star
3988 1609 Star
3989 1609 Star
3989 1609 Star
3989 1609 Star
3990 1610 Star
4000 1611 Star
4010 1612 Star
4011 1612 Star
4021 1613 Star
4031 1614 Star
4032 1614 Star
4042 1615 Star
4053 1616 Star
4054 1616 Star
4064 1617 Star
4074 1618 Star
4075 1618 Star
4085 1619 Star
4095 1620 Star
4096 1620 Star
4107 1621 Star
4117 1622 Star
4118 1622 Star
4119 1622 Star
4120 1622 Star
4121 1622 Star
4122 1622 Star
4123 1622 Star
4126 1622 Star
4126 1622 Star
4128 1622 Star
4137 1623 Star
4137 1623 Star
4137 1623 Star
4146 1624 Star
4148 1624 Star
4148 1624 Star
4150 1624 Star
4151 1624 Star
4152 1624 Star
4154 1624 Star
4155 1624 Star
4156 1625 Star
4157 1625 Star
4167 1625 Star
4177 1626 Star
4178 1626 Star
4188 1627 Star
4199 1627 Star
4200 1627 Star
4210 1628 Star
4220 1629 Star
4221 1629 Star
4231 1629 Star
4241 1630 Star
4242 1630 Star
4253 1630 Star
4263 1630 Star
4264 1630 Star
4274 1631 Star
4284 1631 Star
4285 1631 Star
4285 1631 Star
4285 1631 Star
4285 1631 Star
4295 1632 Star
4305 1632 Star
4307 1632 Star
4317 1632 Star
4327 1632 Star
4328 1632 Star
4338 1632 Star
4348 1632 Star
4349 1632 Star
4359 1633 Star
4370 1633 Star
4371 1633 Star
4381 1633 Star
4391 1633 Star
4392 1633 Star
4402 1632 Star
4412 1632 Star
4413 1632 Star
4414 1632 Star
4416 1632 Star
4417 1632 Star
4418 1632 Star
4419 1632 Star
4421 1632 Star
4421 1632 Star
4423 1632 Star
4432 1632 Star
4432 1632 Star
4441 1632 Star
4444 1632 Star
4444 1632 Star
4446 1632 Star
4447 1632 Star
4448 1632 Star
4449 1632 Star
4450 1632 Star
4451 1632 Star
4453 1632 Star
4463 1632 Star
4473 1632 Star
4474 1632 Star
4484 1632 Star
4494 1633 Star
4495 1633 Star
4505 1633 Star
4516 1634 Star
4517 1634 Star
4527 1635 Star
4537 1636 Star
4538 1636 Star
4548 1638 Star
4558 1639 Star
4559 1639 Star
4570 1641 Star
4580 1643 Star
4580 1643 Star
4580 1643 Star
4580 1643 Star
4581 1643 Star
4591 1645 Star
4601 1647 Star
4602 1647 Star
4612 1649 Star
4622 1652 Star
4623 1652 Star
4634 1655 Star
4644 1657 Star
4645 1658 Star
4655 1660 Star
4665 1664 Star
4666 1664 Star
4676 1667 Star
4686 1671 Star
4688 1671 Star
4698 1674 Star
4708 1678 Star
4709 1679 Star
4713 1680 Star
4715 1681 Star
4717 1682 Star
4717 1682 Star
4719 1682 Star
4728 1686 Star
4728 1686 Star
4728 1686 Star
4729 1686 Star
4729 1686 Star
4730 1687 Star
4730 1687 Star
4731 1687 Star
4731 1687 Star
4732 1687 Star
4732 1687 Star
4733 1688 Star
4733 1688 Star
4734 1688 Star
4734 1688 Star
4735 1688 Star
4735 1688 Star
4736 1689 Star
4736 1689 Star
4737 1689 Star
4737 1689 Star
4738 1690 Star
4738 1690 Star
4739 1690 Star
4739 1690 Star
4740 1690 Star
4761 1698 Star
4762 1699 Star
4762 1699 Star
4763 1699 Star
4763 1699 Star
4764 1699 Star
4764 1699 Star
4765 1700 Star
4765 1700 Star
4765 1700 Star
4765 1700 Star
4765 1700 Star
4765 1700 Star
4766 1700 Star
4766 1700 Star
4767 1701 Star
4799 1712 Star
4799 1712 Star
4799 1712 Star
4800 1713 Star
4800 1713 Star
4801 1713 Star
4815 1718 Star
4815 1718 Star
4815 1718 Star
4816 1719 Star
4816 1719 Star
4816 1719 Star
4816 1719 Star
4816 1719 Star
4831 1724 Star
4831 1724 Star
4831 1724 Star
4832 1725 Star
4832 1725 Star
4832 1725 Star
4864 1737 Star
4864 1737 Star
4865 1737 Star
4865 1737 Star
4866 1738 Star
4866 1738 Star
4867 1738 Star
4867 1738 Star
4867 1738 Star
4867 1738 Star
4868 1739 Star
4900 1750 Star
4900 1750 Star
4900 1750 Star
4901 1751 Star
4901 1751 Star
4902 1751 Star
4916 1756 Star
4916 1756 Star
4916 1756 Star
4917 1757 Star
4917 1757 Star
4918 1757 Star
4918 1757 Star
4918 1757 Star
4932 1762 Star
4932 1762 Star
4932 1762 Star
4933 1763 Star
4933 1763 Star
4934 1763 Star
4965 1775 Star
4965 1775 Star
4966 1775 Star
4966 1775 Star
4967 1776 Star
4967 1776 Star
4968 1776 Star
4968 1776 Star
4968 1776 Star
4968 1776 Star
4969 1777 Star
5001 1788 Star
5001 1788 Star
5001 1788 Star
5002 1789 Star
5002 1789 Star
5003 1789 Star
5017 1794 Star
5017 1794 Star
5017 1794 Star
5018 1795 Star
5018 1795 Star
5019 1795 Star
5019 1795 Star
5019 1795 Star
5033 1801 Star
5033 1801 Star
5033 1801 Star
5034 1801 Star
5034 1801 Star
5035 1801 Star
5066 1813 Star
5066 1813 Star
5067 1813 Star
5067 1813 Star
5068 1814 Star
5068 1814 Star
5069 1814 Star
5069 1814 Star
5070 1814 Star
5070 1814 Star
5070 1815 Star
5102 1827 Star
5102 1827 Star
5102 1827 Star
5103 1827 Star
5103 1827 Star
5104 1827 Star
5118 1833 Star
5118 1833 Star
5118 1833 Star
5119 1833 Star
5119 1833 Star
5120 1833 Star
5120 1833 Star
5120 1833 Star
5134 1839 Star
5134 1839 Star
5134 1839 Star
5135 1839 Star
5135 1839 Star
5136 1839 Star
5167 1851 Star
5167 1851 Star
5168 1851 Star
5168 1851 Star
5169 1852 Star
5169 1852 Star
5170 1852 Star
5170 1852 Star
5171 1852 Star
5171 1852 Star
5172 1853 Star
5203 1865 Star
5203 1865 Star
5203 1865 Star
5204 1865 Star
5204 1865 Star
5205 1865 Star
5219 1871 Star
5219 1871 Star
5219 1871 Star
5219 1871 Star
5219 1871 Star
5224 1872 Star
5231 1875 Star
5236 1877 Star
5254 1884 Star
5258 1885 Star
5276 1892 Star
5281 1894 Star
5281 1894 Star
5281 1894 Star
5281 1894 Star
5293 1898 Star
5295 1899 Star
5297 1900 Star
5304 1903 Star
5306 1903 Star
5308 1904 Star
5321 1909 Star
5323 1910 Star
5324 1910 Star
5337 1915 Star
5339 1916 Star
5341 1916 Star
5353 1921 Star
5355 1922 Star
5355 1922 Star
5357 1922 Star
5373 1929 Star
5375 1929 Star
5377 1930 Star
5377 1930 Star
5381 1932 Star
5381 1932 Star
5385 1933 Star
5385 1933 Star
5389 1934 Star
5389 1934 Star
5392 1936 Star
5392 1936 Star
5396 1937 Star
5396 1937 Star
5400 1939 Star
5400 1939 Star
5404 1940 Star
5404 1940 Star
5407 1942 Star
5407 1942 Star
5411 1943 Star
5411 1943 Star
5415 1945 Star
5415 1945 Star
5415 1945 Star
5417 1946 Star
5419 1946 Star
5485 1973 Star
5486 1974 Star
5488 1974 Star
5489 1975 Star
5490 1975 Star
5492 1976 Star
5555 2002 Star
5556 2002 Star
5557 2002 Star
5558 2002 Star
5559 2003 Star
5561 2004 Star
5562 2004 Star
5564 2005 Star
5565 2006 Star
5611 2024 Star
5613 2025 Star
5615 2025 Star
5616 2026 Star
5647 2038 Star
5649 2039 Star
5650 2040 Star
5651 2040 Star
5653 2041 Star
5654 2042 Star
5655 2042 Star
5656 2042 Star
5657 2042 Star
5673 2049 Star
5676 2050 Star
5676 2050 Star
5678 2051 Star
5680 2052 Star
5680 2052 Star
5681 2052 Star
5682 2053 Star
5683 2053 Star
5684 2054 Star
5686 2054 Star
5738 2075 Star
5754 2081 Star
5754 2081 Star
5770 2087 Star
5770 2087 Star
5786 2092 Star
5786 2092 Star
5802 2097 Star
5802 2097 Star
5818 2100 Star
5818 2100 Star
5835 2104 Star
5835 2104 Star
5851 2106 Star
5851 2106 Star
5867 2108 Star
5867 2108 Star
5883 2110 Star
5883 2110 Star
5899 2111 Star
5899 2111 Star
5900 2111 Star
5901 2111 Star
5903 2111 Star
5904 2111 Star
5907 2111 Star
5907 2111 Star
5910 2111 Star
5910 2111 Star
5913 2111 Star
5913 2111 Star
5917 2111 Star
5917 2111 Star
5920 2111 Star
5920 2111 Star
5923 2111 Star
5923 2111 Star
5927 2111 Star
5927 2111 Star
5930 2111 Star
5930 2111 Star
5933 2111 Star
5933 2111 Star
5936 2111 Star
5936 2111 Star
5937 2111 Star
5939 2111 Star
5941 2111 Star
5941 2111 Star
5944 2111 Star
5944 2111 Star
5948 2111 Star
5948 2111 Star
5951 2110 Star
5951 2110 Star
5954 2110 Star
5954 2110 Star
5957 2110 Star
5957 2110 Star
5961 2110 Star
5961 2110 Star
5964 2109 Star
5964 2109 Star
5967 2109 Star
5967 2109 Star
5971 2109 Star
5971 2109 Star
5974 2109 Star
5974 2109 Star
5974 2108 Star
5976 2108 Star
5978 2108 Star
5978 2108 Star
5982 2108 Star
5982 2108 Star
5985 2107 Star
5985 2107 Star
5988 2107 Star
5988 2107 Star
5992 2107 Star
5992 2107 Star
5995 2106 Star
5995 2106 Star
5998 2106 Star
5998 2106 Star
6001 2105 Star
6001 2105 Star
6005 2105 Star
6005 2105 Star
6008 2104 Star
6008 2104 Star
6011 2104 Star
6011 2104 Star
6012 2104 Star
6015 2104 Star
6015 2104 Star
6018 2103 Star
6018 2103 Star
6022 2103 Star
6022 2103 Star
6025 2102 Star
6025 2102 Star
6028 2102 Star
6028 2102 Star
6031 2101 Star
6031 2101 Star
6035 2101 Star
6035 2101 Star
6038 2100 Star
6038 2100 Star
6041 2100 Star
6041 2100 Star
6045 2099 Star
6045 2099 Star
6045 2099 Star
6048 2099 Star
6048 2099 Star
6052 2098 Star
6052 2098 Star
6055 2098 Star
6055 2098 Star
6058 2097 Star
6058 2097 Star
6061 2097 Star
6061 2097 Star
6065 2096 Star
6065 2096 Star
6068 2095 Star
6068 2095 Star
6071 2095 Star
6071 2095 Star
6075 2094 Star
6075 2094 Star
6078 2094 Star
6078 2094 Star
6078 2094 Star
6082 2093 Star
6082 2093 Star
6085 2092 Star
6085 2092 Star
6088 2092 Star
6088 2092 Star
6092 2091 Star
6092 2091 Star
6095 2091 Star
6095 2091 Star
6098 2090 Star
6098 2090 Star
6101 2089 Star
6101 2089 Star
6105 2089 Star
6105 2089 Star
6108 2088 Star
6108 2088 Star
6111 2087 Star
6111 2087 Star
6112 2087 Star
6115 2087 Star
6115 2087 Star
6118 2086 Star
6118 2086 Star
6122 2085 Star
6122 2085 Star
6125 2085 Star
6125 2085 Star
6128 2084 Star
6128 2084 Star
6131 2083 Star
6131 2083 Star
6135 2083 Star
6135 2083 Star
6138 2082 Star
6138 2082 Star
6141 2081 Star
6141 2081 Star
6144 2080 Star
6144 2080 Star
6145 2080 Star
6148 2080 Star
6148 2080 Star
6152 2079 Star
6152 2079 Star
6155 2078 Star
6155 2078 Star
6158 2077 Star
6158 2077 Star
6161 2077 Star
6161 2077 Star
6165 2076 Star
6165 2076 Star
6168 2075 Star
6168 2075 Star
6171 2074 Star
6171 2074 Star
6175 2073 Star
6175 2073 Star
6178 2073 Star
6178 2073 Star
6178 2073 Star
6182 2072 Star
6182 2072 Star
6185 2071 Star
6185 2071 Star
6188 2070 Star
6188 2070 Star
6191 2069 Star
6191 2069 Star
6195 2068 Star
6195 2068 Star
6198 2068 Star
6198 2068 Star
6201 2067 Star
6201 2067 Star
6205 2066 Star
6205 2066 Star
6208 2065 Star
6208 2065 Star
6211 2064 Star
6211 2064 Star
6237 2057 Star
6240 2056 Star
6241 2056 Star
6241 2056 Star
6242 2056 Star
6246 2055 Star
6249 2054 Star
6251 2053 Star
6255 2053 Star
6256 2052 Star
6256 2052 Star
6257 2052 Star
6257 2052 Star
6258 2052 Star
6261 2051 Star
6264 2050 Star
6272 2048 Star
6272 2048 Star
6272 2048 Star
6272 2048 Star
6372 3082 Star
1.000 UP
1.000 UL
LT6
3589 1584 M
20 -3 V
2 -1 V
21 -4 V
20 -4 V
2 -1 V
20 -5 V
21 -6 V
1 -1 V
1 0 V
20 -7 V
20 -8 V
2 0 V
21 -9 V
20 -9 V
2 -1 V
20 -10 V
21 -10 V
2 -1 V
20 -12 V
20 -12 V
3 -1 V
20 -13 V
20 -13 V
3589 1584 CircleF
3609 1581 CircleF
3611 1580 CircleF
3632 1576 CircleF
3652 1572 CircleF
3654 1571 CircleF
3674 1566 CircleF
3695 1560 CircleF
3696 1559 CircleF
3696 1559 CircleF
3696 1559 CircleF
3697 1559 CircleF
3717 1552 CircleF
3737 1544 CircleF
3739 1544 CircleF
3760 1535 CircleF
3780 1526 CircleF
3782 1525 CircleF
3802 1515 CircleF
3823 1505 CircleF
3825 1504 CircleF
3845 1492 CircleF
3865 1480 CircleF
3868 1479 CircleF
3888 1466 CircleF
3908 1453 CircleF
6.000 UL
LT1
2039 1946 M
3176 1683 L
6.000 UL
LT6
LTb
6134 2852 M
[ [(Helvetica) 230.0 0.0 true true 0 (Tunnel?)]
] -76.7 MRshow
LT6
6272 2852 M
201 0 V
6272 4425 M
3584 3746 L
1434 4425 L
6272 1369 M
3584 690 L
1434 1369 L
1.000 UL
LTb
897 690 M
5912 0 V
0 4074 V
-5912 0 V
897 690 L
1.000 UP
stroke
grestore
end
showpage
%%Trailer
%%DocumentFonts: Helvetica
%%Pages: 1
