%!PS-Adobe-2.0
%%Title: layouts500GeV3TeV.eps
%%Creator: gnuplot 4.0 patchlevel 0
%%CreationDate: Thu Jun  9 15:01:34 2011
%%DocumentFonts: (atend)
%%BoundingBox: 50 50 554 1274
%%Orientation: Landscape
%%Pages: (atend)
%%EndComments
/gnudict 256 dict def
gnudict begin
/Color true def
/Solid true def
/gnulinewidth 5.000 def
/userlinewidth gnulinewidth def
/vshift -96 def
/dl {10.0 mul} def
/hpt_ 31.5 def
/vpt_ 31.5 def
/hpt hpt_ def
/vpt vpt_ def
/Rounded false def
/M {moveto} bind def
/L {lineto} bind def
/R {rmoveto} bind def
/V {rlineto} bind def
/N {newpath moveto} bind def
/C {setrgbcolor} bind def
/f {rlineto fill} bind def
/vpt2 vpt 2 mul def
/hpt2 hpt 2 mul def
/Lshow { currentpoint stroke M
  0 vshift R show } def
/Rshow { currentpoint stroke M
  dup stringwidth pop neg vshift R show } def
/Cshow { currentpoint stroke M
  dup stringwidth pop -2 div vshift R show } def
/UP { dup vpt_ mul /vpt exch def hpt_ mul /hpt exch def
  /hpt2 hpt 2 mul def /vpt2 vpt 2 mul def } def
/DL { Color {setrgbcolor Solid {pop []} if 0 setdash }
 {pop pop pop 0 setgray Solid {pop []} if 0 setdash} ifelse } def
/BL { stroke userlinewidth 2 mul setlinewidth
      Rounded { 1 setlinejoin 1 setlinecap } if } def
/AL { stroke userlinewidth 2 div setlinewidth
      Rounded { 1 setlinejoin 1 setlinecap } if } def
/UL { dup gnulinewidth mul /userlinewidth exch def
      dup 1 lt {pop 1} if 10 mul /udl exch def } def
/PL { stroke userlinewidth setlinewidth
      Rounded { 1 setlinejoin 1 setlinecap } if } def
/LTw { PL [] 1 setgray } def
/LTb { BL [] 0 0 0 DL } def
/LTa { AL [1 udl mul 2 udl mul] 0 setdash 0 0 0 setrgbcolor } def
/LT0 { PL [] 1 0 0 DL } def
/LT1 { PL [4 dl 2 dl] 0 1 0 DL } def
/LT2 { PL [2 dl 3 dl] 0 0 1 DL } def
/LT3 { PL [1 dl 1.5 dl] 1 0 1 DL } def
/LT4 { PL [5 dl 2 dl 1 dl 2 dl] 0 1 1 DL } def
/LT5 { PL [4 dl 3 dl 1 dl 3 dl] 1 1 0 DL } def
/LT6 { PL [2 dl 2 dl 2 dl 4 dl] 0 0 0 DL } def
/LT7 { PL [2 dl 2 dl 2 dl 2 dl 2 dl 4 dl] 1 0.3 0 DL } def
/LT8 { PL [2 dl 2 dl 2 dl 2 dl 2 dl 2 dl 2 dl 4 dl] 0.5 0.5 0.5 DL } def
/Pnt { stroke [] 0 setdash
   gsave 1 setlinecap M 0 0 V stroke grestore } def
/Dia { stroke [] 0 setdash 2 copy vpt add M
  hpt neg vpt neg V hpt vpt neg V
  hpt vpt V hpt neg vpt V closepath stroke
  Pnt } def
/Pls { stroke [] 0 setdash vpt sub M 0 vpt2 V
  currentpoint stroke M
  hpt neg vpt neg R hpt2 0 V stroke
  } def
/Box { stroke [] 0 setdash 2 copy exch hpt sub exch vpt add M
  0 vpt2 neg V hpt2 0 V 0 vpt2 V
  hpt2 neg 0 V closepath stroke
  Pnt } def
/Crs { stroke [] 0 setdash exch hpt sub exch vpt add M
  hpt2 vpt2 neg V currentpoint stroke M
  hpt2 neg 0 R hpt2 vpt2 V stroke } def
/TriU { stroke [] 0 setdash 2 copy vpt 1.12 mul add M
  hpt neg vpt -1.62 mul V
  hpt 2 mul 0 V
  hpt neg vpt 1.62 mul V closepath stroke
  Pnt  } def
/Star { 2 copy Pls Crs } def
/BoxF { stroke [] 0 setdash exch hpt sub exch vpt add M
  0 vpt2 neg V  hpt2 0 V  0 vpt2 V
  hpt2 neg 0 V  closepath fill } def
/TriUF { stroke [] 0 setdash vpt 1.12 mul add M
  hpt neg vpt -1.62 mul V
  hpt 2 mul 0 V
  hpt neg vpt 1.62 mul V closepath fill } def
/TriD { stroke [] 0 setdash 2 copy vpt 1.12 mul sub M
  hpt neg vpt 1.62 mul V
  hpt 2 mul 0 V
  hpt neg vpt -1.62 mul V closepath stroke
  Pnt  } def
/TriDF { stroke [] 0 setdash vpt 1.12 mul sub M
  hpt neg vpt 1.62 mul V
  hpt 2 mul 0 V
  hpt neg vpt -1.62 mul V closepath fill} def
/DiaF { stroke [] 0 setdash vpt add M
  hpt neg vpt neg V hpt vpt neg V
  hpt vpt V hpt neg vpt V closepath fill } def
/Pent { stroke [] 0 setdash 2 copy gsave
  translate 0 hpt M 4 {72 rotate 0 hpt L} repeat
  closepath stroke grestore Pnt } def
/PentF { stroke [] 0 setdash gsave
  translate 0 hpt M 4 {72 rotate 0 hpt L} repeat
  closepath fill grestore } def
/Circle { stroke [] 0 setdash 2 copy
  hpt 0 360 arc stroke Pnt } def
/CircleF { stroke [] 0 setdash hpt 0 360 arc fill } def
/C0 { BL [] 0 setdash 2 copy moveto vpt 90 450  arc } bind def
/C1 { BL [] 0 setdash 2 copy        moveto
       2 copy  vpt 0 90 arc closepath fill
               vpt 0 360 arc closepath } bind def
/C2 { BL [] 0 setdash 2 copy moveto
       2 copy  vpt 90 180 arc closepath fill
               vpt 0 360 arc closepath } bind def
/C3 { BL [] 0 setdash 2 copy moveto
       2 copy  vpt 0 180 arc closepath fill
               vpt 0 360 arc closepath } bind def
/C4 { BL [] 0 setdash 2 copy moveto
       2 copy  vpt 180 270 arc closepath fill
               vpt 0 360 arc closepath } bind def
/C5 { BL [] 0 setdash 2 copy moveto
       2 copy  vpt 0 90 arc
       2 copy moveto
       2 copy  vpt 180 270 arc closepath fill
               vpt 0 360 arc } bind def
/C6 { BL [] 0 setdash 2 copy moveto
      2 copy  vpt 90 270 arc closepath fill
              vpt 0 360 arc closepath } bind def
/C7 { BL [] 0 setdash 2 copy moveto
      2 copy  vpt 0 270 arc closepath fill
              vpt 0 360 arc closepath } bind def
/C8 { BL [] 0 setdash 2 copy moveto
      2 copy vpt 270 360 arc closepath fill
              vpt 0 360 arc closepath } bind def
/C9 { BL [] 0 setdash 2 copy moveto
      2 copy  vpt 270 450 arc closepath fill
              vpt 0 360 arc closepath } bind def
/C10 { BL [] 0 setdash 2 copy 2 copy moveto vpt 270 360 arc closepath fill
       2 copy moveto
       2 copy vpt 90 180 arc closepath fill
               vpt 0 360 arc closepath } bind def
/C11 { BL [] 0 setdash 2 copy moveto
       2 copy  vpt 0 180 arc closepath fill
       2 copy moveto
       2 copy  vpt 270 360 arc closepath fill
               vpt 0 360 arc closepath } bind def
/C12 { BL [] 0 setdash 2 copy moveto
       2 copy  vpt 180 360 arc closepath fill
               vpt 0 360 arc closepath } bind def
/C13 { BL [] 0 setdash  2 copy moveto
       2 copy  vpt 0 90 arc closepath fill
       2 copy moveto
       2 copy  vpt 180 360 arc closepath fill
               vpt 0 360 arc closepath } bind def
/C14 { BL [] 0 setdash 2 copy moveto
       2 copy  vpt 90 360 arc closepath fill
               vpt 0 360 arc } bind def
/C15 { BL [] 0 setdash 2 copy vpt 0 360 arc closepath fill
               vpt 0 360 arc closepath } bind def
/Rec   { newpath 4 2 roll moveto 1 index 0 rlineto 0 exch rlineto
       neg 0 rlineto closepath } bind def
/Square { dup Rec } bind def
/Bsquare { vpt sub exch vpt sub exch vpt2 Square } bind def
/S0 { BL [] 0 setdash 2 copy moveto 0 vpt rlineto BL Bsquare } bind def
/S1 { BL [] 0 setdash 2 copy vpt Square fill Bsquare } bind def
/S2 { BL [] 0 setdash 2 copy exch vpt sub exch vpt Square fill Bsquare } bind def
/S3 { BL [] 0 setdash 2 copy exch vpt sub exch vpt2 vpt Rec fill Bsquare } bind def
/S4 { BL [] 0 setdash 2 copy exch vpt sub exch vpt sub vpt Square fill Bsquare } bind def
/S5 { BL [] 0 setdash 2 copy 2 copy vpt Square fill
       exch vpt sub exch vpt sub vpt Square fill Bsquare } bind def
/S6 { BL [] 0 setdash 2 copy exch vpt sub exch vpt sub vpt vpt2 Rec fill Bsquare } bind def
/S7 { BL [] 0 setdash 2 copy exch vpt sub exch vpt sub vpt vpt2 Rec fill
       2 copy vpt Square fill
       Bsquare } bind def
/S8 { BL [] 0 setdash 2 copy vpt sub vpt Square fill Bsquare } bind def
/S9 { BL [] 0 setdash 2 copy vpt sub vpt vpt2 Rec fill Bsquare } bind def
/S10 { BL [] 0 setdash 2 copy vpt sub vpt Square fill 2 copy exch vpt sub exch vpt Square fill
       Bsquare } bind def
/S11 { BL [] 0 setdash 2 copy vpt sub vpt Square fill 2 copy exch vpt sub exch vpt2 vpt Rec fill
       Bsquare } bind def
/S12 { BL [] 0 setdash 2 copy exch vpt sub exch vpt sub vpt2 vpt Rec fill Bsquare } bind def
/S13 { BL [] 0 setdash 2 copy exch vpt sub exch vpt sub vpt2 vpt Rec fill
       2 copy vpt Square fill Bsquare } bind def
/S14 { BL [] 0 setdash 2 copy exch vpt sub exch vpt sub vpt2 vpt Rec fill
       2 copy exch vpt sub exch vpt Square fill Bsquare } bind def
/S15 { BL [] 0 setdash 2 copy Bsquare fill Bsquare } bind def
/D0 { gsave translate 45 rotate 0 0 S0 stroke grestore } bind def
/D1 { gsave translate 45 rotate 0 0 S1 stroke grestore } bind def
/D2 { gsave translate 45 rotate 0 0 S2 stroke grestore } bind def
/D3 { gsave translate 45 rotate 0 0 S3 stroke grestore } bind def
/D4 { gsave translate 45 rotate 0 0 S4 stroke grestore } bind def
/D5 { gsave translate 45 rotate 0 0 S5 stroke grestore } bind def
/D6 { gsave translate 45 rotate 0 0 S6 stroke grestore } bind def
/D7 { gsave translate 45 rotate 0 0 S7 stroke grestore } bind def
/D8 { gsave translate 45 rotate 0 0 S8 stroke grestore } bind def
/D9 { gsave translate 45 rotate 0 0 S9 stroke grestore } bind def
/D10 { gsave translate 45 rotate 0 0 S10 stroke grestore } bind def
/D11 { gsave translate 45 rotate 0 0 S11 stroke grestore } bind def
/D12 { gsave translate 45 rotate 0 0 S12 stroke grestore } bind def
/D13 { gsave translate 45 rotate 0 0 S13 stroke grestore } bind def
/D14 { gsave translate 45 rotate 0 0 S14 stroke grestore } bind def
/D15 { gsave translate 45 rotate 0 0 S15 stroke grestore } bind def
/DiaE { stroke [] 0 setdash vpt add M
  hpt neg vpt neg V hpt vpt neg V
  hpt vpt V hpt neg vpt V closepath stroke } def
/BoxE { stroke [] 0 setdash exch hpt sub exch vpt add M
  0 vpt2 neg V hpt2 0 V 0 vpt2 V
  hpt2 neg 0 V closepath stroke } def
/TriUE { stroke [] 0 setdash vpt 1.12 mul add M
  hpt neg vpt -1.62 mul V
  hpt 2 mul 0 V
  hpt neg vpt 1.62 mul V closepath stroke } def
/TriDE { stroke [] 0 setdash vpt 1.12 mul sub M
  hpt neg vpt 1.62 mul V
  hpt 2 mul 0 V
  hpt neg vpt -1.62 mul V closepath stroke } def
/PentE { stroke [] 0 setdash gsave
  translate 0 hpt M 4 {72 rotate 0 hpt L} repeat
  closepath stroke grestore } def
/CircE { stroke [] 0 setdash 
  hpt 0 360 arc stroke } def
/Opaque { gsave closepath 1 setgray fill grestore 0 setgray closepath } def
/DiaW { stroke [] 0 setdash vpt add M
  hpt neg vpt neg V hpt vpt neg V
  hpt vpt V hpt neg vpt V Opaque stroke } def
/BoxW { stroke [] 0 setdash exch hpt sub exch vpt add M
  0 vpt2 neg V hpt2 0 V 0 vpt2 V
  hpt2 neg 0 V Opaque stroke } def
/TriUW { stroke [] 0 setdash vpt 1.12 mul add M
  hpt neg vpt -1.62 mul V
  hpt 2 mul 0 V
  hpt neg vpt 1.62 mul V Opaque stroke } def
/TriDW { stroke [] 0 setdash vpt 1.12 mul sub M
  hpt neg vpt 1.62 mul V
  hpt 2 mul 0 V
  hpt neg vpt -1.62 mul V Opaque stroke } def
/PentW { stroke [] 0 setdash gsave
  translate 0 hpt M 4 {72 rotate 0 hpt L} repeat
  Opaque stroke grestore } def
/CircW { stroke [] 0 setdash 
  hpt 0 360 arc Opaque stroke } def
/BoxFill { gsave Rec 1 setgray fill grestore } def
/BoxColFill {
  gsave Rec
  /Fillden exch def
  currentrgbcolor
  /ColB exch def /ColG exch def /ColR exch def
  /ColR ColR Fillden mul Fillden sub 1 add def
  /ColG ColG Fillden mul Fillden sub 1 add def
  /ColB ColB Fillden mul Fillden sub 1 add def
  ColR ColG ColB setrgbcolor
  fill grestore } def
%
% PostScript Level 1 Pattern Fill routine
% Usage: x y w h s a XX PatternFill
%	x,y = lower left corner of box to be filled
%	w,h = width and height of box
%	  a = angle in degrees between lines and x-axis
%	 XX = 0/1 for no/yes cross-hatch
%
/PatternFill { gsave /PFa [ 9 2 roll ] def
    PFa 0 get PFa 2 get 2 div add PFa 1 get PFa 3 get 2 div add translate
    PFa 2 get -2 div PFa 3 get -2 div PFa 2 get PFa 3 get Rec
    gsave 1 setgray fill grestore clip
    currentlinewidth 0.5 mul setlinewidth
    /PFs PFa 2 get dup mul PFa 3 get dup mul add sqrt def
    0 0 M PFa 5 get rotate PFs -2 div dup translate
	0 1 PFs PFa 4 get div 1 add floor cvi
	{ PFa 4 get mul 0 M 0 PFs V } for
    0 PFa 6 get ne {
	0 1 PFs PFa 4 get div 1 add floor cvi
	{ PFa 4 get mul 0 2 1 roll M PFs 0 V } for
    } if
    stroke grestore } def
%
/Symbol-Oblique /Symbol findfont [1 0 .167 1 0 0] makefont
dup length dict begin {1 index /FID eq {pop pop} {def} ifelse} forall
currentdict end definefont pop
/MFshow {
   { dup 5 get 3 ge
     { 5 get 3 eq {gsave} {grestore} ifelse }
     {dup dup 0 get findfont exch 1 get scalefont setfont
     [ currentpoint ] exch dup 2 get 0 exch R dup 5 get 2 ne {dup dup 6
     get exch 4 get {show} {stringwidth pop 0 R} ifelse }if dup 5 get 0 eq
     {dup 3 get {2 get neg 0 exch R pop} {pop aload pop M} ifelse} {dup 5
     get 1 eq {dup 2 get exch dup 3 get exch 6 get stringwidth pop -2 div
     dup 0 R} {dup 6 get stringwidth pop -2 div 0 R 6 get
     show 2 index {aload pop M neg 3 -1 roll neg R pop pop} {pop pop pop
     pop aload pop M} ifelse }ifelse }ifelse }
     ifelse }
   forall} bind def
/MFwidth {0 exch {dup 3 get{dup dup 0 get findfont exch 1 get scalefont
     setfont 6 get stringwidth pop add} {pop} ifelse} forall} bind def
/MLshow { currentpoint stroke M
  0 exch R MFshow } bind def
/MRshow { currentpoint stroke M
  exch dup MFwidth neg 3 -1 roll R MFshow } def
/MCshow { currentpoint stroke M
  exch dup MFwidth -2 div 3 -1 roll R MFshow } def
end
%%EndProlog
%%Page: 1 1
gnudict begin
gsave
50 50 translate
0.100 0.100 scale
90 rotate
0 -5040 translate
0 setgray
newpath
(Helvetica) findfont 290 scalefont setfont
1.000 UL
LTb
1479 870 M
63 0 V
10205 0 R
-63 0 V
stroke
1305 870 M
[ [(Helvetica) 290.0 0.0 true true 0 (-1)]
] -96.7 MRshow
1.000 UL
LTb
1479 1482 M
63 0 V
10205 0 R
-63 0 V
stroke
1305 1482 M
[ [(Helvetica) 290.0 0.0 true true 0 (-0.8)]
] -96.7 MRshow
1.000 UL
LTb
1479 2093 M
63 0 V
10205 0 R
-63 0 V
stroke
1305 2093 M
[ [(Helvetica) 290.0 0.0 true true 0 (-0.6)]
] -96.7 MRshow
1.000 UL
LTb
1479 2705 M
63 0 V
10205 0 R
-63 0 V
stroke
1305 2705 M
[ [(Helvetica) 290.0 0.0 true true 0 (-0.4)]
] -96.7 MRshow
1.000 UL
LTb
1479 3316 M
63 0 V
10205 0 R
-63 0 V
stroke
1305 3316 M
[ [(Helvetica) 290.0 0.0 true true 0 (-0.2)]
] -96.7 MRshow
1.000 UL
LTb
1479 3928 M
63 0 V
10205 0 R
-63 0 V
stroke
1305 3928 M
[ [(Helvetica) 290.0 0.0 true true 0 ( 0)]
] -96.7 MRshow
1.000 UL
LTb
1479 4539 M
63 0 V
10205 0 R
-63 0 V
stroke
1305 4539 M
[ [(Helvetica) 290.0 0.0 true true 0 ( 0.2)]
] -96.7 MRshow
1.000 UL
LTb
2841 870 M
0 63 V
0 3759 R
0 -63 V
stroke
2841 580 M
[ [(Helvetica) 290.0 0.0 true true 0 (-2500)]
] -96.7 MCshow
1.000 UL
LTb
4587 870 M
0 63 V
0 3759 R
0 -63 V
stroke
4587 580 M
[ [(Helvetica) 290.0 0.0 true true 0 (-2000)]
] -96.7 MCshow
1.000 UL
LTb
6334 870 M
0 63 V
0 3759 R
0 -63 V
stroke
6334 580 M
[ [(Helvetica) 290.0 0.0 true true 0 (-1500)]
] -96.7 MCshow
1.000 UL
LTb
8080 870 M
0 63 V
0 3759 R
0 -63 V
stroke
8080 580 M
[ [(Helvetica) 290.0 0.0 true true 0 (-1000)]
] -96.7 MCshow
1.000 UL
LTb
9826 870 M
0 63 V
0 3759 R
0 -63 V
stroke
9826 580 M
[ [(Helvetica) 290.0 0.0 true true 0 (-500)]
] -96.7 MCshow
1.000 UL
LTb
11572 870 M
0 63 V
0 3759 R
0 -63 V
stroke
11572 580 M
[ [(Helvetica) 290.0 0.0 true true 0 ( 0)]
] -96.7 MCshow
1.000 UL
LTb
1.000 UL
LTb
1479 870 M
10268 0 V
0 3822 V
-10268 0 V
0 -3822 V
LTb
290 2781 M
currentpoint gsave translate 90 rotate 0 0 moveto
[ [(Helvetica) 290.0 0.0 true true 0 (x[m])]
] -96.7 MCshow
grestore
LTb
6613 145 M
[ [(Helvetica) 290.0 0.0 true true 0 (s[m])]
] -96.7 MCshow
1.000 UP
LTb
11572 3316 M
[ [(Helvetica) 290.0 0.0 true true 0 (IP)]
] -96.7 MCshow
LTb
8080 1482 M
[ [(Helvetica) 290.0 0.0 true true 0 (500 GeV)]
] -96.7 MLshow
LTb
5286 3928 M
[ [(Helvetica) 290.0 0.0 true true 0 (3 TeV)]
] -96.7 MLshow
2.000 UL
LT6
5539 2286 M
1 -1 V
18 -9 V
2 -1 V
17 -9 V
2 -1 V
17 -9 V
2 -1 V
2 -1 V
7 -4 V
8 -4 V
8 -5 V
8 -4 V
3 -1 V
8 -5 V
8 -4 V
7 -4 V
8 -4 V
2 -1 V
2 -1 V
3 -2 V
4 -2 V
3 -1 V
2 -1 V
2 -1 V
3 -2 V
4 -2 V
4 -2 V
1 -1 V
2 -1 V
4 -2 V
3 -2 V
4 -2 V
2 0 V
1 -1 V
4 -2 V
4 -2 V
3 -2 V
2 -1 V
2 -1 V
7 -4 V
8 -4 V
8 -4 V
8 -4 V
1 -1 V
2 -1 V
8 -4 V
8 -4 V
7 -4 V
8 -5 V
2 -1 V
2 0 V
7 -5 V
8 -4 V
8 -4 V
8 -4 V
3 -2 V
16 -8 V
16 -9 V
16 -8 V
16 -8 V
1 -1 V
2 -1 V
16 -9 V
16 -8 V
16 -8 V
16 -9 V
1 -1 V
2 -1 V
16 -8 V
16 -8 V
16 -9 V
15 -8 V
2 -1 V
2 -1 V
16 -9 V
16 -8 V
16 -8 V
15 -9 V
2 -1 V
2 -1 V
16 -8 V
16 -8 V
16 -9 V
15 -8 V
2 -1 V
2 -1 V
16 -8 V
16 -9 V
16 -8 V
15 -9 V
4 -2 V
13 -7 V
4 -1 V
7 -4 V
3 -2 V
18 -9 V
4 -3 V
4 -2 V
3 -1 V
8 -5 V
3 -1 V
19 -10 V
20 -9 V
2 -1 V
stroke
6339 1864 M
20 -9 V
20 -8 V
2 -1 V
20 -7 V
19 -6 V
2 -1 V
20 -5 V
20 -5 V
2 -1 V
20 -4 V
20 -3 V
2 -1 V
20 -2 V
19 -2 V
1 0 V
1 0 V
20 -2 V
20 0 V
2 0 V
20 0 V
20 1 V
2 0 V
19 2 V
20 2 V
2 1 V
20 3 V
20 4 V
2 0 V
20 5 V
20 6 V
2 0 V
19 6 V
20 7 V
2 1 V
3 1 V
2 1 V
2 1 V
2 0 V
2 1 V
5 2 V
4 1 V
17 7 V
18 6 V
4 2 V
5 2 V
2 0 V
2 1 V
2 1 V
2 1 V
3 1 V
2 0 V
20 8 V
19 7 V
2 0 V
20 7 V
20 7 V
2 1 V
20 6 V
20 7 V
2 0 V
19 7 V
20 6 V
2 0 V
20 6 V
20 6 V
2 1 V
20 5 V
20 6 V
1 0 V
1 0 V
19 5 V
20 5 V
2 1 V
20 5 V
20 5 V
2 0 V
20 5 V
19 4 V
3 1 V
19 4 V
20 4 V
2 0 V
20 4 V
20 4 V
2 1 V
20 3 V
19 4 V
3 0 V
2 0 V
2 1 V
2 0 V
2 0 V
3 1 V
4 1 V
4 0 V
18 3 V
17 3 V
5 1 V
4 1 V
2 0 V
2 0 V
2 1 V
3 0 V
2 1 V
stroke
7448 2021 M
2 0 V
20 3 V
20 3 V
2 1 V
19 3 V
20 2 V
2 1 V
20 2 V
20 3 V
2 0 V
20 2 V
19 2 V
3 1 V
19 2 V
20 1 V
2 1 V
20 1 V
20 2 V
1 0 V
1 0 V
20 1 V
19 1 V
3 0 V
19 1 V
20 1 V
2 0 V
20 1 V
20 0 V
2 0 V
20 1 V
19 0 V
3 0 V
19 0 V
20 0 V
2 0 V
20 -1 V
20 0 V
2 0 V
2 0 V
2 0 V
2 0 V
3 -1 V
2 0 V
4 0 V
5 0 V
17 0 V
17 -1 V
5 0 V
4 0 V
2 0 V
3 0 V
2 0 V
2 0 V
2 0 V
2 -1 V
20 0 V
20 1 V
2 0 V
20 1 V
19 2 V
3 0 V
19 3 V
20 4 V
2 0 V
20 4 V
20 5 V
2 1 V
20 5 V
19 7 V
3 1 V
19 7 V
20 8 V
1 0 V
1 1 V
20 8 V
20 10 V
2 1 V
20 10 V
19 11 V
3 1 V
19 12 V
20 12 V
2 1 V
20 14 V
20 13 V
2 2 V
20 15 V
19 15 V
3 2 V
19 16 V
20 16 V
2 2 V
9 8 V
2 2 V
4 4 V
5 3 V
17 16 V
1 0 V
1 1 V
2 2 V
1 0 V
1 2 V
2 1 V
0 1 V
stroke
8571 2304 M
2 1 V
2 2 V
2 2 V
2 1 V
0 1 V
2 1 V
2 2 V
2 1 V
2 2 V
40 35 V
2 2 V
2 1 V
0 1 V
2 1 V
2 2 V
1 1 V
2 1 V
2 2 V
61 53 V
2 2 V
2 1 V
27 24 V
2 2 V
2 1 V
27 25 V
2 1 V
2 2 V
61 53 V
2 1 V
2 2 V
1 1 V
2 2 V
2 1 V
61 54 V
2 1 V
2 2 V
27 24 V
2 1 V
2 2 V
27 24 V
2 1 V
2 2 V
61 53 V
2 2 V
2 1 V
1 1 V
0 1 V
2 1 V
2 2 V
61 53 V
2 2 V
2 1 V
27 24 V
2 2 V
2 1 V
27 24 V
2 2 V
2 1 V
61 54 V
2 1 V
2 2 V
1 0 V
0 1 V
2 1 V
2 2 V
61 53 V
2 2 V
2 1 V
27 24 V
2 2 V
2 1 V
28 24 V
1 2 V
2 1 V
61 54 V
2 1 V
2 2 V
1 1 V
2 2 V
2 1 V
61 54 V
2 1 V
2 2 V
27 24 V
1 0 V
8 7 V
16 14 V
8 7 V
35 30 V
9 8 V
35 30 V
9 8 V
24 21 V
3 3 V
4 3 V
15 13 V
3 3 V
4 3 V
25 22 V
3 3 V
4 3 V
25 22 V
4 3 V
3 3 V
stroke
9758 3335 M
24 21 V
4 3 V
3 3 V
32 28 V
3 3 V
4 3 V
1 1 V
7 6 V
8 7 V
7 6 V
7 7 V
8 6 V
7 7 V
7 7 V
8 6 V
7 7 V
7 7 V
1 1 V
4 3 V
3 3 V
128 120 V
4 3 V
3 3 V
1 1 V
4 3 V
3 4 V
123 114 V
2 2 V
2 2 V
1 1 V
3 3 V
4 3 V
1 1 V
3 3 V
4 4 V
89 82 V
3 4 V
4 3 V
3 3 V
59 56 V
4 3 V
3 3 V
1 1 V
4 3 V
3 4 V
1 1 V
2 1 V
2 2 V
31 29 V
7 6 V
3 3 V
4 3 V
1 1 V
1 2 V
2 2 V
1 1 V
4 3 V
3 3 V
101 94 V
32 28 V
31 26 V
31 22 V
32 20 V
31 18 V
32 14 V
31 12 V
31 10 V
32 7 V
31 4 V
1 0 V
4 0 V
3 0 V
1 1 V
7 0 V
6 0 V
6 1 V
7 0 V
6 0 V
7 0 V
6 0 V
6 0 V
7 -1 V
6 0 V
1 0 V
4 -1 V
3 0 V
1 0 V
7 -1 V
6 0 V
6 -1 V
7 -1 V
6 -1 V
6 -1 V
7 -1 V
6 -2 V
7 -1 V
6 -2 V
1 0 V
4 -1 V
3 -1 V
1 0 V
6 -2 V
7 -1 V
6 -2 V
stroke
11020 4193 M
7 -2 V
6 -2 V
6 -2 V
7 -1 V
6 -2 V
7 -2 V
6 -2 V
1 0 V
6 -2 V
7 -2 V
6 -2 V
7 -3 V
6 -2 V
6 -2 V
7 -2 V
6 -2 V
6 -2 V
7 -3 V
1 0 V
6 -2 V
7 -3 V
6 -2 V
6 -2 V
7 -3 V
6 -2 V
7 -3 V
6 -2 V
6 -3 V
7 -3 V
1 0 V
6 -3 V
7 -2 V
6 -3 V
6 -3 V
7 -3 V
6 -2 V
7 -3 V
6 -3 V
6 -3 V
7 -3 V
1 0 V
6 -3 V
7 -3 V
6 -3 V
6 -3 V
7 -4 V
6 -3 V
6 -3 V
7 -3 V
6 -3 V
7 -3 V
1 -1 V
6 -3 V
6 -4 V
7 -3 V
6 -3 V
7 -4 V
6 -3 V
6 -4 V
7 -3 V
6 -4 V
7 -3 V
1 -1 V
6 -4 V
6 -3 V
7 -4 V
6 -4 V
7 -3 V
6 -4 V
6 -4 V
7 -4 V
6 -4 V
7 -4 V
49 -31 V
7 -4 V
2 -1 V
1 0 V
1 -1 V
7 -4 V
7 -4 V
3 -3 V
7 -4 V
2 -1 V
1 -1 V
2 -1 V
1 0 V
1 -1 V
6 -4 V
5 -3 V
15 -9 V
14.000 UL
LT0
5537 2224 M
3 0 V
16 -10 R
4 0 V
16 -10 R
3 0 V
16 -10 R
3 0 V
-1 -1 R
3 0 V
29 -19 R
5 0 V
30 -17 R
3 0 V
-1 -1 R
3 0 V
9 -7 R
3 0 V
-1 0 R
3 0 V
9 -7 R
3 0 V
-1 -1 R
3 0 V
9 -7 R
4 0 V
-2 -1 R
3 0 V
10 -6 R
3 0 V
-2 -1 R
4 0 V
29 -17 R
3 0 V
-1 -1 R
3 0 V
30 -18 R
3 0 V
-2 -1 R
4 0 V
29 -18 R
5 0 V
62 -34 R
3 0 V
-1 -1 R
3 0 V
62 -35 R
3 0 V
-1 -1 R
3 0 V
62 -34 R
3 0 V
-1 -1 R
3 0 V
62 -35 R
3 0 V
-1 -1 R
3 0 V
62 -34 R
3 0 V
-1 -1 R
3 0 V
62 -36 R
5 0 V
12 -9 R
5 0 V
5 -5 R
5 0 V
16 -12 R
6 0 V
-1 0 R
1 0 V
-1 -2 R
5 0 V
523 -40 R
6 0 V
-2 0 R
2 0 V
-2 1 R
6 0 V
34 15 R
5 0 V
-1 0 R
1 0 V
-1 1 R
6 0 V
522 142 R
6 0 V
-1 0 R
1 0 V
-1 1 R
5 0 V
34 7 R
6 0 V
-2 0 R
2 0 V
-2 1 R
6 0 V
522 36 R
6 0 V
-1 0 R
1 0 V
-1 0 R
6 0 V
33 -1 R
6 0 V
stroke
8007 1993 M
2 0 V
-2 0 R
6 0 V
523 223 R
5 0 V
-1 0 R
1 0 V
-1 4 R
6 0 V
16 17 R
3 0 V
-1 0 R
1 0 V
-1 2 R
3 0 V
-1 2 R
3 0 V
-1 0 R
1 0 V
-1 1 R
3 0 V
-1 2 R
3 0 V
-1 0 R
1 0 V
-1 2 R
3 0 V
-1 1 R
3 0 V
-1 0 R
1 0 V
-1 2 R
3 0 V
-1 2 R
3 0 V
-1 0 R
1 0 V
-1 1 R
3 0 V
-1 2 R
3 0 V
-1 0 R
1 0 V
-1 2 R
3 0 V
39 37 R
3 0 V
-1 0 R
1 0 V
-1 1 R
3 0 V
-1 2 R
3 0 V
-1 0 R
1 0 V
-1 2 R
3 0 V
0 2 R
3 0 V
-1 0 R
1 0 V
-1 2 R
3 0 V
60 55 R
3 0 V
-2 0 R
2 0 V
-2 1 R
4 0 V
26 26 R
3 0 V
-1 0 R
1 0 V
-1 1 R
3 0 V
26 26 R
3 0 V
-1 0 R
1 0 V
-1 1 R
3 0 V
60 55 R
3 0 V
-1 0 R
1 0 V
-1 2 R
3 0 V
0 3 R
3 0 V
-1 0 R
1 0 V
-1 1 R
3 0 V
60 55 R
3 0 V
-1 0 R
1 0 V
-1 2 R
3 0 V
26 25 R
3 0 V
-1 0 R
1 0 V
-1 2 R
3 0 V
stroke
8959 2582 M
3 0 V
-1 0 R
1 0 V
-1 2 R
3 0 V
60 55 R
3 0 V
-1 0 R
1 0 V
-1 1 R
3 0 V
0 3 R
3 0 V
-1 0 R
1 0 V
-1 1 R
3 0 V
60 55 R
3 0 V
-1 0 R
1 0 V
-1 2 R
3 0 V
26 25 R
3 0 V
-1 0 R
1 0 V
-1 2 R
3 0 V
26 25 R
3 0 V
-1 0 R
1 0 V
-1 2 R
3 0 V
60 55 R
3 0 V
-1 0 R
1 0 V
-1 1 R
3 0 V
0 3 R
3 0 V
-1 0 R
1 0 V
-1 2 R
3 0 V
60 55 R
3 0 V
-1 0 R
1 0 V
-1 1 R
3 0 V
26 26 R
3 0 V
-1 0 R
1 0 V
-1 1 R
3 0 V
26 26 R
3 0 V
-1 0 R
1 0 V
-1 1 R
3 0 V
60 55 R
3 0 V
-1 0 R
1 0 V
-1 2 R
3 0 V
0 3 R
3 0 V
-1 0 R
1 0 V
-1 1 R
3 0 V
60 55 R
3 0 V
-1 0 R
1 0 V
-1 1 R
3 0 V
26 32 R
10 0 V
14 21 R
10 0 V
34 38 R
10 0 V
33 38 R
11 0 V
23 24 R
4 0 V
-1 3 R
5 0 V
13 16 R
5 0 V
-1 3 R
5 0 V
23 25 R
5 0 V
-1 3 R
5 0 V
24 25 R
5 0 V
stroke
9753 3274 M
5 0 V
23 24 R
5 0 V
-2 3 R
5 0 V
31 31 R
4 0 V
-1 3 R
5 0 V
74 71 R
5 0 V
-1 3 R
4 0 V
127 123 R
5 0 V
-2 3 R
5 0 V
0 4 R
5 0 V
-2 3 R
5 0 V
126 123 R
5 0 V
-1 3 R
5 0 V
-1 4 R
5 0 V
-1 3 R
5 0 V
157 152 R
5 0 V
-2 3 R
5 0 V
0 4 R
5 0 V
-2 3 R
5 0 V
41 43 R
5 0 V
-1 3 R
5 0 V
4 9 R
5 0 V
-2 3 R
5 0 V
415 255 R
5 0 V
-2 0 R
5 0 V
65 0 R
5 0 V
-2 0 R
5 0 V
65 -12 R
5 0 V
-2 -1 R
5 0 V
513 -239 R
9 0 V
-2 -5 R
9 0 V
15 -14 R
8 0 V
-2 -3 R
7 0 V
14.000 UL
LT0
5537 2346 M
3 0 V
16 -10 R
4 0 V
16 -10 R
3 0 V
16 -10 R
3 0 V
-1 -1 R
3 0 V
29 -18 R
5 0 V
30 -18 R
3 0 V
-1 -1 R
3 0 V
9 -6 R
3 0 V
-1 -1 R
3 0 V
9 -7 R
3 0 V
-1 -1 R
3 0 V
9 -6 R
4 0 V
-2 -1 R
3 0 V
10 -7 R
3 0 V
-2 -1 R
4 0 V
29 -17 R
3 0 V
-1 -1 R
3 0 V
30 -17 R
3 0 V
-2 -1 R
4 0 V
29 -19 R
5 0 V
62 -34 R
3 0 V
-1 -1 R
3 0 V
62 -35 R
3 0 V
-1 0 R
3 0 V
62 -35 R
3 0 V
-1 -1 R
3 0 V
62 -35 R
3 0 V
-1 0 R
3 0 V
62 -35 R
3 0 V
-1 -1 R
3 0 V
62 -35 R
5 0 V
12 -9 R
5 0 V
5 -6 R
5 0 V
16 -11 R
6 0 V
-1 0 R
1 0 V
-1 -3 R
5 0 V
523 -40 R
6 0 V
-2 0 R
2 0 V
-2 2 R
6 0 V
34 14 R
5 0 V
-1 0 R
1 0 V
-1 2 R
6 0 V
522 142 R
6 0 V
-1 0 R
1 0 V
-1 0 R
5 0 V
34 7 R
6 0 V
-2 0 R
2 0 V
-2 1 R
6 0 V
522 36 R
6 0 V
-1 0 R
1 0 V
-1 0 R
6 0 V
33 -1 R
6 0 V
stroke
8007 2115 M
2 0 V
-2 0 R
6 0 V
523 224 R
5 0 V
-1 0 R
1 0 V
-1 4 R
6 0 V
16 17 R
3 0 V
-1 0 R
1 0 V
-1 1 R
3 0 V
-1 2 R
3 0 V
-1 0 R
1 0 V
-1 1 R
3 0 V
-1 2 R
3 0 V
-1 0 R
1 0 V
-1 2 R
3 0 V
-1 2 R
3 0 V
-1 0 R
1 0 V
-1 1 R
3 0 V
-1 2 R
3 0 V
-1 0 R
1 0 V
-1 2 R
3 0 V
-1 2 R
3 0 V
-1 0 R
1 0 V
-1 1 R
3 0 V
39 37 R
3 0 V
-1 0 R
1 0 V
-1 1 R
3 0 V
-1 2 R
3 0 V
-1 0 R
1 0 V
-1 2 R
3 0 V
0 3 R
3 0 V
-1 0 R
1 0 V
-1 1 R
3 0 V
60 55 R
3 0 V
-2 0 R
2 0 V
-2 2 R
4 0 V
26 25 R
3 0 V
-1 0 R
1 0 V
-1 2 R
3 0 V
26 25 R
3 0 V
-1 0 R
1 0 V
-1 2 R
3 0 V
60 55 R
3 0 V
-1 0 R
1 0 V
-1 1 R
3 0 V
0 3 R
3 0 V
-1 0 R
1 0 V
-1 1 R
3 0 V
60 55 R
3 0 V
-1 0 R
1 0 V
-1 2 R
3 0 V
26 25 R
3 0 V
-1 0 R
1 0 V
-1 2 R
3 0 V
stroke
8959 2704 M
3 0 V
-1 0 R
1 0 V
-1 2 R
3 0 V
60 55 R
3 0 V
-1 0 R
1 0 V
-1 1 R
3 0 V
0 3 R
3 0 V
-1 0 R
1 0 V
-1 2 R
3 0 V
60 55 R
3 0 V
-1 0 R
1 0 V
-1 1 R
3 0 V
26 26 R
3 0 V
-1 0 R
1 0 V
-1 1 R
3 0 V
26 26 R
3 0 V
-1 0 R
1 0 V
-1 1 R
3 0 V
60 55 R
3 0 V
-1 0 R
1 0 V
-1 2 R
3 0 V
0 3 R
3 0 V
-1 0 R
1 0 V
-1 1 R
3 0 V
60 55 R
3 0 V
-1 0 R
1 0 V
-1 1 R
3 0 V
26 26 R
3 0 V
-1 0 R
1 0 V
-1 2 R
3 0 V
26 25 R
3 0 V
-1 0 R
1 0 V
-1 2 R
3 0 V
60 55 R
3 0 V
-1 0 R
1 0 V
-1 1 R
3 0 V
0 3 R
3 0 V
-1 0 R
1 0 V
-1 1 R
3 0 V
60 55 R
3 0 V
-1 0 R
1 0 V
-1 2 R
3 0 V
26 31 R
10 0 V
14 21 R
10 0 V
34 38 R
10 0 V
33 38 R
11 0 V
23 24 R
4 0 V
-1 3 R
5 0 V
13 16 R
5 0 V
-1 3 R
5 0 V
23 25 R
5 0 V
-1 3 R
5 0 V
24 25 R
5 0 V
stroke
9753 3396 M
5 0 V
23 24 R
5 0 V
-2 3 R
5 0 V
31 31 R
4 0 V
-1 3 R
5 0 V
74 71 R
5 0 V
-1 4 R
4 0 V
127 122 R
5 0 V
-2 3 R
5 0 V
0 4 R
5 0 V
-2 4 R
5 0 V
126 122 R
5 0 V
-1 3 R
5 0 V
-1 4 R
5 0 V
-1 4 R
5 0 V
157 151 R
5 0 V
-2 3 R
5 0 V
0 4 R
5 0 V
-2 4 R
5 0 V
41 42 R
5 0 V
-1 4 R
5 0 V
4 8 R
5 0 V
-2 3 R
5 0 V
415 255 R
5 0 V
-2 1 R
5 0 V
65 -1 R
5 0 V
-2 0 R
5 0 V
65 -12 R
5 0 V
-2 -1 R
5 0 V
513 -239 R
9 0 V
-2 -4 R
9 0 V
15 -14 R
8 0 V
-2 -4 R
7 0 V
14.000 UL
LT2
6298 1813 M
19 0 V
0 -9 R
20 0 V
2 -10 R
20 0 V
0 -8 R
20 0 V
2 -8 R
20 0 V
0 -6 R
19 0 V
2 -6 R
20 0 V
0 -5 R
20 0 V
2 -5 R
20 0 V
0 -3 R
20 0 V
2 -4 R
20 0 V
0 -1 R
19 0 V
2 -2 R
20 0 V
20 0 V
2 0 R
20 0 V
0 1 R
20 0 V
2 2 R
19 0 V
0 2 R
20 0 V
2 4 R
20 0 V
0 4 R
20 0 V
2 5 R
20 0 V
0 5 R
20 0 V
2 7 R
19 0 V
0 7 R
20 0 V
79 36 R
20 0 V
0 7 R
19 0 V
2 8 R
20 0 V
0 7 R
20 0 V
2 7 R
20 0 V
0 7 R
20 0 V
2 6 R
19 0 V
0 7 R
20 0 V
2 6 R
20 0 V
0 6 R
20 0 V
2 6 R
20 0 V
0 5 R
20 0 V
2 6 R
19 0 V
0 5 R
20 0 V
2 6 R
20 0 V
0 5 R
20 0 V
2 5 R
20 0 V
0 4 R
19 0 V
3 5 R
19 0 V
0 4 R
20 0 V
2 4 R
20 0 V
0 4 R
20 0 V
2 4 R
20 0 V
0 3 R
19 0 V
79 17 R
20 0 V
0 3 R
20 0 V
2 3 R
19 0 V
0 3 R
20 0 V
2 3 R
20 0 V
stroke
7553 1978 M
20 0 V
2 2 R
20 0 V
0 2 R
19 0 V
3 2 R
19 0 V
0 2 R
20 0 V
2 2 R
20 0 V
0 1 R
20 0 V
2 2 R
20 0 V
0 1 R
19 0 V
3 1 R
19 0 V
0 1 R
20 0 V
2 1 R
20 0 V
20 0 V
2 1 R
20 0 V
19 0 V
3 0 R
19 0 V
20 0 V
2 -1 R
20 0 V
20 0 V
78 -3 R
20 0 V
0 1 R
20 0 V
2 1 R
20 0 V
0 2 R
19 0 V
3 3 R
19 0 V
0 3 R
20 0 V
2 5 R
20 0 V
0 5 R
20 0 V
2 6 R
20 0 V
0 7 R
19 0 V
3 8 R
19 0 V
0 8 R
20 0 V
2 9 R
20 0 V
0 10 R
20 0 V
2 11 R
20 0 V
0 11 R
19 0 V
3 13 R
19 0 V
0 12 R
20 0 V
2 14 R
20 0 V
0 14 R
20 0 V
2 16 R
20 0 V
0 16 R
19 0 V
3 17 R
19 0 V
0 17 R
20 0 V
374 326 R
31 27 R
363 315 R
31 27 R
166 144 R
31 28 R
309 274 R
7 0 V
0 7 R
8 0 V
0 6 R
7 0 V
0 7 R
7 0 V
0 6 R
8 0 V
0 7 R
7 0 V
0 7 R
7 0 V
0 6 R
8 0 V
0 7 R
7 0 V
stroke
9895 3395 M
0 7 R
7 0 V
630 615 R
32 0 V
0 26 R
31 0 V
0 22 R
31 0 V
0 20 R
32 0 V
0 18 R
31 0 V
0 14 R
32 0 V
0 12 R
31 0 V
0 10 R
31 0 V
0 6 R
32 0 V
0 5 R
31 0 V
9 1 R
7 0 V
6 0 V
0 1 R
6 0 V
7 0 V
6 0 V
7 0 V
6 0 V
0 -1 R
6 0 V
7 0 V
6 0 V
16 -2 R
6 0 R
6 -1 R
7 -1 R
6 -1 R
6 -1 R
7 -2 R
6 -1 R
7 -1 R
6 -2 R
9 -4 R
6 0 V
0 -2 R
7 0 V
0 -1 R
6 0 V
0 -2 R
7 0 V
0 -2 R
6 0 V
0 -2 R
6 0 V
0 -2 R
7 0 V
0 -1 R
6 0 V
0 -2 R
7 0 V
0 -2 R
6 0 V
1 -3 R
6 0 V
0 -2 R
7 0 V
0 -2 R
6 0 V
0 -2 R
7 0 V
0 -2 R
6 0 V
0 -2 R
6 0 V
0 -2 R
7 0 V
0 -2 R
6 0 V
0 -3 R
6 0 V
0 -2 R
7 0 V
1 -3 R
6 0 V
0 -2 R
7 0 V
0 -2 R
6 0 V
0 -3 R
6 0 V
0 -2 R
7 0 V
0 -3 R
6 0 V
0 -2 R
7 0 V
0 -3 R
6 0 V
0 -2 R
6 0 V
0 -3 R
7 0 V
stroke
11195 4072 M
1 -3 R
6 0 V
0 -2 R
7 0 V
0 -3 R
6 0 V
0 -3 R
6 0 V
0 -3 R
7 0 V
0 -2 R
6 0 V
0 -3 R
7 0 V
0 -3 R
6 0 V
0 -3 R
6 0 V
0 -3 R
7 0 V
1 -3 R
6 0 V
0 -3 R
7 0 V
0 -3 R
6 0 V
0 -4 R
6 0 V
0 -3 R
7 0 V
0 -3 R
6 0 V
0 -3 R
6 0 V
0 -3 R
7 0 V
0 -3 R
6 0 V
0 -4 R
7 0 V
1 -3 R
6 0 V
0 -4 R
6 0 V
0 -3 R
7 0 V
0 -4 R
6 0 V
0 -3 R
7 0 V
0 -3 R
6 0 V
0 -4 R
6 0 V
0 -3 R
7 0 V
0 -4 R
6 0 V
0 -4 R
7 0 V
1 -4 R
6 0 V
0 -3 R
6 0 V
0 -4 R
7 0 V
0 -4 R
6 0 V
0 -4 R
7 0 V
0 -3 R
6 0 V
0 -4 R
6 0 V
0 -4 R
7 0 V
0 -4 R
6 0 V
0 -4 R
7 0 V
14.000 UL
LT2
6298 1935 M
19 0 V
0 -9 R
20 0 V
2 -10 R
20 0 V
0 -8 R
20 0 V
2 -7 R
20 0 V
0 -7 R
19 0 V
2 -6 R
20 0 V
0 -5 R
20 0 V
2 -5 R
20 0 V
0 -3 R
20 0 V
2 -3 R
20 0 V
0 -2 R
19 0 V
2 -2 R
20 0 V
20 0 V
2 0 R
20 0 V
0 1 R
20 0 V
2 2 R
19 0 V
0 3 R
20 0 V
2 3 R
20 0 V
0 4 R
20 0 V
2 5 R
20 0 V
0 6 R
20 0 V
2 7 R
19 0 V
0 6 R
20 0 V
79 37 R
20 0 V
0 7 R
19 0 V
2 7 R
20 0 V
0 7 R
20 0 V
2 7 R
20 0 V
0 7 R
20 0 V
2 7 R
19 0 V
0 6 R
20 0 V
2 6 R
20 0 V
0 6 R
20 0 V
2 6 R
20 0 V
0 6 R
20 0 V
2 6 R
19 0 V
0 5 R
20 0 V
2 5 R
20 0 V
0 5 R
20 0 V
2 5 R
20 0 V
0 4 R
19 0 V
3 5 R
19 0 V
0 4 R
20 0 V
2 5 R
20 0 V
0 3 R
20 0 V
2 4 R
20 0 V
0 4 R
19 0 V
79 16 R
20 0 V
0 3 R
20 0 V
2 4 R
19 0 V
0 3 R
20 0 V
2 2 R
20 0 V
stroke
7553 2100 M
20 0 V
2 2 R
20 0 V
0 3 R
19 0 V
3 2 R
19 0 V
0 2 R
20 0 V
2 1 R
20 0 V
0 2 R
20 0 V
2 1 R
20 0 V
0 1 R
19 0 V
3 1 R
19 0 V
0 1 R
20 0 V
2 1 R
20 0 V
20 0 V
2 1 R
20 0 V
19 0 V
3 0 R
19 0 V
20 0 V
2 -1 R
20 0 V
20 0 V
78 -3 R
20 0 V
0 1 R
20 0 V
2 1 R
20 0 V
0 2 R
19 0 V
3 3 R
19 0 V
0 4 R
20 0 V
2 4 R
20 0 V
0 5 R
20 0 V
2 7 R
20 0 V
0 6 R
19 0 V
3 8 R
19 0 V
0 8 R
20 0 V
2 9 R
20 0 V
0 10 R
20 0 V
2 11 R
20 0 V
0 11 R
19 0 V
3 13 R
19 0 V
0 12 R
20 0 V
2 15 R
20 0 V
0 14 R
20 0 V
2 16 R
20 0 V
0 15 R
19 0 V
3 18 R
19 0 V
0 17 R
20 0 V
374 325 R
31 27 R
363 315 R
31 28 R
166 144 R
31 27 R
309 274 R
7 0 V
0 7 R
8 0 V
0 6 R
7 0 V
0 7 R
7 0 V
0 6 R
8 0 V
0 7 R
7 0 V
0 7 R
7 0 V
0 7 R
8 0 V
0 6 R
7 0 V
stroke
9895 3517 M
0 7 R
7 0 V
630 616 R
32 0 V
0 25 R
31 0 V
0 23 R
31 0 V
0 20 R
32 0 V
0 17 R
31 0 V
0 15 R
32 0 V
0 12 R
31 0 V
0 9 R
31 0 V
0 7 R
32 0 V
0 4 R
31 0 V
9 1 R
7 0 V
0 1 R
6 0 V
6 0 V
7 0 V
6 0 V
7 0 V
6 0 V
6 0 V
0 -1 R
7 0 V
6 0 V
16 -1 R
6 -1 R
6 -1 R
7 -1 R
6 -1 R
6 -1 R
7 -1 R
6 -2 R
7 -1 R
6 -2 R
9 -4 R
6 0 V
0 -1 R
7 0 V
0 -2 R
6 0 V
0 -2 R
7 0 V
0 -2 R
6 0 V
0 -1 R
6 0 V
0 -2 R
7 0 V
0 -2 R
6 0 V
0 -2 R
7 0 V
0 -2 R
6 0 V
1 -2 R
6 0 V
0 -2 R
7 0 V
0 -2 R
6 0 V
0 -2 R
7 0 V
0 -2 R
6 0 V
0 -3 R
6 0 V
0 -2 R
7 0 V
0 -2 R
6 0 V
0 -2 R
6 0 V
0 -3 R
7 0 V
1 -2 R
6 0 V
0 -3 R
7 0 V
0 -2 R
6 0 V
0 -2 R
6 0 V
0 -3 R
7 0 V
0 -2 R
6 0 V
0 -3 R
7 0 V
0 -2 R
6 0 V
0 -3 R
6 0 V
0 -2 R
7 0 V
stroke
11195 4195 M
1 -4 R
6 0 V
0 -2 R
7 0 V
0 -3 R
6 0 V
0 -3 R
6 0 V
0 -2 R
7 0 V
0 -3 R
6 0 V
0 -3 R
7 0 V
0 -3 R
6 0 V
0 -3 R
6 0 V
0 -3 R
7 0 V
1 -3 R
6 0 V
0 -3 R
7 0 V
0 -3 R
6 0 V
0 -3 R
6 0 V
0 -3 R
7 0 V
0 -3 R
6 0 V
0 -4 R
6 0 V
0 -3 R
7 0 V
0 -3 R
6 0 V
0 -3 R
7 0 V
1 -4 R
6 0 V
0 -3 R
6 0 V
0 -4 R
7 0 V
0 -3 R
6 0 V
0 -4 R
7 0 V
0 -3 R
6 0 V
0 -4 R
6 0 V
0 -3 R
7 0 V
0 -4 R
6 0 V
0 -3 R
7 0 V
1 -5 R
6 0 V
0 -3 R
6 0 V
0 -4 R
7 0 V
0 -4 R
6 0 V
0 -3 R
7 0 V
0 -4 R
6 0 V
0 -4 R
6 0 V
0 -4 R
7 0 V
0 -4 R
6 0 V
0 -4 R
7 0 V
30.000 UL
LT6
7117 2090 M
11 0 V
-11 0 R
11 0 V
277 62 R
11 0 V
1314 432 R
11 0 V
-11 0 R
11 0 V
17 24 R
11 0 V
-11 0 R
11 0 V
124 117 R
10 0 V
21 27 R
11 0 V
-8 3 R
11 0 V
-11 0 R
11 0 V
17 24 R
11 0 V
-11 0 R
11 0 V
124 118 R
10 0 V
21 27 R
11 0 V
-8 3 R
11 0 V
-11 0 R
11 0 V
17 24 R
11 0 V
-11 0 R
11 0 V
124 117 R
11 0 V
20 27 R
11 0 V
-8 3 R
11 0 V
-11 0 R
11 0 V
17 24 R
11 0 V
-11 0 R
11 0 V
124 117 R
11 0 V
20 27 R
11 0 V
30.000 UL
LT6
7117 1815 M
11 0 V
-11 0 R
11 0 V
277 62 R
11 0 V
1314 432 R
11 0 V
-11 0 R
11 0 V
17 24 R
11 0 V
-11 0 R
11 0 V
124 117 R
10 0 V
21 27 R
11 0 V
-8 3 R
11 0 V
-11 0 R
11 0 V
17 24 R
11 0 V
-11 0 R
11 0 V
124 117 R
10 0 V
21 27 R
11 0 V
-8 3 R
11 0 V
-11 0 R
11 0 V
17 25 R
11 0 V
-11 0 R
11 0 V
124 117 R
11 0 V
20 27 R
11 0 V
-8 3 R
11 0 V
-11 0 R
11 0 V
17 24 R
11 0 V
-11 0 R
11 0 V
124 117 R
11 0 V
20 27 R
11 0 V
2.000 UL
LT6
1808 4267 M
3 -2 V
35 -18 V
3 -2 V
35 -18 V
4 -2 V
35 -18 V
3 -2 V
4 -2 V
15 -8 V
16 -8 V
15 -9 V
16 -8 V
7 -3 V
15 -9 V
16 -8 V
15 -8 V
16 -8 V
3 -2 V
4 -2 V
7 -3 V
7 -4 V
7 -4 V
4 -2 V
3 -2 V
7 -3 V
7 -4 V
8 -4 V
3 -2 V
4 -2 V
7 -3 V
7 -4 V
7 -4 V
4 -2 V
3 -2 V
7 -3 V
7 -4 V
8 -4 V
3 -2 V
4 -2 V
15 -8 V
16 -8 V
15 -8 V
16 -8 V
3 -2 V
4 -2 V
15 -8 V
16 -8 V
15 -8 V
15 -9 V
4 -1 V
3 -2 V
16 -8 V
15 -9 V
16 -8 V
15 -8 V
7 -4 V
32 -16 V
32 -17 V
32 -17 V
31 -16 V
4 -2 V
3 -2 V
32 -17 V
32 -16 V
32 -17 V
31 -17 V
4 -2 V
3 -2 V
32 -16 V
32 -17 V
32 -17 V
31 -16 V
4 -2 V
3 -2 V
32 -17 V
32 -17 V
32 -16 V
31 -17 V
4 -2 V
3 -2 V
32 -16 V
32 -17 V
32 -17 V
31 -16 V
4 -2 V
3 -2 V
32 -17 V
32 -17 V
31 -16 V
32 -17 V
7 -4 V
27 -14 V
7 -3 V
14 -8 V
7 -3 V
35 -19 V
8 -4 V
9 -5 V
5 -2 V
17 -9 V
4 -3 V
40 -20 V
39 -20 V
5 -2 V
stroke
3409 3426 M
39 -18 V
40 -18 V
4 -2 V
39 -17 V
40 -16 V
4 -2 V
40 -15 V
39 -14 V
5 -1 V
39 -14 V
40 -12 V
4 -2 V
39 -11 V
40 -11 V
2 -1 V
2 0 V
40 -10 V
39 -9 V
5 -1 V
39 -8 V
39 -7 V
5 -1 V
39 -7 V
40 -5 V
4 -1 V
40 -4 V
39 -4 V
4 -1 V
40 -2 V
39 -3 V
5 0 V
39 -1 V
40 0 V
4 0 V
4 0 V
5 0 V
4 0 V
5 0 V
4 0 V
9 0 V
8 0 V
35 0 V
35 0 V
9 0 V
9 0 V
4 0 V
4 0 V
5 0 V
4 0 V
5 0 V
4 0 V
39 0 V
40 0 V
4 0 V
40 0 V
39 -1 V
5 0 V
39 -1 V
39 0 V
5 -1 V
39 -1 V
40 -1 V
4 0 V
40 -2 V
39 -1 V
4 -1 V
40 -1 V
39 -3 V
3 0 V
2 0 V
39 -2 V
40 -3 V
4 0 V
40 -3 V
39 -2 V
4 -1 V
40 -3 V
39 -3 V
5 0 V
39 -4 V
40 -4 V
4 0 V
39 -4 V
40 -4 V
4 0 V
40 -4 V
39 -5 V
5 0 V
4 -1 V
4 0 V
5 -1 V
4 0 V
4 -1 V
9 -1 V
9 -1 V
35 -4 V
35 -4 V
8 -1 V
9 -1 V
5 0 V
4 -1 V
4 0 V
5 -1 V
4 0 V
stroke
5626 3136 M
4 -1 V
40 -4 V
39 -5 V
5 -1 V
39 -5 V
40 -5 V
4 -1 V
40 -5 V
39 -6 V
4 0 V
40 -6 V
39 -6 V
5 -1 V
39 -6 V
40 -6 V
4 -1 V
39 -6 V
40 -7 V
2 0 V
2 -1 V
40 -7 V
39 -7 V
5 -1 V
39 -7 V
40 -7 V
4 -1 V
39 -8 V
40 -8 V
4 -1 V
40 -8 V
39 -8 V
5 -1 V
39 -9 V
39 -8 V
5 -1 V
39 -9 V
40 -9 V
4 -1 V
5 -1 V
4 -1 V
4 -1 V
5 -1 V
4 -1 V
9 -2 V
8 -2 V
35 -8 V
35 -8 V
9 -2 V
9 -3 V
4 -1 V
4 -1 V
5 -1 V
4 -1 V
5 -1 V
4 -1 V
39 -8 V
40 -8 V
4 -1 V
40 -7 V
39 -6 V
5 -1 V
39 -5 V
40 -4 V
4 -1 V
39 -3 V
40 -3 V
4 0 V
40 -2 V
39 -1 V
5 0 V
39 0 V
39 1 V
3 0 V
2 0 V
39 2 V
40 3 V
4 0 V
40 3 V
39 5 V
4 0 V
40 6 V
39 6 V
5 0 V
39 7 V
40 8 V
4 1 V
40 9 V
39 9 V
4 1 V
40 11 V
39 11 V
5 2 V
17 5 V
5 1 V
8 3 V
9 2 V
35 11 V
1 0 V
3 1 V
4 1 V
4 1 V
3 1 V
1 1 V
4 1 V
stroke
7877 2989 M
3 1 V
1 0 V
4 1 V
3 1 V
1 0 V
4 1 V
3 1 V
1 1 V
3 1 V
4 1 V
81 24 V
4 1 V
3 1 V
1 0 V
3 1 V
4 1 V
1 1 V
2 0 V
3 1 V
4 1 V
123 37 V
3 1 V
4 1 V
55 16 V
3 1 V
4 1 V
55 17 V
4 1 V
3 1 V
123 37 V
3 1 V
4 1 V
1 0 V
2 1 V
3 1 V
4 1 V
123 36 V
3 1 V
4 1 V
55 17 V
3 1 V
4 1 V
55 16 V
4 1 V
3 1 V
123 37 V
4 1 V
3 1 V
2 0 V
1 1 V
4 1 V
3 1 V
123 37 V
3 1 V
4 1 V
55 16 V
4 1 V
3 1 V
55 17 V
4 1 V
3 1 V
123 36 V
4 1 V
3 1 V
2 1 V
1 0 V
4 1 V
3 1 V
123 37 V
3 1 V
4 1 V
55 17 V
4 1 V
3 1 V
55 16 V
4 1 V
3 1 V
123 37 V
4 1 V
3 1 V
2 0 V
1 1 V
4 1 V
3 1 V
123 36 V
4 1 V
3 1 V
55 17 V
18 5 V
30 9 V
18 5 V
70 21 V
17 5 V
70 21 V
17 5 V
1 0 V
19 6 V
3 1 V
3 1 V
12 4 V
3 1 V
3 0 V
20 6 V
3 1 V
stroke
10078 3644 M
3 1 V
21 6 V
2 1 V
3 1 V
20 6 V
3 1 V
3 1 V
26 7 V
2 1 V
3 1 V
1 0 V
6 2 V
6 2 V
6 2 V
6 1 V
6 2 V
6 2 V
6 2 V
6 2 V
6 2 V
6 1 V
1 1 V
3 1 V
2 0 V
91 28 V
3 1 V
3 1 V
3 1 V
3 1 V
101 31 V
1 1 V
1 0 V
1 0 V
3 1 V
3 1 V
1 0 V
3 1 V
2 1 V
60 19 V
3 1 V
4 1 V
3 1 V
60 18 V
3 1 V
2 1 V
1 0 V
3 1 V
3 1 V
1 0 V
1 1 V
2 0 V
23 8 V
7 2 V
3 1 V
3 0 V
1 1 V
1 0 V
2 1 V
1 0 V
2 1 V
3 1 V
83 25 V
25 8 V
26 7 V
25 7 V
26 6 V
26 6 V
25 6 V
26 5 V
25 5 V
26 4 V
26 4 V
3 0 V
3 1 V
1 0 V
5 1 V
5 0 V
5 1 V
6 1 V
5 0 V
5 1 V
5 1 V
6 0 V
5 1 V
5 0 V
1 0 V
3 1 V
2 0 V
1 0 V
6 1 V
5 0 V
5 1 V
5 0 V
5 1 V
6 0 V
5 1 V
5 0 V
5 0 V
5 1 V
1 0 V
3 0 V
3 0 V
1 0 V
5 1 V
stroke
11112 3915 M
5 0 V
5 0 V
6 1 V
5 0 V
5 0 V
5 1 V
5 0 V
6 0 V
5 1 V
1 0 V
5 0 V
5 0 V
5 1 V
5 0 V
6 0 V
5 1 V
5 0 V
5 0 V
6 0 V
5 1 V
1 0 V
5 0 V
5 0 V
5 1 V
5 0 V
6 0 V
5 0 V
5 1 V
5 0 V
5 0 V
6 0 V
1 0 V
5 0 V
5 1 V
5 0 V
5 0 V
6 0 V
5 0 V
5 1 V
5 0 V
5 0 V
6 0 V
6 0 V
5 0 V
5 1 V
5 0 V
5 0 V
6 0 V
5 0 V
5 0 V
5 0 V
5 0 V
1 1 V
6 0 V
5 0 V
5 0 V
5 0 V
5 0 V
6 0 V
5 0 V
5 0 V
5 0 V
5 0 V
1 0 V
5 0 V
6 0 V
5 0 V
5 1 V
5 0 V
6 0 V
5 0 V
5 0 V
5 0 V
5 0 V
40 0 V
7 0 V
1 0 V
1 0 V
6 0 V
6 0 V
1 0 V
7 0 V
2 0 V
1 0 V
1 0 V
1 0 V
1 0 V
4 0 V
5 0 V
12 0 V
14.000 UL
LT0
1806 4204 M
5 0 V
34 -20 R
4 0 V
34 -20 R
5 0 V
33 -20 R
5 0 V
-1 -2 R
5 0 V
60 -37 R
9 0 V
60 -34 R
5 0 V
-1 -2 R
5 0 V
20 -13 R
5 0 V
-2 -2 R
5 0 V
20 -13 R
5 0 V
-1 -2 R
5 0 V
20 -13 R
5 0 V
-2 -2 R
5 0 V
20 -13 R
5 0 V
-1 -2 R
5 0 V
60 -34 R
5 0 V
-1 -2 R
5 0 V
60 -35 R
5 0 V
-1 -1 R
4 0 V
61 -37 R
8 0 V
126 -68 R
5 0 V
-1 -2 R
4 0 V
126 -69 R
5 0 V
-2 -2 R
5 0 V
126 -68 R
5 0 V
-2 -2 R
5 0 V
126 -69 R
5 0 V
-2 -2 R
5 0 V
126 -68 R
5 0 V
-2 -2 R
5 0 V
126 -71 R
8 0 V
25 -17 R
9 0 V
12 -12 R
9 0 V
33 -23 R
10 0 V
-1 0 R
1 0 V
-1 -4 R
10 0 V
4346 3147 M
10 0 V
-2 0 R
2 0 V
-2 0 R
10 0 V
69 0 R
10 0 V
-1 0 R
1 0 V
-1 0 R
10 0 V
1046 -59 R
10 0 V
-1 0 R
1 0 V
-1 -1 R
10 0 V
68 -9 R
10 0 V
-1 0 R
1 0 V
-1 -1 R
10 0 V
6651 2894 M
10 0 V
-2 0 R
2 0 V
-2 -2 R
10 0 V
69 -19 R
10 0 V
stroke
6747 2873 M
1 0 V
-1 -2 R
10 0 V
1046 37 R
10 0 V
-1 0 R
1 0 V
-1 3 R
10 0 V
34 12 R
5 0 V
-1 0 R
1 0 V
-1 1 R
5 0 V
-1 1 R
5 0 V
-1 0 R
1 0 V
-1 1 R
4 0 V
0 1 R
5 0 V
-2 0 R
2 0 V
-2 1 R
5 0 V
0 2 R
5 0 V
-2 0 R
2 0 V
-2 1 R
5 0 V
0 1 R
5 0 V
-2 0 R
2 0 V
-2 1 R
5 0 V
-1 1 R
5 0 V
-1 0 R
1 0 V
-1 1 R
5 0 V
80 26 R
5 0 V
-2 0 R
2 0 V
-2 1 R
5 0 V
0 1 R
4 0 V
-1 0 R
1 0 V
-1 1 R
5 0 V
1 2 R
5 0 V
-1 0 R
1 0 V
-1 1 R
5 0 V
121 38 R
5 0 V
-1 0 R
1 0 V
-1 1 R
5 0 V
53 17 R
5 0 V
-1 0 R
1 0 V
-1 1 R
5 0 V
54 18 R
5 0 V
-2 0 R
2 0 V
-2 1 R
5 0 V
122 37 R
4 0 V
-1 0 R
1 0 V
-1 1 R
5 0 V
2 2 R
4 0 V
-1 0 R
1 0 V
-1 1 R
5 0 V
121 38 R
5 0 V
-1 0 R
1 0 V
-1 1 R
5 0 V
54 18 R
4 0 V
-1 0 R
1 0 V
-1 1 R
5 0 V
stroke
8650 3159 M
5 0 V
-2 0 R
2 0 V
-2 1 R
5 0 V
122 38 R
5 0 V
-2 0 R
2 0 V
-2 1 R
5 0 V
2 2 R
5 0 V
-2 0 R
2 0 V
-2 1 R
5 0 V
121 37 R
5 0 V
-1 0 R
1 0 V
-1 2 R
5 0 V
54 17 R
5 0 V
-2 0 R
2 0 V
-2 1 R
5 0 V
54 18 R
5 0 V
-2 0 R
2 0 V
-2 1 R
5 0 V
122 37 R
5 0 V
-2 0 R
2 0 V
-2 1 R
5 0 V
2 2 R
5 0 V
-2 0 R
2 0 V
-2 1 R
5 0 V
122 38 R
4 0 V
-1 0 R
1 0 V
-1 1 R
5 0 V
54 17 R
5 0 V
-2 0 R
2 0 V
-2 1 R
5 0 V
54 18 R
5 0 V
-1 0 R
1 0 V
-1 1 R
4 0 V
122 38 R
5 0 V
-2 0 R
2 0 V
-2 1 R
5 0 V
2 2 R
5 0 V
-2 0 R
2 0 V
-2 1 R
5 0 V
122 37 R
5 0 V
-2 0 R
2 0 V
-2 1 R
5 0 V
54 22 R
19 0 V
29 14 R
19 0 V
68 26 R
19 0 V
69 26 R
18 0 V
19 7 R
4 0 V
-1 1 R
4 0 V
11 4 R
4 0 V
-1 1 R
4 0 V
19 7 R
4 0 V
-1 1 R
4 0 V
19 7 R
4 0 V
stroke
10103 3592 M
4 0 V
18 7 R
5 0 V
-2 0 R
5 0 V
24 9 R
4 0 V
-1 1 R
4 0 V
60 19 R
5 0 V
-2 1 R
4 0 V
90 29 R
4 0 V
-2 1 R
5 0 V
-1 1 R
4 0 V
-1 1 R
4 0 V
103 33 R
4 0 V
-1 1 R
4 0 V
-1 1 R
5 0 V
-2 1 R
4 0 V
128 41 R
5 0 V
-2 1 R
4 0 V
0 1 R
4 0 V
-1 1 R
4 0 V
33 11 R
4 0 V
-1 1 R
4 0 V
3 3 R
4 0 V
-1 0 R
4 0 V
338 84 R
4 0 V
-1 1 R
4 0 V
52 7 R
5 0 V
-2 0 R
4 0 V
53 5 R
4 0 V
-1 0 R
4 0 V
418 13 R
7 0 V
-1 0 R
7 0 V
12 0 R
6 0 V
-1 0 R
6 0 V
14.000 UL
LT0
1806 4327 M
5 0 V
34 -21 R
4 0 V
34 -20 R
5 0 V
33 -20 R
5 0 V
-1 -2 R
5 0 V
60 -36 R
9 0 V
60 -35 R
5 0 V
-1 -2 R
5 0 V
20 -13 R
5 0 V
-2 -2 R
5 0 V
20 -13 R
5 0 V
-1 -1 R
5 0 V
20 -14 R
5 0 V
-2 -1 R
5 0 V
20 -14 R
5 0 V
-1 -1 R
5 0 V
60 -35 R
5 0 V
-1 -2 R
5 0 V
60 -34 R
5 0 V
-1 -2 R
4 0 V
61 -36 R
8 0 V
126 -69 R
5 0 V
-1 -2 R
4 0 V
126 -69 R
5 0 V
-2 -1 R
5 0 V
126 -69 R
5 0 V
-2 -2 R
5 0 V
126 -69 R
5 0 V
-2 -1 R
5 0 V
126 -69 R
5 0 V
-2 -2 R
5 0 V
126 -71 R
8 0 V
25 -17 R
9 0 V
12 -11 R
9 0 V
33 -23 R
10 0 V
-1 0 R
1 0 V
-1 -5 R
10 0 V
4346 3269 M
10 0 V
-2 0 R
2 0 V
-2 0 R
10 0 V
69 0 R
10 0 V
-1 0 R
1 0 V
-1 0 R
10 0 V
1046 -59 R
10 0 V
-1 0 R
1 0 V
-1 -1 R
10 0 V
68 -9 R
10 0 V
-1 0 R
1 0 V
-1 -1 R
10 0 V
6651 3016 M
10 0 V
-2 0 R
2 0 V
-2 -2 R
10 0 V
69 -18 R
10 0 V
stroke
6747 2996 M
1 0 V
-1 -2 R
10 0 V
1046 37 R
10 0 V
-1 0 R
1 0 V
-1 2 R
10 0 V
34 12 R
5 0 V
-1 0 R
1 0 V
-1 1 R
5 0 V
-1 1 R
5 0 V
-1 0 R
1 0 V
-1 1 R
4 0 V
0 2 R
5 0 V
-2 0 R
2 0 V
-2 1 R
5 0 V
0 1 R
5 0 V
-2 0 R
2 0 V
-2 1 R
5 0 V
0 1 R
5 0 V
-2 0 R
2 0 V
-2 1 R
5 0 V
-1 2 R
5 0 V
-1 0 R
1 0 V
-1 1 R
5 0 V
80 25 R
5 0 V
-2 0 R
2 0 V
-2 1 R
5 0 V
0 1 R
4 0 V
-1 0 R
1 0 V
-1 1 R
5 0 V
1 2 R
5 0 V
-1 0 R
1 0 V
-1 1 R
5 0 V
121 38 R
5 0 V
-1 0 R
1 0 V
-1 1 R
5 0 V
53 18 R
5 0 V
-1 0 R
1 0 V
-1 1 R
5 0 V
54 17 R
5 0 V
-2 0 R
2 0 V
-2 1 R
5 0 V
122 38 R
4 0 V
-1 0 R
1 0 V
-1 1 R
5 0 V
2 2 R
4 0 V
-1 0 R
1 0 V
-1 1 R
5 0 V
121 37 R
5 0 V
-1 0 R
1 0 V
-1 1 R
5 0 V
54 18 R
4 0 V
-1 0 R
1 0 V
-1 1 R
5 0 V
stroke
8650 3281 M
5 0 V
-2 0 R
2 0 V
-2 1 R
5 0 V
122 38 R
5 0 V
-2 0 R
2 0 V
-2 1 R
5 0 V
2 2 R
5 0 V
-2 0 R
2 0 V
-2 1 R
5 0 V
121 38 R
5 0 V
-1 0 R
1 0 V
-1 1 R
5 0 V
54 17 R
5 0 V
-2 0 R
2 0 V
-2 1 R
5 0 V
54 18 R
5 0 V
-2 0 R
2 0 V
-2 1 R
5 0 V
122 38 R
5 0 V
-2 0 R
2 0 V
-2 1 R
5 0 V
2 1 R
5 0 V
-2 0 R
2 0 V
-2 2 R
5 0 V
122 37 R
4 0 V
-1 0 R
1 0 V
-1 1 R
5 0 V
54 18 R
5 0 V
-2 0 R
2 0 V
-2 1 R
5 0 V
54 17 R
5 0 V
-1 0 R
1 0 V
-1 1 R
4 0 V
122 38 R
5 0 V
-2 0 R
2 0 V
-2 1 R
5 0 V
2 2 R
5 0 V
-2 0 R
2 0 V
-2 1 R
5 0 V
122 38 R
5 0 V
-2 0 R
2 0 V
-2 1 R
5 0 V
54 21 R
19 0 V
29 15 R
19 0 V
68 26 R
19 0 V
69 26 R
18 0 V
19 6 R
4 0 V
-1 1 R
4 0 V
11 5 R
4 0 V
-1 1 R
4 0 V
19 6 R
4 0 V
-1 1 R
4 0 V
19 7 R
4 0 V
stroke
10103 3714 M
4 0 V
18 7 R
5 0 V
-2 1 R
5 0 V
24 8 R
4 0 V
-1 1 R
4 0 V
60 20 R
5 0 V
-2 1 R
4 0 V
90 28 R
4 0 V
-2 1 R
5 0 V
-1 1 R
4 0 V
-1 1 R
4 0 V
103 33 R
4 0 V
-1 1 R
4 0 V
-1 1 R
5 0 V
-2 1 R
4 0 V
128 41 R
5 0 V
-2 1 R
4 0 V
0 1 R
4 0 V
-1 1 R
4 0 V
33 12 R
4 0 V
-1 1 R
4 0 V
3 2 R
4 0 V
-1 1 R
4 0 V
338 83 R
4 0 V
-1 1 R
4 0 V
52 7 R
5 0 V
-2 0 R
4 0 V
53 5 R
4 0 V
-1 0 R
4 0 V
418 14 R
7 0 V
-1 0 R
7 0 V
12 0 R
6 0 V
-1 0 R
6 0 V
14.000 UL
LT2
3325 3387 M
40 0 V
0 -20 R
39 0 V
5 -20 R
39 0 V
0 -18 R
40 0 V
4 -19 R
39 0 V
0 -16 R
40 0 V
4 -17 R
40 0 V
0 -14 R
39 0 V
5 -15 R
39 0 V
0 -12 R
40 0 V
4 -13 R
39 0 V
0 -11 R
40 0 V
4 -11 R
40 0 V
0 -9 R
39 0 V
5 -9 R
39 0 V
0 -8 R
39 0 V
5 -7 R
39 0 V
0 -5 R
40 0 V
4 -6 R
40 0 V
0 -3 R
39 0 V
4 -4 R
40 0 V
0 -2 R
39 0 V
5 -1 R
39 0 V
40 0 V
157 0 R
39 0 V
40 0 V
4 0 R
40 0 V
0 -1 R
39 0 V
5 -1 R
39 0 V
0 -1 R
39 0 V
5 -1 R
39 0 V
0 -1 R
40 0 V
4 -2 R
40 0 V
0 -2 R
39 0 V
4 -2 R
40 0 V
0 -2 R
39 0 V
5 -2 R
39 0 V
0 -3 R
40 0 V
4 -3 R
40 0 V
0 -3 R
39 0 V
4 -3 R
40 0 V
0 -3 R
39 0 V
5 -4 R
39 0 V
0 -4 R
40 0 V
4 -4 R
39 0 V
0 -4 R
40 0 V
4 -5 R
40 0 V
0 -4 R
39 0 V
157 -23 R
40 0 V
0 -4 R
39 0 V
5 -6 R
39 0 V
0 -5 R
40 0 V
4 -6 R
40 0 V
0 -6 R
39 0 V
stroke
5880 3036 M
40 0 V
0 -6 R
39 0 V
5 -7 R
39 0 V
0 -6 R
40 0 V
4 -7 R
39 0 V
0 -7 R
40 0 V
4 -8 R
40 0 V
0 -7 R
39 0 V
5 -8 R
39 0 V
0 -8 R
40 0 V
4 -8 R
39 0 V
0 -8 R
40 0 V
4 -9 R
40 0 V
0 -8 R
39 0 V
5 -10 R
39 0 V
0 -8 R
39 0 V
5 -10 R
39 0 V
0 -9 R
40 0 V
157 -45 R
39 0 V
0 -8 R
40 0 V
4 -8 R
40 0 V
0 -6 R
39 0 V
5 -6 R
39 0 V
0 -4 R
40 0 V
4 -4 R
39 0 V
0 -3 R
40 0 V
4 -2 R
40 0 V
0 -1 R
39 0 V
4 0 R
40 0 V
0 1 R
39 0 V
5 2 R
39 0 V
0 2 R
40 0 V
4 4 R
40 0 V
0 5 R
39 0 V
4 5 R
40 0 V
0 6 R
39 0 V
5 8 R
39 0 V
0 8 R
40 0 V
4 10 R
40 0 V
0 9 R
39 0 V
4 12 R
40 0 V
0 11 R
39 0 V
749 223 R
62 19 R
726 216 R
62 18 R
332 99 R
62 19 R
394 119 R
6 0 V
0 2 R
6 0 V
0 1 R
6 0 V
0 2 R
6 0 V
0 2 R
6 0 V
0 2 R
6 0 V
0 2 R
6 0 V
0 2 R
6 0 V
stroke
10213 3624 M
0 1 R
6 0 V
0 2 R
6 0 V
500 163 R
25 0 V
0 7 R
26 0 V
0 7 R
25 0 V
0 6 R
26 0 V
0 6 R
26 0 V
0 6 R
25 0 V
0 5 R
26 0 V
0 5 R
25 0 V
0 4 R
26 0 V
0 4 R
26 0 V
7 1 R
5 0 V
0 1 R
5 0 V
0 1 R
5 0 V
6 0 V
0 1 R
5 0 V
0 1 R
5 0 V
5 0 V
0 1 R
6 0 V
0 1 R
5 0 V
5 0 V
13 1 R
5 1 R
5 0 R
5 1 R
5 0 R
6 1 R
5 0 R
5 1 R
5 0 R
5 1 R
8 0 R
5 0 V
0 1 R
5 0 V
5 0 V
0 1 R
6 0 V
5 0 V
5 0 V
0 1 R
5 0 V
5 0 V
6 0 V
0 1 R
5 0 V
1 0 R
5 0 V
5 0 V
0 1 R
5 0 V
5 0 V
6 0 V
5 0 V
0 1 R
5 0 V
5 0 V
6 0 V
0 1 R
5 0 V
1 0 R
5 0 V
5 0 V
5 0 V
0 1 R
5 0 V
6 0 V
5 0 V
5 0 V
0 1 R
5 0 V
5 0 V
6 0 V
1 0 R
5 0 V
0 1 R
5 0 V
5 0 V
5 0 V
6 0 V
5 0 V
5 0 V
0 1 R
5 0 V
stroke
11307 3864 M
5 0 V
6 0 V
6 0 V
5 0 V
5 0 V
0 1 R
5 0 V
5 0 V
6 0 V
5 0 V
5 0 V
5 0 V
5 0 V
1 0 R
6 0 V
0 1 R
5 0 V
5 0 V
5 0 V
5 0 V
6 0 V
5 0 V
5 0 V
5 0 V
5 0 V
1 0 R
5 0 V
6 0 V
5 0 V
5 0 V
5 0 V
6 0 V
5 0 V
5 0 V
5 0 V
5 0 V
14.000 UL
LT2
3325 3509 M
40 0 V
0 -19 R
39 0 V
5 -21 R
39 0 V
0 -18 R
40 0 V
4 -19 R
39 0 V
0 -16 R
40 0 V
4 -17 R
40 0 V
0 -14 R
39 0 V
5 -15 R
39 0 V
0 -12 R
40 0 V
4 -13 R
39 0 V
0 -11 R
40 0 V
4 -11 R
40 0 V
0 -9 R
39 0 V
5 -9 R
39 0 V
0 -7 R
39 0 V
5 -7 R
39 0 V
0 -6 R
40 0 V
4 -5 R
40 0 V
0 -4 R
39 0 V
4 -3 R
40 0 V
0 -2 R
39 0 V
5 -2 R
39 0 V
40 0 V
157 1 R
39 0 V
0 -1 R
40 0 V
4 0 R
40 0 V
0 -1 R
39 0 V
5 0 R
39 0 V
0 -1 R
39 0 V
5 -2 R
39 0 V
0 -1 R
40 0 V
4 -2 R
40 0 V
0 -1 R
39 0 V
4 -2 R
40 0 V
0 -2 R
39 0 V
5 -3 R
39 0 V
0 -2 R
40 0 V
4 -3 R
40 0 V
0 -3 R
39 0 V
4 -4 R
40 0 V
0 -3 R
39 0 V
5 -4 R
39 0 V
0 -3 R
40 0 V
4 -5 R
39 0 V
0 -4 R
40 0 V
4 -4 R
40 0 V
0 -5 R
39 0 V
157 -22 R
40 0 V
0 -5 R
39 0 V
5 -6 R
39 0 V
0 -5 R
40 0 V
4 -6 R
40 0 V
stroke
5837 3165 M
39 0 V
4 -7 R
40 0 V
0 -6 R
39 0 V
5 -7 R
39 0 V
0 -6 R
40 0 V
4 -7 R
39 0 V
0 -7 R
40 0 V
4 -8 R
40 0 V
0 -7 R
39 0 V
5 -8 R
39 0 V
0 -7 R
40 0 V
4 -9 R
39 0 V
0 -8 R
40 0 V
4 -9 R
40 0 V
0 -8 R
39 0 V
5 -9 R
39 0 V
0 -9 R
39 0 V
5 -10 R
39 0 V
0 -9 R
40 0 V
157 -45 R
39 0 V
0 -8 R
40 0 V
4 -8 R
40 0 V
0 -6 R
39 0 V
5 -6 R
39 0 V
0 -4 R
40 0 V
4 -4 R
39 0 V
0 -3 R
40 0 V
4 -2 R
40 0 V
0 -1 R
39 0 V
4 0 R
40 0 V
0 1 R
39 0 V
5 2 R
39 0 V
0 3 R
40 0 V
4 4 R
40 0 V
0 4 R
39 0 V
4 6 R
40 0 V
0 6 R
39 0 V
5 7 R
39 0 V
0 8 R
40 0 V
4 10 R
40 0 V
0 10 R
39 0 V
4 11 R
40 0 V
0 11 R
39 0 V
749 223 R
62 19 R
726 216 R
62 19 R
332 99 R
62 18 R
394 119 R
6 0 V
0 2 R
6 0 V
0 2 R
6 0 V
0 2 R
6 0 V
0 1 R
6 0 V
0 2 R
6 0 V
0 2 R
6 0 V
stroke
10207 3744 M
0 2 R
6 0 V
0 2 R
6 0 V
0 2 R
6 0 V
500 162 R
25 0 V
0 7 R
26 0 V
0 7 R
25 0 V
0 7 R
26 0 V
0 6 R
26 0 V
0 5 R
25 0 V
0 5 R
26 0 V
0 5 R
25 0 V
0 4 R
26 0 V
0 4 R
26 0 V
7 2 R
5 0 V
5 0 V
0 1 R
5 0 V
0 1 R
6 0 V
5 0 V
0 1 R
5 0 V
0 1 R
5 0 V
6 0 V
0 1 R
5 0 V
5 0 V
13 2 R
5 0 R
5 1 R
5 0 R
5 1 R
6 0 R
5 1 R
5 0 R
5 0 R
5 1 R
8 1 R
5 0 V
5 0 V
0 1 R
5 0 V
6 0 V
5 0 V
0 1 R
5 0 V
5 0 V
5 0 V
0 1 R
6 0 V
5 0 V
1 0 R
5 0 V
0 1 R
5 0 V
5 0 V
5 0 V
6 0 V
0 1 R
5 0 V
5 0 V
5 0 V
0 1 R
6 0 V
5 0 V
1 0 R
5 0 V
5 0 V
0 1 R
5 0 V
5 0 V
6 0 V
5 0 V
0 1 R
5 0 V
5 0 V
5 0 V
6 0 V
1 1 R
5 0 V
5 0 V
5 0 V
5 0 V
6 0 V
0 1 R
5 0 V
5 0 V
5 0 V
5 0 V
stroke
11312 3986 M
6 0 V
6 0 V
0 1 R
5 0 V
5 0 V
5 0 V
5 0 V
6 0 V
5 0 V
5 0 V
0 1 R
5 0 V
5 0 V
1 0 R
6 0 V
5 0 V
5 0 V
5 0 V
5 0 V
6 0 V
5 0 V
5 0 V
5 0 V
5 0 V
1 1 R
5 0 V
6 0 V
5 0 V
5 0 V
5 0 V
6 0 V
5 0 V
5 0 V
5 0 V
5 0 V
30.000 UL
LT6
4970 3333 M
11 0 V
-11 0 R
11 0 V
565 -51 R
11 0 V
-11 0 R
11 0 V
2639 -59 R
11 0 V
-11 0 R
11 0 V
45 16 R
10 0 V
-10 0 R
10 0 V
259 81 R
11 0 V
-11 0 R
11 0 V
51 18 R
11 0 V
-11 0 R
11 0 V
-4 2 R
11 0 V
-11 0 R
11 0 V
45 17 R
10 0 V
-10 0 R
10 0 V
259 80 R
11 0 V
-11 0 R
11 0 V
52 19 R
10 0 V
-10 0 R
10 0 V
-4 2 R
11 0 V
-11 0 R
11 0 V
45 16 R
11 0 V
-11 0 R
11 0 V
258 81 R
11 0 V
-11 0 R
11 0 V
52 18 R
10 0 V
-10 0 R
10 0 V
-3 2 R
10 0 V
-10 0 R
10 0 V
45 17 R
11 0 V
-11 0 R
11 0 V
258 80 R
11 0 V
-11 0 R
11 0 V
52 18 R
11 0 V
-11 0 R
11 0 V
30.000 UL
LT6
4970 3058 M
11 0 V
-11 0 R
11 0 V
565 -51 R
11 0 V
-11 0 R
11 0 V
2639 -59 R
11 0 V
-11 0 R
11 0 V
45 16 R
10 0 V
-10 0 R
10 0 V
259 81 R
11 0 V
-11 0 R
11 0 V
51 18 R
11 0 V
-11 0 R
11 0 V
-4 2 R
11 0 V
-11 0 R
11 0 V
45 17 R
10 0 V
-10 0 R
10 0 V
259 80 R
11 0 V
-11 0 R
11 0 V
52 19 R
10 0 V
-10 0 R
10 0 V
-4 2 R
11 0 V
-11 0 R
11 0 V
45 16 R
11 0 V
-11 0 R
11 0 V
258 80 R
11 0 V
-11 0 R
11 0 V
52 19 R
10 0 V
-10 0 R
10 0 V
-3 2 R
10 0 V
-10 0 R
10 0 V
45 16 R
11 0 V
-11 0 R
11 0 V
258 81 R
11 0 V
-11 0 R
11 0 V
52 18 R
11 0 V
-11 0 R
11 0 V
2.000 UL
LT6
3615 3329 M
39 -15 V
5 -2 V
39 -17 V
40 -21 V
4 -3 V
39 -24 V
40 -28 V
2 -2 V
2 -1 V
40 -31 V
39 -35 V
5 -4 V
39 -37 V
39 -41 V
5 -5 V
39 -44 V
40 -47 V
4 -6 V
40 -51 V
39 -54 V
4 -6 V
40 -57 V
39 -61 V
3.000 UL
LT6
4151 2705 M
70 0 V
0 -92 V
69 0 V
0 92 V
70 0 V
0 -184 V
-209 0 V
0 184 V
1.000 UL
LTb
1479 870 M
10268 0 V
0 3822 V
-10268 0 V
0 -3822 V
1.000 UP
stroke
grestore
end
showpage
%%Trailer
%%DocumentFonts: Helvetica
%%Pages: 1
