%!PS-Adobe-2.0
%%Title: layout3TeV.eps
%%Creator: gnuplot 4.0 patchlevel 0
%%CreationDate: Thu Jun  9 15:01:34 2011
%%DocumentFonts: (atend)
%%BoundingBox: 140 50 554 1274
%%Orientation: Landscape
%%Pages: (atend)
%%EndComments
/gnudict 256 dict def
gnudict begin
/Color true def
/Solid true def
/gnulinewidth 5.000 def
/userlinewidth gnulinewidth def
/vshift -83 def
/dl {10.0 mul} def
/hpt_ 31.5 def
/vpt_ 31.5 def
/hpt hpt_ def
/vpt vpt_ def
/Rounded false def
/M {moveto} bind def
/L {lineto} bind def
/R {rmoveto} bind def
/V {rlineto} bind def
/N {newpath moveto} bind def
/C {setrgbcolor} bind def
/f {rlineto fill} bind def
/vpt2 vpt 2 mul def
/hpt2 hpt 2 mul def
/Lshow { currentpoint stroke M
  0 vshift R show } def
/Rshow { currentpoint stroke M
  dup stringwidth pop neg vshift R show } def
/Cshow { currentpoint stroke M
  dup stringwidth pop -2 div vshift R show } def
/UP { dup vpt_ mul /vpt exch def hpt_ mul /hpt exch def
  /hpt2 hpt 2 mul def /vpt2 vpt 2 mul def } def
/DL { Color {setrgbcolor Solid {pop []} if 0 setdash }
 {pop pop pop 0 setgray Solid {pop []} if 0 setdash} ifelse } def
/BL { stroke userlinewidth 2 mul setlinewidth
      Rounded { 1 setlinejoin 1 setlinecap } if } def
/AL { stroke userlinewidth 2 div setlinewidth
      Rounded { 1 setlinejoin 1 setlinecap } if } def
/UL { dup gnulinewidth mul /userlinewidth exch def
      dup 1 lt {pop 1} if 10 mul /udl exch def } def
/PL { stroke userlinewidth setlinewidth
      Rounded { 1 setlinejoin 1 setlinecap } if } def
/LTw { PL [] 1 setgray } def
/LTb { BL [] 0 0 0 DL } def
/LTa { AL [1 udl mul 2 udl mul] 0 setdash 0 0 0 setrgbcolor } def
/LT0 { PL [] 1 0 0 DL } def
/LT1 { PL [4 dl 2 dl] 0 1 0 DL } def
/LT2 { PL [2 dl 3 dl] 0 0 1 DL } def
/LT3 { PL [1 dl 1.5 dl] 1 0 1 DL } def
/LT4 { PL [5 dl 2 dl 1 dl 2 dl] 0 1 1 DL } def
/LT5 { PL [4 dl 3 dl 1 dl 3 dl] 1 1 0 DL } def
/LT6 { PL [2 dl 2 dl 2 dl 4 dl] 0 0 0 DL } def
/LT7 { PL [2 dl 2 dl 2 dl 2 dl 2 dl 4 dl] 1 0.3 0 DL } def
/LT8 { PL [2 dl 2 dl 2 dl 2 dl 2 dl 2 dl 2 dl 4 dl] 0.5 0.5 0.5 DL } def
/Pnt { stroke [] 0 setdash
   gsave 1 setlinecap M 0 0 V stroke grestore } def
/Dia { stroke [] 0 setdash 2 copy vpt add M
  hpt neg vpt neg V hpt vpt neg V
  hpt vpt V hpt neg vpt V closepath stroke
  Pnt } def
/Pls { stroke [] 0 setdash vpt sub M 0 vpt2 V
  currentpoint stroke M
  hpt neg vpt neg R hpt2 0 V stroke
  } def
/Box { stroke [] 0 setdash 2 copy exch hpt sub exch vpt add M
  0 vpt2 neg V hpt2 0 V 0 vpt2 V
  hpt2 neg 0 V closepath stroke
  Pnt } def
/Crs { stroke [] 0 setdash exch hpt sub exch vpt add M
  hpt2 vpt2 neg V currentpoint stroke M
  hpt2 neg 0 R hpt2 vpt2 V stroke } def
/TriU { stroke [] 0 setdash 2 copy vpt 1.12 mul add M
  hpt neg vpt -1.62 mul V
  hpt 2 mul 0 V
  hpt neg vpt 1.62 mul V closepath stroke
  Pnt  } def
/Star { 2 copy Pls Crs } def
/BoxF { stroke [] 0 setdash exch hpt sub exch vpt add M
  0 vpt2 neg V  hpt2 0 V  0 vpt2 V
  hpt2 neg 0 V  closepath fill } def
/TriUF { stroke [] 0 setdash vpt 1.12 mul add M
  hpt neg vpt -1.62 mul V
  hpt 2 mul 0 V
  hpt neg vpt 1.62 mul V closepath fill } def
/TriD { stroke [] 0 setdash 2 copy vpt 1.12 mul sub M
  hpt neg vpt 1.62 mul V
  hpt 2 mul 0 V
  hpt neg vpt -1.62 mul V closepath stroke
  Pnt  } def
/TriDF { stroke [] 0 setdash vpt 1.12 mul sub M
  hpt neg vpt 1.62 mul V
  hpt 2 mul 0 V
  hpt neg vpt -1.62 mul V closepath fill} def
/DiaF { stroke [] 0 setdash vpt add M
  hpt neg vpt neg V hpt vpt neg V
  hpt vpt V hpt neg vpt V closepath fill } def
/Pent { stroke [] 0 setdash 2 copy gsave
  translate 0 hpt M 4 {72 rotate 0 hpt L} repeat
  closepath stroke grestore Pnt } def
/PentF { stroke [] 0 setdash gsave
  translate 0 hpt M 4 {72 rotate 0 hpt L} repeat
  closepath fill grestore } def
/Circle { stroke [] 0 setdash 2 copy
  hpt 0 360 arc stroke Pnt } def
/CircleF { stroke [] 0 setdash hpt 0 360 arc fill } def
/C0 { BL [] 0 setdash 2 copy moveto vpt 90 450  arc } bind def
/C1 { BL [] 0 setdash 2 copy        moveto
       2 copy  vpt 0 90 arc closepath fill
               vpt 0 360 arc closepath } bind def
/C2 { BL [] 0 setdash 2 copy moveto
       2 copy  vpt 90 180 arc closepath fill
               vpt 0 360 arc closepath } bind def
/C3 { BL [] 0 setdash 2 copy moveto
       2 copy  vpt 0 180 arc closepath fill
               vpt 0 360 arc closepath } bind def
/C4 { BL [] 0 setdash 2 copy moveto
       2 copy  vpt 180 270 arc closepath fill
               vpt 0 360 arc closepath } bind def
/C5 { BL [] 0 setdash 2 copy moveto
       2 copy  vpt 0 90 arc
       2 copy moveto
       2 copy  vpt 180 270 arc closepath fill
               vpt 0 360 arc } bind def
/C6 { BL [] 0 setdash 2 copy moveto
      2 copy  vpt 90 270 arc closepath fill
              vpt 0 360 arc closepath } bind def
/C7 { BL [] 0 setdash 2 copy moveto
      2 copy  vpt 0 270 arc closepath fill
              vpt 0 360 arc closepath } bind def
/C8 { BL [] 0 setdash 2 copy moveto
      2 copy vpt 270 360 arc closepath fill
              vpt 0 360 arc closepath } bind def
/C9 { BL [] 0 setdash 2 copy moveto
      2 copy  vpt 270 450 arc closepath fill
              vpt 0 360 arc closepath } bind def
/C10 { BL [] 0 setdash 2 copy 2 copy moveto vpt 270 360 arc closepath fill
       2 copy moveto
       2 copy vpt 90 180 arc closepath fill
               vpt 0 360 arc closepath } bind def
/C11 { BL [] 0 setdash 2 copy moveto
       2 copy  vpt 0 180 arc closepath fill
       2 copy moveto
       2 copy  vpt 270 360 arc closepath fill
               vpt 0 360 arc closepath } bind def
/C12 { BL [] 0 setdash 2 copy moveto
       2 copy  vpt 180 360 arc closepath fill
               vpt 0 360 arc closepath } bind def
/C13 { BL [] 0 setdash  2 copy moveto
       2 copy  vpt 0 90 arc closepath fill
       2 copy moveto
       2 copy  vpt 180 360 arc closepath fill
               vpt 0 360 arc closepath } bind def
/C14 { BL [] 0 setdash 2 copy moveto
       2 copy  vpt 90 360 arc closepath fill
               vpt 0 360 arc } bind def
/C15 { BL [] 0 setdash 2 copy vpt 0 360 arc closepath fill
               vpt 0 360 arc closepath } bind def
/Rec   { newpath 4 2 roll moveto 1 index 0 rlineto 0 exch rlineto
       neg 0 rlineto closepath } bind def
/Square { dup Rec } bind def
/Bsquare { vpt sub exch vpt sub exch vpt2 Square } bind def
/S0 { BL [] 0 setdash 2 copy moveto 0 vpt rlineto BL Bsquare } bind def
/S1 { BL [] 0 setdash 2 copy vpt Square fill Bsquare } bind def
/S2 { BL [] 0 setdash 2 copy exch vpt sub exch vpt Square fill Bsquare } bind def
/S3 { BL [] 0 setdash 2 copy exch vpt sub exch vpt2 vpt Rec fill Bsquare } bind def
/S4 { BL [] 0 setdash 2 copy exch vpt sub exch vpt sub vpt Square fill Bsquare } bind def
/S5 { BL [] 0 setdash 2 copy 2 copy vpt Square fill
       exch vpt sub exch vpt sub vpt Square fill Bsquare } bind def
/S6 { BL [] 0 setdash 2 copy exch vpt sub exch vpt sub vpt vpt2 Rec fill Bsquare } bind def
/S7 { BL [] 0 setdash 2 copy exch vpt sub exch vpt sub vpt vpt2 Rec fill
       2 copy vpt Square fill
       Bsquare } bind def
/S8 { BL [] 0 setdash 2 copy vpt sub vpt Square fill Bsquare } bind def
/S9 { BL [] 0 setdash 2 copy vpt sub vpt vpt2 Rec fill Bsquare } bind def
/S10 { BL [] 0 setdash 2 copy vpt sub vpt Square fill 2 copy exch vpt sub exch vpt Square fill
       Bsquare } bind def
/S11 { BL [] 0 setdash 2 copy vpt sub vpt Square fill 2 copy exch vpt sub exch vpt2 vpt Rec fill
       Bsquare } bind def
/S12 { BL [] 0 setdash 2 copy exch vpt sub exch vpt sub vpt2 vpt Rec fill Bsquare } bind def
/S13 { BL [] 0 setdash 2 copy exch vpt sub exch vpt sub vpt2 vpt Rec fill
       2 copy vpt Square fill Bsquare } bind def
/S14 { BL [] 0 setdash 2 copy exch vpt sub exch vpt sub vpt2 vpt Rec fill
       2 copy exch vpt sub exch vpt Square fill Bsquare } bind def
/S15 { BL [] 0 setdash 2 copy Bsquare fill Bsquare } bind def
/D0 { gsave translate 45 rotate 0 0 S0 stroke grestore } bind def
/D1 { gsave translate 45 rotate 0 0 S1 stroke grestore } bind def
/D2 { gsave translate 45 rotate 0 0 S2 stroke grestore } bind def
/D3 { gsave translate 45 rotate 0 0 S3 stroke grestore } bind def
/D4 { gsave translate 45 rotate 0 0 S4 stroke grestore } bind def
/D5 { gsave translate 45 rotate 0 0 S5 stroke grestore } bind def
/D6 { gsave translate 45 rotate 0 0 S6 stroke grestore } bind def
/D7 { gsave translate 45 rotate 0 0 S7 stroke grestore } bind def
/D8 { gsave translate 45 rotate 0 0 S8 stroke grestore } bind def
/D9 { gsave translate 45 rotate 0 0 S9 stroke grestore } bind def
/D10 { gsave translate 45 rotate 0 0 S10 stroke grestore } bind def
/D11 { gsave translate 45 rotate 0 0 S11 stroke grestore } bind def
/D12 { gsave translate 45 rotate 0 0 S12 stroke grestore } bind def
/D13 { gsave translate 45 rotate 0 0 S13 stroke grestore } bind def
/D14 { gsave translate 45 rotate 0 0 S14 stroke grestore } bind def
/D15 { gsave translate 45 rotate 0 0 S15 stroke grestore } bind def
/DiaE { stroke [] 0 setdash vpt add M
  hpt neg vpt neg V hpt vpt neg V
  hpt vpt V hpt neg vpt V closepath stroke } def
/BoxE { stroke [] 0 setdash exch hpt sub exch vpt add M
  0 vpt2 neg V hpt2 0 V 0 vpt2 V
  hpt2 neg 0 V closepath stroke } def
/TriUE { stroke [] 0 setdash vpt 1.12 mul add M
  hpt neg vpt -1.62 mul V
  hpt 2 mul 0 V
  hpt neg vpt 1.62 mul V closepath stroke } def
/TriDE { stroke [] 0 setdash vpt 1.12 mul sub M
  hpt neg vpt 1.62 mul V
  hpt 2 mul 0 V
  hpt neg vpt -1.62 mul V closepath stroke } def
/PentE { stroke [] 0 setdash gsave
  translate 0 hpt M 4 {72 rotate 0 hpt L} repeat
  closepath stroke grestore } def
/CircE { stroke [] 0 setdash 
  hpt 0 360 arc stroke } def
/Opaque { gsave closepath 1 setgray fill grestore 0 setgray closepath } def
/DiaW { stroke [] 0 setdash vpt add M
  hpt neg vpt neg V hpt vpt neg V
  hpt vpt V hpt neg vpt V Opaque stroke } def
/BoxW { stroke [] 0 setdash exch hpt sub exch vpt add M
  0 vpt2 neg V hpt2 0 V 0 vpt2 V
  hpt2 neg 0 V Opaque stroke } def
/TriUW { stroke [] 0 setdash vpt 1.12 mul add M
  hpt neg vpt -1.62 mul V
  hpt 2 mul 0 V
  hpt neg vpt 1.62 mul V Opaque stroke } def
/TriDW { stroke [] 0 setdash vpt 1.12 mul sub M
  hpt neg vpt 1.62 mul V
  hpt 2 mul 0 V
  hpt neg vpt -1.62 mul V Opaque stroke } def
/PentW { stroke [] 0 setdash gsave
  translate 0 hpt M 4 {72 rotate 0 hpt L} repeat
  Opaque stroke grestore } def
/CircW { stroke [] 0 setdash 
  hpt 0 360 arc Opaque stroke } def
/BoxFill { gsave Rec 1 setgray fill grestore } def
/BoxColFill {
  gsave Rec
  /Fillden exch def
  currentrgbcolor
  /ColB exch def /ColG exch def /ColR exch def
  /ColR ColR Fillden mul Fillden sub 1 add def
  /ColG ColG Fillden mul Fillden sub 1 add def
  /ColB ColB Fillden mul Fillden sub 1 add def
  ColR ColG ColB setrgbcolor
  fill grestore } def
%
% PostScript Level 1 Pattern Fill routine
% Usage: x y w h s a XX PatternFill
%	x,y = lower left corner of box to be filled
%	w,h = width and height of box
%	  a = angle in degrees between lines and x-axis
%	 XX = 0/1 for no/yes cross-hatch
%
/PatternFill { gsave /PFa [ 9 2 roll ] def
    PFa 0 get PFa 2 get 2 div add PFa 1 get PFa 3 get 2 div add translate
    PFa 2 get -2 div PFa 3 get -2 div PFa 2 get PFa 3 get Rec
    gsave 1 setgray fill grestore clip
    currentlinewidth 0.5 mul setlinewidth
    /PFs PFa 2 get dup mul PFa 3 get dup mul add sqrt def
    0 0 M PFa 5 get rotate PFs -2 div dup translate
	0 1 PFs PFa 4 get div 1 add floor cvi
	{ PFa 4 get mul 0 M 0 PFs V } for
    0 PFa 6 get ne {
	0 1 PFs PFa 4 get div 1 add floor cvi
	{ PFa 4 get mul 0 2 1 roll M PFs 0 V } for
    } if
    stroke grestore } def
%
/Symbol-Oblique /Symbol findfont [1 0 .167 1 0 0] makefont
dup length dict begin {1 index /FID eq {pop pop} {def} ifelse} forall
currentdict end definefont pop
/MFshow {
   { dup 5 get 3 ge
     { 5 get 3 eq {gsave} {grestore} ifelse }
     {dup dup 0 get findfont exch 1 get scalefont setfont
     [ currentpoint ] exch dup 2 get 0 exch R dup 5 get 2 ne {dup dup 6
     get exch 4 get {show} {stringwidth pop 0 R} ifelse }if dup 5 get 0 eq
     {dup 3 get {2 get neg 0 exch R pop} {pop aload pop M} ifelse} {dup 5
     get 1 eq {dup 2 get exch dup 3 get exch 6 get stringwidth pop -2 div
     dup 0 R} {dup 6 get stringwidth pop -2 div 0 R 6 get
     show 2 index {aload pop M neg 3 -1 roll neg R pop pop} {pop pop pop
     pop aload pop M} ifelse }ifelse }ifelse }
     ifelse }
   forall} bind def
/MFwidth {0 exch {dup 3 get{dup dup 0 get findfont exch 1 get scalefont
     setfont 6 get stringwidth pop add} {pop} ifelse} forall} bind def
/MLshow { currentpoint stroke M
  0 exch R MFshow } bind def
/MRshow { currentpoint stroke M
  exch dup MFwidth neg 3 -1 roll R MFshow } def
/MCshow { currentpoint stroke M
  exch dup MFwidth -2 div 3 -1 roll R MFshow } def
end
%%EndProlog
%%Page: 1 1
gnudict begin
gsave
50 50 translate
0.100 0.100 scale
90 rotate
0 -5040 translate
0 setgray
newpath
(Helvetica) findfont 250 scalefont setfont
1.000 UL
LTb
1275 921 M
63 0 V
10477 0 R
-63 0 V
stroke
1125 921 M
[ [(Helvetica) 250.0 0.0 true true 0 (-0.6)]
] -83.3 MRshow
1.000 UL
LTb
1275 1264 M
63 0 V
10477 0 R
-63 0 V
stroke
1125 1264 M
[ [(Helvetica) 250.0 0.0 true true 0 (-0.5)]
] -83.3 MRshow
1.000 UL
LTb
1275 1606 M
63 0 V
10477 0 R
-63 0 V
stroke
1125 1606 M
[ [(Helvetica) 250.0 0.0 true true 0 (-0.4)]
] -83.3 MRshow
1.000 UL
LTb
1275 1949 M
63 0 V
10477 0 R
-63 0 V
stroke
1125 1949 M
[ [(Helvetica) 250.0 0.0 true true 0 (-0.3)]
] -83.3 MRshow
1.000 UL
LTb
1275 2291 M
63 0 V
10477 0 R
-63 0 V
stroke
1125 2291 M
[ [(Helvetica) 250.0 0.0 true true 0 (-0.2)]
] -83.3 MRshow
1.000 UL
LTb
1275 2634 M
63 0 V
10477 0 R
-63 0 V
stroke
1125 2634 M
[ [(Helvetica) 250.0 0.0 true true 0 (-0.1)]
] -83.3 MRshow
1.000 UL
LTb
1275 2977 M
63 0 V
10477 0 R
-63 0 V
stroke
1125 2977 M
[ [(Helvetica) 250.0 0.0 true true 0 ( 0)]
] -83.3 MRshow
1.000 UL
LTb
1275 3319 M
63 0 V
10477 0 R
-63 0 V
stroke
1125 3319 M
[ [(Helvetica) 250.0 0.0 true true 0 ( 0.1)]
] -83.3 MRshow
1.000 UL
LTb
1275 3662 M
63 0 V
10477 0 R
-63 0 V
stroke
1125 3662 M
[ [(Helvetica) 250.0 0.0 true true 0 ( 0.2)]
] -83.3 MRshow
1.000 UL
LTb
2673 750 M
0 63 V
0 3020 R
0 -63 V
stroke
2673 500 M
[ [(Helvetica) 250.0 0.0 true true 0 (-2500)]
] -83.3 MCshow
1.000 UL
LTb
4466 750 M
0 63 V
0 3020 R
0 -63 V
stroke
4466 500 M
[ [(Helvetica) 250.0 0.0 true true 0 (-2000)]
] -83.3 MCshow
1.000 UL
LTb
6258 750 M
0 63 V
0 3020 R
0 -63 V
stroke
6258 500 M
[ [(Helvetica) 250.0 0.0 true true 0 (-1500)]
] -83.3 MCshow
1.000 UL
LTb
8051 750 M
0 63 V
0 3020 R
0 -63 V
stroke
8051 500 M
[ [(Helvetica) 250.0 0.0 true true 0 (-1000)]
] -83.3 MCshow
1.000 UL
LTb
9843 750 M
0 63 V
0 3020 R
0 -63 V
stroke
9843 500 M
[ [(Helvetica) 250.0 0.0 true true 0 (-500)]
] -83.3 MCshow
1.000 UL
LTb
11636 750 M
0 63 V
0 3020 R
0 -63 V
stroke
11636 500 M
[ [(Helvetica) 250.0 0.0 true true 0 ( 0)]
] -83.3 MCshow
1.000 UL
LTb
1.000 UL
LTb
1275 750 M
10540 0 V
0 3083 V
-10540 0 V
0 -3083 V
LTb
250 2291 M
currentpoint gsave translate 90 rotate 0 0 moveto
[ [(Helvetica) 250.0 0.0 true true 0 (x[m])]
] -83.3 MCshow
grestore
LTb
6545 125 M
[ [(Helvetica) 250.0 0.0 true true 0 (s[m])]
] -83.3 MCshow
1.000 UP
LTb
11582 2634 M
[ [(Helvetica) 250.0 0.0 true true 0 (IP)]
] -83.3 MLshow
LTb
1777 3662 M
[ [(Helvetica) 250.0 0.0 true true 0 (Diagnostics)]
] -83.3 MLshow
LTb
4286 3662 M
[ [(Helvetica) 250.0 0.0 true true 0 (Energy collimation)]
] -83.3 MLshow
LTb
7621 3662 M
[ [(Helvetica) 250.0 0.0 true true 0 (Transverse collimation)]
] -83.3 MLshow
LTb
10524 3662 M
[ [(Helvetica) 250.0 0.0 true true 0 (Final focus)]
] -83.3 MLshow
LTb
3283 1024 M
[ [(Helvetica) 250.0 0.0 true true 0 (Tune-up dump)]
] -83.3 MLshow
LTb
3498 2737 M
[ [(Symbol) 250.0 0.0 true true 0 (a)]
[(Helvetica) 250.0 0.0 true true 0 (=0.6 mrad)]
] -83.3 MLshow
2.000 UL
LT6
1612 3357 M
4 -2 V
36 -20 V
3 -3 V
36 -20 V
4 -2 V
36 -21 V
3 -2 V
4 -2 V
16 -9 V
16 -9 V
15 -9 V
16 -9 V
8 -5 V
15 -9 V
16 -9 V
16 -9 V
16 -9 V
4 -2 V
3 -2 V
8 -5 V
7 -4 V
7 -4 V
4 -2 V
4 -2 V
7 -4 V
7 -5 V
8 -4 V
3 -2 V
4 -2 V
7 -4 V
7 -4 V
8 -5 V
3 -2 V
4 -2 V
7 -4 V
8 -4 V
7 -4 V
4 -2 V
3 -2 V
16 -10 V
16 -9 V
16 -9 V
16 -9 V
3 -2 V
4 -2 V
16 -9 V
16 -9 V
16 -10 V
16 -9 V
3 -2 V
4 -2 V
16 -9 V
16 -9 V
15 -9 V
16 -9 V
8 -4 V
32 -19 V
33 -19 V
32 -19 V
33 -18 V
3 -2 V
4 -2 V
33 -19 V
32 -19 V
33 -19 V
32 -18 V
4 -2 V
4 -2 V
32 -19 V
33 -19 V
32 -19 V
33 -18 V
3 -2 V
4 -2 V
33 -19 V
32 -19 V
33 -19 V
32 -18 V
4 -2 V
4 -3 V
32 -18 V
33 -19 V
32 -19 V
33 -18 V
3 -2 V
4 -3 V
33 -18 V
32 -19 V
33 -19 V
32 -18 V
8 -5 V
27 -15 V
7 -4 V
14 -9 V
8 -4 V
35 -20 V
9 -5 V
9 -6 V
5 -2 V
18 -10 V
4 -3 V
41 -23 V
40 -22 V
5 -2 V
stroke
3256 2415 M
40 -21 V
41 -20 V
4 -2 V
41 -19 V
40 -18 V
5 -2 V
40 -17 V
41 -16 V
4 -1 V
41 -15 V
40 -14 V
5 -2 V
40 -13 V
41 -12 V
2 0 V
2 -1 V
41 -11 V
40 -10 V
5 -1 V
40 -9 V
41 -9 V
4 0 V
41 -8 V
40 -6 V
5 0 V
40 -6 V
41 -4 V
4 0 V
41 -4 V
40 -2 V
5 0 V
40 -1 V
41 -1 V
4 0 V
5 0 V
4 0 V
5 0 V
4 0 V
5 0 V
9 0 V
9 0 V
36 1 V
36 0 V
8 0 V
9 0 V
5 0 V
4 0 V
5 0 V
4 0 V
5 0 V
4 0 V
41 0 V
40 0 V
5 0 V
40 -1 V
41 0 V
4 0 V
41 -1 V
40 -1 V
5 0 V
40 -2 V
41 -1 V
4 0 V
41 -2 V
40 -2 V
5 0 V
40 -2 V
41 -3 V
2 0 V
2 0 V
41 -3 V
40 -2 V
5 -1 V
40 -3 V
41 -3 V
4 0 V
41 -4 V
41 -3 V
4 -1 V
41 -4 V
40 -4 V
5 0 V
40 -4 V
41 -5 V
4 0 V
41 -5 V
40 -5 V
5 -1 V
4 0 V
5 -1 V
4 0 V
4 -1 V
5 0 V
9 -2 V
9 -1 V
36 -4 V
36 -5 V
9 -1 V
9 -1 V
4 0 V
4 -1 V
5 -1 V
4 0 V
5 -1 V
stroke
5532 2089 M
4 0 V
41 -5 V
40 -6 V
5 0 V
40 -6 V
41 -6 V
4 0 V
41 -6 V
40 -7 V
5 0 V
40 -7 V
41 -7 V
4 0 V
41 -7 V
41 -7 V
4 -1 V
41 -7 V
40 -8 V
2 0 V
3 -1 V
40 -8 V
41 -8 V
4 0 V
41 -9 V
40 -8 V
5 -1 V
40 -9 V
41 -8 V
4 -1 V
41 -10 V
40 -9 V
5 -1 V
40 -9 V
41 -10 V
4 -1 V
41 -10 V
40 -10 V
5 -1 V
4 -1 V
5 -2 V
4 -1 V
5 -1 V
4 -1 V
9 -2 V
9 -3 V
36 -9 V
36 -9 V
9 -2 V
9 -2 V
4 -1 V
5 -2 V
4 -1 V
4 -1 V
5 -1 V
4 -1 V
41 -10 V
40 -9 V
5 -1 V
40 -7 V
41 -7 V
4 -1 V
41 -6 V
41 -5 V
4 0 V
41 -4 V
40 -3 V
5 0 V
40 -2 V
41 -1 V
4 0 V
41 0 V
40 1 V
2 0 V
3 0 V
40 2 V
41 3 V
4 0 V
41 4 V
40 5 V
5 1 V
40 5 V
41 7 V
4 1 V
41 8 V
40 9 V
5 1 V
40 9 V
41 11 V
4 1 V
41 12 V
40 13 V
5 1 V
18 6 V
4 1 V
9 3 V
9 3 V
36 12 V
1 0 V
3 1 V
4 2 V
1 0 V
3 1 V
4 1 V
1 0 V
stroke
7839 1923 M
3 2 V
4 1 V
1 0 V
3 1 V
4 1 V
1 1 V
3 1 V
4 1 V
1 0 V
3 1 V
4 2 V
83 27 V
4 1 V
4 1 V
1 0 V
3 2 V
4 1 V
1 0 V
2 1 V
3 1 V
4 1 V
126 41 V
3 1 V
4 1 V
57 19 V
3 1 V
4 1 V
57 19 V
3 1 V
4 1 V
126 41 V
4 1 V
3 1 V
2 1 V
1 0 V
4 1 V
3 2 V
126 40 V
4 2 V
4 1 V
56 18 V
4 1 V
4 2 V
56 18 V
4 1 V
3 1 V
126 41 V
4 2 V
4 1 V
1 0 V
2 1 V
3 1 V
4 1 V
126 41 V
4 1 V
3 1 V
57 19 V
3 1 V
4 1 V
57 19 V
3 1 V
4 1 V
126 41 V
4 1 V
3 1 V
2 1 V
1 0 V
4 1 V
3 2 V
127 41 V
3 1 V
4 1 V
56 18 V
4 1 V
4 2 V
56 18 V
4 1 V
3 1 V
127 41 V
3 2 V
4 1 V
1 0 V
2 1 V
3 1 V
4 1 V
126 41 V
4 1 V
3 1 V
57 19 V
18 6 V
31 10 V
18 6 V
72 23 V
18 6 V
71 23 V
18 6 V
1 0 V
20 7 V
3 1 V
3 1 V
12 4 V
3 1 V
3 0 V
21 7 V
stroke
10099 2658 M
3 1 V
3 1 V
21 7 V
3 1 V
3 1 V
20 6 V
3 1 V
3 1 V
26 9 V
3 1 V
3 1 V
1 0 V
6 2 V
6 2 V
7 2 V
6 2 V
6 2 V
6 2 V
6 2 V
6 2 V
6 3 V
7 2 V
3 1 V
3 1 V
93 31 V
3 1 V
3 1 V
1 1 V
3 1 V
3 0 V
103 35 V
1 1 V
2 0 V
1 1 V
2 1 V
3 1 V
1 0 V
3 1 V
3 1 V
61 20 V
4 2 V
3 1 V
4 1 V
61 21 V
3 1 V
3 1 V
3 1 V
3 1 V
1 0 V
2 1 V
1 0 V
25 8 V
7 3 V
3 1 V
2 1 V
1 0 V
2 1 V
1 0 V
1 0 V
3 1 V
3 1 V
84 29 V
27 9 V
26 8 V
26 7 V
27 8 V
26 6 V
26 7 V
26 5 V
27 6 V
26 4 V
26 5 V
1 0 V
3 0 V
3 1 V
1 0 V
5 1 V
5 0 V
6 1 V
5 1 V
5 1 V
6 0 V
5 1 V
6 1 V
5 0 V
5 1 V
1 0 V
3 0 V
3 1 V
1 0 V
5 0 V
5 1 V
6 1 V
5 0 V
5 1 V
6 0 V
5 1 V
6 0 V
5 1 V
5 0 V
1 0 V
3 0 V
3 1 V
1 0 V
stroke
11158 2962 M
5 0 V
5 0 V
6 1 V
5 0 V
5 1 V
6 0 V
5 0 V
6 1 V
5 0 V
5 1 V
1 0 V
5 0 V
6 0 V
5 1 V
5 0 V
6 0 V
5 1 V
6 0 V
5 0 V
5 1 V
6 0 V
6 0 V
5 1 V
5 0 V
6 0 V
5 0 V
5 1 V
6 0 V
5 0 V
6 0 V
5 1 V
1 0 V
5 0 V
5 0 V
6 0 V
5 1 V
5 0 V
6 0 V
5 0 V
5 0 V
6 1 V
5 0 V
1 0 V
5 0 V
6 0 V
5 0 V
5 1 V
6 0 V
5 0 V
5 0 V
6 0 V
5 0 V
6 0 V
6 1 V
5 0 V
5 0 V
6 0 V
5 0 V
5 0 V
6 0 V
5 0 V
5 0 V
6 0 V
1 0 V
5 0 V
5 0 V
6 0 V
5 1 V
5 0 V
6 0 V
5 0 V
5 0 V
6 0 V
5 0 V
41 0 V
7 0 V
1 0 V
1 0 V
6 0 V
6 0 V
2 0 V
7 0 V
2 0 V
1 0 V
1 0 V
1 0 V
5 0 V
5 0 V
13 0 V
14.000 UL
LT0
1611 3304 M
5 0 V
34 -23 R
5 0 V
35 -23 R
5 0 V
34 -22 R
5 0 V
-1 -2 R
5 0 V
62 -41 R
9 0 V
62 -39 R
5 0 V
-2 -2 R
5 0 V
21 -14 R
5 0 V
-2 -2 R
6 0 V
20 -15 R
5 0 V
-1 -2 R
5 0 V
20 -15 R
5 0 V
-1 -2 R
5 0 V
21 -15 R
5 0 V
-2 -2 R
5 0 V
62 -38 R
5 0 V
-1 -2 R
5 0 V
62 -39 R
5 0 V
-1 -2 R
5 0 V
62 -41 R
9 0 V
128 -77 R
5 0 V
-1 -2 R
5 0 V
129 -77 R
5 0 V
-1 -2 R
5 0 V
128 -77 R
5 0 V
-1 -2 R
5 0 V
129 -77 R
5 0 V
-1 -2 R
5 0 V
128 -77 R
5 0 V
-1 -2 R
5 0 V
129 -79 R
9 0 V
25 -20 R
9 0 V
13 -12 R
9 0 V
34 -26 R
10 0 V
-1 0 R
1 0 V
-1 -5 R
10 0 V
4217 2119 M
11 0 V
-2 0 R
2 0 V
-2 0 R
11 0 V
70 0 R
10 0 V
-1 0 R
1 0 V
-1 0 R
10 0 V
1075 -66 R
10 0 V
-2 0 R
2 0 V
-2 -1 R
11 0 V
70 -10 R
11 0 V
-2 0 R
2 0 V
-2 -1 R
11 0 V
6584 1835 M
10 0 V
-1 0 R
1 0 V
-1 -2 R
10 0 V
70 -20 R
11 0 V
stroke
6682 1813 M
2 0 V
-2 -3 R
11 0 V
1074 42 R
10 0 V
-1 0 R
1 0 V
-1 3 R
10 0 V
35 13 R
5 0 V
-1 0 R
1 0 V
-1 1 R
5 0 V
-1 2 R
5 0 V
-1 0 R
1 0 V
-1 1 R
5 0 V
-1 1 R
5 0 V
-1 0 R
1 0 V
-1 1 R
5 0 V
-1 2 R
5 0 V
-1 0 R
1 0 V
-1 1 R
5 0 V
-1 1 R
5 0 V
-1 0 R
1 0 V
-1 2 R
5 0 V
-1 1 R
5 0 V
-1 0 R
1 0 V
-1 1 R
5 0 V
82 29 R
5 0 V
-1 0 R
1 0 V
-1 1 R
5 0 V
-1 1 R
5 0 V
-1 0 R
1 0 V
-1 1 R
5 0 V
1 2 R
5 0 V
-1 0 R
1 0 V
-1 2 R
5 0 V
124 42 R
5 0 V
-1 0 R
1 0 V
-1 1 R
5 0 V
55 20 R
5 0 V
-1 0 R
1 0 V
-1 1 R
5 0 V
55 19 R
5 0 V
-1 0 R
1 0 V
-1 1 R
5 0 V
124 43 R
6 0 V
-2 0 R
2 0 V
-2 1 R
5 0 V
2 2 R
5 0 V
-2 0 R
2 0 V
-2 1 R
5 0 V
125 42 R
5 0 V
-1 0 R
1 0 V
-1 1 R
5 0 V
55 20 R
5 0 V
-2 0 R
2 0 V
-2 1 R
6 0 V
stroke
8636 2133 M
5 0 V
-2 0 R
2 0 V
-2 1 R
5 0 V
125 42 R
5 0 V
-1 0 R
1 0 V
-1 1 R
5 0 V
1 2 R
5 0 V
-1 0 R
1 0 V
-1 2 R
5 0 V
125 42 R
5 0 V
-2 0 R
2 0 V
-2 1 R
5 0 V
55 20 R
5 0 V
-1 0 R
1 0 V
-1 1 R
5 0 V
55 19 R
5 0 V
-1 0 R
1 0 V
-1 2 R
5 0 V
125 42 R
5 0 V
-2 0 R
2 0 V
-2 1 R
5 0 V
2 2 R
5 0 V
-2 0 R
2 0 V
-2 1 R
5 0 V
125 42 R
5 0 V
-1 0 R
1 0 V
-1 1 R
5 0 V
55 20 R
5 0 V
-1 0 R
1 0 V
-1 1 R
5 0 V
55 20 R
5 0 V
-2 0 R
2 0 V
-2 1 R
5 0 V
125 42 R
5 0 V
-1 0 R
1 0 V
-1 1 R
5 0 V
1 3 R
5 0 V
-1 0 R
1 0 V
-1 1 R
5 0 V
125 42 R
5 0 V
-2 0 R
2 0 V
-2 1 R
5 0 V
56 24 R
19 0 V
30 16 R
19 0 V
70 29 R
20 0 V
70 30 R
19 0 V
20 7 R
4 0 V
-2 1 R
5 0 V
11 5 R
4 0 V
-1 1 R
4 0 V
20 8 R
4 0 V
-1 1 R
4 0 V
20 8 R
4 0 V
stroke
10127 2618 M
5 0 V
19 7 R
4 0 V
-2 1 R
5 0 V
25 10 R
4 0 V
-1 1 R
4 0 V
62 22 R
4 0 V
-1 0 R
4 0 V
92 33 R
4 0 V
-1 1 R
4 0 V
-1 1 R
5 0 V
-2 1 R
5 0 V
105 37 R
4 0 V
-1 1 R
4 0 V
0 1 R
4 0 V
-1 1 R
4 0 V
131 46 R
5 0 V
-2 1 R
5 0 V
-1 2 R
4 0 V
-1 1 R
4 0 V
34 13 R
5 0 V
-2 0 R
4 0 V
4 3 R
4 0 V
-1 1 R
4 0 V
347 94 R
4 0 V
-1 0 R
4 0 V
54 8 R
4 0 V
-1 0 R
4 0 V
54 6 R
4 0 V
-1 0 R
4 0 V
429 15 R
7 0 V
-1 0 R
7 0 V
13 0 R
6 0 V
-1 0 R
6 0 V
14.000 UL
LT0
1611 3407 M
5 0 V
34 -23 R
5 0 V
35 -23 R
5 0 V
34 -22 R
5 0 V
-1 -3 R
5 0 V
62 -40 R
9 0 V
62 -39 R
5 0 V
-2 -2 R
5 0 V
21 -15 R
5 0 V
-2 -2 R
6 0 V
20 -14 R
5 0 V
-1 -2 R
5 0 V
20 -15 R
5 0 V
-1 -2 R
5 0 V
21 -15 R
5 0 V
-2 -2 R
5 0 V
62 -39 R
5 0 V
-1 -2 R
5 0 V
62 -38 R
5 0 V
-1 -2 R
5 0 V
62 -41 R
9 0 V
128 -77 R
5 0 V
-1 -2 R
5 0 V
129 -77 R
5 0 V
-1 -2 R
5 0 V
128 -77 R
5 0 V
-1 -2 R
5 0 V
129 -77 R
5 0 V
-1 -2 R
5 0 V
128 -77 R
5 0 V
-1 -2 R
5 0 V
129 -79 R
9 0 V
25 -20 R
9 0 V
13 -12 R
9 0 V
34 -26 R
10 0 V
-1 0 R
1 0 V
-1 -5 R
10 0 V
4217 2222 M
11 0 V
-2 0 R
2 0 V
-2 0 R
11 0 V
70 0 R
10 0 V
-1 0 R
1 0 V
-1 0 R
10 0 V
1075 -66 R
10 0 V
-2 0 R
2 0 V
-2 -1 R
11 0 V
70 -10 R
11 0 V
-2 0 R
2 0 V
-2 -1 R
11 0 V
6584 1938 M
10 0 V
-1 0 R
1 0 V
-1 -2 R
10 0 V
70 -21 R
11 0 V
stroke
6682 1915 M
2 0 V
-2 -2 R
11 0 V
1074 42 R
10 0 V
-1 0 R
1 0 V
-1 3 R
10 0 V
35 13 R
5 0 V
-1 0 R
1 0 V
-1 1 R
5 0 V
-1 1 R
5 0 V
-1 0 R
1 0 V
-1 2 R
5 0 V
-1 1 R
5 0 V
-1 0 R
1 0 V
-1 1 R
5 0 V
-1 2 R
5 0 V
-1 0 R
1 0 V
-1 1 R
5 0 V
-1 1 R
5 0 V
-1 0 R
1 0 V
-1 1 R
5 0 V
-1 2 R
5 0 V
-1 0 R
1 0 V
-1 1 R
5 0 V
82 28 R
5 0 V
-1 0 R
1 0 V
-1 1 R
5 0 V
-1 2 R
5 0 V
-1 0 R
1 0 V
-1 1 R
5 0 V
1 2 R
5 0 V
-1 0 R
1 0 V
-1 1 R
5 0 V
124 43 R
5 0 V
-1 0 R
1 0 V
-1 1 R
5 0 V
55 19 R
5 0 V
-1 0 R
1 0 V
-1 1 R
5 0 V
55 20 R
5 0 V
-1 0 R
1 0 V
-1 1 R
5 0 V
124 42 R
6 0 V
-2 0 R
2 0 V
-2 2 R
5 0 V
2 2 R
5 0 V
-2 0 R
2 0 V
-2 1 R
5 0 V
125 42 R
5 0 V
-1 0 R
1 0 V
-1 1 R
5 0 V
55 20 R
5 0 V
-2 0 R
2 0 V
-2 1 R
6 0 V
stroke
8636 2236 M
5 0 V
-2 0 R
2 0 V
-2 1 R
5 0 V
125 42 R
5 0 V
-1 0 R
1 0 V
-1 1 R
5 0 V
1 2 R
5 0 V
-1 0 R
1 0 V
-1 1 R
5 0 V
125 43 R
5 0 V
-2 0 R
2 0 V
-2 1 R
5 0 V
55 19 R
5 0 V
-1 0 R
1 0 V
-1 1 R
5 0 V
55 20 R
5 0 V
-1 0 R
1 0 V
-1 1 R
5 0 V
125 42 R
5 0 V
-2 0 R
2 0 V
-2 2 R
5 0 V
2 2 R
5 0 V
-2 0 R
2 0 V
-2 1 R
5 0 V
125 42 R
5 0 V
-1 0 R
1 0 V
-1 1 R
5 0 V
55 20 R
5 0 V
-1 0 R
1 0 V
-1 1 R
5 0 V
55 20 R
5 0 V
-2 0 R
2 0 V
-2 1 R
5 0 V
125 42 R
5 0 V
-1 0 R
1 0 V
-1 1 R
5 0 V
1 2 R
5 0 V
-1 0 R
1 0 V
-1 1 R
5 0 V
125 43 R
5 0 V
-2 0 R
2 0 V
-2 1 R
5 0 V
56 24 R
19 0 V
30 16 R
19 0 V
70 29 R
20 0 V
70 29 R
19 0 V
20 8 R
4 0 V
-2 1 R
5 0 V
11 5 R
4 0 V
-1 1 R
4 0 V
20 8 R
4 0 V
-1 1 R
4 0 V
20 7 R
4 0 V
stroke
10127 2720 M
5 0 V
19 8 R
4 0 V
-2 1 R
5 0 V
25 9 R
4 0 V
-1 1 R
4 0 V
62 22 R
4 0 V
-1 1 R
4 0 V
92 33 R
4 0 V
-1 1 R
4 0 V
-1 1 R
5 0 V
-2 1 R
5 0 V
105 37 R
4 0 V
-1 1 R
4 0 V
0 1 R
4 0 V
-1 1 R
4 0 V
131 46 R
5 0 V
-2 1 R
5 0 V
-1 1 R
4 0 V
-1 1 R
4 0 V
34 13 R
5 0 V
-2 1 R
4 0 V
4 3 R
4 0 V
-1 1 R
4 0 V
347 94 R
4 0 V
-1 0 R
4 0 V
54 8 R
4 0 V
-1 0 R
4 0 V
54 6 R
4 0 V
-1 0 R
4 0 V
429 15 R
7 0 V
-1 0 R
7 0 V
13 0 R
6 0 V
-1 0 R
6 0 V
14.000 UL
LT2
3170 2388 M
41 0 V
0 -22 R
40 0 V
5 -23 R
40 0 V
0 -20 R
41 0 V
4 -21 R
41 0 V
0 -18 R
40 0 V
5 -19 R
40 0 V
0 -16 R
41 0 V
4 -17 R
41 0 V
0 -14 R
40 0 V
5 -14 R
40 0 V
0 -12 R
41 0 V
4 -13 R
41 0 V
0 -10 R
40 0 V
5 -10 R
40 0 V
0 -8 R
41 0 V
4 -8 R
41 0 V
0 -6 R
40 0 V
5 -6 R
40 0 V
0 -4 R
41 0 V
4 -4 R
41 0 V
0 -2 R
40 0 V
5 -2 R
40 0 V
41 0 V
161 0 R
41 0 V
40 0 V
5 0 R
40 0 V
0 -1 R
41 0 V
4 -1 R
41 0 V
0 -1 R
40 0 V
5 -1 R
40 0 V
0 -2 R
41 0 V
4 -1 R
41 0 V
0 -2 R
40 0 V
5 -3 R
40 0 V
0 -2 R
41 0 V
4 -3 R
41 0 V
0 -3 R
40 0 V
5 -3 R
40 0 V
0 -3 R
41 0 V
4 -4 R
41 0 V
0 -4 R
41 0 V
4 -4 R
41 0 V
0 -4 R
40 0 V
4 -5 R
41 0 V
0 -4 R
41 0 V
4 -6 R
41 0 V
0 -4 R
40 0 V
161 -26 R
41 0 V
0 -5 R
40 0 V
5 -6 R
40 0 V
0 -6 R
41 0 V
4 -7 R
41 0 V
0 -6 R
40 0 V
stroke
5793 1995 M
40 0 V
0 -7 R
41 0 V
4 -8 R
41 0 V
0 -7 R
41 0 V
4 -8 R
41 0 V
0 -7 R
40 0 V
5 -9 R
40 0 V
0 -8 R
41 0 V
4 -9 R
41 0 V
0 -8 R
40 0 V
5 -10 R
40 0 V
0 -9 R
41 0 V
4 -10 R
41 0 V
0 -9 R
40 0 V
5 -11 R
40 0 V
0 -9 R
41 0 V
4 -11 R
41 0 V
0 -11 R
40 0 V
161 -50 R
41 0 V
0 -9 R
40 0 V
5 -9 R
40 0 V
0 -7 R
41 0 V
4 -6 R
41 0 V
0 -5 R
41 0 V
4 -4 R
41 0 V
0 -3 R
40 0 V
5 -3 R
40 0 V
0 -1 R
41 0 V
4 0 R
41 0 V
0 1 R
40 0 V
5 2 R
40 0 V
0 3 R
41 0 V
4 5 R
41 0 V
0 5 R
40 0 V
5 6 R
40 0 V
0 7 R
41 0 V
4 8 R
41 0 V
0 9 R
40 0 V
5 11 R
40 0 V
0 11 R
41 0 V
4 13 R
41 0 V
0 12 R
40 0 V
768 250 R
64 21 R
746 242 R
63 21 R
341 111 R
64 20 R
404 134 R
6 0 V
0 2 R
6 0 V
0 2 R
7 0 V
0 2 R
6 0 V
0 2 R
6 0 V
0 2 R
6 0 V
0 2 R
6 0 V
0 2 R
6 0 V
stroke
10240 2653 M
0 2 R
6 0 V
0 2 R
7 0 V
512 182 R
27 0 V
0 8 R
26 0 V
0 8 R
26 0 V
0 7 R
27 0 V
0 7 R
26 0 V
0 6 R
26 0 V
0 6 R
26 0 V
0 5 R
27 0 V
0 5 R
26 0 V
0 4 R
26 0 V
8 2 R
5 0 V
0 1 R
5 0 V
0 1 R
6 0 V
5 0 V
0 1 R
5 0 V
0 1 R
6 0 V
0 1 R
5 0 V
6 0 V
0 1 R
5 0 V
0 1 R
5 0 V
13 1 R
5 1 R
6 0 R
5 1 R
5 0 R
6 1 R
5 0 R
6 1 R
5 0 R
5 1 R
8 1 R
5 0 V
5 0 V
0 1 R
6 0 V
5 0 V
5 0 V
0 1 R
6 0 V
5 0 V
6 0 V
0 1 R
5 0 V
5 0 V
1 1 R
5 0 V
6 0 V
5 0 V
0 1 R
5 0 V
6 0 V
5 0 V
0 1 R
6 0 V
5 0 V
5 0 V
0 1 R
6 0 V
6 0 V
5 0 V
5 0 V
0 1 R
6 0 V
5 0 V
5 0 V
0 1 R
6 0 V
5 0 V
6 0 V
5 0 V
1 1 R
5 0 V
5 0 V
6 0 V
5 0 V
5 0 V
0 1 R
6 0 V
5 0 V
5 0 V
6 0 V
5 0 V
stroke
11374 2922 M
1 1 R
5 0 V
6 0 V
5 0 V
5 0 V
6 0 V
5 0 V
0 1 R
5 0 V
6 0 V
5 0 V
6 0 V
6 0 V
5 0 V
5 0 V
6 0 V
0 1 R
5 0 V
5 0 V
6 0 V
5 0 V
5 0 V
6 0 V
1 0 R
5 0 V
5 0 V
6 0 V
5 0 V
5 0 V
6 0 V
5 0 V
5 0 V
6 0 V
5 0 V
14.000 UL
LT2
3170 2491 M
41 0 V
0 -22 R
40 0 V
5 -23 R
40 0 V
0 -20 R
41 0 V
4 -21 R
41 0 V
0 -18 R
40 0 V
5 -19 R
40 0 V
0 -16 R
41 0 V
4 -17 R
41 0 V
0 -14 R
40 0 V
5 -14 R
40 0 V
0 -12 R
41 0 V
4 -13 R
41 0 V
0 -10 R
40 0 V
5 -10 R
40 0 V
0 -8 R
41 0 V
4 -8 R
41 0 V
0 -6 R
40 0 V
5 -6 R
40 0 V
0 -5 R
41 0 V
4 -3 R
41 0 V
0 -3 R
40 0 V
5 -1 R
40 0 V
41 0 V
161 0 R
41 0 V
40 0 V
5 0 R
40 0 V
0 -1 R
41 0 V
4 -1 R
41 0 V
0 -1 R
40 0 V
5 -1 R
40 0 V
0 -2 R
41 0 V
4 -2 R
41 0 V
0 -2 R
40 0 V
5 -2 R
40 0 V
0 -2 R
41 0 V
4 -3 R
41 0 V
0 -3 R
40 0 V
5 -3 R
40 0 V
0 -3 R
41 0 V
4 -4 R
41 0 V
0 -4 R
41 0 V
4 -4 R
41 0 V
0 -4 R
40 0 V
4 -5 R
41 0 V
0 -4 R
41 0 V
4 -6 R
41 0 V
0 -5 R
40 0 V
161 -25 R
41 0 V
0 -5 R
40 0 V
5 -7 R
40 0 V
0 -5 R
41 0 V
4 -7 R
41 0 V
0 -6 R
40 0 V
stroke
5793 2098 M
40 0 V
0 -7 R
41 0 V
4 -8 R
41 0 V
0 -7 R
41 0 V
4 -8 R
41 0 V
0 -8 R
40 0 V
5 -8 R
40 0 V
0 -8 R
41 0 V
4 -9 R
41 0 V
0 -9 R
40 0 V
5 -9 R
40 0 V
0 -9 R
41 0 V
4 -10 R
41 0 V
0 -9 R
40 0 V
5 -11 R
40 0 V
0 -10 R
41 0 V
4 -11 R
41 0 V
0 -10 R
40 0 V
161 -50 R
41 0 V
0 -9 R
40 0 V
5 -9 R
40 0 V
0 -7 R
41 0 V
4 -6 R
41 0 V
0 -5 R
41 0 V
4 -5 R
41 0 V
0 -3 R
40 0 V
5 -2 R
40 0 V
0 -1 R
41 0 V
4 0 R
41 0 V
0 1 R
40 0 V
5 2 R
40 0 V
0 3 R
41 0 V
4 4 R
41 0 V
0 5 R
40 0 V
5 7 R
40 0 V
0 7 R
41 0 V
4 8 R
41 0 V
0 9 R
40 0 V
5 11 R
40 0 V
0 10 R
41 0 V
4 13 R
41 0 V
0 13 R
40 0 V
768 250 R
64 21 R
746 242 R
63 21 R
341 110 R
64 21 R
404 134 R
6 0 V
0 2 R
6 0 V
0 2 R
7 0 V
0 2 R
6 0 V
0 2 R
6 0 V
0 2 R
6 0 V
0 2 R
6 0 V
0 2 R
6 0 V
stroke
10240 2756 M
0 2 R
6 0 V
0 2 R
7 0 V
512 182 R
27 0 V
0 8 R
26 0 V
0 8 R
26 0 V
0 7 R
27 0 V
0 7 R
26 0 V
0 6 R
26 0 V
0 6 R
26 0 V
0 5 R
27 0 V
0 5 R
26 0 V
0 4 R
26 0 V
8 2 R
5 0 V
0 1 R
5 0 V
6 0 V
0 1 R
5 0 V
0 1 R
5 0 V
0 1 R
6 0 V
5 0 V
0 1 R
6 0 V
0 1 R
5 0 V
5 0 V
13 2 R
5 0 R
6 1 R
5 1 R
5 0 R
6 1 R
5 0 R
6 1 R
5 0 R
5 0 R
8 1 R
5 0 V
0 1 R
5 0 V
6 0 V
0 1 R
5 0 V
5 0 V
6 0 V
0 1 R
5 0 V
6 0 V
0 1 R
5 0 V
5 0 V
1 0 R
5 0 V
0 1 R
6 0 V
5 0 V
5 0 V
0 1 R
6 0 V
5 0 V
6 0 V
0 1 R
5 0 V
5 0 V
6 0 V
0 1 R
6 0 V
5 0 V
5 0 V
0 1 R
6 0 V
5 0 V
5 0 V
6 0 V
0 1 R
5 0 V
6 0 V
5 0 V
1 0 R
5 0 V
0 1 R
5 0 V
6 0 V
5 0 V
5 0 V
6 0 V
0 1 R
5 0 V
5 0 V
stroke
11363 3025 M
6 0 V
5 0 V
1 0 R
5 0 V
0 1 R
6 0 V
5 0 V
5 0 V
6 0 V
5 0 V
5 0 V
0 1 R
6 0 V
5 0 V
6 0 V
6 0 V
5 0 V
5 0 V
6 0 V
5 0 V
5 0 V
6 0 V
0 1 R
5 0 V
5 0 V
6 0 V
1 0 R
5 0 V
5 0 V
6 0 V
5 0 V
5 0 V
6 0 V
5 0 V
5 0 V
6 0 V
5 0 V
30.000 UL
LT6
4858 2259 M
12 0 V
-12 0 R
12 0 V
580 -57 R
11 0 V
-11 0 R
11 0 V
2709 -66 R
11 0 V
-11 0 R
11 0 V
46 18 R
11 0 V
-11 0 R
11 0 V
266 90 R
11 0 V
-11 0 R
11 0 V
53 21 R
11 0 V
-11 0 R
11 0 V
-4 2 R
11 0 V
-11 0 R
11 0 V
45 19 R
12 0 V
-12 0 R
12 0 V
265 90 R
11 0 V
-11 0 R
11 0 V
53 21 R
11 0 V
-11 0 R
11 0 V
-4 2 R
11 0 V
-11 0 R
11 0 V
46 18 R
11 0 V
-11 0 R
11 0 V
266 90 R
11 0 V
-11 0 R
11 0 V
53 21 R
11 0 V
-11 0 R
11 0 V
-4 2 R
11 0 V
-11 0 R
11 0 V
46 19 R
11 0 V
-11 0 R
11 0 V
265 90 R
11 0 V
-11 0 R
11 0 V
53 21 R
11 0 V
-11 0 R
11 0 V
30.000 UL
LT6
4858 2053 M
12 0 V
-12 0 R
12 0 V
580 -57 R
11 0 V
-11 0 R
11 0 V
2709 -66 R
11 0 V
-11 0 R
11 0 V
46 19 R
11 0 V
-11 0 R
11 0 V
266 90 R
11 0 V
-11 0 R
11 0 V
53 20 R
11 0 V
-11 0 R
11 0 V
-4 3 R
11 0 V
-11 0 R
11 0 V
45 18 R
12 0 V
-12 0 R
12 0 V
265 90 R
11 0 V
-11 0 R
11 0 V
53 21 R
11 0 V
-11 0 R
11 0 V
-4 2 R
11 0 V
-11 0 R
11 0 V
46 19 R
11 0 V
-11 0 R
11 0 V
266 90 R
11 0 V
-11 0 R
11 0 V
53 21 R
11 0 V
-11 0 R
11 0 V
-4 2 R
11 0 V
-11 0 R
11 0 V
46 18 R
11 0 V
-11 0 R
11 0 V
265 90 R
11 0 V
-11 0 R
11 0 V
53 21 R
11 0 V
-11 0 R
11 0 V
2.000 UL
LT6
3467 2306 M
41 -17 V
4 -2 V
41 -20 V
40 -23 V
5 -3 V
40 -27 V
41 -31 V
2 -2 V
2 -2 V
41 -35 V
40 -38 V
5 -5 V
40 -42 V
41 -45 V
4 -6 V
41 -49 V
40 -53 V
5 -7 V
40 -57 V
41 -60 V
4 -7 V
41 -64 V
40 -68 V
1.000 UL
LTa
1956 2977 M
1434 0 V
1.000 UL
LTa
3193 2977 M
-18 -137 V
-72 -137 V
-71 -103 V
3.000 UL
LT6
4018 1606 M
71 0 V
0 -102 V
72 0 V
0 102 V
72 0 V
0 -205 V
-215 0 V
0 205 V
1.000 UL
LTb
1275 750 M
10540 0 V
0 3083 V
-10540 0 V
0 -3083 V
1.000 UP
stroke
grestore
end
showpage
%%Trailer
%%DocumentFonts: Symbol Helvetica
%%Pages: 1
