%!PS-Adobe-2.0 EPSF-2.0
%%BoundingBox:  0 0 567 472
%%Title: : c1
%%Creator: ROOT Version 5.24/00
%%CreationDate: Fri Nov 26 12:20:46 2010
%%EndComments
%%BeginProlog
80 dict begin
/s {stroke} def /l {lineto} def /m {moveto} def /t {translate} def
/sw {stringwidth} def /r {rotate} def /rl {roll}  def /R {repeat} def
/d {rlineto} def /rm {rmoveto} def /gr {grestore} def /f {eofill} def
/c {setrgbcolor} def /black {0 setgray} def /sd {setdash} def
/cl {closepath} def /sf {scalefont setfont} def /lw {setlinewidth} def
/box {m dup 0 exch d exch 0 d 0 exch neg d cl} def
/NC{systemdict begin initclip end}def/C{NC box clip newpath}def
/bl {box s} def /bf {box f} def /Y { 0 exch d} def /X { 0 d} def 
/mp {newpath /y exch def /x exch def} def
/side {[w .77 mul w .23 mul] .385 w mul sd w 0 l currentpoint t -144 r} def
/mr {mp x y w2 0 360 arc} def /m24 {mr s} def /m20 {mr f} def
/mb {mp x y w2 add m w2 neg 0 d 0 w neg d w 0 d 0 w d cl} def
/mt {mp x y w2 add m w2 neg w neg d w 0 d cl} def
/m21 {mb f} def /m25 {mb s} def /m22 {mt f} def /m26{mt s} def
/m23 {mp x y w2 sub m w2 w d w neg 0 d cl f} def
/m27 {mp x y w2 add m w3 neg w2 neg d w3 w2 neg d w3 w2 d cl s} def
/m28 {mp x w2 sub y w2 sub w3 add m w3 0 d  0 w3 neg d w3 0 d 0 w3 d w3 0 d  0 w3 d w3 neg 0 d 0 w3 d w3 neg 0 d
 0 w3 neg d w3 neg 0 d cl s } def
/m29 {mp gsave x w2 sub y w2 add w3 sub m currentpoint t
 4 {side} repeat cl fill gr} def
/m30 {mp gsave x w2 sub y w2 add w3 sub m currentpoint t
 4 {side} repeat cl s gr} def
/m31 {mp x y w2 sub m 0 w d x w2 sub y m w 0 d x w2 sub y w2 add m w w neg d x w2 sub y w2
 sub m w w d s} def
/m2 {mp x y w2 sub m 0 w d x w2 sub y m w 0 d s} def
/m5 {mp x w2 sub y w2 sub m w w d x w2 sub y w2 add m w w neg d s} def
/reEncode {exch findfont dup length dict begin {1 index /FID eq  {pop pop} {def} ifelse } forall /Encoding exch def currentdict end dup /FontName get exch definefont pop } def [/Times-Bold /Times-Italic /Times-BoldItalic /Helvetica
 /Helvetica-Oblique /Helvetica-Bold /Helvetica-BoldOblique /Courier /Courier-Oblique /Courier-Bold /Courier-BoldOblique /Times-Roman /AvantGarde-Book /AvantGarde-BookOblique /AvantGarde-Demi /AvantGarde-DemiOblique /Bookman-Demi
 /Bookman-DemiItalic /Bookman-Light /Bookman-LightItalic /Helvetica-Narrow /Helvetica-Narrow-Bold /Helvetica-Narrow-BoldOblique /Helvetica-Narrow-Oblique /NewCenturySchlbk-Roman /NewCenturySchlbk-Bold
 /NewCenturySchlbk-BoldItalic /NewCenturySchlbk-Italic /Palatino-Bold /Palatino-BoldItalic /Palatino-Italic /Palatino-Roman ] {ISOLatin1Encoding reEncode } forall
/oshow {gsave [] 0 sd true charpath stroke gr} def
/stwn { /fs exch def /fn exch def /text exch def fn findfont fs sf
 text sw pop xs add /xs exch def} def
/stwb { /fs exch def /fn exch def /nbas exch def /textf exch deftextf length /tlen exch def nbas tlen gt {/nbas tlendef} iffn findfont fs sf textf dup length nbas sub nbas getinterval sw
pop neg xs add /xs exch def} def
%%EndProlog
%%BeginSetup
%%EndSetup
newpath  gsave  .25 .25 scale  gsave  0 0 t black[  ] 0 sd 3 lw 1 1 1 c 2268 1888 0 0 bf black 1 1 1 c 1795 1403 245 196 bf black 1795 1403 245 196 bl 1 1 1 c 1795 1403 245 196 bf black 1795 1403 245 196 bl 245 196 m 1795 X s[ 4 8] 0 sd 245 1599 m
 -1403 Y s 363 1599 m -1403 Y s 480 1599 m -1403 Y s 598 1599 m -1403 Y s 715 1599 m -1403 Y s 832 1599 m -1403 Y s 950 1599 m -1403 Y s 1067 1599 m -1403 Y s 1184 1599 m -1403 Y s 1302 1599 m -1403 Y s 1419 1599 m -1403 Y s 1536 1599 m -1403 Y s
 1654 1599 m -1403 Y s 1771 1599 m -1403 Y s 1888 1599 m -1403 Y s 2006 1599 m -1403 Y s 2006 1599 m -1403 Y s[  ] 0 sd 245 196 m 1403 Y s[ 4 8] 0 sd 2040 196 m -1795 X s 2040 323 m -1795 X s 2040 451 m -1795 X s 2040 578 m -1795 X s 2040 706 m
 -1795 X s 2040 833 m -1795 X s 2040 961 m -1795 X s 2040 1088 m -1795 X s 2040 1216 m -1795 X s 2040 1343 m -1795 X s 2040 1471 m -1795 X s 2040 1599 m -1795 X s[  ] 0 sd 245 196 m 1795 X s
 gsave  2268 1888 0 0 C 1192 0 t 0 r /Helvetica-Bold findfont 58.4463 sf 0 0 m (0) show NC gr 
 gsave  2268 1888 0 0 C 1061 29 t 0 r /Helvetica-Bold findfont 87.6695 sf 0 0 m (L/L) show NC gr  245 241 m -45 Y s 269 218 m -22 Y s 292 218 m -22 Y s 316 218 m -22 Y s 339 218 m -22 Y s 363 241 m -45 Y s 386 218 m -22 Y s 410 218 m -22 Y s 433 218
 m -22 Y s 457 218 m -22 Y s 480 241 m -45 Y s 504 218 m -22 Y s 527 218 m -22 Y s 551 218 m -22 Y s 574 218 m -22 Y s 598 241 m -45 Y s 621 218 m -22 Y s 644 218 m -22 Y s 668 218 m -22 Y s 691 218 m -22 Y s 715 241 m -45 Y s 738 218 m -22 Y s 762
 218 m -22 Y s 785 218 m -22 Y s 809 218 m -22 Y s 832 241 m -45 Y s 856 218 m -22 Y s 879 218 m -22 Y s 903 218 m -22 Y s 926 218 m -22 Y s 950 241 m -45 Y s 973 218 m -22 Y s 997 218 m -22 Y s 1020 218 m -22 Y s 1043 218 m -22 Y s 1067 241 m -45 Y
 s 1090 218 m -22 Y s 1114 218 m -22 Y s 1137 218 m -22 Y s 1161 218 m -22 Y s 1184 241 m -45 Y s 1208 218 m -22 Y s 1231 218 m -22 Y s 1255 218 m -22 Y s 1278 218 m -22 Y s 1302 241 m -45 Y s 1325 218 m -22 Y s 1349 218 m -22 Y s 1372 218 m -22 Y s
 1396 218 m -22 Y s 1419 241 m -45 Y s 1442 218 m -22 Y s 1466 218 m -22 Y s 1489 218 m -22 Y s 1513 218 m -22 Y s 1536 241 m -45 Y s 1560 218 m -22 Y s 1583 218 m -22 Y s 1607 218 m -22 Y s 1630 218 m -22 Y s 1654 241 m -45 Y s 1677 218 m -22 Y s
 1701 218 m -22 Y s 1724 218 m -22 Y s 1748 218 m -22 Y s 1771 241 m -45 Y s 1795 218 m -22 Y s 1818 218 m -22 Y s 1841 218 m -22 Y s 1865 218 m -22 Y s 1888 241 m -45 Y s 1912 218 m -22 Y s 1935 218 m -22 Y s 1959 218 m -22 Y s 1982 218 m -22 Y s
 2006 241 m -45 Y s 2006 241 m -45 Y s 2029 218 m -22 Y s
 gsave  2268 1888 0 0 C 225 129 t 0 r /Helvetica-Bold findfont 70.1356 sf 0 0 m (0) show NC gr 
 gsave  2268 1888 0 0 C 319 129 t 0 r /Helvetica-Bold findfont 70.1356 sf 0 0 m (0.1) show NC gr 
 gsave  2268 1888 0 0 C 430 129 t 0 r /Helvetica-Bold findfont 70.1356 sf 0 0 m (0.2) show NC gr 
 gsave  2268 1888 0 0 C 546 129 t 0 r /Helvetica-Bold findfont 70.1356 sf 0 0 m (0.3) show NC gr 
 gsave  2268 1888 0 0 C 663 129 t 0 r /Helvetica-Bold findfont 70.1356 sf 0 0 m (0.4) show NC gr 
 gsave  2268 1888 0 0 C 780 129 t 0 r /Helvetica-Bold findfont 70.1356 sf 0 0 m (0.5) show NC gr 
 gsave  2268 1888 0 0 C 897 129 t 0 r /Helvetica-Bold findfont 70.1356 sf 0 0 m (0.6) show NC gr 
 gsave  2268 1888 0 0 C 1017 129 t 0 r /Helvetica-Bold findfont 70.1356 sf 0 0 m (0.7) show NC gr 
 gsave  2268 1888 0 0 C 1134 129 t 0 r /Helvetica-Bold findfont 70.1356 sf 0 0 m (0.8) show NC gr 
 gsave  2268 1888 0 0 C 1251 129 t 0 r /Helvetica-Bold findfont 70.1356 sf 0 0 m (0.9) show NC gr 
 gsave  2268 1888 0 0 C 1403 129 t 0 r /Helvetica-Bold findfont 70.1356 sf 0 0 m (1) show NC gr 
 gsave  2268 1888 0 0 C 1490 129 t 0 r /Helvetica-Bold findfont 70.1356 sf 0 0 m (1.1) show NC gr 
 gsave  2268 1888 0 0 C 1601 129 t 0 r /Helvetica-Bold findfont 70.1356 sf 0 0 m (1.2) show NC gr 
 gsave  2268 1888 0 0 C 1721 129 t 0 r /Helvetica-Bold findfont 70.1356 sf 0 0 m (1.3) show NC gr 
 gsave  2268 1888 0 0 C 1838 129 t 0 r /Helvetica-Bold findfont 70.1356 sf 0 0 m (1.4) show NC gr 
 gsave  2268 1888 0 0 C 1955 129 t 0 r /Helvetica-Bold findfont 70.1356 sf 0 0 m (1.5) show NC gr  245 196 m 1403 Y s
 gsave  2268 1888 0 0 C 79 1058 t 90 r /Helvetica-Bold findfont 87.6695 sf 0 0 m ( > axis value ) show NC gr 
 gsave  2268 1888 0 0 C 108 1026 t 90 r /Helvetica-Bold findfont 58.4463 sf 0 0 m (0) show NC gr 
 gsave  2268 1888 0 0 C 79 213 t 90 r /Helvetica-Bold findfont 87.6695 sf 0 0 m (% machine with L/L) show NC gr  296 196 m -51 X s 271 221 m -26 X s 271 247 m -26 X s 271 272 m -26 X s 271 298 m -26 X s 296 323 m -51 X s 271 349 m -26 X s 271 374 m
 -26 X s 271 400 m -26 X s 271 425 m -26 X s 296 451 m -51 X s 271 476 m -26 X s 271 502 m -26 X s 271 527 m -26 X s 271 553 m -26 X s 296 578 m -51 X s 271 604 m -26 X s 271 629 m -26 X s 271 655 m -26 X s 271 680 m -26 X s 296 706 m -51 X s 271
 731 m -26 X s 271 757 m -26 X s 271 782 m -26 X s 271 808 m -26 X s 296 833 m -51 X s 271 859 m -26 X s 271 884 m -26 X s 271 910 m -26 X s 271 935 m -26 X s 296 961 m -51 X s 271 986 m -26 X s 271 1012 m -26 X s 271 1037 m -26 X s 271 1063 m -26 X
 s 296 1088 m -51 X s 271 1114 m -26 X s 271 1139 m -26 X s 271 1165 m -26 X s 271 1190 m -26 X s 296 1216 m -51 X s 271 1241 m -26 X s 271 1267 m -26 X s 271 1292 m -26 X s 271 1318 m -26 X s 296 1343 m -51 X s 271 1369 m -26 X s 271 1394 m -26 X s
 271 1420 m -26 X s 271 1445 m -26 X s 296 1471 m -51 X s 271 1496 m -26 X s 271 1522 m -26 X s 271 1547 m -26 X s 271 1573 m -26 X s 296 1599 m -51 X s
 gsave  2268 1888 0 0 C 196 169 t 0 r /Helvetica-Bold findfont 70.1356 sf 0 0 m (0) show NC gr 
 gsave  2268 1888 0 0 C 158 298 t 0 r /Helvetica-Bold findfont 70.1356 sf 0 0 m (10) show NC gr 
 gsave  2268 1888 0 0 C 158 427 t 0 r /Helvetica-Bold findfont 70.1356 sf 0 0 m (20) show NC gr 
 gsave  2268 1888 0 0 C 158 552 t 0 r /Helvetica-Bold findfont 70.1356 sf 0 0 m (30) show NC gr 
 gsave  2268 1888 0 0 C 158 681 t 0 r /Helvetica-Bold findfont 70.1356 sf 0 0 m (40) show NC gr 
 gsave  2268 1888 0 0 C 158 809 t 0 r /Helvetica-Bold findfont 70.1356 sf 0 0 m (50) show NC gr 
 gsave  2268 1888 0 0 C 158 935 t 0 r /Helvetica-Bold findfont 70.1356 sf 0 0 m (60) show NC gr 
 gsave  2268 1888 0 0 C 158 1064 t 0 r /Helvetica-Bold findfont 70.1356 sf 0 0 m (70) show NC gr 
 gsave  2268 1888 0 0 C 158 1192 t 0 r /Helvetica-Bold findfont 70.1356 sf 0 0 m (80) show NC gr 
 gsave  2268 1888 0 0 C 158 1318 t 0 r /Helvetica-Bold findfont 70.1356 sf 0 0 m (90) show NC gr 
 gsave  2268 1888 0 0 C 120 1447 t 0 r /Helvetica-Bold findfont 70.1356 sf 0 0 m (100) show NC gr 
 gsave  2268 1888 0 0 C 123 1572 t 0 r /Helvetica-Bold findfont 70.1356 sf 0 0 m (110) show NC gr  6 lw 245 1473 m 316 X 12 -15 d 198 X 12 -11 d 94 X 11 -12 d 24 X 11 -26 d 12 X 12 -27 d 73 X 12 -11 d 35 X 11 -12 d 12 -15 d 35 X 12 -11 d 11 -15 d 12
 -12 d 12 -11 d 12 X 11 -65 d 24 X 11 -11 d 12 X 12 -27 d 11 X 12 -26 d 23 X 12 -64 d 23 X 12 -12 d 12 -26 d 12 -12 d 11 -26 d 12 -38 d 12 -65 d 11 -26 d 24 X 11 -23 d 12 -76 d 12 -53 d 11 -11 d 12 -15 d 12 -12 d 12 -11 d 11 -15 d 12 -50 d 12 X 11
 -14 d 12 -24 d 12 -38 d 11 -38 d 12 -41 d 12 -23 d 11 X 12 -38 d 12 -53 d 11 -38 d 12 -11 d 12 -15 d 12 -23 d 11 -38 d 12 -15 d 15 -12 d 11 X 12 -14 d 105 X s 1 0 1 c black 1 0 1 c 245 1471 m 364 X 12 -13 d 211 X 12 -13 d 117 X 12 -12 d 12 X 12 -13
 d 11 -13 d 12 X 12 -13 d 11 -12 d 130 X 11 -13 d 12 X 12 -13 d 11 -13 d 12 -12 d 12 X 12 -26 d 11 -13 d 12 X 12 -12 d 12 -13 d 11 -38 d 24 X 12 -13 d 11 X 12 -38 d 12 -13 d 12 X 11 -13 d 12 -13 d 12 -12 d 11 -26 d 24 X 12 -25 d 11 -39 d 12 -25 d 12
 -51 d 12 -26 d 11 X 12 -63 d 12 -26 d 12 -25 d 11 -64 d 12 -26 d 12 -51 d 11 -76 d 36 X 11 -38 d 12 -26 d 12 -102 d 12 -13 d 11 -25 d 12 -89 d 12 -39 d 12 -25 d 11 -13 d 12 -13 d 12 X 12 -12 d 11 -13 d 71 X s 0 0 1 c black 0 0 1 c 245 1471 m 364 X
 12 -13 d 235 X 11 -13 d 130 X 11 -12 d 12 -26 d 35 X 12 -13 d 47 X 12 -12 d 117 X 12 -13 d 11 X 12 -13 d 35 X 12 -38 d 12 -26 d 12 -38 d 11 -13 d 12 X 12 -12 d 12 -26 d 11 -13 d 24 X 11 -25 d 12 -26 d 24 X 11 -12 d 12 -26 d 12 -13 d 12 -38 d 11 -38
 d 12 -38 d 12 -51 d 12 -64 d 11 -26 d 12 -25 d 12 -26 d 11 -51 d 12 -63 d 12 -39 d 12 -12 d 11 -51 d 12 -39 d 12 -51 d 12 -76 d 11 -64 d 12 -13 d 12 -12 d 12 -51 d 11 -26 d 12 -38 d 106 X s 0 1 1 c black 0 1 1 c 245 1471 m 376 X 12 -13 d 234 X 12
 -13 d 153 X 11 -12 d 12 -13 d 12 -13 d 59 X 11 -13 d 12 X 12 -12 d 117 X 12 -13 d 35 X 12 -26 d 12 X 11 -12 d 12 -39 d 12 -12 d 12 X 11 -13 d 12 -38 d 12 -26 d 11 -13 d 12 -12 d 12 -13 d 12 X 11 -13 d 12 -25 d 12 -13 d 12 X 11 -38 d 12 -13 d 12 -51
 d 12 -13 d 11 -64 d 12 -51 d 12 -63 d 11 -51 d 12 -51 d 12 -51 d 12 -26 d 11 -25 d 12 -51 d 12 -64 d 12 -38 d 11 -39 d 12 -76 d 12 -38 d 12 -39 d 11 -38 d 12 X 12 -25 d 12 -13 d 82 X s black 3 lw 1 1 1 c 1797 263 243 1607 bf black 243 1607 m 1797 X
 s 2040 1607 m 263 Y s 2040 1870 m -1797 X s 243 1870 m -263 Y s
 gsave  2268 1888 0 0 C 690 1821 t 0 r /Helvetica-Bold findfont 55.524 sf 0 0 m (tuning) show NC gr  6 lw 310 1837 m 314 X s
 gsave  2268 1888 0 0 C 1292 1750 t 0 r /Helvetica-Bold findfont 55.524 sf 0 0 m ( iter) show NC gr 
 gsave  2268 1888 0 0 C 1257 1780 t 0 r /Helvetica-Bold findfont 37.9901 sf 0 0 m (st) show NC gr 
 gsave  2268 1888 0 0 C 690 1750 t 0 r /Helvetica-Bold findfont 55.524 sf 0 0 m (tuning + H&V knobs 1) show NC gr  1 0 1 c 310 1772 m 314 X s black
 gsave  2268 1888 0 0 C 1309 1683 t 0 r /Helvetica-Bold findfont 55.524 sf 0 0 m ( iter) show NC gr 
 gsave  2268 1888 0 0 C 1262 1712 t 0 r /Helvetica-Bold findfont 37.9901 sf 0 0 m (nd) show NC gr 
 gsave  2268 1888 0 0 C 690 1683 t 0 r /Helvetica-Bold findfont 55.524 sf 0 0 m (tuning + H&V knobs 2) show NC gr  0 0 1 c 310 1706 m 314 X s black
 gsave  2268 1888 0 0 C 1303 1619 t 0 r /Helvetica-Bold findfont 55.524 sf 0 0 m ( iter) show NC gr 
 gsave  2268 1888 0 0 C 1265 1648 t 0 r /Helvetica-Bold findfont 37.9901 sf 0 0 m (rd) show NC gr 
 gsave  2268 1888 0 0 C 690 1619 t 0 r /Helvetica-Bold findfont 55.524 sf 0 0 m (tuning + H&V knobs 3) show NC gr  0 1 1 c 310 1640 m 314 X s
 gr  gr 
showpage
end
%%EOF
