%!PS-Adobe-2.0 EPSF-2.0
%%Title: kocttestKdectest.ps
%%Creator: gnuplot 4.4 patchlevel 0
%%CreationDate: Thu Sep  2 17:20:09 2010
%%DocumentFonts: (atend)
%%BoundingBox: 86 50 446 302
%%EndComments
%%BeginProlog
/gnudict 256 dict def
gnudict begin
%
% The following true/false flags may be edited by hand if desired.
% The unit line width and grayscale image gamma correction may also be changed.
%
/Color true def
/Blacktext false def
/Solid true def
/Dashlength 1 def
/Landscape false def
/Level1 false def
/Rounded false def
/ClipToBoundingBox false def
/TransparentPatterns false def
/gnulinewidth 10.000 def
/userlinewidth gnulinewidth def
/Gamma 1.0 def
%
/vshift -46 def
/dl1 {
  10.0 Dashlength mul mul
  Rounded { currentlinewidth 0.75 mul sub dup 0 le { pop 0.01 } if } if
} def
/dl2 {
  10.0 Dashlength mul mul
  Rounded { currentlinewidth 0.75 mul add } if
} def
/hpt_ 31.5 def
/vpt_ 31.5 def
/hpt hpt_ def
/vpt vpt_ def
Level1 {} {
/SDict 10 dict def
systemdict /pdfmark known not {
  userdict /pdfmark systemdict /cleartomark get put
} if
SDict begin [
  /Title (kocttestKdectest.ps)
  /Subject (gnuplot plot)
  /Creator (gnuplot 4.4 patchlevel 0)
  /Author (jvazny)
%  /Producer (gnuplot)
%  /Keywords ()
  /CreationDate (Thu Sep  2 17:20:09 2010)
  /DOCINFO pdfmark
end
} ifelse
/doclip {
  ClipToBoundingBox {
    newpath 86 50 moveto 446 50 lineto 446 302 lineto 86 302 lineto closepath
    clip
  } if
} def
%
% Gnuplot Prolog Version 4.4 (January 2010)
%
%/SuppressPDFMark true def
%
/M {moveto} bind def
/L {lineto} bind def
/R {rmoveto} bind def
/V {rlineto} bind def
/N {newpath moveto} bind def
/Z {closepath} bind def
/C {setrgbcolor} bind def
/f {rlineto fill} bind def
/Gshow {show} def   % May be redefined later in the file to support UTF-8
/vpt2 vpt 2 mul def
/hpt2 hpt 2 mul def
/Lshow {currentpoint stroke M 0 vshift R 
	Blacktext {gsave 0 setgray show grestore} {show} ifelse} def
/Rshow {currentpoint stroke M dup stringwidth pop neg vshift R
	Blacktext {gsave 0 setgray show grestore} {show} ifelse} def
/Cshow {currentpoint stroke M dup stringwidth pop -2 div vshift R 
	Blacktext {gsave 0 setgray show grestore} {show} ifelse} def
/UP {dup vpt_ mul /vpt exch def hpt_ mul /hpt exch def
  /hpt2 hpt 2 mul def /vpt2 vpt 2 mul def} def
/DL {Color {setrgbcolor Solid {pop []} if 0 setdash}
 {pop pop pop 0 setgray Solid {pop []} if 0 setdash} ifelse} def
/BL {stroke userlinewidth 2 mul setlinewidth
	Rounded {1 setlinejoin 1 setlinecap} if} def
/AL {stroke userlinewidth 2 div setlinewidth
	Rounded {1 setlinejoin 1 setlinecap} if} def
/UL {dup gnulinewidth mul /userlinewidth exch def
	dup 1 lt {pop 1} if 10 mul /udl exch def} def
/PL {stroke userlinewidth setlinewidth
	Rounded {1 setlinejoin 1 setlinecap} if} def
% Default Line colors
/LCw {1 1 1} def
/LCb {0 0 0} def
/LCa {0 0 0} def
/LC0 {1 0 0} def
/LC1 {0 1 0} def
/LC2 {0 0 1} def
/LC3 {1 0 1} def
/LC4 {0 1 1} def
/LC5 {1 1 0} def
/LC6 {0 0 0} def
/LC7 {1 0.3 0} def
/LC8 {0.5 0.5 0.5} def
% Default Line Types
/LTw {PL [] 1 setgray} def
/LTb {BL [] LCb DL} def
/LTa {AL [1 udl mul 2 udl mul] 0 setdash LCa setrgbcolor} def
/LT0 {PL [] LC0 DL} def
/LT1 {PL [4 dl1 2 dl2] LC1 DL} def
/LT2 {PL [2 dl1 3 dl2] LC2 DL} def
/LT3 {PL [1 dl1 1.5 dl2] LC3 DL} def
/LT4 {PL [6 dl1 2 dl2 1 dl1 2 dl2] LC4 DL} def
/LT5 {PL [3 dl1 3 dl2 1 dl1 3 dl2] LC5 DL} def
/LT6 {PL [2 dl1 2 dl2 2 dl1 6 dl2] LC6 DL} def
/LT7 {PL [1 dl1 2 dl2 6 dl1 2 dl2 1 dl1 2 dl2] LC7 DL} def
/LT8 {PL [2 dl1 2 dl2 2 dl1 2 dl2 2 dl1 2 dl2 2 dl1 4 dl2] LC8 DL} def
/Pnt {stroke [] 0 setdash gsave 1 setlinecap M 0 0 V stroke grestore} def
/Dia {stroke [] 0 setdash 2 copy vpt add M
  hpt neg vpt neg V hpt vpt neg V
  hpt vpt V hpt neg vpt V closepath stroke
  Pnt} def
/Pls {stroke [] 0 setdash vpt sub M 0 vpt2 V
  currentpoint stroke M
  hpt neg vpt neg R hpt2 0 V stroke
 } def
/Box {stroke [] 0 setdash 2 copy exch hpt sub exch vpt add M
  0 vpt2 neg V hpt2 0 V 0 vpt2 V
  hpt2 neg 0 V closepath stroke
  Pnt} def
/Crs {stroke [] 0 setdash exch hpt sub exch vpt add M
  hpt2 vpt2 neg V currentpoint stroke M
  hpt2 neg 0 R hpt2 vpt2 V stroke} def
/TriU {stroke [] 0 setdash 2 copy vpt 1.12 mul add M
  hpt neg vpt -1.62 mul V
  hpt 2 mul 0 V
  hpt neg vpt 1.62 mul V closepath stroke
  Pnt} def
/Star {2 copy Pls Crs} def
/BoxF {stroke [] 0 setdash exch hpt sub exch vpt add M
  0 vpt2 neg V hpt2 0 V 0 vpt2 V
  hpt2 neg 0 V closepath fill} def
/TriUF {stroke [] 0 setdash vpt 1.12 mul add M
  hpt neg vpt -1.62 mul V
  hpt 2 mul 0 V
  hpt neg vpt 1.62 mul V closepath fill} def
/TriD {stroke [] 0 setdash 2 copy vpt 1.12 mul sub M
  hpt neg vpt 1.62 mul V
  hpt 2 mul 0 V
  hpt neg vpt -1.62 mul V closepath stroke
  Pnt} def
/TriDF {stroke [] 0 setdash vpt 1.12 mul sub M
  hpt neg vpt 1.62 mul V
  hpt 2 mul 0 V
  hpt neg vpt -1.62 mul V closepath fill} def
/DiaF {stroke [] 0 setdash vpt add M
  hpt neg vpt neg V hpt vpt neg V
  hpt vpt V hpt neg vpt V closepath fill} def
/Pent {stroke [] 0 setdash 2 copy gsave
  translate 0 hpt M 4 {72 rotate 0 hpt L} repeat
  closepath stroke grestore Pnt} def
/PentF {stroke [] 0 setdash gsave
  translate 0 hpt M 4 {72 rotate 0 hpt L} repeat
  closepath fill grestore} def
/Circle {stroke [] 0 setdash 2 copy
  hpt 0 360 arc stroke Pnt} def
/CircleF {stroke [] 0 setdash hpt 0 360 arc fill} def
/C0 {BL [] 0 setdash 2 copy moveto vpt 90 450 arc} bind def
/C1 {BL [] 0 setdash 2 copy moveto
	2 copy vpt 0 90 arc closepath fill
	vpt 0 360 arc closepath} bind def
/C2 {BL [] 0 setdash 2 copy moveto
	2 copy vpt 90 180 arc closepath fill
	vpt 0 360 arc closepath} bind def
/C3 {BL [] 0 setdash 2 copy moveto
	2 copy vpt 0 180 arc closepath fill
	vpt 0 360 arc closepath} bind def
/C4 {BL [] 0 setdash 2 copy moveto
	2 copy vpt 180 270 arc closepath fill
	vpt 0 360 arc closepath} bind def
/C5 {BL [] 0 setdash 2 copy moveto
	2 copy vpt 0 90 arc
	2 copy moveto
	2 copy vpt 180 270 arc closepath fill
	vpt 0 360 arc} bind def
/C6 {BL [] 0 setdash 2 copy moveto
	2 copy vpt 90 270 arc closepath fill
	vpt 0 360 arc closepath} bind def
/C7 {BL [] 0 setdash 2 copy moveto
	2 copy vpt 0 270 arc closepath fill
	vpt 0 360 arc closepath} bind def
/C8 {BL [] 0 setdash 2 copy moveto
	2 copy vpt 270 360 arc closepath fill
	vpt 0 360 arc closepath} bind def
/C9 {BL [] 0 setdash 2 copy moveto
	2 copy vpt 270 450 arc closepath fill
	vpt 0 360 arc closepath} bind def
/C10 {BL [] 0 setdash 2 copy 2 copy moveto vpt 270 360 arc closepath fill
	2 copy moveto
	2 copy vpt 90 180 arc closepath fill
	vpt 0 360 arc closepath} bind def
/C11 {BL [] 0 setdash 2 copy moveto
	2 copy vpt 0 180 arc closepath fill
	2 copy moveto
	2 copy vpt 270 360 arc closepath fill
	vpt 0 360 arc closepath} bind def
/C12 {BL [] 0 setdash 2 copy moveto
	2 copy vpt 180 360 arc closepath fill
	vpt 0 360 arc closepath} bind def
/C13 {BL [] 0 setdash 2 copy moveto
	2 copy vpt 0 90 arc closepath fill
	2 copy moveto
	2 copy vpt 180 360 arc closepath fill
	vpt 0 360 arc closepath} bind def
/C14 {BL [] 0 setdash 2 copy moveto
	2 copy vpt 90 360 arc closepath fill
	vpt 0 360 arc} bind def
/C15 {BL [] 0 setdash 2 copy vpt 0 360 arc closepath fill
	vpt 0 360 arc closepath} bind def
/Rec {newpath 4 2 roll moveto 1 index 0 rlineto 0 exch rlineto
	neg 0 rlineto closepath} bind def
/Square {dup Rec} bind def
/Bsquare {vpt sub exch vpt sub exch vpt2 Square} bind def
/S0 {BL [] 0 setdash 2 copy moveto 0 vpt rlineto BL Bsquare} bind def
/S1 {BL [] 0 setdash 2 copy vpt Square fill Bsquare} bind def
/S2 {BL [] 0 setdash 2 copy exch vpt sub exch vpt Square fill Bsquare} bind def
/S3 {BL [] 0 setdash 2 copy exch vpt sub exch vpt2 vpt Rec fill Bsquare} bind def
/S4 {BL [] 0 setdash 2 copy exch vpt sub exch vpt sub vpt Square fill Bsquare} bind def
/S5 {BL [] 0 setdash 2 copy 2 copy vpt Square fill
	exch vpt sub exch vpt sub vpt Square fill Bsquare} bind def
/S6 {BL [] 0 setdash 2 copy exch vpt sub exch vpt sub vpt vpt2 Rec fill Bsquare} bind def
/S7 {BL [] 0 setdash 2 copy exch vpt sub exch vpt sub vpt vpt2 Rec fill
	2 copy vpt Square fill Bsquare} bind def
/S8 {BL [] 0 setdash 2 copy vpt sub vpt Square fill Bsquare} bind def
/S9 {BL [] 0 setdash 2 copy vpt sub vpt vpt2 Rec fill Bsquare} bind def
/S10 {BL [] 0 setdash 2 copy vpt sub vpt Square fill 2 copy exch vpt sub exch vpt Square fill
	Bsquare} bind def
/S11 {BL [] 0 setdash 2 copy vpt sub vpt Square fill 2 copy exch vpt sub exch vpt2 vpt Rec fill
	Bsquare} bind def
/S12 {BL [] 0 setdash 2 copy exch vpt sub exch vpt sub vpt2 vpt Rec fill Bsquare} bind def
/S13 {BL [] 0 setdash 2 copy exch vpt sub exch vpt sub vpt2 vpt Rec fill
	2 copy vpt Square fill Bsquare} bind def
/S14 {BL [] 0 setdash 2 copy exch vpt sub exch vpt sub vpt2 vpt Rec fill
	2 copy exch vpt sub exch vpt Square fill Bsquare} bind def
/S15 {BL [] 0 setdash 2 copy Bsquare fill Bsquare} bind def
/D0 {gsave translate 45 rotate 0 0 S0 stroke grestore} bind def
/D1 {gsave translate 45 rotate 0 0 S1 stroke grestore} bind def
/D2 {gsave translate 45 rotate 0 0 S2 stroke grestore} bind def
/D3 {gsave translate 45 rotate 0 0 S3 stroke grestore} bind def
/D4 {gsave translate 45 rotate 0 0 S4 stroke grestore} bind def
/D5 {gsave translate 45 rotate 0 0 S5 stroke grestore} bind def
/D6 {gsave translate 45 rotate 0 0 S6 stroke grestore} bind def
/D7 {gsave translate 45 rotate 0 0 S7 stroke grestore} bind def
/D8 {gsave translate 45 rotate 0 0 S8 stroke grestore} bind def
/D9 {gsave translate 45 rotate 0 0 S9 stroke grestore} bind def
/D10 {gsave translate 45 rotate 0 0 S10 stroke grestore} bind def
/D11 {gsave translate 45 rotate 0 0 S11 stroke grestore} bind def
/D12 {gsave translate 45 rotate 0 0 S12 stroke grestore} bind def
/D13 {gsave translate 45 rotate 0 0 S13 stroke grestore} bind def
/D14 {gsave translate 45 rotate 0 0 S14 stroke grestore} bind def
/D15 {gsave translate 45 rotate 0 0 S15 stroke grestore} bind def
/DiaE {stroke [] 0 setdash vpt add M
  hpt neg vpt neg V hpt vpt neg V
  hpt vpt V hpt neg vpt V closepath stroke} def
/BoxE {stroke [] 0 setdash exch hpt sub exch vpt add M
  0 vpt2 neg V hpt2 0 V 0 vpt2 V
  hpt2 neg 0 V closepath stroke} def
/TriUE {stroke [] 0 setdash vpt 1.12 mul add M
  hpt neg vpt -1.62 mul V
  hpt 2 mul 0 V
  hpt neg vpt 1.62 mul V closepath stroke} def
/TriDE {stroke [] 0 setdash vpt 1.12 mul sub M
  hpt neg vpt 1.62 mul V
  hpt 2 mul 0 V
  hpt neg vpt -1.62 mul V closepath stroke} def
/PentE {stroke [] 0 setdash gsave
  translate 0 hpt M 4 {72 rotate 0 hpt L} repeat
  closepath stroke grestore} def
/CircE {stroke [] 0 setdash 
  hpt 0 360 arc stroke} def
/Opaque {gsave closepath 1 setgray fill grestore 0 setgray closepath} def
/DiaW {stroke [] 0 setdash vpt add M
  hpt neg vpt neg V hpt vpt neg V
  hpt vpt V hpt neg vpt V Opaque stroke} def
/BoxW {stroke [] 0 setdash exch hpt sub exch vpt add M
  0 vpt2 neg V hpt2 0 V 0 vpt2 V
  hpt2 neg 0 V Opaque stroke} def
/TriUW {stroke [] 0 setdash vpt 1.12 mul add M
  hpt neg vpt -1.62 mul V
  hpt 2 mul 0 V
  hpt neg vpt 1.62 mul V Opaque stroke} def
/TriDW {stroke [] 0 setdash vpt 1.12 mul sub M
  hpt neg vpt 1.62 mul V
  hpt 2 mul 0 V
  hpt neg vpt -1.62 mul V Opaque stroke} def
/PentW {stroke [] 0 setdash gsave
  translate 0 hpt M 4 {72 rotate 0 hpt L} repeat
  Opaque stroke grestore} def
/CircW {stroke [] 0 setdash 
  hpt 0 360 arc Opaque stroke} def
/BoxFill {gsave Rec 1 setgray fill grestore} def
/Density {
  /Fillden exch def
  currentrgbcolor
  /ColB exch def /ColG exch def /ColR exch def
  /ColR ColR Fillden mul Fillden sub 1 add def
  /ColG ColG Fillden mul Fillden sub 1 add def
  /ColB ColB Fillden mul Fillden sub 1 add def
  ColR ColG ColB setrgbcolor} def
/BoxColFill {gsave Rec PolyFill} def
/PolyFill {gsave Density fill grestore grestore} def
/h {rlineto rlineto rlineto gsave closepath fill grestore} bind def
%
% PostScript Level 1 Pattern Fill routine for rectangles
% Usage: x y w h s a XX PatternFill
%	x,y = lower left corner of box to be filled
%	w,h = width and height of box
%	  a = angle in degrees between lines and x-axis
%	 XX = 0/1 for no/yes cross-hatch
%
/PatternFill {gsave /PFa [ 9 2 roll ] def
  PFa 0 get PFa 2 get 2 div add PFa 1 get PFa 3 get 2 div add translate
  PFa 2 get -2 div PFa 3 get -2 div PFa 2 get PFa 3 get Rec
  gsave 1 setgray fill grestore clip
  currentlinewidth 0.5 mul setlinewidth
  /PFs PFa 2 get dup mul PFa 3 get dup mul add sqrt def
  0 0 M PFa 5 get rotate PFs -2 div dup translate
  0 1 PFs PFa 4 get div 1 add floor cvi
	{PFa 4 get mul 0 M 0 PFs V} for
  0 PFa 6 get ne {
	0 1 PFs PFa 4 get div 1 add floor cvi
	{PFa 4 get mul 0 2 1 roll M PFs 0 V} for
 } if
  stroke grestore} def
%
/languagelevel where
 {pop languagelevel} {1} ifelse
 2 lt
	{/InterpretLevel1 true def}
	{/InterpretLevel1 Level1 def}
 ifelse
%
% PostScript level 2 pattern fill definitions
%
/Level2PatternFill {
/Tile8x8 {/PaintType 2 /PatternType 1 /TilingType 1 /BBox [0 0 8 8] /XStep 8 /YStep 8}
	bind def
/KeepColor {currentrgbcolor [/Pattern /DeviceRGB] setcolorspace} bind def
<< Tile8x8
 /PaintProc {0.5 setlinewidth pop 0 0 M 8 8 L 0 8 M 8 0 L stroke} 
>> matrix makepattern
/Pat1 exch def
<< Tile8x8
 /PaintProc {0.5 setlinewidth pop 0 0 M 8 8 L 0 8 M 8 0 L stroke
	0 4 M 4 8 L 8 4 L 4 0 L 0 4 L stroke}
>> matrix makepattern
/Pat2 exch def
<< Tile8x8
 /PaintProc {0.5 setlinewidth pop 0 0 M 0 8 L
	8 8 L 8 0 L 0 0 L fill}
>> matrix makepattern
/Pat3 exch def
<< Tile8x8
 /PaintProc {0.5 setlinewidth pop -4 8 M 8 -4 L
	0 12 M 12 0 L stroke}
>> matrix makepattern
/Pat4 exch def
<< Tile8x8
 /PaintProc {0.5 setlinewidth pop -4 0 M 8 12 L
	0 -4 M 12 8 L stroke}
>> matrix makepattern
/Pat5 exch def
<< Tile8x8
 /PaintProc {0.5 setlinewidth pop -2 8 M 4 -4 L
	0 12 M 8 -4 L 4 12 M 10 0 L stroke}
>> matrix makepattern
/Pat6 exch def
<< Tile8x8
 /PaintProc {0.5 setlinewidth pop -2 0 M 4 12 L
	0 -4 M 8 12 L 4 -4 M 10 8 L stroke}
>> matrix makepattern
/Pat7 exch def
<< Tile8x8
 /PaintProc {0.5 setlinewidth pop 8 -2 M -4 4 L
	12 0 M -4 8 L 12 4 M 0 10 L stroke}
>> matrix makepattern
/Pat8 exch def
<< Tile8x8
 /PaintProc {0.5 setlinewidth pop 0 -2 M 12 4 L
	-4 0 M 12 8 L -4 4 M 8 10 L stroke}
>> matrix makepattern
/Pat9 exch def
/Pattern1 {PatternBgnd KeepColor Pat1 setpattern} bind def
/Pattern2 {PatternBgnd KeepColor Pat2 setpattern} bind def
/Pattern3 {PatternBgnd KeepColor Pat3 setpattern} bind def
/Pattern4 {PatternBgnd KeepColor Landscape {Pat5} {Pat4} ifelse setpattern} bind def
/Pattern5 {PatternBgnd KeepColor Landscape {Pat4} {Pat5} ifelse setpattern} bind def
/Pattern6 {PatternBgnd KeepColor Landscape {Pat9} {Pat6} ifelse setpattern} bind def
/Pattern7 {PatternBgnd KeepColor Landscape {Pat8} {Pat7} ifelse setpattern} bind def
} def
%
%
%End of PostScript Level 2 code
%
/PatternBgnd {
  TransparentPatterns {} {gsave 1 setgray fill grestore} ifelse
} def
%
% Substitute for Level 2 pattern fill codes with
% grayscale if Level 2 support is not selected.
%
/Level1PatternFill {
/Pattern1 {0.250 Density} bind def
/Pattern2 {0.500 Density} bind def
/Pattern3 {0.750 Density} bind def
/Pattern4 {0.125 Density} bind def
/Pattern5 {0.375 Density} bind def
/Pattern6 {0.625 Density} bind def
/Pattern7 {0.875 Density} bind def
} def
%
% Now test for support of Level 2 code
%
Level1 {Level1PatternFill} {Level2PatternFill} ifelse
%
/Symbol-Oblique /Symbol findfont [1 0 .167 1 0 0] makefont
dup length dict begin {1 index /FID eq {pop pop} {def} ifelse} forall
currentdict end definefont pop
/MFshow {
   { dup 5 get 3 ge
     { 5 get 3 eq {gsave} {grestore} ifelse }
     {dup dup 0 get findfont exch 1 get scalefont setfont
     [ currentpoint ] exch dup 2 get 0 exch R dup 5 get 2 ne {dup dup 6
     get exch 4 get {Gshow} {stringwidth pop 0 R} ifelse }if dup 5 get 0 eq
     {dup 3 get {2 get neg 0 exch R pop} {pop aload pop M} ifelse} {dup 5
     get 1 eq {dup 2 get exch dup 3 get exch 6 get stringwidth pop -2 div
     dup 0 R} {dup 6 get stringwidth pop -2 div 0 R 6 get
     show 2 index {aload pop M neg 3 -1 roll neg R pop pop} {pop pop pop
     pop aload pop M} ifelse }ifelse }ifelse }
     ifelse }
   forall} def
/Gswidth {dup type /stringtype eq {stringwidth} {pop (n) stringwidth} ifelse} def
/MFwidth {0 exch { dup 5 get 3 ge { 5 get 3 eq { 0 } { pop } ifelse }
 {dup 3 get{dup dup 0 get findfont exch 1 get scalefont setfont
     6 get Gswidth pop add} {pop} ifelse} ifelse} forall} def
/MLshow { currentpoint stroke M
  0 exch R
  Blacktext {gsave 0 setgray MFshow grestore} {MFshow} ifelse } bind def
/MRshow { currentpoint stroke M
  exch dup MFwidth neg 3 -1 roll R
  Blacktext {gsave 0 setgray MFshow grestore} {MFshow} ifelse } bind def
/MCshow { currentpoint stroke M
  exch dup MFwidth -2 div 3 -1 roll R
  Blacktext {gsave 0 setgray MFshow grestore} {MFshow} ifelse } bind def
/XYsave    { [( ) 1 2 true false 3 ()] } bind def
/XYrestore { [( ) 1 2 true false 4 ()] } bind def
end
%%EndProlog
gnudict begin
gsave
doclip
50 50 translate
0.050 0.050 scale
0 setgray
newpath
(Times-Roman) findfont 140 scalefont setfont
gsave % colour palette begin
/maxcolors 0 def
/HSV2RGB {  exch dup 0.0 eq {pop exch pop dup dup} % achromatic gray
  { /HSVs exch def /HSVv exch def 6.0 mul dup floor dup 3 1 roll sub
     /HSVf exch def /HSVi exch cvi def /HSVp HSVv 1.0 HSVs sub mul def
	 /HSVq HSVv 1.0 HSVs HSVf mul sub mul def 
	 /HSVt HSVv 1.0 HSVs 1.0 HSVf sub mul sub mul def
	 /HSVi HSVi 6 mod def 0 HSVi eq {HSVv HSVt HSVp}
	 {1 HSVi eq {HSVq HSVv HSVp}{2 HSVi eq {HSVp HSVv HSVt}
	 {3 HSVi eq {HSVp HSVq HSVv}{4 HSVi eq {HSVt HSVp HSVv}
	 {HSVv HSVp HSVq} ifelse} ifelse} ifelse} ifelse} ifelse
  } ifelse} def
/Constrain {
  dup 0 lt {0 exch pop}{dup 1 gt {1 exch pop} if} ifelse} def
/YIQ2RGB {
  3 copy -1.702 mul exch -1.105 mul add add Constrain 4 1 roll
  3 copy -0.647 mul exch -0.272 mul add add Constrain 5 1 roll
  0.621 mul exch -0.956 mul add add Constrain 3 1 roll } def
/CMY2RGB {  1 exch sub exch 1 exch sub 3 2 roll 1 exch sub 3 1 roll exch } def
/XYZ2RGB {  3 copy -0.9017 mul exch -0.1187 mul add exch 0.0585 mul exch add
  Constrain 4 1 roll 3 copy -0.0279 mul exch 1.999 mul add exch
  -0.9844 mul add Constrain 5 1 roll -0.2891 mul exch -0.5338 mul add
  exch 1.91 mul exch add Constrain 3 1 roll} def
/SelectSpace {ColorSpace (HSV) eq {HSV2RGB}{ColorSpace (XYZ) eq {
  XYZ2RGB}{ColorSpace (CMY) eq {CMY2RGB}{ColorSpace (YIQ) eq {YIQ2RGB}
  if} ifelse} ifelse} ifelse} def
/InterpolatedColor false def
/cF7 {sqrt} bind def	% sqrt(x)
/cF5 {dup dup mul mul} bind def	% x^3
/cF15 {360 mul sin} bind def	% sin(360x)
/pm3dround {maxcolors 0 gt {dup 1 ge
	{pop 1} {maxcolors mul floor maxcolors 1 sub div} ifelse} if} def
/pm3dGamma 1.0 1.5 Gamma mul div def
/ColorSpace (RGB) def
Color InterpolatedColor or { % COLOUR vs. GRAY map
  InterpolatedColor { %% Interpolation vs. RGB-Formula
    /g {stroke pm3dround /grayv exch def interpolate
        SelectSpace setrgbcolor} bind def
  }{
  /g {stroke pm3dround dup cF7 Constrain exch dup cF5 Constrain exch cF15 Constrain 
       SelectSpace setrgbcolor} bind def
  } ifelse
}{
  /g {stroke pm3dround pm3dGamma exp setgray} bind def
} ifelse
1.000 UL
LTb
1.000 UL
LTb
1601 1249 M
3292 2356 L
6219 1717 M
3292 2356 L
1601 1249 M
0 2214 V
1926 1178 M
42 27 V
stroke
1451 1117 M
[ [(Times-Roman) 140.0 0.0 true true 0 (-2000)]
] -46.7 MCshow
1.000 UL
LTb
1.000 UL
LTb
3617 2285 M
-42 -27 V
2577 1036 M
41 27 V
stroke
2102 975 M
[ [(Times-Roman) 140.0 0.0 true true 0 (-1000)]
] -46.7 MCshow
1.000 UL
LTb
1.000 UL
LTb
4267 2143 M
-42 -27 V
3228 894 M
41 27 V
stroke
2753 833 M
[ [(Times-Roman) 140.0 0.0 true true 0 (0)]
] -46.7 MCshow
1.000 UL
LTb
1.000 UL
LTb
4918 2001 M
-42 -27 V
3879 751 M
40 28 V
stroke
3404 691 M
[ [(Times-Roman) 140.0 0.0 true true 0 (1000)]
] -46.7 MCshow
1.000 UL
LTb
1.000 UL
LTb
5569 1859 M
-42 -27 V
4528 609 M
42 28 V
stroke
4054 549 M
[ [(Times-Roman) 140.0 0.0 true true 0 (2000)]
] -46.7 MCshow
1.000 UL
LTb
1.000 UL
LTb
6219 1717 M
-41 -27 V
4528 609 M
-54 12 V
stroke
4853 583 M
[ [(Times-Roman) 140.0 0.0 true true 0 (14440000)]
] -46.7 MCshow
1.000 UL
LTb
1.000 UL
LTb
1601 1249 M
54 -12 V
5092 978 M
-54 12 V
stroke
5417 952 M
[ [(Times-Roman) 140.0 0.0 true true 0 (14460000)]
] -46.7 MCshow
1.000 UL
LTb
1.000 UL
LTb
2164 1618 M
55 -12 V
5656 1348 M
-55 12 V
stroke
5981 1321 M
[ [(Times-Roman) 140.0 0.0 true true 0 (14480000)]
] -46.7 MCshow
1.000 UL
LTb
1.000 UL
LTb
2728 1987 M
54 -12 V
6219 1717 M
-54 12 V
stroke
6544 1690 M
[ [(Times-Roman) 140.0 0.0 true true 0 (14500000)]
] -46.7 MCshow
1.000 UL
LTb
1.000 UL
LTb
3292 2356 M
54 -11 V
1601 1987 M
63 0 V
stroke
1475 1987 M
[ [(Times-Roman) 140.0 0.0 true true 0 (3.5)]
] -46.7 MRshow
1.000 UL
LTb
1.000 UL
LTb
1601 2725 M
63 0 V
stroke
1475 2725 M
[ [(Times-Roman) 140.0 0.0 true true 0 (4.0)]
] -46.7 MRshow
1.000 UL
LTb
1.000 UL
LTb
1601 3463 M
63 0 V
stroke
1475 3463 M
[ [(Times-Roman) 140.0 0.0 true true 0 (4.5)]
] -46.7 MRshow
1.000 UL
LTb
LCb setrgbcolor
793 2885 M
currentpoint gsave translate 90 rotate 0 0 moveto
[ [(Times-Roman) 140.0 0.0 true true 0 (L [10)]
[(Times-Roman) 112.0 70.0 true true 0 (34)]
[(Times-Roman) 140.0 0.0 true true 0 ( cm)]
[(Times-Roman) 112.0 70.0 true true 0 (-2)]
[(Times-Roman) 140.0 0.0 true true 0 ( s)]
[(Times-Roman) 112.0 70.0 true true 0 (-1)]
[(Times-Roman) 140.0 0.0 true true 0 (])]
] -60.7 MCshow
grestore
LTb
1.000 UP
% Begin plot #1
1.000 UL
LT0
%pm3d_map_begin
.4566 g 3177 3720 N -282 -580 122 -15 282 -44 h
.63 g 3055 3643 N -282 44 122 77 282 -44 h
.4633 g 2933 2841 N -282 44 122 151 282 607 h
.4641 g 2811 3485 N -282 -607 122 8 282 -45 h
.6328 g 2689 3405 N -282 45 122 80 282 -45 h
.4641 g 2567 2601 N -282 45 122 152 282 607 h
.4633 g 2445 3243 N -282 -607 122 9 282 -44 h
.63 g 2322 3160 N -282 44 123 83 282 -44 h
.4566 g 2200 2361 N -282 44 122 175 282 580 h
.6338 g 3459 3676 N -283 -69 123 68 282 -14 h
.6569 g 3337 3599 N -282 14 122 80 282 -17 h
.6407 g 3215 3448 N -282 17 122 88 282 46 h
.641 g 3093 3440 N -282 -46 122 72 282 -18 h
.6581 g 2971 3360 N -282 18 122 80 282 -18 h
.641 g 2849 3208 N -282 18 122 88 282 46 h
.6407 g 2727 3199 N -282 -46 122 72 282 -17 h
.6569 g 2604 3116 N -282 17 123 80 282 -14 h
.6338 g 2482 2941 N -282 14 122 92 282 69 h
.7503 g 3741 3662 N -282 -264 123 346 282 -14 h
.6961 g 3619 3582 N -282 14 122 82 282 -16 h
.7507 g 3497 3494 N -282 16 122 -188 282 260 h
.7503 g 3375 3422 N -282 -260 122 350 282 -18 h
.6949 g 3253 3342 N -282 18 122 80 282 -18 h
.7503 g 3131 3254 N -282 18 122 -190 282 260 h
.7507 g 3009 3182 N -282 -260 122 348 282 -16 h
.6961 g 2886 3102 N -282 16 122 78 283 -14 h
.7503 g 2764 3010 N -283 14 123 -186 282 264 h
.8075 g 4023 3648 N -282 194 123 184 282 -32 h
.7279 g 3901 3566 N -282 32 122 84 282 -34 h
.8002 g 3779 3754 N -282 34 122 1 282 -223 h
.7993 g 3657 3404 N -282 223 122 161 282 -34 h
.7248 g 3535 3324 N -282 34 122 80 282 -34 h
.7993 g 3413 3514 N -282 34 122 -1 282 -223 h
.8002 g 3291 3166 N -282 223 122 159 282 -34 h
.7279 g 3169 3088 N -282 34 122 76 282 -32 h
.8075 g 3046 3274 N -282 32 123 -24 282 -194 h
.7852 g 4305 3616 N -282 64 122 182 283 -62 h
.74 g 4183 3532 N -283 62 123 83 282 -61 h
.7716 g 4061 3531 N -282 61 122 3 282 -63 h
.7705 g 3939 3370 N -282 63 122 160 282 -62 h
.7363 g 3817 3290 N -282 62 122 80 282 -62 h
.7705 g 3695 3291 N -282 62 122 0 282 -63 h
.7716 g 3573 3132 N -282 63 122 157 282 -61 h
.74 g 3451 3056 N -282 61 122 77 282 -62 h
.7852 g 3328 3080 N -282 62 123 -22 282 -64 h
.8028 g 4588 3554 N -282 -52 122 323 282 -89 h
.7286 g 4465 3471 N -282 89 123 82 282 -88 h
.7957 g 4343 3468 N -282 88 122 -165 282 80 h
.7948 g 4221 3308 N -282 -80 122 327 282 -87 h
.7255 g 4099 3228 N -282 87 122 80 282 -87 h
.7948 g 3977 3228 N -282 87 122 -167 282 80 h
.7957 g 3855 3071 N -282 -80 122 325 282 -88 h
.7286 g 3733 2994 N -282 88 122 78 282 -89 h
.8028 g 3610 3016 N -282 89 122 -163 283 52 h
.7488 g 4870 3465 N -282 359 122 70 282 -106 h
.6989 g 4747 3383 N -282 106 123 80 282 -104 h
.749 g 4625 3548 N -282 104 122 86 282 -355 h
.7486 g 4503 3221 N -282 355 122 74 282 -102 h
.6977 g 4381 3141 N -282 102 122 80 282 -102 h
.7486 g 4259 3308 N -282 102 122 86 282 -355 h
.749 g 4137 2983 N -282 355 122 74 282 -104 h
.6989 g 4015 2905 N -282 104 122 80 282 -106 h
.7488 g 3893 3068 N -282 106 122 90 282 -359 h
.6428 g 5152 3359 N -282 178 122 -4 282 -104 h
.6631 g 5029 3279 N -282 104 122 78 283 -102 h
.6488 g 4907 3193 N -283 102 123 143 282 -159 h
.6491 g 4785 3119 N -282 159 122 16 282 -101 h
.664 g 4663 3039 N -282 101 122 80 282 -101 h
.6491 g 4541 2953 N -282 101 122 144 282 -159 h
.6488 g 4419 2879 N -282 159 122 17 282 -102 h
.6631 g 4297 2799 N -282 102 122 82 282 -104 h
.6428 g 4175 2709 N -282 104 122 164 282 -178 h
.4822 g 5434 3255 N -282 644 122 -569 282 -79 h
.6384 g 5312 3177 N -282 79 122 77 282 -78 h
.4882 g 5189 3034 N -282 78 123 732 282 -667 h
.4889 g 5067 3018 N -282 667 122 -574 282 -77 h
.6409 g 4945 2938 N -282 77 122 80 282 -77 h
.4889 g 4823 2794 N -282 77 122 734 282 -667 h
.4882 g 4701 2777 N -282 667 122 -572 282 -78 h
.6384 g 4579 2695 N -282 78 122 83 282 -79 h
.4822 g 4457 2531 N -282 79 122 729 282 -644 h
%pm3d_map_end
1.000 UL
LT0
LTb
6618 4556 M
[ [(Times-Roman) 140.0 0.0 true true 0 (     4.2)]
] -46.7 MRshow
LT1
6702 4556 M
399 0 V
4823 1528 M
-299 -23 V
-278 64 V
-283 62 V
-285 58 V
-97 111 V
302 24 V
279 -63 V
282 -62 V
284 -61 V
95 -110 V
4456 1288 M
-299 -24 V
-280 63 V
-282 61 V
-284 61 V
-96 111 V
301 23 V
278 -64 V
280 -62 V
286 -59 V
96 -110 V
731 481 R
-298 -25 V
-289 57 V
-283 61 V
-276 66 V
-92 111 V
139 -990 R
-92 110 V
-274 66 V
-282 62 V
-289 57 V
-300 -25 V
stroke
LTb
6618 4416 M
[ [(Times-Roman) 140.0 0.0 true true 0 (       4)]
] -46.7 MRshow
LT2
6702 4416 M
399 0 V
2837 1877 M
340 11 V
-146 117 V
2470 1637 M
341 11 V
-146 117 V
888 361 R
-350 -9 V
2454 1406 M
-155 119 V
3446 41 R
-147 113 V
5379 1326 M
-138 111 V
323 10 V
5012 1086 M
-138 111 V
324 10 V
4832 968 M
-333 -9 V
stroke
LTb
6618 4276 M
[ [(Times-Roman) 140.0 0.0 true true 0 (     3.8)]
] -46.7 MRshow
LT3
6702 4276 M
399 0 V
2887 1910 M
165 5 V
-71 57 V
2520 1670 M
166 5 V
-71 57 V
809 422 R
-171 -4 V
2325 1434 M
-76 58 V
3551 110 R
-59 46 V
5434 1362 M
-56 45 V
131 4 V
5068 1122 M
-56 45 V
130 4 V
4776 931 M
-134 -3 V
% End plot #1
stroke
LTb
6219 1717 M
4528 609 L
1601 1249 M
4528 609 L
stroke
LCb setrgbcolor
2559 513 M
[ [(Times-Roman) 140.0 0.0 true true 0 (kocttest [T/m)]
[(Times-Roman) 112.0 70.0 true true 0 (3)]
[(Times-Roman) 140.0 0.0 true true 0 (])]
] -60.7 MCshow
LTb
LCb setrgbcolor
6291 864 M
[ [(Times-Roman) 140.0 0.0 true true 0 (kdectest [T/m)]
[(Times-Roman) 112.0 70.0 true true 0 (4)]
[(Times-Roman) 140.0 0.0 true true 0 (])]
] -60.7 MCshow
LTb
LCb setrgbcolor
793 2885 M
currentpoint gsave translate 90 rotate 0 0 moveto
[ [(Times-Roman) 140.0 0.0 true true 0 (L [10)]
[(Times-Roman) 112.0 70.0 true true 0 (34)]
[(Times-Roman) 140.0 0.0 true true 0 ( cm)]
[(Times-Roman) 112.0 70.0 true true 0 (-2)]
[(Times-Roman) 140.0 0.0 true true 0 ( s)]
[(Times-Roman) 112.0 70.0 true true 0 (-1)]
[(Times-Roman) 140.0 0.0 true true 0 (])]
] -60.7 MCshow
grestore
LTb
stroke gsave	%% draw gray scale smooth box
maxcolors 0 gt {/imax maxcolors def} {/imax 1024 def} ifelse
6307 2213 translate 234 1648 scale 0 setlinewidth
/ystep 1 imax div def /y0 0 def /ii 0 def
{ y0 g 0 y0 N 1 0 V 0 ystep V -1 0 f
/y0 y0 ystep add def /ii ii 1 add def
ii imax ge {exit} if } loop
grestore 0 setgray
1.000 UL
LTb
6307 2213 N
234 0 V
0 1648 V
-234 0 V
0 -1648 V
Z stroke
1.000 UL
LTb
1.000 UL
LTb
6541 2213 M
-63 0 V
stroke
6625 2213 M
[ [(Times-Roman) 140.0 0.0 true true 0 ( 3.6)]
] -46.7 MLshow
1.000 UL
LTb
6307 2213 M
63 0 V
171 206 R
-63 0 V
stroke
6625 2419 M
[ [(Times-Roman) 140.0 0.0 true true 0 ( 3.7)]
] -46.7 MLshow
1.000 UL
LTb
6307 2419 M
63 0 V
171 206 R
-63 0 V
stroke
6625 2625 M
[ [(Times-Roman) 140.0 0.0 true true 0 ( 3.8)]
] -46.7 MLshow
1.000 UL
LTb
6307 2625 M
63 0 V
171 206 R
-63 0 V
stroke
6625 2831 M
[ [(Times-Roman) 140.0 0.0 true true 0 ( 3.9)]
] -46.7 MLshow
1.000 UL
LTb
6307 2831 M
63 0 V
171 205 R
-63 0 V
stroke
6625 3036 M
[ [(Times-Roman) 140.0 0.0 true true 0 ( 4)]
] -46.7 MLshow
1.000 UL
LTb
6307 3036 M
63 0 V
171 206 R
-63 0 V
stroke
6625 3242 M
[ [(Times-Roman) 140.0 0.0 true true 0 ( 4.1)]
] -46.7 MLshow
1.000 UL
LTb
6307 3242 M
63 0 V
171 206 R
-63 0 V
stroke
6625 3448 M
[ [(Times-Roman) 140.0 0.0 true true 0 ( 4.2)]
] -46.7 MLshow
1.000 UL
LTb
6307 3448 M
63 0 V
171 206 R
-63 0 V
stroke
6625 3654 M
[ [(Times-Roman) 140.0 0.0 true true 0 ( 4.3)]
] -46.7 MLshow
1.000 UL
LTb
6307 3654 M
63 0 V
171 206 R
-63 0 V
stroke
6625 3860 M
[ [(Times-Roman) 140.0 0.0 true true 0 ( 4.4)]
] -46.7 MLshow
1.000 UL
LTb
6307 3860 M
63 0 V
1.000 UP
stroke
grestore % colour palette end
stroke
grestore
end
showpage
%%Trailer
%%DocumentFonts: Times-Roman
