%!PS-Adobe-2.0 EPSF-2.0
%%Title: magnetsOpt2.ps
%%Creator: gnuplot 4.4 patchlevel 0
%%CreationDate: Thu Sep  2 17:20:09 2010
%%DocumentFonts: (atend)
%%BoundingBox: 86 50 806 554
%%EndComments
%%BeginProlog
/gnudict 256 dict def
gnudict begin
%
% The following true/false flags may be edited by hand if desired.
% The unit line width and grayscale image gamma correction may also be changed.
%
/Color true def
/Blacktext false def
/Solid true def
/Dashlength 1 def
/Landscape false def
/Level1 false def
/Rounded false def
/ClipToBoundingBox false def
/TransparentPatterns false def
/gnulinewidth 10.000 def
/userlinewidth gnulinewidth def
/Gamma 1.0 def
%
/vshift -93 def
/dl1 {
  10.0 Dashlength mul mul
  Rounded { currentlinewidth 0.75 mul sub dup 0 le { pop 0.01 } if } if
} def
/dl2 {
  10.0 Dashlength mul mul
  Rounded { currentlinewidth 0.75 mul add } if
} def
/hpt_ 31.5 def
/vpt_ 31.5 def
/hpt hpt_ def
/vpt vpt_ def
Level1 {} {
/SDict 10 dict def
systemdict /pdfmark known not {
  userdict /pdfmark systemdict /cleartomark get put
} if
SDict begin [
  /Title (magnetsOpt2.ps)
  /Subject (gnuplot plot)
  /Creator (gnuplot 4.4 patchlevel 0)
  /Author (jvazny)
%  /Producer (gnuplot)
%  /Keywords ()
  /CreationDate (Thu Sep  2 17:20:09 2010)
  /DOCINFO pdfmark
end
} ifelse
/doclip {
  ClipToBoundingBox {
    newpath 86 50 moveto 806 50 lineto 806 554 lineto 86 554 lineto closepath
    clip
  } if
} def
%
% Gnuplot Prolog Version 4.4 (January 2010)
%
%/SuppressPDFMark true def
%
/M {moveto} bind def
/L {lineto} bind def
/R {rmoveto} bind def
/V {rlineto} bind def
/N {newpath moveto} bind def
/Z {closepath} bind def
/C {setrgbcolor} bind def
/f {rlineto fill} bind def
/Gshow {show} def   % May be redefined later in the file to support UTF-8
/vpt2 vpt 2 mul def
/hpt2 hpt 2 mul def
/Lshow {currentpoint stroke M 0 vshift R 
	Blacktext {gsave 0 setgray show grestore} {show} ifelse} def
/Rshow {currentpoint stroke M dup stringwidth pop neg vshift R
	Blacktext {gsave 0 setgray show grestore} {show} ifelse} def
/Cshow {currentpoint stroke M dup stringwidth pop -2 div vshift R 
	Blacktext {gsave 0 setgray show grestore} {show} ifelse} def
/UP {dup vpt_ mul /vpt exch def hpt_ mul /hpt exch def
  /hpt2 hpt 2 mul def /vpt2 vpt 2 mul def} def
/DL {Color {setrgbcolor Solid {pop []} if 0 setdash}
 {pop pop pop 0 setgray Solid {pop []} if 0 setdash} ifelse} def
/BL {stroke userlinewidth 2 mul setlinewidth
	Rounded {1 setlinejoin 1 setlinecap} if} def
/AL {stroke userlinewidth 2 div setlinewidth
	Rounded {1 setlinejoin 1 setlinecap} if} def
/UL {dup gnulinewidth mul /userlinewidth exch def
	dup 1 lt {pop 1} if 10 mul /udl exch def} def
/PL {stroke userlinewidth setlinewidth
	Rounded {1 setlinejoin 1 setlinecap} if} def
% Default Line colors
/LCw {1 1 1} def
/LCb {0 0 0} def
/LCa {0 0 0} def
/LC0 {1 0 0} def
/LC1 {0 1 0} def
/LC2 {0 0 1} def
/LC3 {1 0 1} def
/LC4 {0 1 1} def
/LC5 {1 1 0} def
/LC6 {0 0 0} def
/LC7 {1 0.3 0} def
/LC8 {0.5 0.5 0.5} def
% Default Line Types
/LTw {PL [] 1 setgray} def
/LTb {BL [] LCb DL} def
/LTa {AL [1 udl mul 2 udl mul] 0 setdash LCa setrgbcolor} def
/LT0 {PL [] LC0 DL} def
/LT1 {PL [4 dl1 2 dl2] LC1 DL} def
/LT2 {PL [2 dl1 3 dl2] LC2 DL} def
/LT3 {PL [1 dl1 1.5 dl2] LC3 DL} def
/LT4 {PL [6 dl1 2 dl2 1 dl1 2 dl2] LC4 DL} def
/LT5 {PL [3 dl1 3 dl2 1 dl1 3 dl2] LC5 DL} def
/LT6 {PL [2 dl1 2 dl2 2 dl1 6 dl2] LC6 DL} def
/LT7 {PL [1 dl1 2 dl2 6 dl1 2 dl2 1 dl1 2 dl2] LC7 DL} def
/LT8 {PL [2 dl1 2 dl2 2 dl1 2 dl2 2 dl1 2 dl2 2 dl1 4 dl2] LC8 DL} def
/Pnt {stroke [] 0 setdash gsave 1 setlinecap M 0 0 V stroke grestore} def
/Dia {stroke [] 0 setdash 2 copy vpt add M
  hpt neg vpt neg V hpt vpt neg V
  hpt vpt V hpt neg vpt V closepath stroke
  Pnt} def
/Pls {stroke [] 0 setdash vpt sub M 0 vpt2 V
  currentpoint stroke M
  hpt neg vpt neg R hpt2 0 V stroke
 } def
/Box {stroke [] 0 setdash 2 copy exch hpt sub exch vpt add M
  0 vpt2 neg V hpt2 0 V 0 vpt2 V
  hpt2 neg 0 V closepath stroke
  Pnt} def
/Crs {stroke [] 0 setdash exch hpt sub exch vpt add M
  hpt2 vpt2 neg V currentpoint stroke M
  hpt2 neg 0 R hpt2 vpt2 V stroke} def
/TriU {stroke [] 0 setdash 2 copy vpt 1.12 mul add M
  hpt neg vpt -1.62 mul V
  hpt 2 mul 0 V
  hpt neg vpt 1.62 mul V closepath stroke
  Pnt} def
/Star {2 copy Pls Crs} def
/BoxF {stroke [] 0 setdash exch hpt sub exch vpt add M
  0 vpt2 neg V hpt2 0 V 0 vpt2 V
  hpt2 neg 0 V closepath fill} def
/TriUF {stroke [] 0 setdash vpt 1.12 mul add M
  hpt neg vpt -1.62 mul V
  hpt 2 mul 0 V
  hpt neg vpt 1.62 mul V closepath fill} def
/TriD {stroke [] 0 setdash 2 copy vpt 1.12 mul sub M
  hpt neg vpt 1.62 mul V
  hpt 2 mul 0 V
  hpt neg vpt -1.62 mul V closepath stroke
  Pnt} def
/TriDF {stroke [] 0 setdash vpt 1.12 mul sub M
  hpt neg vpt 1.62 mul V
  hpt 2 mul 0 V
  hpt neg vpt -1.62 mul V closepath fill} def
/DiaF {stroke [] 0 setdash vpt add M
  hpt neg vpt neg V hpt vpt neg V
  hpt vpt V hpt neg vpt V closepath fill} def
/Pent {stroke [] 0 setdash 2 copy gsave
  translate 0 hpt M 4 {72 rotate 0 hpt L} repeat
  closepath stroke grestore Pnt} def
/PentF {stroke [] 0 setdash gsave
  translate 0 hpt M 4 {72 rotate 0 hpt L} repeat
  closepath fill grestore} def
/Circle {stroke [] 0 setdash 2 copy
  hpt 0 360 arc stroke Pnt} def
/CircleF {stroke [] 0 setdash hpt 0 360 arc fill} def
/C0 {BL [] 0 setdash 2 copy moveto vpt 90 450 arc} bind def
/C1 {BL [] 0 setdash 2 copy moveto
	2 copy vpt 0 90 arc closepath fill
	vpt 0 360 arc closepath} bind def
/C2 {BL [] 0 setdash 2 copy moveto
	2 copy vpt 90 180 arc closepath fill
	vpt 0 360 arc closepath} bind def
/C3 {BL [] 0 setdash 2 copy moveto
	2 copy vpt 0 180 arc closepath fill
	vpt 0 360 arc closepath} bind def
/C4 {BL [] 0 setdash 2 copy moveto
	2 copy vpt 180 270 arc closepath fill
	vpt 0 360 arc closepath} bind def
/C5 {BL [] 0 setdash 2 copy moveto
	2 copy vpt 0 90 arc
	2 copy moveto
	2 copy vpt 180 270 arc closepath fill
	vpt 0 360 arc} bind def
/C6 {BL [] 0 setdash 2 copy moveto
	2 copy vpt 90 270 arc closepath fill
	vpt 0 360 arc closepath} bind def
/C7 {BL [] 0 setdash 2 copy moveto
	2 copy vpt 0 270 arc closepath fill
	vpt 0 360 arc closepath} bind def
/C8 {BL [] 0 setdash 2 copy moveto
	2 copy vpt 270 360 arc closepath fill
	vpt 0 360 arc closepath} bind def
/C9 {BL [] 0 setdash 2 copy moveto
	2 copy vpt 270 450 arc closepath fill
	vpt 0 360 arc closepath} bind def
/C10 {BL [] 0 setdash 2 copy 2 copy moveto vpt 270 360 arc closepath fill
	2 copy moveto
	2 copy vpt 90 180 arc closepath fill
	vpt 0 360 arc closepath} bind def
/C11 {BL [] 0 setdash 2 copy moveto
	2 copy vpt 0 180 arc closepath fill
	2 copy moveto
	2 copy vpt 270 360 arc closepath fill
	vpt 0 360 arc closepath} bind def
/C12 {BL [] 0 setdash 2 copy moveto
	2 copy vpt 180 360 arc closepath fill
	vpt 0 360 arc closepath} bind def
/C13 {BL [] 0 setdash 2 copy moveto
	2 copy vpt 0 90 arc closepath fill
	2 copy moveto
	2 copy vpt 180 360 arc closepath fill
	vpt 0 360 arc closepath} bind def
/C14 {BL [] 0 setdash 2 copy moveto
	2 copy vpt 90 360 arc closepath fill
	vpt 0 360 arc} bind def
/C15 {BL [] 0 setdash 2 copy vpt 0 360 arc closepath fill
	vpt 0 360 arc closepath} bind def
/Rec {newpath 4 2 roll moveto 1 index 0 rlineto 0 exch rlineto
	neg 0 rlineto closepath} bind def
/Square {dup Rec} bind def
/Bsquare {vpt sub exch vpt sub exch vpt2 Square} bind def
/S0 {BL [] 0 setdash 2 copy moveto 0 vpt rlineto BL Bsquare} bind def
/S1 {BL [] 0 setdash 2 copy vpt Square fill Bsquare} bind def
/S2 {BL [] 0 setdash 2 copy exch vpt sub exch vpt Square fill Bsquare} bind def
/S3 {BL [] 0 setdash 2 copy exch vpt sub exch vpt2 vpt Rec fill Bsquare} bind def
/S4 {BL [] 0 setdash 2 copy exch vpt sub exch vpt sub vpt Square fill Bsquare} bind def
/S5 {BL [] 0 setdash 2 copy 2 copy vpt Square fill
	exch vpt sub exch vpt sub vpt Square fill Bsquare} bind def
/S6 {BL [] 0 setdash 2 copy exch vpt sub exch vpt sub vpt vpt2 Rec fill Bsquare} bind def
/S7 {BL [] 0 setdash 2 copy exch vpt sub exch vpt sub vpt vpt2 Rec fill
	2 copy vpt Square fill Bsquare} bind def
/S8 {BL [] 0 setdash 2 copy vpt sub vpt Square fill Bsquare} bind def
/S9 {BL [] 0 setdash 2 copy vpt sub vpt vpt2 Rec fill Bsquare} bind def
/S10 {BL [] 0 setdash 2 copy vpt sub vpt Square fill 2 copy exch vpt sub exch vpt Square fill
	Bsquare} bind def
/S11 {BL [] 0 setdash 2 copy vpt sub vpt Square fill 2 copy exch vpt sub exch vpt2 vpt Rec fill
	Bsquare} bind def
/S12 {BL [] 0 setdash 2 copy exch vpt sub exch vpt sub vpt2 vpt Rec fill Bsquare} bind def
/S13 {BL [] 0 setdash 2 copy exch vpt sub exch vpt sub vpt2 vpt Rec fill
	2 copy vpt Square fill Bsquare} bind def
/S14 {BL [] 0 setdash 2 copy exch vpt sub exch vpt sub vpt2 vpt Rec fill
	2 copy exch vpt sub exch vpt Square fill Bsquare} bind def
/S15 {BL [] 0 setdash 2 copy Bsquare fill Bsquare} bind def
/D0 {gsave translate 45 rotate 0 0 S0 stroke grestore} bind def
/D1 {gsave translate 45 rotate 0 0 S1 stroke grestore} bind def
/D2 {gsave translate 45 rotate 0 0 S2 stroke grestore} bind def
/D3 {gsave translate 45 rotate 0 0 S3 stroke grestore} bind def
/D4 {gsave translate 45 rotate 0 0 S4 stroke grestore} bind def
/D5 {gsave translate 45 rotate 0 0 S5 stroke grestore} bind def
/D6 {gsave translate 45 rotate 0 0 S6 stroke grestore} bind def
/D7 {gsave translate 45 rotate 0 0 S7 stroke grestore} bind def
/D8 {gsave translate 45 rotate 0 0 S8 stroke grestore} bind def
/D9 {gsave translate 45 rotate 0 0 S9 stroke grestore} bind def
/D10 {gsave translate 45 rotate 0 0 S10 stroke grestore} bind def
/D11 {gsave translate 45 rotate 0 0 S11 stroke grestore} bind def
/D12 {gsave translate 45 rotate 0 0 S12 stroke grestore} bind def
/D13 {gsave translate 45 rotate 0 0 S13 stroke grestore} bind def
/D14 {gsave translate 45 rotate 0 0 S14 stroke grestore} bind def
/D15 {gsave translate 45 rotate 0 0 S15 stroke grestore} bind def
/DiaE {stroke [] 0 setdash vpt add M
  hpt neg vpt neg V hpt vpt neg V
  hpt vpt V hpt neg vpt V closepath stroke} def
/BoxE {stroke [] 0 setdash exch hpt sub exch vpt add M
  0 vpt2 neg V hpt2 0 V 0 vpt2 V
  hpt2 neg 0 V closepath stroke} def
/TriUE {stroke [] 0 setdash vpt 1.12 mul add M
  hpt neg vpt -1.62 mul V
  hpt 2 mul 0 V
  hpt neg vpt 1.62 mul V closepath stroke} def
/TriDE {stroke [] 0 setdash vpt 1.12 mul sub M
  hpt neg vpt 1.62 mul V
  hpt 2 mul 0 V
  hpt neg vpt -1.62 mul V closepath stroke} def
/PentE {stroke [] 0 setdash gsave
  translate 0 hpt M 4 {72 rotate 0 hpt L} repeat
  closepath stroke grestore} def
/CircE {stroke [] 0 setdash 
  hpt 0 360 arc stroke} def
/Opaque {gsave closepath 1 setgray fill grestore 0 setgray closepath} def
/DiaW {stroke [] 0 setdash vpt add M
  hpt neg vpt neg V hpt vpt neg V
  hpt vpt V hpt neg vpt V Opaque stroke} def
/BoxW {stroke [] 0 setdash exch hpt sub exch vpt add M
  0 vpt2 neg V hpt2 0 V 0 vpt2 V
  hpt2 neg 0 V Opaque stroke} def
/TriUW {stroke [] 0 setdash vpt 1.12 mul add M
  hpt neg vpt -1.62 mul V
  hpt 2 mul 0 V
  hpt neg vpt 1.62 mul V Opaque stroke} def
/TriDW {stroke [] 0 setdash vpt 1.12 mul sub M
  hpt neg vpt 1.62 mul V
  hpt 2 mul 0 V
  hpt neg vpt -1.62 mul V Opaque stroke} def
/PentW {stroke [] 0 setdash gsave
  translate 0 hpt M 4 {72 rotate 0 hpt L} repeat
  Opaque stroke grestore} def
/CircW {stroke [] 0 setdash 
  hpt 0 360 arc Opaque stroke} def
/BoxFill {gsave Rec 1 setgray fill grestore} def
/Density {
  /Fillden exch def
  currentrgbcolor
  /ColB exch def /ColG exch def /ColR exch def
  /ColR ColR Fillden mul Fillden sub 1 add def
  /ColG ColG Fillden mul Fillden sub 1 add def
  /ColB ColB Fillden mul Fillden sub 1 add def
  ColR ColG ColB setrgbcolor} def
/BoxColFill {gsave Rec PolyFill} def
/PolyFill {gsave Density fill grestore grestore} def
/h {rlineto rlineto rlineto gsave closepath fill grestore} bind def
%
% PostScript Level 1 Pattern Fill routine for rectangles
% Usage: x y w h s a XX PatternFill
%	x,y = lower left corner of box to be filled
%	w,h = width and height of box
%	  a = angle in degrees between lines and x-axis
%	 XX = 0/1 for no/yes cross-hatch
%
/PatternFill {gsave /PFa [ 9 2 roll ] def
  PFa 0 get PFa 2 get 2 div add PFa 1 get PFa 3 get 2 div add translate
  PFa 2 get -2 div PFa 3 get -2 div PFa 2 get PFa 3 get Rec
  gsave 1 setgray fill grestore clip
  currentlinewidth 0.5 mul setlinewidth
  /PFs PFa 2 get dup mul PFa 3 get dup mul add sqrt def
  0 0 M PFa 5 get rotate PFs -2 div dup translate
  0 1 PFs PFa 4 get div 1 add floor cvi
	{PFa 4 get mul 0 M 0 PFs V} for
  0 PFa 6 get ne {
	0 1 PFs PFa 4 get div 1 add floor cvi
	{PFa 4 get mul 0 2 1 roll M PFs 0 V} for
 } if
  stroke grestore} def
%
/languagelevel where
 {pop languagelevel} {1} ifelse
 2 lt
	{/InterpretLevel1 true def}
	{/InterpretLevel1 Level1 def}
 ifelse
%
% PostScript level 2 pattern fill definitions
%
/Level2PatternFill {
/Tile8x8 {/PaintType 2 /PatternType 1 /TilingType 1 /BBox [0 0 8 8] /XStep 8 /YStep 8}
	bind def
/KeepColor {currentrgbcolor [/Pattern /DeviceRGB] setcolorspace} bind def
<< Tile8x8
 /PaintProc {0.5 setlinewidth pop 0 0 M 8 8 L 0 8 M 8 0 L stroke} 
>> matrix makepattern
/Pat1 exch def
<< Tile8x8
 /PaintProc {0.5 setlinewidth pop 0 0 M 8 8 L 0 8 M 8 0 L stroke
	0 4 M 4 8 L 8 4 L 4 0 L 0 4 L stroke}
>> matrix makepattern
/Pat2 exch def
<< Tile8x8
 /PaintProc {0.5 setlinewidth pop 0 0 M 0 8 L
	8 8 L 8 0 L 0 0 L fill}
>> matrix makepattern
/Pat3 exch def
<< Tile8x8
 /PaintProc {0.5 setlinewidth pop -4 8 M 8 -4 L
	0 12 M 12 0 L stroke}
>> matrix makepattern
/Pat4 exch def
<< Tile8x8
 /PaintProc {0.5 setlinewidth pop -4 0 M 8 12 L
	0 -4 M 12 8 L stroke}
>> matrix makepattern
/Pat5 exch def
<< Tile8x8
 /PaintProc {0.5 setlinewidth pop -2 8 M 4 -4 L
	0 12 M 8 -4 L 4 12 M 10 0 L stroke}
>> matrix makepattern
/Pat6 exch def
<< Tile8x8
 /PaintProc {0.5 setlinewidth pop -2 0 M 4 12 L
	0 -4 M 8 12 L 4 -4 M 10 8 L stroke}
>> matrix makepattern
/Pat7 exch def
<< Tile8x8
 /PaintProc {0.5 setlinewidth pop 8 -2 M -4 4 L
	12 0 M -4 8 L 12 4 M 0 10 L stroke}
>> matrix makepattern
/Pat8 exch def
<< Tile8x8
 /PaintProc {0.5 setlinewidth pop 0 -2 M 12 4 L
	-4 0 M 12 8 L -4 4 M 8 10 L stroke}
>> matrix makepattern
/Pat9 exch def
/Pattern1 {PatternBgnd KeepColor Pat1 setpattern} bind def
/Pattern2 {PatternBgnd KeepColor Pat2 setpattern} bind def
/Pattern3 {PatternBgnd KeepColor Pat3 setpattern} bind def
/Pattern4 {PatternBgnd KeepColor Landscape {Pat5} {Pat4} ifelse setpattern} bind def
/Pattern5 {PatternBgnd KeepColor Landscape {Pat4} {Pat5} ifelse setpattern} bind def
/Pattern6 {PatternBgnd KeepColor Landscape {Pat9} {Pat6} ifelse setpattern} bind def
/Pattern7 {PatternBgnd KeepColor Landscape {Pat8} {Pat7} ifelse setpattern} bind def
} def
%
%
%End of PostScript Level 2 code
%
/PatternBgnd {
  TransparentPatterns {} {gsave 1 setgray fill grestore} ifelse
} def
%
% Substitute for Level 2 pattern fill codes with
% grayscale if Level 2 support is not selected.
%
/Level1PatternFill {
/Pattern1 {0.250 Density} bind def
/Pattern2 {0.500 Density} bind def
/Pattern3 {0.750 Density} bind def
/Pattern4 {0.125 Density} bind def
/Pattern5 {0.375 Density} bind def
/Pattern6 {0.625 Density} bind def
/Pattern7 {0.875 Density} bind def
} def
%
% Now test for support of Level 2 code
%
Level1 {Level1PatternFill} {Level2PatternFill} ifelse
%
/Symbol-Oblique /Symbol findfont [1 0 .167 1 0 0] makefont
dup length dict begin {1 index /FID eq {pop pop} {def} ifelse} forall
currentdict end definefont pop
/MFshow {
   { dup 5 get 3 ge
     { 5 get 3 eq {gsave} {grestore} ifelse }
     {dup dup 0 get findfont exch 1 get scalefont setfont
     [ currentpoint ] exch dup 2 get 0 exch R dup 5 get 2 ne {dup dup 6
     get exch 4 get {Gshow} {stringwidth pop 0 R} ifelse }if dup 5 get 0 eq
     {dup 3 get {2 get neg 0 exch R pop} {pop aload pop M} ifelse} {dup 5
     get 1 eq {dup 2 get exch dup 3 get exch 6 get stringwidth pop -2 div
     dup 0 R} {dup 6 get stringwidth pop -2 div 0 R 6 get
     show 2 index {aload pop M neg 3 -1 roll neg R pop pop} {pop pop pop
     pop aload pop M} ifelse }ifelse }ifelse }
     ifelse }
   forall} def
/Gswidth {dup type /stringtype eq {stringwidth} {pop (n) stringwidth} ifelse} def
/MFwidth {0 exch { dup 5 get 3 ge { 5 get 3 eq { 0 } { pop } ifelse }
 {dup 3 get{dup dup 0 get findfont exch 1 get scalefont setfont
     6 get Gswidth pop add} {pop} ifelse} ifelse} forall} def
/MLshow { currentpoint stroke M
  0 exch R
  Blacktext {gsave 0 setgray MFshow grestore} {MFshow} ifelse } bind def
/MRshow { currentpoint stroke M
  exch dup MFwidth neg 3 -1 roll R
  Blacktext {gsave 0 setgray MFshow grestore} {MFshow} ifelse } bind def
/MCshow { currentpoint stroke M
  exch dup MFwidth -2 div 3 -1 roll R
  Blacktext {gsave 0 setgray MFshow grestore} {MFshow} ifelse } bind def
/XYsave    { [( ) 1 2 true false 3 ()] } bind def
/XYrestore { [( ) 1 2 true false 4 ()] } bind def
end
%%EndProlog
gnudict begin
gsave
doclip
50 50 translate
0.050 0.050 scale
0 setgray
newpath
(Times-Roman) findfont 280 scalefont setfont
1.000 UL
LTb
2092 1176 M
63 0 V
4503 0 R
-63 0 V
stroke
1924 1176 M
[ [(Times-Roman) 280.0 0.0 true true 0 (0.0)]
] -93.3 MRshow
1.000 UL
LTb
2092 1881 M
63 0 V
4503 0 R
-63 0 V
stroke
1924 1881 M
[ [(Times-Roman) 280.0 0.0 true true 0 (1.0)]
] -93.3 MRshow
1.000 UL
LTb
2092 2587 M
63 0 V
4503 0 R
-63 0 V
stroke
1924 2587 M
[ [(Times-Roman) 280.0 0.0 true true 0 (2.0)]
] -93.3 MRshow
1.000 UL
LTb
2092 3292 M
63 0 V
4503 0 R
-63 0 V
stroke
1924 3292 M
[ [(Times-Roman) 280.0 0.0 true true 0 (3.0)]
] -93.3 MRshow
1.000 UL
LTb
2092 3998 M
63 0 V
4503 0 R
-63 0 V
stroke
1924 3998 M
[ [(Times-Roman) 280.0 0.0 true true 0 (4.0)]
] -93.3 MRshow
1.000 UL
LTb
2092 4703 M
63 0 V
4503 0 R
-63 0 V
stroke
1924 4703 M
[ [(Times-Roman) 280.0 0.0 true true 0 (5.0)]
] -93.3 MRshow
1.000 UL
LTb
2549 1176 M
0 63 V
0 3464 R
0 -63 V
stroke
2549 896 M
[ [(Times-Roman) 280.0 0.0 true true 0 (7)]
] -93.3 MCshow
1.000 UL
LTb
3462 1176 M
0 63 V
0 3464 R
0 -63 V
stroke
3462 896 M
[ [(Times-Roman) 280.0 0.0 true true 0 (7)]
] -93.3 MCshow
1.000 UL
LTb
4375 1176 M
0 63 V
0 3464 R
0 -63 V
stroke
4375 896 M
[ [(Times-Roman) 280.0 0.0 true true 0 (7)]
] -93.3 MCshow
1.000 UL
LTb
5288 1176 M
0 63 V
0 3464 R
0 -63 V
stroke
5288 896 M
[ [(Times-Roman) 280.0 0.0 true true 0 (7)]
] -93.3 MCshow
1.000 UL
LTb
6201 1176 M
0 63 V
0 3464 R
0 -63 V
stroke
6201 896 M
[ [(Times-Roman) 280.0 0.0 true true 0 (7)]
] -93.3 MCshow
1.000 UL
LTb
6658 1176 M
-63 0 V
stroke
6826 1176 M
[ [(Times-Roman) 280.0 0.0 true true 0 (0.0)]
] -93.3 MLshow
1.000 UL
LTb
6658 2352 M
-63 0 V
stroke
6826 2352 M
[ [(Times-Roman) 280.0 0.0 true true 0 (0.6)]
] -93.3 MLshow
1.000 UL
LTb
6658 3527 M
-63 0 V
stroke
6826 3527 M
[ [(Times-Roman) 280.0 0.0 true true 0 (1.2)]
] -93.3 MLshow
1.000 UL
LTb
6658 4703 M
-63 0 V
stroke
6826 4703 M
[ [(Times-Roman) 280.0 0.0 true true 0 (1.8)]
] -93.3 MLshow
1.000 UL
LTb
1.000 UL
LTb
2092 4703 N
0 -3527 V
4566 0 V
0 3527 V
-4566 0 V
Z stroke
LCb setrgbcolor
1112 2939 M
currentpoint gsave translate -270 rotate 0 0 moveto
[ [(Times-Roman) 280.0 0.0 true true 0 (L [10)]
[(Times-Roman) 224.0 140.0 true true 0 (32)]
[(Times-Roman) 280.0 0.0 true true 0 ( cm)]
[(Times-Roman) 224.0 140.0 true true 0 (-2)]
[(Times-Roman) 280.0 0.0 true true 0 ( s)]
[(Times-Roman) 224.0 140.0 true true 0 (-1)]
[(Times-Roman) 280.0 0.0 true true 0 (])]
] -121.3 MCshow
grestore
LTb
LCb setrgbcolor
4375 476 M
[ [(Times-Roman) 280.0 0.0 true true 0 (Strength of magnet ksd0 [T/m)]
[(Times-Roman) 224.0 140.0 true true 0 (2)]
[(Times-Roman) 280.0 0.0 true true 0 (].)]
] -121.3 MCshow
LTb
1.000 UP
1.000 UL
LTb
% Begin plot #1
1.000 UL
LT0
2092 1329 M
91 10 V
92 12 V
91 13 V
91 15 V
92 17 V
91 19 V
91 22 V
92 25 V
91 29 V
91 34 V
92 40 V
91 47 V
91 55 V
91 66 V
92 81 V
91 100 V
91 122 V
92 152 V
91 194 V
91 252 V
92 329 V
91 448 V
91 536 V
92 408 V
91 -154 V
91 -533 V
92 -517 V
91 -383 V
91 -290 V
92 -217 V
91 -165 V
91 -133 V
92 -106 V
91 -85 V
91 -71 V
92 -59 V
91 -50 V
91 -43 V
91 -36 V
92 -31 V
91 -26 V
91 -24 V
92 -20 V
91 -18 V
91 -16 V
92 -14 V
91 -13 V
91 -11 V
92 -10 V
91 -2 V
% End plot #1
% Begin plot #2
stroke
LT1
2092 1412 M
91 11 V
92 14 V
91 22 V
91 12 V
92 22 V
91 24 V
91 23 V
92 29 V
91 37 V
91 30 V
92 39 V
91 45 V
91 68 V
91 70 V
92 72 V
91 94 V
91 142 V
92 129 V
91 209 V
91 227 V
92 331 V
91 423 V
91 596 V
92 400 V
91 -232 V
91 -554 V
92 -513 V
91 -383 V
91 -268 V
92 -219 V
91 -157 V
91 -117 V
92 -99 V
91 -92 V
91 -57 V
92 -50 V
91 -57 V
91 -41 V
91 -42 V
92 -21 V
91 -33 V
91 -28 V
92 -9 V
91 -26 V
91 -17 V
92 -12 V
91 -21 V
91 -16 V
92 -10 V
91 -2 V
% End plot #2
stroke
LTb
2092 4703 N
0 -3527 V
4566 0 V
0 3527 V
-4566 0 V
Z stroke
1.000 UP
1.000 UL
LTb
1.000 UL
LTb
9012 1176 M
63 0 V
4782 0 R
-63 0 V
stroke
8844 1176 M
[ [(Times-Roman) 280.0 0.0 true true 0 (0.0)]
] -93.3 MRshow
1.000 UL
LTb
9012 1881 M
63 0 V
4782 0 R
-63 0 V
stroke
8844 1881 M
[ [(Times-Roman) 280.0 0.0 true true 0 (1.0)]
] -93.3 MRshow
1.000 UL
LTb
9012 2587 M
63 0 V
4782 0 R
-63 0 V
stroke
8844 2587 M
[ [(Times-Roman) 280.0 0.0 true true 0 (2.0)]
] -93.3 MRshow
1.000 UL
LTb
9012 3292 M
63 0 V
4782 0 R
-63 0 V
stroke
8844 3292 M
[ [(Times-Roman) 280.0 0.0 true true 0 (3.0)]
] -93.3 MRshow
1.000 UL
LTb
9012 3998 M
63 0 V
4782 0 R
-63 0 V
stroke
8844 3998 M
[ [(Times-Roman) 280.0 0.0 true true 0 (4.0)]
] -93.3 MRshow
1.000 UL
LTb
9012 4703 M
63 0 V
4782 0 R
-63 0 V
stroke
8844 4703 M
[ [(Times-Roman) 280.0 0.0 true true 0 (5.0)]
] -93.3 MRshow
1.000 UL
LTb
9497 1176 M
0 63 V
0 3464 R
0 -63 V
stroke
9497 896 M
[ [(Times-Roman) 280.0 0.0 true true 0 (3)]
] -93.3 MCshow
1.000 UL
LTb
10466 1176 M
0 63 V
0 3464 R
0 -63 V
stroke
10466 896 M
[ [(Times-Roman) 280.0 0.0 true true 0 (3)]
] -93.3 MCshow
1.000 UL
LTb
11435 1176 M
0 63 V
0 3464 R
0 -63 V
stroke
11435 896 M
[ [(Times-Roman) 280.0 0.0 true true 0 (3)]
] -93.3 MCshow
1.000 UL
LTb
12404 1176 M
0 63 V
0 3464 R
0 -63 V
stroke
12404 896 M
[ [(Times-Roman) 280.0 0.0 true true 0 (3)]
] -93.3 MCshow
1.000 UL
LTb
13373 1176 M
0 63 V
0 3464 R
0 -63 V
stroke
13373 896 M
[ [(Times-Roman) 280.0 0.0 true true 0 (3)]
] -93.3 MCshow
1.000 UL
LTb
13857 1176 M
-63 0 V
stroke
14025 1176 M
[ [(Times-Roman) 280.0 0.0 true true 0 (0.0)]
] -93.3 MLshow
1.000 UL
LTb
13857 2058 M
-63 0 V
stroke
14025 2058 M
[ [(Times-Roman) 280.0 0.0 true true 0 (0.5)]
] -93.3 MLshow
1.000 UL
LTb
13857 2940 M
-63 0 V
stroke
14025 2940 M
[ [(Times-Roman) 280.0 0.0 true true 0 (1.0)]
] -93.3 MLshow
1.000 UL
LTb
13857 3821 M
-63 0 V
stroke
14025 3821 M
[ [(Times-Roman) 280.0 0.0 true true 0 (1.5)]
] -93.3 MLshow
1.000 UL
LTb
13857 4703 M
-63 0 V
stroke
14025 4703 M
[ [(Times-Roman) 280.0 0.0 true true 0 (2.0)]
] -93.3 MLshow
1.000 UL
LTb
1.000 UL
LTb
9012 4703 N
0 -3527 V
4845 0 V
0 3527 V
-4845 0 V
Z stroke
LCb setrgbcolor
11434 476 M
[ [(Times-Roman) 280.0 0.0 true true 0 (Strength of magnet ksd4 [T/m)]
[(Times-Roman) 224.0 140.0 true true 0 (2)]
[(Times-Roman) 280.0 0.0 true true 0 (].)]
] -121.3 MCshow
LTb
1.000 UP
1.000 UL
LTb
% Begin plot #1
1.000 UL
LT0
LCb setrgbcolor
4840829 3858 M
[ [(Times-Roman) 280.0 0.0 true true 0 (../result/luminostity)]
] -93.3 MRshow
LT0
4840997 3858 M
735 0 V
9012 1240 M
97 4 V
97 5 V
97 6 V
97 7 V
97 7 V
96 9 V
97 10 V
97 12 V
97 15 V
97 18 V
97 21 V
97 27 V
97 33 V
97 43 V
96 55 V
97 72 V
97 95 V
97 134 V
97 186 V
97 277 V
97 443 V
97 712 V
97 958 V
97 -519 V
97 -900 V
0 -1 V
96 -530 V
97 -326 V
97 -219 V
97 -155 V
97 -110 V
97 -81 V
97 -63 V
97 -48 V
97 -37 V
97 -30 V
96 -25 V
97 -19 V
97 -17 V
97 -13 V
97 -11 V
97 -10 V
97 -8 V
97 -8 V
97 -6 V
96 -5 V
97 -5 V
97 -5 V
97 -3 V
97 -4 V
97 -1 V
% End plot #1
% Begin plot #2
stroke
LT1
LCb setrgbcolor
4840829 3578 M
[ [(Times-Roman) 280.0 0.0 true true 0 (../result/luminosity peak)]
] -93.3 MRshow
LT1
4840997 3578 M
735 0 V
9012 1283 M
97 8 V
97 4 V
97 7 V
97 12 V
97 9 V
96 12 V
97 12 V
97 13 V
97 22 V
97 19 V
97 25 V
97 23 V
97 42 V
97 39 V
96 54 V
97 67 V
97 89 V
97 118 V
97 155 V
97 248 V
97 401 V
97 606 V
97 855 V
97 -432 V
97 -818 V
0 -4 V
96 -477 V
97 -260 V
97 -210 V
97 -123 V
97 -109 V
97 -74 V
97 -58 V
97 -48 V
97 -37 V
97 -30 V
96 -27 V
97 -27 V
97 -18 V
97 -13 V
97 -16 V
97 -11 V
97 -11 V
97 -8 V
97 -12 V
96 -5 V
97 -7 V
97 -6 V
97 -6 V
97 -5 V
97 -2 V
% End plot #2
stroke
LTb
9012 4703 N
0 -3527 V
4845 0 V
0 3527 V
-4845 0 V
Z stroke
1.000 UP
1.000 UL
LTb
1.000 UL
LTb
2092 6216 M
63 0 V
4503 0 R
-63 0 V
stroke
1924 6216 M
[ [(Times-Roman) 280.0 0.0 true true 0 (0.0)]
] -93.3 MRshow
1.000 UL
LTb
2092 6921 M
63 0 V
4503 0 R
-63 0 V
stroke
1924 6921 M
[ [(Times-Roman) 280.0 0.0 true true 0 (1.0)]
] -93.3 MRshow
1.000 UL
LTb
2092 7626 M
63 0 V
4503 0 R
-63 0 V
stroke
1924 7626 M
[ [(Times-Roman) 280.0 0.0 true true 0 (2.0)]
] -93.3 MRshow
1.000 UL
LTb
2092 8332 M
63 0 V
4503 0 R
-63 0 V
stroke
1924 8332 M
[ [(Times-Roman) 280.0 0.0 true true 0 (3.0)]
] -93.3 MRshow
1.000 UL
LTb
2092 9037 M
63 0 V
4503 0 R
-63 0 V
stroke
1924 9037 M
[ [(Times-Roman) 280.0 0.0 true true 0 (4.0)]
] -93.3 MRshow
1.000 UL
LTb
2092 9742 M
63 0 V
4503 0 R
-63 0 V
stroke
1924 9742 M
[ [(Times-Roman) 280.0 0.0 true true 0 (5.0)]
] -93.3 MRshow
1.000 UL
LTb
2092 6216 M
0 63 V
0 3463 R
0 -63 V
stroke
2092 5936 M
[ [(Times-Roman) 280.0 0.0 true true 0 (-3)]
] -93.3 MCshow
1.000 UL
LTb
3234 6216 M
0 63 V
0 3463 R
0 -63 V
stroke
3234 5936 M
[ [(Times-Roman) 280.0 0.0 true true 0 (-2)]
] -93.3 MCshow
1.000 UL
LTb
4375 6216 M
0 63 V
0 3463 R
0 -63 V
stroke
4375 5936 M
[ [(Times-Roman) 280.0 0.0 true true 0 (-2)]
] -93.3 MCshow
1.000 UL
LTb
5517 6216 M
0 63 V
0 3463 R
0 -63 V
stroke
5517 5936 M
[ [(Times-Roman) 280.0 0.0 true true 0 (-2)]
] -93.3 MCshow
1.000 UL
LTb
6658 6216 M
0 63 V
0 3463 R
0 -63 V
stroke
6658 5936 M
[ [(Times-Roman) 280.0 0.0 true true 0 (-1)]
] -93.3 MCshow
1.000 UL
LTb
6658 6216 M
-63 0 V
stroke
6826 6216 M
[ [(Times-Roman) 280.0 0.0 true true 0 (0.0)]
] -93.3 MLshow
1.000 UL
LTb
6658 7098 M
-63 0 V
stroke
6826 7098 M
[ [(Times-Roman) 280.0 0.0 true true 0 (0.5)]
] -93.3 MLshow
1.000 UL
LTb
6658 7979 M
-63 0 V
stroke
6826 7979 M
[ [(Times-Roman) 280.0 0.0 true true 0 (1.0)]
] -93.3 MLshow
1.000 UL
LTb
6658 8861 M
-63 0 V
stroke
6826 8861 M
[ [(Times-Roman) 280.0 0.0 true true 0 (1.5)]
] -93.3 MLshow
1.000 UL
LTb
6658 9742 M
-63 0 V
stroke
6826 9742 M
[ [(Times-Roman) 280.0 0.0 true true 0 (2.0)]
] -93.3 MLshow
1.000 UL
LTb
1.000 UL
LTb
2092 9742 N
0 -3526 V
4566 0 V
0 3526 V
-4566 0 V
Z stroke
LCb setrgbcolor
1112 7979 M
currentpoint gsave translate -270 rotate 0 0 moveto
[ [(Times-Roman) 280.0 0.0 true true 0 (L [10)]
[(Times-Roman) 224.0 140.0 true true 0 (34)]
[(Times-Roman) 280.0 0.0 true true 0 ( cm)]
[(Times-Roman) 224.0 140.0 true true 0 (-2)]
[(Times-Roman) 280.0 0.0 true true 0 ( s)]
[(Times-Roman) 224.0 140.0 true true 0 (-1)]
[(Times-Roman) 280.0 0.0 true true 0 (])]
] -121.3 MCshow
grestore
LTb
LCb setrgbcolor
4375 5516 M
[ [(Times-Roman) 280.0 0.0 true true 0 (Strength of magnet ksf1 [T/m)]
[(Times-Roman) 224.0 140.0 true true 0 (2)]
[(Times-Roman) 280.0 0.0 true true 0 (].)]
] -121.3 MCshow
LTb
1.000 UP
1.000 UL
LTb
% Begin plot #1
1.000 UL
LT0
2092 6221 M
114 1 V
114 1 V
114 1 V
115 1 V
114 2 V
114 2 V
114 2 V
114 4 V
114 4 V
115 5 V
114 7 V
114 9 V
23 3 V
22 2 V
23 3 V
23 3 V
23 3 V
23 4 V
23 3 V
22 4 V
23 5 V
23 4 V
23 6 V
23 5 V
23 6 V
22 7 V
23 8 V
23 8 V
23 9 V
23 10 V
23 10 V
22 12 V
23 14 V
23 14 V
23 17 V
23 18 V
23 21 V
22 22 V
23 25 V
23 30 V
23 32 V
23 36 V
23 41 V
22 46 V
23 54 V
23 62 V
23 72 V
23 83 V
23 98 V
22 116 V
23 138 V
23 167 V
23 206 V
23 254 V
22 325 V
23 390 V
23 452 V
23 300 V
23 -129 V
23 -369 V
22 -391 V
23 -353 V
23 -297 V
23 -240 V
23 -193 V
23 -160 V
22 -132 V
23 -111 V
23 -94 V
23 -81 V
23 -69 V
23 -61 V
22 -52 V
23 -45 V
23 -40 V
23 -35 V
23 -32 V
23 -27 V
22 -25 V
23 -22 V
23 -20 V
23 -17 V
23 -16 V
23 -14 V
22 -12 V
23 -12 V
23 -10 V
23 -10 V
23 -9 V
23 -8 V
22 -7 V
23 -6 V
23 -6 V
23 -6 V
23 -5 V
23 -5 V
22 -4 V
23 -4 V
23 -3 V
23 -3 V
23 -4 V
23 -2 V
22 -3 V
23 -2 V
stroke 5562 6262 M
23 -3 V
23 -2 V
23 -1 V
22 -2 V
23 -2 V
23 -2 V
23 -1 V
23 -1 V
114 -7 V
114 -4 V
114 -4 V
114 -3 V
115 -2 V
114 -2 V
114 -1 V
114 -1 V
% End plot #1
% Begin plot #2
stroke
LT1
2092 6260 M
114 3 V
114 5 V
114 5 V
115 6 V
114 6 V
114 7 V
114 8 V
114 9 V
114 10 V
115 11 V
114 14 V
114 19 V
23 4 V
22 3 V
23 6 V
23 5 V
23 5 V
23 6 V
23 8 V
22 5 V
23 7 V
23 11 V
23 9 V
23 8 V
23 9 V
22 12 V
23 11 V
23 10 V
23 16 V
23 16 V
23 13 V
22 16 V
23 24 V
23 17 V
23 16 V
23 34 V
23 27 V
22 32 V
23 27 V
23 37 V
23 45 V
23 38 V
23 42 V
22 63 V
23 60 V
23 71 V
23 87 V
23 95 V
23 112 V
22 135 V
23 121 V
23 156 V
23 220 V
23 204 V
22 294 V
23 280 V
23 258 V
23 124 V
23 -115 V
23 -177 V
22 -220 V
23 -283 V
23 -246 V
23 -217 V
23 -166 V
23 -171 V
22 -119 V
23 -124 V
23 -101 V
23 -87 V
23 -77 V
23 -83 V
22 -50 V
23 -48 V
23 -59 V
23 -46 V
23 -39 V
23 -35 V
22 -31 V
23 -26 V
23 -22 V
23 -29 V
23 -20 V
23 -17 V
22 -17 V
23 -19 V
23 -10 V
23 -13 V
23 -16 V
23 -14 V
22 -13 V
23 -9 V
23 -11 V
23 -9 V
23 -8 V
23 -7 V
22 -7 V
23 -7 V
23 -6 V
23 -7 V
23 -4 V
23 -7 V
22 -5 V
23 -3 V
stroke 5562 6362 M
23 -4 V
23 -4 V
23 -4 V
22 -3 V
23 -4 V
23 -3 V
23 -2 V
23 -3 V
114 -12 V
114 -11 V
114 -9 V
114 -7 V
115 -9 V
114 -7 V
114 -5 V
114 -2 V
% End plot #2
stroke
LTb
2092 9742 N
0 -3526 V
4566 0 V
0 3526 V
-4566 0 V
Z stroke
1.000 UP
1.000 UL
LTb
1.000 UL
LTb
9012 6216 M
63 0 V
4782 0 R
-63 0 V
stroke
8844 6216 M
[ [(Times-Roman) 280.0 0.0 true true 0 (0.0)]
] -93.3 MRshow
1.000 UL
LTb
9012 6921 M
63 0 V
4782 0 R
-63 0 V
stroke
8844 6921 M
[ [(Times-Roman) 280.0 0.0 true true 0 (1.0)]
] -93.3 MRshow
1.000 UL
LTb
9012 7626 M
63 0 V
4782 0 R
-63 0 V
stroke
8844 7626 M
[ [(Times-Roman) 280.0 0.0 true true 0 (2.0)]
] -93.3 MRshow
1.000 UL
LTb
9012 8332 M
63 0 V
4782 0 R
-63 0 V
stroke
8844 8332 M
[ [(Times-Roman) 280.0 0.0 true true 0 (3.0)]
] -93.3 MRshow
1.000 UL
LTb
9012 9037 M
63 0 V
4782 0 R
-63 0 V
stroke
8844 9037 M
[ [(Times-Roman) 280.0 0.0 true true 0 (4.0)]
] -93.3 MRshow
1.000 UL
LTb
9012 9742 M
63 0 V
4782 0 R
-63 0 V
stroke
8844 9742 M
[ [(Times-Roman) 280.0 0.0 true true 0 (5.0)]
] -93.3 MRshow
1.000 UL
LTb
9012 6216 M
0 63 V
0 3463 R
0 -63 V
stroke
9012 5936 M
[ [(Times-Roman) 280.0 0.0 true true 0 (-2.0)]
] -93.3 MCshow
1.000 UL
LTb
10223 6216 M
0 63 V
0 3463 R
0 -63 V
stroke
10223 5936 M
[ [(Times-Roman) 280.0 0.0 true true 0 (-1.5)]
] -93.3 MCshow
1.000 UL
LTb
11435 6216 M
0 63 V
0 3463 R
0 -63 V
stroke
11435 5936 M
[ [(Times-Roman) 280.0 0.0 true true 0 (-1.0)]
] -93.3 MCshow
1.000 UL
LTb
12646 6216 M
0 63 V
0 3463 R
0 -63 V
stroke
12646 5936 M
[ [(Times-Roman) 280.0 0.0 true true 0 (-0.5)]
] -93.3 MCshow
1.000 UL
LTb
13857 6216 M
0 63 V
0 3463 R
0 -63 V
stroke
13857 5936 M
[ [(Times-Roman) 280.0 0.0 true true 0 (0.0)]
] -93.3 MCshow
1.000 UL
LTb
13857 6216 M
-63 0 V
stroke
14025 6216 M
[ [(Times-Roman) 280.0 0.0 true true 0 (0.0)]
] -93.3 MLshow
1.000 UL
LTb
13857 7098 M
-63 0 V
stroke
14025 7098 M
[ [(Times-Roman) 280.0 0.0 true true 0 (0.5)]
] -93.3 MLshow
1.000 UL
LTb
13857 7979 M
-63 0 V
stroke
14025 7979 M
[ [(Times-Roman) 280.0 0.0 true true 0 (1.0)]
] -93.3 MLshow
1.000 UL
LTb
13857 8861 M
-63 0 V
stroke
14025 8861 M
[ [(Times-Roman) 280.0 0.0 true true 0 (1.5)]
] -93.3 MLshow
1.000 UL
LTb
13857 9742 M
-63 0 V
stroke
14025 9742 M
[ [(Times-Roman) 280.0 0.0 true true 0 (2.0)]
] -93.3 MLshow
1.000 UL
LTb
1.000 UL
LTb
9012 9742 N
0 -3526 V
4845 0 V
0 3526 V
-4845 0 V
Z stroke
LCb setrgbcolor
LTb
LCb setrgbcolor
11434 5516 M
[ [(Times-Roman) 280.0 0.0 true true 0 (Strength of magnet ksf5 [T/m)]
[(Times-Roman) 224.0 140.0 true true 0 (2)]
[(Times-Roman) 280.0 0.0 true true 0 (].)]
] -121.3 MCshow
LTb
1.000 UP
1.000 UL
LTb
% Begin plot #1
1.000 UL
LT0
9012 6225 M
1211 33 V
49 4 V
48 5 V
49 5 V
48 6 V
49 7 V
48 8 V
48 10 V
49 12 V
48 13 V
49 15 V
48 19 V
49 22 V
48 26 V
49 35 V
48 42 V
48 52 V
49 67 V
48 80 V
49 106 V
48 136 V
49 190 V
48 282 V
49 396 V
48 590 V
49 775 V
0 -2 V
48 168 V
48 -847 V
49 -657 V
48 -420 V
49 -282 V
48 -190 V
49 -136 V
48 -106 V
49 -83 V
48 -70 V
48 -53 V
49 -41 V
48 -33 V
49 -26 V
48 -23 V
49 -19 V
48 -16 V
49 -13 V
48 -11 V
49 -8 V
48 -9 V
48 -7 V
49 -5 V
48 -6 V
1260 -41 V
% End plot #1
% Begin plot #2
stroke
LT1
9012 6265 M
1211 81 V
49 7 V
48 7 V
49 10 V
48 12 V
49 12 V
48 16 V
48 15 V
49 18 V
48 22 V
49 23 V
48 26 V
49 32 V
48 34 V
49 40 V
48 60 V
48 67 V
49 82 V
48 100 V
49 115 V
48 157 V
49 214 V
48 303 V
49 367 V
48 507 V
49 439 V
0 25 V
48 92 V
48 -623 V
49 -529 V
48 -342 V
49 -266 V
48 -193 V
49 -166 V
48 -119 V
49 -93 V
48 -83 V
48 -59 V
49 -46 V
48 -50 V
49 -36 V
48 -29 V
49 -29 V
48 -23 V
49 -22 V
48 -17 V
49 -15 V
48 -13 V
48 -11 V
49 -10 V
48 -11 V
1260 -96 V
% End plot #2
stroke
LTb
9012 9742 N
0 -3526 V
4845 0 V
0 3526 V
-4845 0 V
Z stroke
1.000 UP
1.000 UL
LTb
stroke
grestore
end
showpage
%%Trailer
%%DocumentFonts: Times-Roman
