\relax 
\citation{bib:madx}
\citation{bib:placet}
\citation{bib:cas}
\citation{bib:madx}
\citation{bib:placet}
\citation{bib:python}
\citation{bib:git}
\citation{bib:mapclass}
\citation{bib:madx}
\@writefile{toc}{\contentsline {section}{\numberline {1}Project Targets}{2}}
\newlabel{eq:luminosity}{{1}{2}}
\@writefile{toc}{\contentsline {section}{\numberline {2}Procedure}{2}}
\@writefile{lof}{\contentsline {figure}{\numberline {1}{\ignorespaces Output of scanning process. First columns contain name of the element, followed by their value and resulting luminosity.}}{2}}
\newlabel{fig:output}{{1}{2}}
\@writefile{toc}{\contentsline {subsection}{\numberline {2.1}Used Tools}{2}}
\@writefile{toc}{\contentsline {section}{\numberline {3}Results}{2}}
\citation{bib:clic}
\@writefile{toc}{\contentsline {subsection}{\numberline {3.1}Magnets strength}{3}}
\newlabel{eq:octupole}{{2}{3}}
\newlabel{eq:decapole}{{3}{3}}
\newlabel{eq:octupole_int}{{4}{3}}
\newlabel{eq:decapole_int}{{5}{3}}
\newlabel{eq:octupole_int_v}{{6}{3}}
\newlabel{eq:decapole_int_v}{{7}{3}}
\@writefile{lot}{\contentsline {table}{\numberline {1}{\ignorespaces Parameters summary. Values before, after optimization and designed values for 3\nobreakspace  {}TeV.}}{3}}
\newlabel{tab:summary}{{1}{3}}
\@writefile{lof}{\contentsline {figure}{\numberline {2}{\ignorespaces Beam size at the interaction point.}}{4}}
\newlabel{fig:sigma}{{2}{4}}
\@writefile{lof}{\contentsline {figure}{\numberline {3}{\ignorespaces Luminosity dependence on magnet strength.}}{4}}
\newlabel{fig:magnet}{{3}{4}}
\@writefile{lof}{\contentsline {figure}{\numberline {4}{\ignorespaces Luminosity dependence on magnet strength.}}{5}}
\newlabel{fig:magnet2}{{4}{5}}
\@writefile{lof}{\contentsline {figure}{\numberline {5}{\ignorespaces Luminosity dependence on two elements.}}{5}}
\newlabel{fig:magnet3}{{5}{5}}
\bibcite{bib:madx}{1}
\bibcite{bib:cas}{2}
\bibcite{bib:git}{3}
\bibcite{bib:python}{4}
\bibcite{bib:placet}{5}
\bibcite{bib:mapclass}{6}
\bibcite{bib:clic}{7}
\@writefile{toc}{\contentsline {section}{\numberline {4}Conclusion}{6}}
