# Created by Octave 4.2.2, Tue Apr 10 21:59:51 2018 CEST <alatina@macbe16641.dyndns.cern.ch>
# name: dE_f
# type: matrix
# rows: 100
# columns: 1
 0.007712672182488152
 0.007715126188644304
 0.007711909887128736
 0.007714754310893729
 0.007715035237625413
 0.007703892484625269
 0.007715564067900787
 0.007722012827827202
 0.007714073763821249
 0.007712507493113372
 0.007715706209604409
 0.007711112161392528
 0.007715916869460826
 0.007709363164243045
 0.007716391181546452
 0.007715672684870392
 0.007713844678973704
 0.007714357849093014
 0.007718964937214579
 0.007707947586700729
 0.007713555665084066
 0.007716811389224078
 0.007712596850628021
 0.007711542278406047
 0.007714354816968732
 0.007713107065028639
 0.007716297490292783
 0.007711800172165511
 0.007721236484424677
 0.007711918147003545
 0.007724390636242165
 0.007710076915498403
 0.007712649702317186
 0.007714885927699883
 0.007719549123393176
 0.007715134202991266
 0.007707259225961916
 0.007709128153859195
 0.007715565001991378
 0.007721132738453566
 0.007717182223524715
 0.007716461509390402
 0.00771080290619532
 0.007718078495556168
 0.007717089383469111
 0.007715740910382735
 0.007711891432243331
 0.007713642993049817
 0.007713307508724578
 0.007714030699525432
 0.007716778276945242
 0.007713365677676445
 0.007711623213558891
 0.007720482127569476
 0.007708970999256022
 0.007719297730727539
 0.007712915750699249
 0.007714527161359666
 0.00771466880741336
 0.007709324261861343
 0.007718133991293592
 0.007717925599532763
 0.007716073229432144
 0.007716821115357524
 0.007715063268437281
 0.007718189979016551
 0.007713101663463609
 0.007714921521418387
 0.007717590732460397
 0.007717630092767767
 0.007719508847211815
 0.007714866706778923
 0.007720027973705952
 0.007715092729947521
 0.007714491101796049
 0.007720016318335914
 0.007714687675878481
 0.007711252359313852
 0.007716222048507699
 0.007716761928399335
 0.007720081026320116
 0.007712641742084893
 0.007719223173497265
 0.007706886770927299
 0.007716869269359237
 0.007717002715975633
 0.007715728545501949
 0.007715113770476486
 0.007714601285065532
 0.007711497017429431
 0.007715717950949165
 0.007720813746228487
 0.007720192836178378
 0.007715946937717498
 0.007720788182557585
 0.007716250276154988
 0.00771489117234427
 0.007717658431791321
 0.007708978921358089
 0.007713310560260143


