%!PS-Adobe-2.0 EPSF-2.0
%%Title: sscheme2_bw.fig
%%Creator: fig2dev Version 3.1 Patchlevel 2
%%CreationDate: Mon May  8 10:29:27 2000
%%For: seryi@flora01 (Andrei Seryi)
%Magnification: 1.00
%%Orientation: Landscape
%%BoundingBox: 0 0 173 706
%%Pages: 0
%%BeginSetup
%%IncludeFeature: *PageSize Letter
%%EndSetup
%%EndComments
/$F2psDict 200 dict def
$F2psDict begin
$F2psDict /mtrx matrix put
/col-1 {0 setgray} bind def
/col0 {0.000 0.000 0.000 srgb} bind def
/col1 {0.000 0.000 1.000 srgb} bind def
/col2 {0.000 1.000 0.000 srgb} bind def
/col3 {0.000 1.000 1.000 srgb} bind def
/col4 {1.000 0.000 0.000 srgb} bind def
/col5 {1.000 0.000 1.000 srgb} bind def
/col6 {1.000 1.000 0.000 srgb} bind def
/col7 {1.000 1.000 1.000 srgb} bind def
/col8 {0.000 0.000 0.560 srgb} bind def
/col9 {0.000 0.000 0.690 srgb} bind def
/col10 {0.000 0.000 0.820 srgb} bind def
/col11 {0.530 0.810 1.000 srgb} bind def
/col12 {0.000 0.560 0.000 srgb} bind def
/col13 {0.000 0.690 0.000 srgb} bind def
/col14 {0.000 0.820 0.000 srgb} bind def
/col15 {0.000 0.560 0.560 srgb} bind def
/col16 {0.000 0.690 0.690 srgb} bind def
/col17 {0.000 0.820 0.820 srgb} bind def
/col18 {0.560 0.000 0.000 srgb} bind def
/col19 {0.690 0.000 0.000 srgb} bind def
/col20 {0.820 0.000 0.000 srgb} bind def
/col21 {0.560 0.000 0.560 srgb} bind def
/col22 {0.690 0.000 0.690 srgb} bind def
/col23 {0.820 0.000 0.820 srgb} bind def
/col24 {0.500 0.190 0.000 srgb} bind def
/col25 {0.630 0.250 0.000 srgb} bind def
/col26 {0.750 0.380 0.000 srgb} bind def
/col27 {1.000 0.500 0.500 srgb} bind def
/col28 {1.000 0.630 0.630 srgb} bind def
/col29 {1.000 0.750 0.750 srgb} bind def
/col30 {1.000 0.880 0.880 srgb} bind def
/col31 {1.000 0.840 0.000 srgb} bind def

end
save
-181.0 -34.0 translate
 90 rotate
1 -1 scale

/cp {closepath} bind def
/ef {eofill} bind def
/gr {grestore} bind def
/gs {gsave} bind def
/sa {save} bind def
/rs {restore} bind def
/l {lineto} bind def
/m {moveto} bind def
/rm {rmoveto} bind def
/n {newpath} bind def
/s {stroke} bind def
/sh {show} bind def
/slc {setlinecap} bind def
/slj {setlinejoin} bind def
/slw {setlinewidth} bind def
/srgb {setrgbcolor} bind def
/rot {rotate} bind def
/sc {scale} bind def
/sd {setdash} bind def
/ff {findfont} bind def
/sf {setfont} bind def
/scf {scalefont} bind def
/sw {stringwidth} bind def
/tr {translate} bind def
/tnt {dup dup currentrgbcolor
  4 -2 roll dup 1 exch sub 3 -1 roll mul add
  4 -2 roll dup 1 exch sub 3 -1 roll mul add
  4 -2 roll dup 1 exch sub 3 -1 roll mul add srgb}
  bind def
/shd {dup dup currentrgbcolor 4 -2 roll mul 4 -2 roll mul
  4 -2 roll mul srgb} bind def
/$F2psBegin {$F2psDict begin /$F2psEnteredState save def} def
/$F2psEnd {$F2psEnteredState restore end} def
%%EndProlog

$F2psBegin
10 setmiterlimit
n 0 612 m 0 0 l 792 0 l 792 612 l cp clip
 0.06000 0.06000 sc
15.000 slw
% Arc
gs n 7087.5 4500.0 637.5 -151.9 151.9 arcn
gs col-1 s gr
 gr

% Arc
gs n 5962.5 4500.0 637.5 -28.1 28.1 arc
gs col-1 s gr
 gr

% Arc
gs n 6187.5 4500.0 637.5 -28.1 28.1 arc
gs col-1 s gr
 gr

% Arc
gs n 7537.5 4500.0 637.5 -151.9 151.9 arcn
gs col-1 s gr
 gr

% Arc
gs n 2812.5 4500.0 637.5 -151.9 151.9 arcn
gs col-1 s gr
 gr

% Arc
gs n 1462.5 4500.0 637.5 -28.1 28.1 arc
gs col-1 s gr
 gr

% Arc
gs n 1237.5 4500.0 637.5 -28.1 28.1 arc
gs col-1 s gr
 gr

% Arc
gs n 2362.5 4500.0 637.5 -151.9 151.9 arcn
gs col-1 s gr
 gr

% Arc
gs n 2062.5 4500.0 637.5 -151.9 151.9 arcn
gs col-1 s gr
 gr

% Arc
gs n 712.5 4500.0 637.5 -28.1 28.1 arc
gs col-1 s gr
 gr

% Arc
gs n 487.5 4500.0 637.5 -28.1 28.1 arc
gs col-1 s gr
 gr

% Arc
gs n 1612.5 4500.0 637.5 -151.9 151.9 arcn
gs col-1 s gr
 gr

45.000 slw
% Arc
gs n 3543.8 4500.0 993.8 -148.1 148.1 arcn
gs col0 s gr
 gr

% Arc
gs n 1856.2 4500.0 993.8 -31.9 31.9 arc
gs col0 s gr
 gr

% Arc
gs n 9543.8 4500.0 993.8 -148.1 148.1 arcn
gs col0 s gr
 gr

% Arc
gs n 7856.2 4500.0 993.8 -31.9 31.9 arc
gs col0 s gr
 gr

30.000 slw
% Arc
gs  clippath
7932 3582 m 8182 3855 l 7833 3732 l 8238 4000 l 8337 3850 l  cp clip
n 5700.0 7349.3 4289.6 -126.5 -53.5 arc
gs col0 s gr
 gr

% arrowhead
n 7932 3582 m 8182 3855 l 7833 3732 l  col0 s
% Arc
gs  clippath
9147 5247 m 9511 5178 l 9222 5411 l 9663 5208 l 9588 5044 l  cp clip
n 6862.5 -230.9 6026.0 116.2 63.1 arcn
gs col0 s gr
 gr

% arrowhead
n 9147 5247 m 9511 5178 l 9222 5411 l  col0 s
45.000 slw
% Arc
gs n 2831.2 4500.0 993.8 -31.9 31.9 arc
gs col0 s gr
 gr

% Arc
gs n 4893.8 4500.0 993.8 -148.1 148.1 arcn
gs col0 s gr
 gr

% Arc
gs n 8981.2 4500.0 993.8 -31.9 31.9 arc
gs col0 s gr
 gr

% Arc
gs n 11043.8 4500.0 993.8 -148.1 148.1 arcn
gs col0 s gr
 gr

30.000 slw
% Arc
gs  clippath
11113 5143 m 11420 4935 l 11247 5263 l 11572 4902 l 11438 4781 l  cp clip
n 9768.7 3643.6 2104.2 136.2 35.8 arcn
gs col0 s gr
 gr

% arrowhead
n 11113 5143 m 11420 4935 l 11247 5263 l  col0 s
% Arc
gs  clippath
11310 3819 m 11493 4141 l 11180 3944 l 11516 4295 l 11646 4170 l  cp clip
n 10482.8 4910.6 1282.1 -129.1 -33.7 arc
gs col0 s gr
 gr

% arrowhead
n 11310 3819 m 11493 4141 l 11180 3944 l  col0 s
15.000 slw
% Polyline
n 6750 4200 m 6975 4200 l gs col-1 s gr 
% Polyline
n 6750 4800 m 6975 4800 l gs col-1 s gr 
% Polyline
n 2025 4200 m 2250 4200 l gs col-1 s gr 
% Polyline
n 2025 4800 m 2250 4800 l gs col-1 s gr 
% Polyline
n 1275 4800 m 1500 4800 l gs col-1 s gr 
% Polyline
n 1275 4200 m 1500 4200 l gs col-1 s gr 
45.000 slw
% Polyline
n 3675 3975 m 4050 3975 l gs col0 s gr 
% Polyline
n 3675 5025 m 4050 5025 l gs col0 s gr 
% Polyline
n 9825 3975 m 10200 3975 l gs col0 s gr 
% Polyline
n 9825 5025 m 10200 5025 l gs col0 s gr 
% Polyline
n 3000 4800 m 3000 4200 l 3150 4050 l 3300 4200 l 3300 4800 l 3150 4950 l
 3000 4800 l cp gs 0.00 setgray ef gr gs col0 s gr 
% Polyline
n 4050 4800 m 4050 4200 l 4200 4050 l 4350 4200 l 4350 4800 l 4200 4950 l
 4050 4800 l cp gs 0.00 setgray ef gr gs col0 s gr 
% Polyline
n 8100 4800 m 8100 4200 l 8250 4050 l 8400 4200 l 8400 4800 l 8250 4950 l
 8100 4800 l cp gs 0.00 setgray ef gr gs col0 s gr 
% Polyline
n 9450 4800 m 9450 4200 l 9600 4050 l 9750 4200 l 9750 4800 l 9600 4950 l
 9450 4800 l cp gs 0.00 setgray ef gr gs col0 s gr 
% Polyline
n 5400 4200 m 6000 4200 l 6225 4800 l 5175 4800 l 5400 4200 l cp gs 0.00 setgray ef gr gs col0 s gr 
15.000 slw
% Polyline
n 600 4500 m 12300 4500 l gs col0 s gr 
30.000 slw
% Polyline
n 11475 4350 m 11700 4725 l gs col0 s gr 
% Polyline
n 11400 4650 m 11625 4425 l gs col0 s gr 
/Times-Roman ff 360.00 scf sf
8400 3600 m
gs 1 -1 sc (Doublet) col0 sh gr
/Times-Roman ff 360.00 scf sf
8625 3225 m
gs 1 -1 sc (Final) col0 sh gr
/Times-Roman ff 300.00 scf sf
6750 5715 m
gs 1 -1 sc (D) col0 sh gr
/Times-Roman ff 300.00 scf sf
10575 3600 m
gs 1 -1 sc (D) col0 sh gr
/Times-Roman ff 300.00 scf sf
4695 5130 m
gs 1 -1 sc (D2) col0 sh gr
/Times-Roman ff 300.00 scf sf
3420 5535 m
gs 1 -1 sc (F2) col0 sh gr
/Times-Roman ff 360.00 scf sf
5055 3450 m
gs 1 -1 sc (M) col0 sh gr
/Times-Roman ff 360.00 scf sf
4500 4980 m
gs 1 -1 sc (S) col0 sh gr
/Times-Roman ff 360.00 scf sf
3210 5310 m
gs 1 -1 sc (S) col0 sh gr
/Times-Roman ff 360.00 scf sf
6420 5640 m
gs 1 -1 sc (M) col0 sh gr
/Times-Roman ff 360.00 scf sf
7575 4980 m
gs 1 -1 sc (S) col0 sh gr
/Times-Roman ff 360.00 scf sf
10305 3435 m
gs 1 -1 sc (R) col0 sh gr
/Times-Roman ff 360.00 scf sf
9030 4965 m
gs 1 -1 sc (S) col0 sh gr
/Times-Roman ff 300.00 scf sf
7785 5115 m
gs 1 -1 sc (F1) col0 sh gr
/Times-Roman ff 300.00 scf sf
5415 3570 m
gs 1 -1 sc (F) col0 sh gr
/Times-Roman ff 300.00 scf sf
9195 5085 m
gs 1 -1 sc (D1) col0 sh gr
/Times-Roman ff 360.00 scf sf
5325 4050 m
gs 1 -1 sc (Bend) col0 sh gr
/Times-Roman ff 360.00 scf sf
11760 5025 m
gs 1 -1 sc (IP) col0 sh gr
/Times-Roman ff 360.00 scf sf
10875 5715 m
gs 1 -1 sc (R) col0 sh gr
/Times-Roman ff 300.00 scf sf
11100 5850 m
gs 1 -1 sc (F) col0 sh gr
$F2psEnd
rs
