\relax 
\citation{fftb}
\citation{pep2}
\citation{kekb}
\citation{lett}
\citation{atf2}
\citation{MADX}
\citation{PTC}
\citation{nonlin}
\citation{irwin}
\@writefile{lof}{\contentsline {figure}{\numberline {7.1}{\ignorespaces Sketch of FFS with local chromaticity correction.}}{1}}
\newlabel{lff}{{7.1}{1}}
\@writefile{toc}{\contentsline {section}{\numberline {7.6}Focusing at interaction point}{1}}
\newlabel{ffs-design}{{7.6}{1}}
\newlabel{ffs-opt}{{7.6}{1}}
\newlabel{xmap }{{7.6}{1}}
\bibcite{fftb}{1}
\bibcite{pep2}{2}
\bibcite{kekb}{3}
\bibcite{lett}{4}
\bibcite{atf2}{5}
\bibcite{MADX}{6}
\bibcite{PTC}{7}
\bibcite{nonlin}{8}
\bibcite{irwin}{9}
\newlabel{ffs-tun}{{7.6}{2}}
\newlabel{refsec7}{{7.6}{2}}
