%!PS-Adobe-2.0
%%Title: ffs_layout.eps
%%Creator: gnuplot 4.0 patchlevel 0
%%CreationDate: Wed Jul  4 11:27:28 2012
%%DocumentFonts: (atend)
%%BoundingBox: 50 50 554 1490
%%Orientation: Landscape
%%Pages: (atend)
%%EndComments
/gnudict 256 dict def
gnudict begin
/Color true def
/Solid true def
/gnulinewidth 5.000 def
/userlinewidth gnulinewidth def
/vshift -80 def
/dl {10.0 mul} def
/hpt_ 31.5 def
/vpt_ 31.5 def
/hpt hpt_ def
/vpt vpt_ def
/Rounded false def
/M {moveto} bind def
/L {lineto} bind def
/R {rmoveto} bind def
/V {rlineto} bind def
/N {newpath moveto} bind def
/C {setrgbcolor} bind def
/f {rlineto fill} bind def
/vpt2 vpt 2 mul def
/hpt2 hpt 2 mul def
/Lshow { currentpoint stroke M
  0 vshift R show } def
/Rshow { currentpoint stroke M
  dup stringwidth pop neg vshift R show } def
/Cshow { currentpoint stroke M
  dup stringwidth pop -2 div vshift R show } def
/UP { dup vpt_ mul /vpt exch def hpt_ mul /hpt exch def
  /hpt2 hpt 2 mul def /vpt2 vpt 2 mul def } def
/DL { Color {setrgbcolor Solid {pop []} if 0 setdash }
 {pop pop pop 0 setgray Solid {pop []} if 0 setdash} ifelse } def
/BL { stroke userlinewidth 2 mul setlinewidth
      Rounded { 1 setlinejoin 1 setlinecap } if } def
/AL { stroke userlinewidth 2 div setlinewidth
      Rounded { 1 setlinejoin 1 setlinecap } if } def
/UL { dup gnulinewidth mul /userlinewidth exch def
      dup 1 lt {pop 1} if 10 mul /udl exch def } def
/PL { stroke userlinewidth setlinewidth
      Rounded { 1 setlinejoin 1 setlinecap } if } def
/LTw { PL [] 1 setgray } def
/LTb { BL [] 0 0 0 DL } def
/LTa { AL [1 udl mul 2 udl mul] 0 setdash 0 0 0 setrgbcolor } def
/LT0 { PL [] 1 0 0 DL } def
/LT1 { PL [4 dl 2 dl] 0 1 0 DL } def
/LT2 { PL [2 dl 3 dl] 0 0 1 DL } def
/LT3 { PL [1 dl 1.5 dl] 1 0 1 DL } def
/LT4 { PL [5 dl 2 dl 1 dl 2 dl] 0 1 1 DL } def
/LT5 { PL [4 dl 3 dl 1 dl 3 dl] 1 1 0 DL } def
/LT6 { PL [2 dl 2 dl 2 dl 4 dl] 0 0 0 DL } def
/LT7 { PL [2 dl 2 dl 2 dl 2 dl 2 dl 4 dl] 1 0.3 0 DL } def
/LT8 { PL [2 dl 2 dl 2 dl 2 dl 2 dl 2 dl 2 dl 4 dl] 0.5 0.5 0.5 DL } def
/Pnt { stroke [] 0 setdash
   gsave 1 setlinecap M 0 0 V stroke grestore } def
/Dia { stroke [] 0 setdash 2 copy vpt add M
  hpt neg vpt neg V hpt vpt neg V
  hpt vpt V hpt neg vpt V closepath stroke
  Pnt } def
/Pls { stroke [] 0 setdash vpt sub M 0 vpt2 V
  currentpoint stroke M
  hpt neg vpt neg R hpt2 0 V stroke
  } def
/Box { stroke [] 0 setdash 2 copy exch hpt sub exch vpt add M
  0 vpt2 neg V hpt2 0 V 0 vpt2 V
  hpt2 neg 0 V closepath stroke
  Pnt } def
/Crs { stroke [] 0 setdash exch hpt sub exch vpt add M
  hpt2 vpt2 neg V currentpoint stroke M
  hpt2 neg 0 R hpt2 vpt2 V stroke } def
/TriU { stroke [] 0 setdash 2 copy vpt 1.12 mul add M
  hpt neg vpt -1.62 mul V
  hpt 2 mul 0 V
  hpt neg vpt 1.62 mul V closepath stroke
  Pnt  } def
/Star { 2 copy Pls Crs } def
/BoxF { stroke [] 0 setdash exch hpt sub exch vpt add M
  0 vpt2 neg V  hpt2 0 V  0 vpt2 V
  hpt2 neg 0 V  closepath fill } def
/TriUF { stroke [] 0 setdash vpt 1.12 mul add M
  hpt neg vpt -1.62 mul V
  hpt 2 mul 0 V
  hpt neg vpt 1.62 mul V closepath fill } def
/TriD { stroke [] 0 setdash 2 copy vpt 1.12 mul sub M
  hpt neg vpt 1.62 mul V
  hpt 2 mul 0 V
  hpt neg vpt -1.62 mul V closepath stroke
  Pnt  } def
/TriDF { stroke [] 0 setdash vpt 1.12 mul sub M
  hpt neg vpt 1.62 mul V
  hpt 2 mul 0 V
  hpt neg vpt -1.62 mul V closepath fill} def
/DiaF { stroke [] 0 setdash vpt add M
  hpt neg vpt neg V hpt vpt neg V
  hpt vpt V hpt neg vpt V closepath fill } def
/Pent { stroke [] 0 setdash 2 copy gsave
  translate 0 hpt M 4 {72 rotate 0 hpt L} repeat
  closepath stroke grestore Pnt } def
/PentF { stroke [] 0 setdash gsave
  translate 0 hpt M 4 {72 rotate 0 hpt L} repeat
  closepath fill grestore } def
/Circle { stroke [] 0 setdash 2 copy
  hpt 0 360 arc stroke Pnt } def
/CircleF { stroke [] 0 setdash hpt 0 360 arc fill } def
/C0 { BL [] 0 setdash 2 copy moveto vpt 90 450  arc } bind def
/C1 { BL [] 0 setdash 2 copy        moveto
       2 copy  vpt 0 90 arc closepath fill
               vpt 0 360 arc closepath } bind def
/C2 { BL [] 0 setdash 2 copy moveto
       2 copy  vpt 90 180 arc closepath fill
               vpt 0 360 arc closepath } bind def
/C3 { BL [] 0 setdash 2 copy moveto
       2 copy  vpt 0 180 arc closepath fill
               vpt 0 360 arc closepath } bind def
/C4 { BL [] 0 setdash 2 copy moveto
       2 copy  vpt 180 270 arc closepath fill
               vpt 0 360 arc closepath } bind def
/C5 { BL [] 0 setdash 2 copy moveto
       2 copy  vpt 0 90 arc
       2 copy moveto
       2 copy  vpt 180 270 arc closepath fill
               vpt 0 360 arc } bind def
/C6 { BL [] 0 setdash 2 copy moveto
      2 copy  vpt 90 270 arc closepath fill
              vpt 0 360 arc closepath } bind def
/C7 { BL [] 0 setdash 2 copy moveto
      2 copy  vpt 0 270 arc closepath fill
              vpt 0 360 arc closepath } bind def
/C8 { BL [] 0 setdash 2 copy moveto
      2 copy vpt 270 360 arc closepath fill
              vpt 0 360 arc closepath } bind def
/C9 { BL [] 0 setdash 2 copy moveto
      2 copy  vpt 270 450 arc closepath fill
              vpt 0 360 arc closepath } bind def
/C10 { BL [] 0 setdash 2 copy 2 copy moveto vpt 270 360 arc closepath fill
       2 copy moveto
       2 copy vpt 90 180 arc closepath fill
               vpt 0 360 arc closepath } bind def
/C11 { BL [] 0 setdash 2 copy moveto
       2 copy  vpt 0 180 arc closepath fill
       2 copy moveto
       2 copy  vpt 270 360 arc closepath fill
               vpt 0 360 arc closepath } bind def
/C12 { BL [] 0 setdash 2 copy moveto
       2 copy  vpt 180 360 arc closepath fill
               vpt 0 360 arc closepath } bind def
/C13 { BL [] 0 setdash  2 copy moveto
       2 copy  vpt 0 90 arc closepath fill
       2 copy moveto
       2 copy  vpt 180 360 arc closepath fill
               vpt 0 360 arc closepath } bind def
/C14 { BL [] 0 setdash 2 copy moveto
       2 copy  vpt 90 360 arc closepath fill
               vpt 0 360 arc } bind def
/C15 { BL [] 0 setdash 2 copy vpt 0 360 arc closepath fill
               vpt 0 360 arc closepath } bind def
/Rec   { newpath 4 2 roll moveto 1 index 0 rlineto 0 exch rlineto
       neg 0 rlineto closepath } bind def
/Square { dup Rec } bind def
/Bsquare { vpt sub exch vpt sub exch vpt2 Square } bind def
/S0 { BL [] 0 setdash 2 copy moveto 0 vpt rlineto BL Bsquare } bind def
/S1 { BL [] 0 setdash 2 copy vpt Square fill Bsquare } bind def
/S2 { BL [] 0 setdash 2 copy exch vpt sub exch vpt Square fill Bsquare } bind def
/S3 { BL [] 0 setdash 2 copy exch vpt sub exch vpt2 vpt Rec fill Bsquare } bind def
/S4 { BL [] 0 setdash 2 copy exch vpt sub exch vpt sub vpt Square fill Bsquare } bind def
/S5 { BL [] 0 setdash 2 copy 2 copy vpt Square fill
       exch vpt sub exch vpt sub vpt Square fill Bsquare } bind def
/S6 { BL [] 0 setdash 2 copy exch vpt sub exch vpt sub vpt vpt2 Rec fill Bsquare } bind def
/S7 { BL [] 0 setdash 2 copy exch vpt sub exch vpt sub vpt vpt2 Rec fill
       2 copy vpt Square fill
       Bsquare } bind def
/S8 { BL [] 0 setdash 2 copy vpt sub vpt Square fill Bsquare } bind def
/S9 { BL [] 0 setdash 2 copy vpt sub vpt vpt2 Rec fill Bsquare } bind def
/S10 { BL [] 0 setdash 2 copy vpt sub vpt Square fill 2 copy exch vpt sub exch vpt Square fill
       Bsquare } bind def
/S11 { BL [] 0 setdash 2 copy vpt sub vpt Square fill 2 copy exch vpt sub exch vpt2 vpt Rec fill
       Bsquare } bind def
/S12 { BL [] 0 setdash 2 copy exch vpt sub exch vpt sub vpt2 vpt Rec fill Bsquare } bind def
/S13 { BL [] 0 setdash 2 copy exch vpt sub exch vpt sub vpt2 vpt Rec fill
       2 copy vpt Square fill Bsquare } bind def
/S14 { BL [] 0 setdash 2 copy exch vpt sub exch vpt sub vpt2 vpt Rec fill
       2 copy exch vpt sub exch vpt Square fill Bsquare } bind def
/S15 { BL [] 0 setdash 2 copy Bsquare fill Bsquare } bind def
/D0 { gsave translate 45 rotate 0 0 S0 stroke grestore } bind def
/D1 { gsave translate 45 rotate 0 0 S1 stroke grestore } bind def
/D2 { gsave translate 45 rotate 0 0 S2 stroke grestore } bind def
/D3 { gsave translate 45 rotate 0 0 S3 stroke grestore } bind def
/D4 { gsave translate 45 rotate 0 0 S4 stroke grestore } bind def
/D5 { gsave translate 45 rotate 0 0 S5 stroke grestore } bind def
/D6 { gsave translate 45 rotate 0 0 S6 stroke grestore } bind def
/D7 { gsave translate 45 rotate 0 0 S7 stroke grestore } bind def
/D8 { gsave translate 45 rotate 0 0 S8 stroke grestore } bind def
/D9 { gsave translate 45 rotate 0 0 S9 stroke grestore } bind def
/D10 { gsave translate 45 rotate 0 0 S10 stroke grestore } bind def
/D11 { gsave translate 45 rotate 0 0 S11 stroke grestore } bind def
/D12 { gsave translate 45 rotate 0 0 S12 stroke grestore } bind def
/D13 { gsave translate 45 rotate 0 0 S13 stroke grestore } bind def
/D14 { gsave translate 45 rotate 0 0 S14 stroke grestore } bind def
/D15 { gsave translate 45 rotate 0 0 S15 stroke grestore } bind def
/DiaE { stroke [] 0 setdash vpt add M
  hpt neg vpt neg V hpt vpt neg V
  hpt vpt V hpt neg vpt V closepath stroke } def
/BoxE { stroke [] 0 setdash exch hpt sub exch vpt add M
  0 vpt2 neg V hpt2 0 V 0 vpt2 V
  hpt2 neg 0 V closepath stroke } def
/TriUE { stroke [] 0 setdash vpt 1.12 mul add M
  hpt neg vpt -1.62 mul V
  hpt 2 mul 0 V
  hpt neg vpt 1.62 mul V closepath stroke } def
/TriDE { stroke [] 0 setdash vpt 1.12 mul sub M
  hpt neg vpt 1.62 mul V
  hpt 2 mul 0 V
  hpt neg vpt -1.62 mul V closepath stroke } def
/PentE { stroke [] 0 setdash gsave
  translate 0 hpt M 4 {72 rotate 0 hpt L} repeat
  closepath stroke grestore } def
/CircE { stroke [] 0 setdash 
  hpt 0 360 arc stroke } def
/Opaque { gsave closepath 1 setgray fill grestore 0 setgray closepath } def
/DiaW { stroke [] 0 setdash vpt add M
  hpt neg vpt neg V hpt vpt neg V
  hpt vpt V hpt neg vpt V Opaque stroke } def
/BoxW { stroke [] 0 setdash exch hpt sub exch vpt add M
  0 vpt2 neg V hpt2 0 V 0 vpt2 V
  hpt2 neg 0 V Opaque stroke } def
/TriUW { stroke [] 0 setdash vpt 1.12 mul add M
  hpt neg vpt -1.62 mul V
  hpt 2 mul 0 V
  hpt neg vpt 1.62 mul V Opaque stroke } def
/TriDW { stroke [] 0 setdash vpt 1.12 mul sub M
  hpt neg vpt 1.62 mul V
  hpt 2 mul 0 V
  hpt neg vpt -1.62 mul V Opaque stroke } def
/PentW { stroke [] 0 setdash gsave
  translate 0 hpt M 4 {72 rotate 0 hpt L} repeat
  Opaque stroke grestore } def
/CircW { stroke [] 0 setdash 
  hpt 0 360 arc Opaque stroke } def
/BoxFill { gsave Rec 1 setgray fill grestore } def
/BoxColFill {
  gsave Rec
  /Fillden exch def
  currentrgbcolor
  /ColB exch def /ColG exch def /ColR exch def
  /ColR ColR Fillden mul Fillden sub 1 add def
  /ColG ColG Fillden mul Fillden sub 1 add def
  /ColB ColB Fillden mul Fillden sub 1 add def
  ColR ColG ColB setrgbcolor
  fill grestore } def
%
% PostScript Level 1 Pattern Fill routine
% Usage: x y w h s a XX PatternFill
%	x,y = lower left corner of box to be filled
%	w,h = width and height of box
%	  a = angle in degrees between lines and x-axis
%	 XX = 0/1 for no/yes cross-hatch
%
/PatternFill { gsave /PFa [ 9 2 roll ] def
    PFa 0 get PFa 2 get 2 div add PFa 1 get PFa 3 get 2 div add translate
    PFa 2 get -2 div PFa 3 get -2 div PFa 2 get PFa 3 get Rec
    gsave 1 setgray fill grestore clip
    currentlinewidth 0.5 mul setlinewidth
    /PFs PFa 2 get dup mul PFa 3 get dup mul add sqrt def
    0 0 M PFa 5 get rotate PFs -2 div dup translate
	0 1 PFs PFa 4 get div 1 add floor cvi
	{ PFa 4 get mul 0 M 0 PFs V } for
    0 PFa 6 get ne {
	0 1 PFs PFa 4 get div 1 add floor cvi
	{ PFa 4 get mul 0 2 1 roll M PFs 0 V } for
    } if
    stroke grestore } def
%
/Symbol-Oblique /Symbol findfont [1 0 .167 1 0 0] makefont
dup length dict begin {1 index /FID eq {pop pop} {def} ifelse} forall
currentdict end definefont pop
/MFshow {
   { dup 5 get 3 ge
     { 5 get 3 eq {gsave} {grestore} ifelse }
     {dup dup 0 get findfont exch 1 get scalefont setfont
     [ currentpoint ] exch dup 2 get 0 exch R dup 5 get 2 ne {dup dup 6
     get exch 4 get {show} {stringwidth pop 0 R} ifelse }if dup 5 get 0 eq
     {dup 3 get {2 get neg 0 exch R pop} {pop aload pop M} ifelse} {dup 5
     get 1 eq {dup 2 get exch dup 3 get exch 6 get stringwidth pop -2 div
     dup 0 R} {dup 6 get stringwidth pop -2 div 0 R 6 get
     show 2 index {aload pop M neg 3 -1 roll neg R pop pop} {pop pop pop
     pop aload pop M} ifelse }ifelse }ifelse }
     ifelse }
   forall} bind def
/MFwidth {0 exch {dup 3 get{dup dup 0 get findfont exch 1 get scalefont
     setfont 6 get stringwidth pop add} {pop} ifelse} forall} bind def
/MLshow { currentpoint stroke M
  0 exch R MFshow } bind def
/MRshow { currentpoint stroke M
  exch dup MFwidth neg 3 -1 roll R MFshow } def
/MCshow { currentpoint stroke M
  exch dup MFwidth -2 div 3 -1 roll R MFshow } def
end
%%EndProlog
%%Page: 1 1
gnudict begin
gsave
50 50 translate
0.100 0.100 scale
90 rotate
0 -5040 translate
0 setgray
newpath
(Helvetica) findfont 240 scalefont setfont
1.000 UL
LTb
1.000 UL
LTa
408 2520 M
13584 0 V
1.000 UP
LT0
13721 3636 M
currentpoint gsave translate 90 rotate 0 0 moveto
[ [(Helvetica) 240.0 0.0 true true 0 (QD0)]
] -80.0 MLshow
grestore
LT0
13448 3636 M
currentpoint gsave translate 90 rotate 0 0 moveto
[ [(Helvetica) 240.0 0.0 true true 0 (QF1)]
] -80.0 MLshow
grestore
LT0
13911 2743 M
[ [(Helvetica) 240.0 0.0 true true 0 (IP)]
] -80.0 MCshow
LT6
13601 1047 M
currentpoint gsave translate 90 rotate 0 0 moveto
[ [(Helvetica) 240.0 0.0 true true 0 (SD0)]
] -80.0 MLshow
grestore
1.000 UL
LT0
0.600 1199 2520 32 894 BoxColFill
0.600 1230 2520 33 894 BoxColFill
0.600 1272 2520 32 894 BoxColFill
0.600 1303 2520 33 894 BoxColFill
0.600 2785 2520 32 894 BoxColFill
0.600 2816 2520 33 894 BoxColFill
0.600 2858 2520 32 894 BoxColFill
0.600 2889 2520 33 894 BoxColFill
0.600 3308 2520 32 894 BoxColFill
0.600 3339 2520 33 894 BoxColFill
0.600 3422 2520 33 894 BoxColFill
0.600 3454 2520 32 894 BoxColFill
0.600 7287 2520 32 894 BoxColFill
0.600 7318 2520 33 894 BoxColFill
0.600 7953 2520 32 894 BoxColFill
0.600 7984 2520 33 894 BoxColFill
0.600 8619 2520 33 894 BoxColFill
0.600 8651 2520 32 894 BoxColFill
0.600 13384 2520 65 894 BoxColFill
0.600 13448 2520 64 894 BoxColFill
0.600 13667 2520 55 894 BoxColFill
0.600 13721 2520 54 894 BoxColFill
1.000 UL
LT2
0.600 408 2520 1 447 BoxColFill
0.600 408 2520 1 447 BoxColFill
0.600 408 2520 1 447 BoxColFill
0.600 408 2520 1 447 BoxColFill
0.600 408 2520 1 447 BoxColFill
0.600 408 2520 1 447 BoxColFill
0.600 408 2520 1 447 BoxColFill
0.600 408 2520 1 447 BoxColFill
0.600 408 2520 1 447 BoxColFill
0.600 408 2520 1 447 BoxColFill
0.600 408 2520 1 447 BoxColFill
0.600 408 2520 1 447 BoxColFill
0.600 408 2520 1 447 BoxColFill
0.600 408 2520 1 447 BoxColFill
0.600 408 2520 1 447 BoxColFill
0.600 408 2520 1 447 BoxColFill
0.600 408 2520 1 447 BoxColFill
0.600 408 2520 1 447 BoxColFill
0.600 408 2520 1 447 BoxColFill
0.600 408 2520 1 447 BoxColFill
0.600 408 2520 1 447 BoxColFill
0.600 408 2520 1 447 BoxColFill
0.600 408 2520 1 447 BoxColFill
0.600 408 2520 1 447 BoxColFill
0.600 408 2520 1 447 BoxColFill
0.600 408 2520 1 447 BoxColFill
0.600 408 2520 1 447 BoxColFill
0.600 408 2520 1 447 BoxColFill
0.600 408 2520 1 447 BoxColFill
0.600 408 2520 1 447 BoxColFill
0.600 408 2520 1 447 BoxColFill
0.600 408 2520 1 447 BoxColFill
0.600 408 2520 1 447 BoxColFill
0.600 408 2520 1 447 BoxColFill
0.600 408 2520 1 447 BoxColFill
0.600 408 2520 1 447 BoxColFill
0.600 408 2520 1 447 BoxColFill
0.600 408 2520 1 447 BoxColFill
0.600 408 2520 1 447 BoxColFill
0.600 408 2520 1 447 BoxColFill
0.600 408 2520 1 447 BoxColFill
0.600 408 2520 1 447 BoxColFill
0.600 408 2520 1 447 BoxColFill
0.600 408 2520 1 447 BoxColFill
0.600 408 2520 1 447 BoxColFill
0.600 408 2520 1 447 BoxColFill
0.600 408 2520 1 447 BoxColFill
0.600 408 2520 1 447 BoxColFill
0.600 408 2520 1 447 BoxColFill
0.600 408 2520 1 447 BoxColFill
0.600 408 2520 1 447 BoxColFill
0.600 408 2520 1 447 BoxColFill
0.600 408 2520 1 447 BoxColFill
0.600 408 2520 1 447 BoxColFill
0.600 408 2520 1 447 BoxColFill
0.600 408 2520 1 447 BoxColFill
0.600 408 2520 1 447 BoxColFill
0.600 408 2520 1 447 BoxColFill
0.600 408 2520 1 447 BoxColFill
0.600 408 2520 1 447 BoxColFill
0.600 408 2520 1 447 BoxColFill
0.600 408 2520 1 447 BoxColFill
0.600 408 2520 1 447 BoxColFill
0.600 408 2520 1 447 BoxColFill
0.600 408 2520 1 447 BoxColFill
0.600 408 2520 1 447 BoxColFill
0.600 408 2520 1 447 BoxColFill
0.600 408 2520 1 447 BoxColFill
0.600 408 2520 1 447 BoxColFill
0.600 408 2520 1 447 BoxColFill
0.600 408 2520 1 447 BoxColFill
0.600 408 2520 1 447 BoxColFill
0.600 408 2520 1 447 BoxColFill
0.600 408 2520 1 447 BoxColFill
0.600 408 2520 1 447 BoxColFill
0.600 408 2520 1 447 BoxColFill
0.600 408 2520 1 447 BoxColFill
0.600 408 2520 1 447 BoxColFill
0.600 408 2520 1 447 BoxColFill
0.600 408 2520 1 447 BoxColFill
0.600 408 2520 1 447 BoxColFill
0.600 408 2520 1 447 BoxColFill
0.600 408 2520 1 447 BoxColFill
0.600 408 2520 1 447 BoxColFill
0.600 408 2520 1 447 BoxColFill
0.600 408 2520 1 447 BoxColFill
0.600 408 2520 1 447 BoxColFill
0.600 408 2520 1 447 BoxColFill
0.600 408 2520 1 447 BoxColFill
0.600 408 2520 1 447 BoxColFill
0.600 408 2520 1 447 BoxColFill
0.600 408 2520 1 447 BoxColFill
0.600 408 2520 1 447 BoxColFill
0.600 408 2520 1 447 BoxColFill
0.600 408 2520 1 447 BoxColFill
0.600 408 2520 1 447 BoxColFill
0.600 408 2520 1 447 BoxColFill
0.600 408 2520 1 447 BoxColFill
0.600 408 2520 1 447 BoxColFill
0.600 408 2520 1 447 BoxColFill
0.600 408 2520 1 447 BoxColFill
0.600 408 2520 1 447 BoxColFill
0.600 408 2520 1 447 BoxColFill
0.600 408 2520 1 447 BoxColFill
0.600 408 2520 1 447 BoxColFill
0.600 408 2520 1 447 BoxColFill
0.600 4408 2520 288 447 BoxColFill
0.600 4695 2520 288 447 BoxColFill
0.600 4982 2520 288 447 BoxColFill
0.600 5269 2520 288 447 BoxColFill
0.600 5556 2520 288 447 BoxColFill
0.600 5843 2520 288 447 BoxColFill
0.600 6130 2520 287 447 BoxColFill
0.600 6416 2520 288 447 BoxColFill
0.600 6703 2520 288 447 BoxColFill
0.600 6990 2520 288 447 BoxColFill
0.600 7360 2520 59 447 BoxColFill
0.600 7418 2520 59 447 BoxColFill
0.600 7476 2520 60 447 BoxColFill
0.600 7535 2520 59 447 BoxColFill
0.600 7593 2520 59 447 BoxColFill
0.600 7651 2520 60 447 BoxColFill
0.600 7710 2520 59 447 BoxColFill
0.600 7768 2520 59 447 BoxColFill
0.600 7826 2520 60 447 BoxColFill
0.600 7885 2520 59 447 BoxColFill
0.600 8026 2520 59 447 BoxColFill
0.600 8084 2520 59 447 BoxColFill
0.600 8142 2520 60 447 BoxColFill
0.600 8201 2520 59 447 BoxColFill
0.600 8259 2520 60 447 BoxColFill
0.600 8318 2520 59 447 BoxColFill
0.600 8376 2520 59 447 BoxColFill
0.600 8434 2520 60 447 BoxColFill
0.600 8493 2520 59 447 BoxColFill
0.600 8551 2520 59 447 BoxColFill
0.600 8692 2520 59 447 BoxColFill
0.600 8750 2520 60 447 BoxColFill
0.600 8809 2520 59 447 BoxColFill
0.600 8867 2520 59 447 BoxColFill
0.600 8925 2520 60 447 BoxColFill
0.600 8984 2520 59 447 BoxColFill
0.600 9042 2520 59 447 BoxColFill
0.600 9100 2520 60 447 BoxColFill
0.600 9159 2520 59 447 BoxColFill
0.600 9217 2520 59 447 BoxColFill
0.600 9285 2520 59 447 BoxColFill
0.600 9343 2520 60 447 BoxColFill
0.600 9402 2520 59 447 BoxColFill
0.600 9460 2520 60 447 BoxColFill
0.600 9519 2520 59 447 BoxColFill
0.600 9577 2520 59 447 BoxColFill
0.600 9635 2520 60 447 BoxColFill
0.600 9694 2520 59 447 BoxColFill
0.600 9752 2520 59 447 BoxColFill
0.600 9810 2520 60 447 BoxColFill
0.600 9878 2520 60 447 BoxColFill
0.600 9937 2520 59 447 BoxColFill
0.600 9995 2520 59 447 BoxColFill
0.600 10053 2520 60 447 BoxColFill
0.600 10112 2520 59 447 BoxColFill
0.600 10170 2520 59 447 BoxColFill
0.600 10228 2520 60 447 BoxColFill
0.600 10287 2520 59 447 BoxColFill
0.600 10345 2520 59 447 BoxColFill
0.600 10403 2520 60 447 BoxColFill
0.600 10472 2520 59 447 BoxColFill
0.600 10530 2520 59 447 BoxColFill
0.600 10588 2520 60 447 BoxColFill
0.600 10647 2520 59 447 BoxColFill
0.600 10705 2520 59 447 BoxColFill
0.600 10763 2520 60 447 BoxColFill
0.600 10822 2520 59 447 BoxColFill
0.600 10880 2520 59 447 BoxColFill
0.600 10938 2520 60 447 BoxColFill
0.600 10997 2520 59 447 BoxColFill
0.600 11065 2520 59 447 BoxColFill
0.600 11123 2520 59 447 BoxColFill
0.600 11181 2520 60 447 BoxColFill
0.600 11240 2520 59 447 BoxColFill
0.600 11298 2520 59 447 BoxColFill
0.600 11356 2520 60 447 BoxColFill
0.600 11415 2520 59 447 BoxColFill
0.600 11473 2520 60 447 BoxColFill
0.600 11532 2520 59 447 BoxColFill
0.600 11590 2520 59 447 BoxColFill
0.600 11658 2520 59 447 BoxColFill
0.600 11716 2520 60 447 BoxColFill
0.600 11775 2520 59 447 BoxColFill
0.600 11833 2520 59 447 BoxColFill
0.600 11891 2520 60 447 BoxColFill
0.600 11950 2520 59 447 BoxColFill
0.600 12008 2520 59 447 BoxColFill
0.600 12066 2520 60 447 BoxColFill
0.600 12125 2520 59 447 BoxColFill
0.600 12183 2520 59 447 BoxColFill
0.600 12251 2520 59 447 BoxColFill
0.600 12309 2520 60 447 BoxColFill
0.600 12368 2520 59 447 BoxColFill
0.600 12426 2520 60 447 BoxColFill
0.600 12485 2520 59 447 BoxColFill
0.600 12543 2520 59 447 BoxColFill
0.600 12601 2520 60 447 BoxColFill
0.600 12660 2520 59 447 BoxColFill
0.600 12718 2520 59 447 BoxColFill
0.600 12776 2520 60 447 BoxColFill
1.000 UL
LT6
0.600 1157 2520 17 671 BoxColFill
0.600 1173 2520 17 671 BoxColFill
0.600 2041 2520 40 671 BoxColFill
0.600 2931 2520 17 671 BoxColFill
0.600 2947 2520 16 671 BoxColFill
0.600 3381 2520 16 671 BoxColFill
0.600 3396 2520 17 671 BoxColFill
0.600 13355 2520 11 671 BoxColFill
0.600 13365 2520 10 671 BoxColFill
0.600 13638 2520 11 671 BoxColFill
0.600 13648 2520 10 671 BoxColFill
1.000 UL
LT0
0.600 1199 1627 32 894 BoxColFill
0.600 1230 1627 33 894 BoxColFill
0.600 1272 1627 32 894 BoxColFill
0.600 1303 1627 33 894 BoxColFill
0.600 2785 1627 32 894 BoxColFill
0.600 2816 1627 33 894 BoxColFill
0.600 2858 1627 32 894 BoxColFill
0.600 2889 1627 33 894 BoxColFill
0.600 3308 1627 32 894 BoxColFill
0.600 3339 1627 33 894 BoxColFill
0.600 3422 1627 33 894 BoxColFill
0.600 3454 1627 32 894 BoxColFill
0.600 7287 1627 32 894 BoxColFill
0.600 7318 1627 33 894 BoxColFill
0.600 7953 1627 32 894 BoxColFill
0.600 7984 1627 33 894 BoxColFill
0.600 8619 1627 33 894 BoxColFill
0.600 8651 1627 32 894 BoxColFill
0.600 13384 1627 65 894 BoxColFill
0.600 13448 1627 64 894 BoxColFill
0.600 13667 1627 55 894 BoxColFill
0.600 13721 1627 54 894 BoxColFill
1.000 UL
LT2
0.600 408 2074 1 447 BoxColFill
0.600 408 2074 1 447 BoxColFill
0.600 408 2074 1 447 BoxColFill
0.600 408 2074 1 447 BoxColFill
0.600 408 2074 1 447 BoxColFill
0.600 408 2074 1 447 BoxColFill
0.600 408 2074 1 447 BoxColFill
0.600 408 2074 1 447 BoxColFill
0.600 408 2074 1 447 BoxColFill
0.600 408 2074 1 447 BoxColFill
0.600 408 2074 1 447 BoxColFill
0.600 408 2074 1 447 BoxColFill
0.600 408 2074 1 447 BoxColFill
0.600 408 2074 1 447 BoxColFill
0.600 408 2074 1 447 BoxColFill
0.600 408 2074 1 447 BoxColFill
0.600 408 2074 1 447 BoxColFill
0.600 408 2074 1 447 BoxColFill
0.600 408 2074 1 447 BoxColFill
0.600 408 2074 1 447 BoxColFill
0.600 408 2074 1 447 BoxColFill
0.600 408 2074 1 447 BoxColFill
0.600 408 2074 1 447 BoxColFill
0.600 408 2074 1 447 BoxColFill
0.600 408 2074 1 447 BoxColFill
0.600 408 2074 1 447 BoxColFill
0.600 408 2074 1 447 BoxColFill
0.600 408 2074 1 447 BoxColFill
0.600 408 2074 1 447 BoxColFill
0.600 408 2074 1 447 BoxColFill
0.600 408 2074 1 447 BoxColFill
0.600 408 2074 1 447 BoxColFill
0.600 408 2074 1 447 BoxColFill
0.600 408 2074 1 447 BoxColFill
0.600 408 2074 1 447 BoxColFill
0.600 408 2074 1 447 BoxColFill
0.600 408 2074 1 447 BoxColFill
0.600 408 2074 1 447 BoxColFill
0.600 408 2074 1 447 BoxColFill
0.600 408 2074 1 447 BoxColFill
0.600 408 2074 1 447 BoxColFill
0.600 408 2074 1 447 BoxColFill
0.600 408 2074 1 447 BoxColFill
0.600 408 2074 1 447 BoxColFill
0.600 408 2074 1 447 BoxColFill
0.600 408 2074 1 447 BoxColFill
0.600 408 2074 1 447 BoxColFill
0.600 408 2074 1 447 BoxColFill
0.600 408 2074 1 447 BoxColFill
0.600 408 2074 1 447 BoxColFill
0.600 408 2074 1 447 BoxColFill
0.600 408 2074 1 447 BoxColFill
0.600 408 2074 1 447 BoxColFill
0.600 408 2074 1 447 BoxColFill
0.600 408 2074 1 447 BoxColFill
0.600 408 2074 1 447 BoxColFill
0.600 408 2074 1 447 BoxColFill
0.600 408 2074 1 447 BoxColFill
0.600 408 2074 1 447 BoxColFill
0.600 408 2074 1 447 BoxColFill
0.600 408 2074 1 447 BoxColFill
0.600 408 2074 1 447 BoxColFill
0.600 408 2074 1 447 BoxColFill
0.600 408 2074 1 447 BoxColFill
0.600 408 2074 1 447 BoxColFill
0.600 408 2074 1 447 BoxColFill
0.600 408 2074 1 447 BoxColFill
0.600 408 2074 1 447 BoxColFill
0.600 408 2074 1 447 BoxColFill
0.600 408 2074 1 447 BoxColFill
0.600 408 2074 1 447 BoxColFill
0.600 408 2074 1 447 BoxColFill
0.600 408 2074 1 447 BoxColFill
0.600 408 2074 1 447 BoxColFill
0.600 408 2074 1 447 BoxColFill
0.600 408 2074 1 447 BoxColFill
0.600 408 2074 1 447 BoxColFill
0.600 408 2074 1 447 BoxColFill
0.600 408 2074 1 447 BoxColFill
0.600 408 2074 1 447 BoxColFill
0.600 408 2074 1 447 BoxColFill
0.600 408 2074 1 447 BoxColFill
0.600 408 2074 1 447 BoxColFill
0.600 408 2074 1 447 BoxColFill
0.600 408 2074 1 447 BoxColFill
0.600 408 2074 1 447 BoxColFill
0.600 408 2074 1 447 BoxColFill
0.600 408 2074 1 447 BoxColFill
0.600 408 2074 1 447 BoxColFill
0.600 408 2074 1 447 BoxColFill
0.600 408 2074 1 447 BoxColFill
0.600 408 2074 1 447 BoxColFill
0.600 408 2074 1 447 BoxColFill
0.600 408 2074 1 447 BoxColFill
0.600 408 2074 1 447 BoxColFill
0.600 408 2074 1 447 BoxColFill
0.600 408 2074 1 447 BoxColFill
0.600 408 2074 1 447 BoxColFill
0.600 408 2074 1 447 BoxColFill
0.600 408 2074 1 447 BoxColFill
0.600 408 2074 1 447 BoxColFill
0.600 408 2074 1 447 BoxColFill
0.600 408 2074 1 447 BoxColFill
0.600 408 2074 1 447 BoxColFill
0.600 408 2074 1 447 BoxColFill
0.600 408 2074 1 447 BoxColFill
0.600 4408 2074 288 447 BoxColFill
0.600 4695 2074 288 447 BoxColFill
0.600 4982 2074 288 447 BoxColFill
0.600 5269 2074 288 447 BoxColFill
0.600 5556 2074 288 447 BoxColFill
0.600 5843 2074 288 447 BoxColFill
0.600 6130 2074 287 447 BoxColFill
0.600 6416 2074 288 447 BoxColFill
0.600 6703 2074 288 447 BoxColFill
0.600 6990 2074 288 447 BoxColFill
0.600 7360 2074 59 447 BoxColFill
0.600 7418 2074 59 447 BoxColFill
0.600 7476 2074 60 447 BoxColFill
0.600 7535 2074 59 447 BoxColFill
0.600 7593 2074 59 447 BoxColFill
0.600 7651 2074 60 447 BoxColFill
0.600 7710 2074 59 447 BoxColFill
0.600 7768 2074 59 447 BoxColFill
0.600 7826 2074 60 447 BoxColFill
0.600 7885 2074 59 447 BoxColFill
0.600 8026 2074 59 447 BoxColFill
0.600 8084 2074 59 447 BoxColFill
0.600 8142 2074 60 447 BoxColFill
0.600 8201 2074 59 447 BoxColFill
0.600 8259 2074 60 447 BoxColFill
0.600 8318 2074 59 447 BoxColFill
0.600 8376 2074 59 447 BoxColFill
0.600 8434 2074 60 447 BoxColFill
0.600 8493 2074 59 447 BoxColFill
0.600 8551 2074 59 447 BoxColFill
0.600 8692 2074 59 447 BoxColFill
0.600 8750 2074 60 447 BoxColFill
0.600 8809 2074 59 447 BoxColFill
0.600 8867 2074 59 447 BoxColFill
0.600 8925 2074 60 447 BoxColFill
0.600 8984 2074 59 447 BoxColFill
0.600 9042 2074 59 447 BoxColFill
0.600 9100 2074 60 447 BoxColFill
0.600 9159 2074 59 447 BoxColFill
0.600 9217 2074 59 447 BoxColFill
0.600 9285 2074 59 447 BoxColFill
0.600 9343 2074 60 447 BoxColFill
0.600 9402 2074 59 447 BoxColFill
0.600 9460 2074 60 447 BoxColFill
0.600 9519 2074 59 447 BoxColFill
0.600 9577 2074 59 447 BoxColFill
0.600 9635 2074 60 447 BoxColFill
0.600 9694 2074 59 447 BoxColFill
0.600 9752 2074 59 447 BoxColFill
0.600 9810 2074 60 447 BoxColFill
0.600 9878 2074 60 447 BoxColFill
0.600 9937 2074 59 447 BoxColFill
0.600 9995 2074 59 447 BoxColFill
0.600 10053 2074 60 447 BoxColFill
0.600 10112 2074 59 447 BoxColFill
0.600 10170 2074 59 447 BoxColFill
0.600 10228 2074 60 447 BoxColFill
0.600 10287 2074 59 447 BoxColFill
0.600 10345 2074 59 447 BoxColFill
0.600 10403 2074 60 447 BoxColFill
0.600 10472 2074 59 447 BoxColFill
0.600 10530 2074 59 447 BoxColFill
0.600 10588 2074 60 447 BoxColFill
0.600 10647 2074 59 447 BoxColFill
0.600 10705 2074 59 447 BoxColFill
0.600 10763 2074 60 447 BoxColFill
0.600 10822 2074 59 447 BoxColFill
0.600 10880 2074 59 447 BoxColFill
0.600 10938 2074 60 447 BoxColFill
0.600 10997 2074 59 447 BoxColFill
0.600 11065 2074 59 447 BoxColFill
0.600 11123 2074 59 447 BoxColFill
0.600 11181 2074 60 447 BoxColFill
0.600 11240 2074 59 447 BoxColFill
0.600 11298 2074 59 447 BoxColFill
0.600 11356 2074 60 447 BoxColFill
0.600 11415 2074 59 447 BoxColFill
0.600 11473 2074 60 447 BoxColFill
0.600 11532 2074 59 447 BoxColFill
0.600 11590 2074 59 447 BoxColFill
0.600 11658 2074 59 447 BoxColFill
0.600 11716 2074 60 447 BoxColFill
0.600 11775 2074 59 447 BoxColFill
0.600 11833 2074 59 447 BoxColFill
0.600 11891 2074 60 447 BoxColFill
0.600 11950 2074 59 447 BoxColFill
0.600 12008 2074 59 447 BoxColFill
0.600 12066 2074 60 447 BoxColFill
0.600 12125 2074 59 447 BoxColFill
0.600 12183 2074 59 447 BoxColFill
0.600 12251 2074 59 447 BoxColFill
0.600 12309 2074 60 447 BoxColFill
0.600 12368 2074 59 447 BoxColFill
0.600 12426 2074 60 447 BoxColFill
0.600 12485 2074 59 447 BoxColFill
0.600 12543 2074 59 447 BoxColFill
0.600 12601 2074 60 447 BoxColFill
0.600 12660 2074 59 447 BoxColFill
0.600 12718 2074 59 447 BoxColFill
0.600 12776 2074 60 447 BoxColFill
1.000 UL
LT6
0.600 1157 1850 17 671 BoxColFill
0.600 1173 1850 17 671 BoxColFill
0.600 2041 1850 40 671 BoxColFill
0.600 2931 1850 17 671 BoxColFill
0.600 2947 1850 16 671 BoxColFill
0.600 3381 1850 16 671 BoxColFill
0.600 3396 1850 17 671 BoxColFill
0.600 13355 1850 11 671 BoxColFill
0.600 13365 1850 10 671 BoxColFill
0.600 13638 1850 11 671 BoxColFill
0.600 13648 1850 10 671 BoxColFill
1.000 UP
1.000 UL
LT0
13911 2520 CircleF
1.000 UP
stroke
grestore
end
showpage
%%Trailer
%%DocumentFonts: Helvetica
%%Pages: 1
