%!PS-Adobe-2.0
%%Title: BDS.eps
%%Creator: gnuplot 4.0 patchlevel 0
%%CreationDate: Tue Feb  2 17:35:28 2010
%%DocumentFonts: (atend)
%%BoundingBox: 100 50 554 842
%%Orientation: Landscape
%%Pages: (atend)
%%EndComments
/gnudict 256 dict def
gnudict begin
/Color true def
/Solid true def
/gnulinewidth 5.000 def
/userlinewidth gnulinewidth def
/vshift -80 def
/dl {10.0 mul} def
/hpt_ 31.5 def
/vpt_ 31.5 def
/hpt hpt_ def
/vpt vpt_ def
/Rounded false def
/M {moveto} bind def
/L {lineto} bind def
/R {rmoveto} bind def
/V {rlineto} bind def
/N {newpath moveto} bind def
/C {setrgbcolor} bind def
/f {rlineto fill} bind def
/vpt2 vpt 2 mul def
/hpt2 hpt 2 mul def
/Lshow { currentpoint stroke M
  0 vshift R show } def
/Rshow { currentpoint stroke M
  dup stringwidth pop neg vshift R show } def
/Cshow { currentpoint stroke M
  dup stringwidth pop -2 div vshift R show } def
/UP { dup vpt_ mul /vpt exch def hpt_ mul /hpt exch def
  /hpt2 hpt 2 mul def /vpt2 vpt 2 mul def } def
/DL { Color {setrgbcolor Solid {pop []} if 0 setdash }
 {pop pop pop 0 setgray Solid {pop []} if 0 setdash} ifelse } def
/BL { stroke userlinewidth 2 mul setlinewidth
      Rounded { 1 setlinejoin 1 setlinecap } if } def
/AL { stroke userlinewidth 2 div setlinewidth
      Rounded { 1 setlinejoin 1 setlinecap } if } def
/UL { dup gnulinewidth mul /userlinewidth exch def
      dup 1 lt {pop 1} if 10 mul /udl exch def } def
/PL { stroke userlinewidth setlinewidth
      Rounded { 1 setlinejoin 1 setlinecap } if } def
/LTw { PL [] 1 setgray } def
/LTb { BL [] 0 0 0 DL } def
/LTa { AL [1 udl mul 2 udl mul] 0 setdash 0 0 0 setrgbcolor } def
/LT0 { PL [] 1 0 0 DL } def
/LT1 { PL [4 dl 2 dl] 0 1 0 DL } def
/LT2 { PL [2 dl 3 dl] 0 0 1 DL } def
/LT3 { PL [1 dl 1.5 dl] 1 0 1 DL } def
/LT4 { PL [5 dl 2 dl 1 dl 2 dl] 0 1 1 DL } def
/LT5 { PL [4 dl 3 dl 1 dl 3 dl] 1 1 0 DL } def
/LT6 { PL [2 dl 2 dl 2 dl 4 dl] 0 0 0 DL } def
/LT7 { PL [2 dl 2 dl 2 dl 2 dl 2 dl 4 dl] 1 0.3 0 DL } def
/LT8 { PL [2 dl 2 dl 2 dl 2 dl 2 dl 2 dl 2 dl 4 dl] 0.5 0.5 0.5 DL } def
/Pnt { stroke [] 0 setdash
   gsave 1 setlinecap M 0 0 V stroke grestore } def
/Dia { stroke [] 0 setdash 2 copy vpt add M
  hpt neg vpt neg V hpt vpt neg V
  hpt vpt V hpt neg vpt V closepath stroke
  Pnt } def
/Pls { stroke [] 0 setdash vpt sub M 0 vpt2 V
  currentpoint stroke M
  hpt neg vpt neg R hpt2 0 V stroke
  } def
/Box { stroke [] 0 setdash 2 copy exch hpt sub exch vpt add M
  0 vpt2 neg V hpt2 0 V 0 vpt2 V
  hpt2 neg 0 V closepath stroke
  Pnt } def
/Crs { stroke [] 0 setdash exch hpt sub exch vpt add M
  hpt2 vpt2 neg V currentpoint stroke M
  hpt2 neg 0 R hpt2 vpt2 V stroke } def
/TriU { stroke [] 0 setdash 2 copy vpt 1.12 mul add M
  hpt neg vpt -1.62 mul V
  hpt 2 mul 0 V
  hpt neg vpt 1.62 mul V closepath stroke
  Pnt  } def
/Star { 2 copy Pls Crs } def
/BoxF { stroke [] 0 setdash exch hpt sub exch vpt add M
  0 vpt2 neg V  hpt2 0 V  0 vpt2 V
  hpt2 neg 0 V  closepath fill } def
/TriUF { stroke [] 0 setdash vpt 1.12 mul add M
  hpt neg vpt -1.62 mul V
  hpt 2 mul 0 V
  hpt neg vpt 1.62 mul V closepath fill } def
/TriD { stroke [] 0 setdash 2 copy vpt 1.12 mul sub M
  hpt neg vpt 1.62 mul V
  hpt 2 mul 0 V
  hpt neg vpt -1.62 mul V closepath stroke
  Pnt  } def
/TriDF { stroke [] 0 setdash vpt 1.12 mul sub M
  hpt neg vpt 1.62 mul V
  hpt 2 mul 0 V
  hpt neg vpt -1.62 mul V closepath fill} def
/DiaF { stroke [] 0 setdash vpt add M
  hpt neg vpt neg V hpt vpt neg V
  hpt vpt V hpt neg vpt V closepath fill } def
/Pent { stroke [] 0 setdash 2 copy gsave
  translate 0 hpt M 4 {72 rotate 0 hpt L} repeat
  closepath stroke grestore Pnt } def
/PentF { stroke [] 0 setdash gsave
  translate 0 hpt M 4 {72 rotate 0 hpt L} repeat
  closepath fill grestore } def
/Circle { stroke [] 0 setdash 2 copy
  hpt 0 360 arc stroke Pnt } def
/CircleF { stroke [] 0 setdash hpt 0 360 arc fill } def
/C0 { BL [] 0 setdash 2 copy moveto vpt 90 450  arc } bind def
/C1 { BL [] 0 setdash 2 copy        moveto
       2 copy  vpt 0 90 arc closepath fill
               vpt 0 360 arc closepath } bind def
/C2 { BL [] 0 setdash 2 copy moveto
       2 copy  vpt 90 180 arc closepath fill
               vpt 0 360 arc closepath } bind def
/C3 { BL [] 0 setdash 2 copy moveto
       2 copy  vpt 0 180 arc closepath fill
               vpt 0 360 arc closepath } bind def
/C4 { BL [] 0 setdash 2 copy moveto
       2 copy  vpt 180 270 arc closepath fill
               vpt 0 360 arc closepath } bind def
/C5 { BL [] 0 setdash 2 copy moveto
       2 copy  vpt 0 90 arc
       2 copy moveto
       2 copy  vpt 180 270 arc closepath fill
               vpt 0 360 arc } bind def
/C6 { BL [] 0 setdash 2 copy moveto
      2 copy  vpt 90 270 arc closepath fill
              vpt 0 360 arc closepath } bind def
/C7 { BL [] 0 setdash 2 copy moveto
      2 copy  vpt 0 270 arc closepath fill
              vpt 0 360 arc closepath } bind def
/C8 { BL [] 0 setdash 2 copy moveto
      2 copy vpt 270 360 arc closepath fill
              vpt 0 360 arc closepath } bind def
/C9 { BL [] 0 setdash 2 copy moveto
      2 copy  vpt 270 450 arc closepath fill
              vpt 0 360 arc closepath } bind def
/C10 { BL [] 0 setdash 2 copy 2 copy moveto vpt 270 360 arc closepath fill
       2 copy moveto
       2 copy vpt 90 180 arc closepath fill
               vpt 0 360 arc closepath } bind def
/C11 { BL [] 0 setdash 2 copy moveto
       2 copy  vpt 0 180 arc closepath fill
       2 copy moveto
       2 copy  vpt 270 360 arc closepath fill
               vpt 0 360 arc closepath } bind def
/C12 { BL [] 0 setdash 2 copy moveto
       2 copy  vpt 180 360 arc closepath fill
               vpt 0 360 arc closepath } bind def
/C13 { BL [] 0 setdash  2 copy moveto
       2 copy  vpt 0 90 arc closepath fill
       2 copy moveto
       2 copy  vpt 180 360 arc closepath fill
               vpt 0 360 arc closepath } bind def
/C14 { BL [] 0 setdash 2 copy moveto
       2 copy  vpt 90 360 arc closepath fill
               vpt 0 360 arc } bind def
/C15 { BL [] 0 setdash 2 copy vpt 0 360 arc closepath fill
               vpt 0 360 arc closepath } bind def
/Rec   { newpath 4 2 roll moveto 1 index 0 rlineto 0 exch rlineto
       neg 0 rlineto closepath } bind def
/Square { dup Rec } bind def
/Bsquare { vpt sub exch vpt sub exch vpt2 Square } bind def
/S0 { BL [] 0 setdash 2 copy moveto 0 vpt rlineto BL Bsquare } bind def
/S1 { BL [] 0 setdash 2 copy vpt Square fill Bsquare } bind def
/S2 { BL [] 0 setdash 2 copy exch vpt sub exch vpt Square fill Bsquare } bind def
/S3 { BL [] 0 setdash 2 copy exch vpt sub exch vpt2 vpt Rec fill Bsquare } bind def
/S4 { BL [] 0 setdash 2 copy exch vpt sub exch vpt sub vpt Square fill Bsquare } bind def
/S5 { BL [] 0 setdash 2 copy 2 copy vpt Square fill
       exch vpt sub exch vpt sub vpt Square fill Bsquare } bind def
/S6 { BL [] 0 setdash 2 copy exch vpt sub exch vpt sub vpt vpt2 Rec fill Bsquare } bind def
/S7 { BL [] 0 setdash 2 copy exch vpt sub exch vpt sub vpt vpt2 Rec fill
       2 copy vpt Square fill
       Bsquare } bind def
/S8 { BL [] 0 setdash 2 copy vpt sub vpt Square fill Bsquare } bind def
/S9 { BL [] 0 setdash 2 copy vpt sub vpt vpt2 Rec fill Bsquare } bind def
/S10 { BL [] 0 setdash 2 copy vpt sub vpt Square fill 2 copy exch vpt sub exch vpt Square fill
       Bsquare } bind def
/S11 { BL [] 0 setdash 2 copy vpt sub vpt Square fill 2 copy exch vpt sub exch vpt2 vpt Rec fill
       Bsquare } bind def
/S12 { BL [] 0 setdash 2 copy exch vpt sub exch vpt sub vpt2 vpt Rec fill Bsquare } bind def
/S13 { BL [] 0 setdash 2 copy exch vpt sub exch vpt sub vpt2 vpt Rec fill
       2 copy vpt Square fill Bsquare } bind def
/S14 { BL [] 0 setdash 2 copy exch vpt sub exch vpt sub vpt2 vpt Rec fill
       2 copy exch vpt sub exch vpt Square fill Bsquare } bind def
/S15 { BL [] 0 setdash 2 copy Bsquare fill Bsquare } bind def
/D0 { gsave translate 45 rotate 0 0 S0 stroke grestore } bind def
/D1 { gsave translate 45 rotate 0 0 S1 stroke grestore } bind def
/D2 { gsave translate 45 rotate 0 0 S2 stroke grestore } bind def
/D3 { gsave translate 45 rotate 0 0 S3 stroke grestore } bind def
/D4 { gsave translate 45 rotate 0 0 S4 stroke grestore } bind def
/D5 { gsave translate 45 rotate 0 0 S5 stroke grestore } bind def
/D6 { gsave translate 45 rotate 0 0 S6 stroke grestore } bind def
/D7 { gsave translate 45 rotate 0 0 S7 stroke grestore } bind def
/D8 { gsave translate 45 rotate 0 0 S8 stroke grestore } bind def
/D9 { gsave translate 45 rotate 0 0 S9 stroke grestore } bind def
/D10 { gsave translate 45 rotate 0 0 S10 stroke grestore } bind def
/D11 { gsave translate 45 rotate 0 0 S11 stroke grestore } bind def
/D12 { gsave translate 45 rotate 0 0 S12 stroke grestore } bind def
/D13 { gsave translate 45 rotate 0 0 S13 stroke grestore } bind def
/D14 { gsave translate 45 rotate 0 0 S14 stroke grestore } bind def
/D15 { gsave translate 45 rotate 0 0 S15 stroke grestore } bind def
/DiaE { stroke [] 0 setdash vpt add M
  hpt neg vpt neg V hpt vpt neg V
  hpt vpt V hpt neg vpt V closepath stroke } def
/BoxE { stroke [] 0 setdash exch hpt sub exch vpt add M
  0 vpt2 neg V hpt2 0 V 0 vpt2 V
  hpt2 neg 0 V closepath stroke } def
/TriUE { stroke [] 0 setdash vpt 1.12 mul add M
  hpt neg vpt -1.62 mul V
  hpt 2 mul 0 V
  hpt neg vpt 1.62 mul V closepath stroke } def
/TriDE { stroke [] 0 setdash vpt 1.12 mul sub M
  hpt neg vpt 1.62 mul V
  hpt 2 mul 0 V
  hpt neg vpt -1.62 mul V closepath stroke } def
/PentE { stroke [] 0 setdash gsave
  translate 0 hpt M 4 {72 rotate 0 hpt L} repeat
  closepath stroke grestore } def
/CircE { stroke [] 0 setdash 
  hpt 0 360 arc stroke } def
/Opaque { gsave closepath 1 setgray fill grestore 0 setgray closepath } def
/DiaW { stroke [] 0 setdash vpt add M
  hpt neg vpt neg V hpt vpt neg V
  hpt vpt V hpt neg vpt V Opaque stroke } def
/BoxW { stroke [] 0 setdash exch hpt sub exch vpt add M
  0 vpt2 neg V hpt2 0 V 0 vpt2 V
  hpt2 neg 0 V Opaque stroke } def
/TriUW { stroke [] 0 setdash vpt 1.12 mul add M
  hpt neg vpt -1.62 mul V
  hpt 2 mul 0 V
  hpt neg vpt 1.62 mul V Opaque stroke } def
/TriDW { stroke [] 0 setdash vpt 1.12 mul sub M
  hpt neg vpt 1.62 mul V
  hpt 2 mul 0 V
  hpt neg vpt -1.62 mul V Opaque stroke } def
/PentW { stroke [] 0 setdash gsave
  translate 0 hpt M 4 {72 rotate 0 hpt L} repeat
  Opaque stroke grestore } def
/CircW { stroke [] 0 setdash 
  hpt 0 360 arc Opaque stroke } def
/BoxFill { gsave Rec 1 setgray fill grestore } def
/BoxColFill {
  gsave Rec
  /Fillden exch def
  currentrgbcolor
  /ColB exch def /ColG exch def /ColR exch def
  /ColR ColR Fillden mul Fillden sub 1 add def
  /ColG ColG Fillden mul Fillden sub 1 add def
  /ColB ColB Fillden mul Fillden sub 1 add def
  ColR ColG ColB setrgbcolor
  fill grestore } def
%
% PostScript Level 1 Pattern Fill routine
% Usage: x y w h s a XX PatternFill
%	x,y = lower left corner of box to be filled
%	w,h = width and height of box
%	  a = angle in degrees between lines and x-axis
%	 XX = 0/1 for no/yes cross-hatch
%
/PatternFill { gsave /PFa [ 9 2 roll ] def
    PFa 0 get PFa 2 get 2 div add PFa 1 get PFa 3 get 2 div add translate
    PFa 2 get -2 div PFa 3 get -2 div PFa 2 get PFa 3 get Rec
    gsave 1 setgray fill grestore clip
    currentlinewidth 0.5 mul setlinewidth
    /PFs PFa 2 get dup mul PFa 3 get dup mul add sqrt def
    0 0 M PFa 5 get rotate PFs -2 div dup translate
	0 1 PFs PFa 4 get div 1 add floor cvi
	{ PFa 4 get mul 0 M 0 PFs V } for
    0 PFa 6 get ne {
	0 1 PFs PFa 4 get div 1 add floor cvi
	{ PFa 4 get mul 0 2 1 roll M PFs 0 V } for
    } if
    stroke grestore } def
%
/Symbol-Oblique /Symbol findfont [1 0 .167 1 0 0] makefont
dup length dict begin {1 index /FID eq {pop pop} {def} ifelse} forall
currentdict end definefont pop
/MFshow {
   { dup 5 get 3 ge
     { 5 get 3 eq {gsave} {grestore} ifelse }
     {dup dup 0 get findfont exch 1 get scalefont setfont
     [ currentpoint ] exch dup 2 get 0 exch R dup 5 get 2 ne {dup dup 6
     get exch 4 get {show} {stringwidth pop 0 R} ifelse }if dup 5 get 0 eq
     {dup 3 get {2 get neg 0 exch R pop} {pop aload pop M} ifelse} {dup 5
     get 1 eq {dup 2 get exch dup 3 get exch 6 get stringwidth pop -2 div
     dup 0 R} {dup 6 get stringwidth pop -2 div 0 R 6 get
     show 2 index {aload pop M neg 3 -1 roll neg R pop pop} {pop pop pop
     pop aload pop M} ifelse }ifelse }ifelse }
     ifelse }
   forall} bind def
/MFwidth {0 exch {dup 3 get{dup dup 0 get findfont exch 1 get scalefont
     setfont 6 get stringwidth pop add} {pop} ifelse} forall} bind def
/MLshow { currentpoint stroke M
  0 exch R MFshow } bind def
/MRshow { currentpoint stroke M
  exch dup MFwidth neg 3 -1 roll R MFshow } def
/MCshow { currentpoint stroke M
  exch dup MFwidth -2 div 3 -1 roll R MFshow } def
end
%%EndProlog
%%Page: 1 1
gnudict begin
gsave
50 50 translate
0.100 0.100 scale
90 rotate
0 -5040 translate
0 setgray
newpath
(Helvetica) findfont 240 scalefont setfont
1.000 UL
LTb
1224 720 M
63 0 V
stroke
1080 720 M
[ [(Helvetica) 240.0 0.0 true true 0 ( 0)]
] -80.0 MRshow
1.000 UL
LTb
1224 1236 M
63 0 V
stroke
1080 1236 M
[ [(Helvetica) 240.0 0.0 true true 0 ( 100)]
] -80.0 MRshow
1.000 UL
LTb
1224 1752 M
63 0 V
stroke
1080 1752 M
[ [(Helvetica) 240.0 0.0 true true 0 ( 200)]
] -80.0 MRshow
1.000 UL
LTb
1224 2268 M
63 0 V
stroke
1080 2268 M
[ [(Helvetica) 240.0 0.0 true true 0 ( 300)]
] -80.0 MRshow
1.000 UL
LTb
1224 2784 M
63 0 V
stroke
1080 2784 M
[ [(Helvetica) 240.0 0.0 true true 0 ( 400)]
] -80.0 MRshow
1.000 UL
LTb
1224 3300 M
63 0 V
stroke
1080 3300 M
[ [(Helvetica) 240.0 0.0 true true 0 ( 500)]
] -80.0 MRshow
1.000 UL
LTb
1224 3816 M
63 0 V
stroke
1080 3816 M
[ [(Helvetica) 240.0 0.0 true true 0 ( 600)]
] -80.0 MRshow
1.000 UL
LTb
1224 720 M
0 63 V
0 3033 R
0 -63 V
stroke
1224 480 M
[ [(Helvetica) 240.0 0.0 true true 0 ( 0)]
] -80.0 MCshow
1.000 UL
LTb
2112 720 M
0 63 V
0 3033 R
0 -63 V
stroke
2112 480 M
[ [(Helvetica) 240.0 0.0 true true 0 ( 0.5)]
] -80.0 MCshow
1.000 UL
LTb
3000 720 M
0 63 V
0 3033 R
0 -63 V
stroke
3000 480 M
[ [(Helvetica) 240.0 0.0 true true 0 ( 1)]
] -80.0 MCshow
1.000 UL
LTb
3888 720 M
0 63 V
0 3033 R
0 -63 V
stroke
3888 480 M
[ [(Helvetica) 240.0 0.0 true true 0 ( 1.5)]
] -80.0 MCshow
1.000 UL
LTb
4776 720 M
0 63 V
0 3033 R
0 -63 V
stroke
4776 480 M
[ [(Helvetica) 240.0 0.0 true true 0 ( 2)]
] -80.0 MCshow
1.000 UL
LTb
5664 720 M
0 63 V
0 3033 R
0 -63 V
stroke
5664 480 M
[ [(Helvetica) 240.0 0.0 true true 0 ( 2.5)]
] -80.0 MCshow
1.000 UL
LTb
6552 720 M
0 63 V
0 3033 R
0 -63 V
stroke
6552 480 M
[ [(Helvetica) 240.0 0.0 true true 0 ( 3)]
] -80.0 MCshow
1.000 UL
LTb
6552 720 M
-63 0 V
stroke
6696 720 M
[ [(Helvetica) 240.0 0.0 true true 0 (-0.05)]
] -80.0 MLshow
1.000 UL
LTb
6552 1030 M
-63 0 V
stroke
6696 1030 M
[ [(Helvetica) 240.0 0.0 true true 0 ( 0)]
] -80.0 MLshow
1.000 UL
LTb
6552 1339 M
-63 0 V
stroke
6696 1339 M
[ [(Helvetica) 240.0 0.0 true true 0 ( 0.05)]
] -80.0 MLshow
1.000 UL
LTb
6552 1649 M
-63 0 V
stroke
6696 1649 M
[ [(Helvetica) 240.0 0.0 true true 0 ( 0.1)]
] -80.0 MLshow
1.000 UL
LTb
6552 1958 M
-63 0 V
stroke
6696 1958 M
[ [(Helvetica) 240.0 0.0 true true 0 ( 0.15)]
] -80.0 MLshow
1.000 UL
LTb
6552 2268 M
-63 0 V
stroke
6696 2268 M
[ [(Helvetica) 240.0 0.0 true true 0 ( 0.2)]
] -80.0 MLshow
1.000 UL
LTb
6552 2578 M
-63 0 V
stroke
6696 2578 M
[ [(Helvetica) 240.0 0.0 true true 0 ( 0.25)]
] -80.0 MLshow
1.000 UL
LTb
6552 2887 M
-63 0 V
stroke
6696 2887 M
[ [(Helvetica) 240.0 0.0 true true 0 ( 0.3)]
] -80.0 MLshow
1.000 UL
LTb
6552 3197 M
-63 0 V
stroke
6696 3197 M
[ [(Helvetica) 240.0 0.0 true true 0 ( 0.35)]
] -80.0 MLshow
1.000 UL
LTb
6552 3506 M
-63 0 V
stroke
6696 3506 M
[ [(Helvetica) 240.0 0.0 true true 0 ( 0.4)]
] -80.0 MLshow
1.000 UL
LTb
6552 3816 M
-63 0 V
stroke
6696 3816 M
[ [(Helvetica) 240.0 0.0 true true 0 ( 0.45)]
] -80.0 MLshow
1.000 UL
LTb
1.000 UL
LTb
1224 720 M
5328 0 V
0 3096 V
-5328 0 V
0 -3096 V
LTb
240 2268 M
currentpoint gsave translate 90 rotate 0 0 moveto
[ [(Symbol) 240.0 0.0 true true 0 (b)]
[(Helvetica) 192.0 120.0 true true 0 (1/2)]
[(Helvetica) 240.0 0.0 true true 0 ( [m)]
[(Helvetica) 192.0 120.0 true true 0 (1/2)]
[(Helvetica) 240.0 0.0 true true 0 (])]
] -104.0 MCshow
grestore
LTb
7679 2268 M
currentpoint gsave translate 90 rotate 0 0 moveto
[ [(Helvetica) 240.0 0.0 true true 0 (D [m])]
] -80.0 MCshow
grestore
LTb
3888 120 M
[ [(Helvetica) 240.0 0.0 true true 0 (Longitudinal location [km])]
] -80.0 MCshow
1.000 UP
LTb
602 4229 M
[ [(Helvetica) 240.0 0.0 true true 0 (Diagnostics)]
] -80.0 MLshow
LTb
2645 4229 M
[ [(Helvetica) 240.0 0.0 true true 0 (Energy)]
] -80.0 MLshow
LTb
2503 4022 M
[ [(Helvetica) 240.0 0.0 true true 0 (collimation)]
] -80.0 MLshow
LTb
4243 4229 M
[ [(Helvetica) 240.0 0.0 true true 0 (Transverse)]
] -80.0 MLshow
LTb
4314 4022 M
[ [(Helvetica) 240.0 0.0 true true 0 (collimation)]
] -80.0 MLshow
LTb
5842 4229 M
[ [(Helvetica) 240.0 0.0 true true 0 (Final)]
] -80.0 MLshow
LTb
5486 4022 M
[ [(Helvetica) 240.0 0.0 true true 0 (Focus system)]
] -80.0 MLshow
1.000 UL
LT6
1934 720 M
0 3509 V
1.000 UL
LT6
4243 720 M
0 3509 V
1.000 UL
LT6
5486 720 M
0 3509 V
4.000 UL
LT0
LTb
4881 3532 M
[ [(Symbol) 240.0 0.0 true true 0 (b)]
[(Helvetica) 192.0 -72.0 true true 0 (x)]
[(Helvetica) 192.0 120.0 true true 0 (1/2)]
] -80.0 MRshow
LT0
5025 3532 M
207 0 V
1224 762 M
2 -1 V
18 -14 V
1 -1 V
18 0 V
2 1 V
18 14 V
1 1 V
2 0 V
8 -5 V
8 -5 V
8 -5 V
8 -3 V
3 0 V
8 3 V
8 5 V
8 5 V
8 5 V
2 0 V
1 -2 V
4 -6 V
4 -7 V
3 -6 V
2 -2 V
2 -2 V
3 -2 V
4 -1 V
4 0 V
1 0 V
2 0 V
4 1 V
4 1 V
3 2 V
2 1 V
2 3 V
3 5 V
4 6 V
4 7 V
1 2 V
2 -1 V
8 -5 V
8 -5 V
8 -5 V
8 -4 V
1 0 V
2 1 V
8 6 V
8 8 V
8 7 V
8 8 V
2 1 V
1 -1 V
8 -6 V
8 -5 V
8 -5 V
8 -5 V
3 -1 V
17 7 V
16 8 V
16 9 V
16 9 V
2 0 V
2 0 V
16 -5 V
16 -6 V
16 -5 V
16 -4 V
2 0 V
2 0 V
16 4 V
16 5 V
16 5 V
16 6 V
2 0 V
2 0 V
16 -6 V
16 -5 V
16 -5 V
16 -4 V
2 0 V
2 0 V
16 4 V
16 5 V
16 5 V
16 6 V
2 0 V
2 0 V
16 -6 V
16 -5 V
16 -5 V
17 -4 V
3 1 V
14 14 V
3 9 V
7 26 V
4 7 V
18 0 V
4 0 V
5 -1 V
2 0 V
9 -1 V
2 0 V
20 -2 V
stroke
2016 816 M
20 -3 V
2 0 V
20 -2 V
20 -2 V
3 0 V
20 -2 V
20 -2 V
2 0 V
20 -1 V
20 -2 V
2 0 V
20 -1 V
20 -1 V
3 0 V
20 -1 V
20 0 V
1 0 V
1 0 V
20 -1 V
20 0 V
2 0 V
20 0 V
21 0 V
2 0 V
20 1 V
20 0 V
2 0 V
20 1 V
20 1 V
2 0 V
21 1 V
20 1 V
2 1 V
20 1 V
20 2 V
2 0 V
2 0 V
3 0 V
2 1 V
2 0 V
2 0 V
5 0 V
4 1 V
18 4 V
18 4 V
4 1 V
5 1 V
2 1 V
2 1 V
2 0 V
2 1 V
3 1 V
2 1 V
20 6 V
20 7 V
2 1 V
20 7 V
20 7 V
3 1 V
20 7 V
20 7 V
2 1 V
20 7 V
20 8 V
2 0 V
20 8 V
21 7 V
2 1 V
20 7 V
20 7 V
1 1 V
1 0 V
20 7 V
20 7 V
2 1 V
21 8 V
20 7 V
2 1 V
20 7 V
20 7 V
2 1 V
20 8 V
20 7 V
3 1 V
20 7 V
20 7 V
2 1 V
20 8 V
20 7 V
2 1 V
3 1 V
2 0 V
2 1 V
2 1 V
2 1 V
5 1 V
4 0 V
18 0 V
18 0 V
4 0 V
5 -1 V
2 -1 V
2 -1 V
2 -1 V
stroke
3161 1008 M
3 0 V
2 -1 V
2 -1 V
20 -7 V
20 -8 V
2 -1 V
20 -7 V
21 -7 V
2 -1 V
20 -7 V
20 -8 V
2 -1 V
20 -7 V
20 -7 V
2 -1 V
21 -7 V
20 -8 V
2 -1 V
20 -7 V
20 -7 V
1 0 V
1 -1 V
20 -7 V
20 -7 V
3 -1 V
20 -7 V
20 -8 V
2 0 V
20 -8 V
20 -7 V
2 -1 V
20 -7 V
20 -7 V
3 -1 V
20 -7 V
20 -7 V
2 -1 V
20 -7 V
20 -6 V
2 -1 V
3 -1 V
2 -1 V
2 0 V
2 -1 V
2 -1 V
5 -1 V
4 -1 V
18 -4 V
18 -4 V
4 -1 V
5 0 V
2 0 V
2 0 V
2 -1 V
3 0 V
2 0 V
2 0 V
20 -2 V
20 -1 V
2 -1 V
21 -1 V
20 -1 V
2 0 V
20 -1 V
20 -1 V
2 0 V
20 0 V
20 -1 V
3 0 V
20 0 V
20 0 V
2 0 V
20 0 V
20 1 V
1 0 V
1 0 V
20 0 V
20 1 V
3 0 V
20 1 V
20 1 V
2 0 V
20 2 V
20 1 V
2 0 V
20 2 V
21 2 V
2 0 V
20 2 V
20 2 V
2 0 V
20 3 V
20 2 V
2 0 V
9 1 V
3 0 V
4 1 V
4 0 V
18 0 V
1 0 V
1 -1 V
2 -4 V
1 -1 V
1 -7 V
stroke
4306 807 M
2 -8 V
1 -3 V
1 -8 V
2 -8 V
1 -1 V
1 -7 V
2 -5 V
1 -1 V
1 -4 V
2 -3 V
1 0 V
1 -3 V
2 -1 V
41 -15 V
2 0 V
2 0 V
2 0 V
2 0 V
1 0 V
2 1 V
2 1 V
62 63 V
2 1 V
2 -1 V
28 -30 V
2 -1 V
2 1 V
28 30 V
2 1 V
1 -1 V
63 -63 V
2 -1 V
1 -1 V
1 0 V
1 0 V
2 1 V
1 1 V
63 63 V
2 1 V
1 -1 V
28 -30 V
2 -1 V
2 1 V
28 30 V
2 1 V
2 -1 V
62 -63 V
2 -1 V
2 -1 V
1 0 V
2 1 V
2 1 V
62 63 V
2 1 V
2 -1 V
28 -30 V
2 -1 V
1 1 V
29 30 V
1 1 V
2 -1 V
63 -63 V
1 -1 V
2 -1 V
1 0 V
1 0 V
1 1 V
2 1 V
63 63 V
1 1 V
2 -1 V
28 -30 V
2 -1 V
2 1 V
28 30 V
2 1 V
2 -1 V
62 -63 V
2 -1 V
2 -1 V
1 0 V
2 1 V
2 1 V
62 63 V
2 1 V
2 -1 V
28 -30 V
9 -1 V
15 12 V
9 5 V
36 7 V
8 -2 V
36 -31 V
9 -3 V
10 0 V
1 -1 V
2 -2 V
6 -13 V
1 -2 V
2 0 V
10 1 V
2 -1 V
1 -1 V
11 -11 V
stroke
5442 732 M
1 -1 V
2 0 V
10 7 V
1 2 V
1 1 V
14 17 V
1 0 V
1 -1 V
1 0 V
3 -4 V
3 -5 V
3 -4 V
3 -4 V
3 -4 V
3 -3 V
3 -2 V
3 -1 V
3 1 V
3 3 V
1 0 V
1 2 V
2 2 V
46 92 V
1 5 V
2 9 V
0 4 V
1 14 V
2 20 V
51 824 V
1 11 V
0 12 V
1 7 V
1 14 V
2 -5 V
0 -4 V
2 -23 V
1 -41 V
30 -862 V
2 62 V
2 62 V
2 62 V
30 1049 V
1 39 V
2 17 V
0 1 V
2 -6 V
1 -29 V
0 -12 V
1 -20 V
1 -20 V
12 -336 V
4 -99 V
1 -35 V
1 -26 V
1 -7 V
1 -11 V
0 -11 V
1 -7 V
1 -17 V
2 -10 V
41 -160 V
13 -50 V
13 -50 V
14 -50 V
13 -50 V
13 -49 V
13 -50 V
13 -50 V
13 -50 V
13 -50 V
13 -50 V
0 -1 V
1 -6 V
2 -6 V
0 -1 V
3 -11 V
3 -11 V
2 -11 V
3 -11 V
3 -10 V
2 -10 V
3 5 V
3 11 V
2 10 V
3 11 V
0 2 V
2 6 V
1 5 V
1 1 V
2 9 V
3 9 V
3 9 V
2 9 V
3 9 V
2 8 V
3 9 V
3 9 V
2 9 V
3 9 V
0 1 V
2 6 V
1 8 V
1 3 V
2 16 V
stroke
5955 898 M
3 16 V
3 16 V
2 16 V
3 16 V
3 16 V
2 16 V
3 17 V
3 16 V
2 16 V
1 2 V
2 17 V
3 16 V
3 16 V
2 16 V
3 16 V
3 16 V
2 16 V
3 16 V
3 16 V
2 17 V
1 2 V
2 16 V
3 16 V
3 17 V
2 16 V
3 16 V
3 16 V
2 16 V
3 16 V
2 16 V
3 16 V
1 3 V
2 16 V
3 16 V
2 16 V
3 16 V
3 17 V
2 16 V
3 16 V
3 16 V
2 16 V
3 16 V
0 3 V
3 16 V
3 16 V
2 16 V
3 16 V
3 16 V
2 16 V
3 17 V
3 16 V
2 16 V
3 16 V
0 3 V
3 16 V
3 16 V
2 16 V
3 16 V
3 16 V
2 16 V
3 16 V
3 17 V
2 16 V
3 16 V
0 2 V
3 17 V
3 16 V
2 16 V
3 16 V
3 16 V
2 16 V
3 16 V
2 16 V
3 16 V
3 17 V
20 122 V
3 21 V
1 3 V
0 3 V
1 2 V
3 -60 V
2 -209 V
1 -82 V
4 -340 V
1 -84 V
0 -43 V
1 -42 V
0 -42 V
1 -42 V
2 -185 V
2 -111 V
7 -217 V
4.000 UL
LT1
LTb
4881 3292 M
[ [(Symbol) 240.0 0.0 true true 0 (b)]
[(Helvetica) 192.0 -72.0 true true 0 (y)]
[(Helvetica) 192.0 120.0 true true 0 (1/2)]
] -80.0 MRshow
LT1
5025 3292 M
207 0 V
1224 742 M
2 0 V
18 11 V
1 1 V
18 0 V
2 -1 V
18 -10 V
1 -1 V
2 0 V
8 3 V
8 5 V
8 5 V
8 5 V
3 0 V
8 -5 V
8 -4 V
8 -4 V
8 -4 V
2 0 V
1 1 V
4 4 V
4 4 V
3 4 V
2 2 V
2 -1 V
3 -2 V
4 -2 V
4 -2 V
1 -1 V
2 1 V
4 1 V
4 2 V
3 2 V
2 0 V
2 -1 V
3 -4 V
4 -4 V
4 -4 V
1 -1 V
2 0 V
8 4 V
8 5 V
8 5 V
8 6 V
1 0 V
2 -2 V
8 -10 V
8 -11 V
8 -7 V
8 0 V
2 2 V
1 2 V
8 13 V
8 14 V
8 13 V
8 14 V
3 2 V
17 -7 V
16 -8 V
16 -7 V
16 -7 V
2 0 V
2 0 V
16 4 V
16 5 V
16 5 V
16 6 V
2 0 V
2 0 V
16 -6 V
16 -5 V
16 -5 V
16 -4 V
2 0 V
2 0 V
16 4 V
16 5 V
16 5 V
16 6 V
2 0 V
2 0 V
16 -6 V
16 -5 V
16 -5 V
16 -4 V
2 0 V
2 0 V
16 5 V
16 4 V
16 6 V
17 6 V
3 -2 V
14 -20 V
3 -8 V
7 -22 V
4 -7 V
18 47 V
4 13 V
5 13 V
2 7 V
9 26 V
2 7 V
20 60 V
stroke
2016 898 M
20 59 V
2 7 V
20 60 V
20 60 V
3 7 V
20 60 V
20 60 V
2 6 V
20 60 V
20 60 V
2 7 V
20 60 V
20 60 V
3 6 V
20 60 V
20 60 V
1 3 V
1 4 V
20 60 V
20 60 V
2 6 V
20 60 V
21 60 V
2 7 V
20 60 V
20 60 V
2 6 V
20 60 V
20 60 V
2 7 V
21 60 V
20 60 V
2 6 V
20 60 V
20 60 V
2 7 V
2 7 V
3 6 V
2 7 V
2 6 V
2 7 V
5 11 V
4 6 V
18 16 V
18 15 V
4 2 V
5 -4 V
2 -2 V
2 -3 V
2 -3 V
2 -3 V
3 -3 V
2 -3 V
20 -26 V
20 -26 V
2 -2 V
20 -26 V
20 -26 V
3 -3 V
20 -26 V
20 -26 V
2 -3 V
20 -26 V
20 -25 V
2 -3 V
20 -26 V
21 -26 V
2 -3 V
20 -26 V
20 -26 V
1 -1 V
1 -2 V
20 -25 V
20 -26 V
2 -3 V
21 -26 V
20 -26 V
2 -3 V
20 -26 V
20 -26 V
2 -2 V
20 -26 V
20 -26 V
3 -3 V
20 -26 V
20 -26 V
2 -3 V
20 -26 V
20 -26 V
2 -2 V
3 -3 V
2 -3 V
2 -3 V
2 -3 V
2 -3 V
5 -4 V
4 -1 V
18 0 V
18 0 V
4 1 V
5 4 V
2 3 V
2 3 V
2 3 V
stroke
3161 1757 M
3 3 V
2 3 V
2 2 V
20 26 V
20 26 V
2 3 V
20 26 V
21 26 V
2 3 V
20 26 V
20 26 V
2 2 V
20 26 V
20 26 V
2 3 V
21 26 V
20 26 V
2 3 V
20 26 V
20 25 V
1 2 V
1 1 V
20 26 V
20 26 V
3 3 V
20 26 V
20 26 V
2 3 V
20 25 V
20 26 V
2 3 V
20 26 V
20 26 V
3 3 V
20 26 V
20 26 V
2 2 V
20 26 V
20 26 V
2 3 V
3 3 V
2 3 V
2 3 V
2 3 V
2 2 V
5 4 V
4 -2 V
18 -15 V
18 -16 V
4 -6 V
5 -11 V
2 -7 V
2 -6 V
2 -7 V
3 -6 V
2 -7 V
2 -7 V
20 -60 V
20 -60 V
2 -6 V
21 -60 V
20 -60 V
2 -7 V
20 -60 V
20 -60 V
2 -6 V
20 -60 V
20 -60 V
3 -7 V
20 -60 V
20 -60 V
2 -6 V
20 -60 V
20 -60 V
1 -4 V
1 -3 V
20 -60 V
20 -60 V
3 -6 V
20 -60 V
20 -60 V
2 -7 V
20 -60 V
20 -60 V
2 -6 V
20 -60 V
21 -60 V
2 -7 V
20 -60 V
20 -60 V
2 -7 V
20 -59 V
20 -60 V
2 -7 V
9 -26 V
3 -7 V
4 -13 V
4 -13 V
18 -47 V
1 0 V
1 3 V
2 5 V
1 1 V
1 6 V
stroke
4306 740 M
2 6 V
1 1 V
1 6 V
2 6 V
1 1 V
1 5 V
2 3 V
1 1 V
1 3 V
2 1 V
1 1 V
1 0 V
2 -1 V
41 -25 V
2 -1 V
2 -1 V
2 0 V
2 0 V
1 0 V
2 -1 V
2 -1 V
62 22 V
2 3 V
2 3 V
28 61 V
2 2 V
2 -2 V
28 -61 V
2 -3 V
1 -3 V
63 -22 V
2 1 V
1 1 V
1 0 V
1 0 V
2 -1 V
1 -1 V
63 22 V
2 3 V
1 3 V
28 61 V
2 2 V
2 -2 V
28 -61 V
2 -3 V
2 -3 V
62 -22 V
2 1 V
2 1 V
1 0 V
2 -1 V
2 -1 V
62 22 V
2 3 V
2 3 V
28 61 V
2 2 V
1 -2 V
29 -61 V
1 -3 V
2 -3 V
63 -22 V
1 1 V
2 1 V
1 0 V
1 0 V
1 -1 V
2 -1 V
63 22 V
1 3 V
2 3 V
28 61 V
2 2 V
2 -2 V
28 -61 V
2 -3 V
2 -3 V
62 -22 V
2 1 V
2 1 V
1 0 V
2 -1 V
2 -1 V
62 22 V
2 3 V
2 3 V
28 61 V
0 1 V
9 1 V
15 -28 V
9 -12 V
36 -39 V
8 -7 V
36 -8 V
9 1 V
10 1 V
1 1 V
2 1 V
6 10 V
1 1 V
2 -1 V
10 -13 V
2 -1 V
1 -1 V
stroke
5431 740 M
11 3 V
1 1 V
2 0 V
10 -2 V
1 0 V
1 0 V
14 2 V
1 1 V
1 3 V
1 1 V
3 6 V
3 7 V
3 6 V
3 7 V
3 7 V
3 6 V
3 7 V
3 7 V
3 6 V
3 7 V
1 1 V
1 2 V
2 -1 V
46 -74 V
1 -3 V
2 -3 V
0 -1 V
1 -4 V
2 -4 V
51 152 V
1 3 V
0 2 V
1 1 V
1 7 V
2 9 V
0 3 V
2 13 V
1 16 V
30 382 V
2 23 V
2 22 V
2 22 V
30 382 V
1 26 V
2 45 V
0 16 V
2 63 V
1 82 V
0 28 V
1 47 V
1 46 V
12 781 V
4 228 V
1 80 V
1 52 V
1 12 V
1 19 V
0 20 V
1 11 V
1 25 V
2 -4 V
41 -532 V
13 -166 V
13 -165 V
14 -166 V
13 -165 V
13 -165 V
13 -166 V
13 -165 V
13 -166 V
13 -165 V
13 -165 V
0 -6 V
1 -18 V
2 -16 V
0 -5 V
3 -30 V
3 -30 V
2 -29 V
3 -30 V
3 -30 V
2 -30 V
3 -29 V
3 -30 V
2 -30 V
3 -30 V
0 -5 V
2 -15 V
1 -15 V
1 -5 V
2 -27 V
3 -24 V
3 25 V
2 27 V
3 27 V
2 27 V
3 26 V
3 27 V
2 27 V
3 27 V
0 4 V
2 13 V
1 11 V
1 2 V
stroke
5953 965 M
2 16 V
3 16 V
3 15 V
2 16 V
3 16 V
3 16 V
2 16 V
3 15 V
3 16 V
2 16 V
1 2 V
2 16 V
3 16 V
3 16 V
2 16 V
3 15 V
3 16 V
2 16 V
3 16 V
3 15 V
2 16 V
1 3 V
2 15 V
3 16 V
3 16 V
2 16 V
3 16 V
3 15 V
2 16 V
3 16 V
2 16 V
3 15 V
1 3 V
2 16 V
3 15 V
2 16 V
3 16 V
3 16 V
2 16 V
3 15 V
3 16 V
2 16 V
3 16 V
0 2 V
3 16 V
3 16 V
2 16 V
3 15 V
3 16 V
2 16 V
3 16 V
3 15 V
2 16 V
3 16 V
0 2 V
3 16 V
3 16 V
2 16 V
3 16 V
3 15 V
2 16 V
3 16 V
3 16 V
2 15 V
3 16 V
0 3 V
3 15 V
3 16 V
2 16 V
3 16 V
3 16 V
2 15 V
3 16 V
2 16 V
3 16 V
3 15 V
20 120 V
3 21 V
1 3 V
0 2 V
1 3 V
3 99 V
2 274 V
1 110 V
4 454 V
1 112 V
0 57 V
1 56 V
0 56 V
1 57 V
2 2 V
2 -593 V
7 -2197 V
4.000 UL
LT2
LTb
4881 3052 M
[ [(Helvetica) 240.0 0.0 true true 0 (D)]
[(Helvetica) 192.0 -72.0 true true 0 (x)]
] -56.0 MRshow
LT2
5025 3052 M
207 0 V
1224 1030 M
2 0 V
18 0 V
1 0 V
18 0 V
2 0 V
18 0 V
1 0 V
2 0 V
8 0 V
8 0 V
8 0 V
8 0 V
3 0 V
8 0 V
8 0 V
8 0 V
8 0 V
2 0 V
1 0 V
4 0 V
4 0 V
3 0 V
2 0 V
2 0 V
3 0 V
4 0 V
4 0 V
1 0 V
2 0 V
4 0 V
4 0 V
3 0 V
2 0 V
2 0 V
3 0 V
4 0 V
4 0 V
1 0 V
2 0 V
8 0 V
8 0 V
8 0 V
8 0 V
1 0 V
2 0 V
8 0 V
8 0 V
8 0 V
8 0 V
2 0 V
1 0 V
8 0 V
8 0 V
8 0 V
8 0 V
3 0 V
17 0 V
16 0 V
16 0 V
16 0 V
2 0 V
2 0 V
16 0 V
16 0 V
16 0 V
16 0 V
2 0 V
2 0 V
16 0 V
16 0 V
16 0 V
16 0 V
2 0 V
2 0 V
16 0 V
16 0 V
16 0 V
16 0 V
2 0 V
2 0 V
16 0 V
16 0 V
16 0 V
16 0 V
2 0 V
2 0 V
16 0 V
16 0 V
16 0 V
17 0 V
3 0 V
14 0 V
3 0 V
7 0 V
4 0 V
18 0 V
4 0 V
5 0 V
2 0 V
9 0 V
2 0 V
20 0 V
stroke
2016 1030 M
20 3 V
2 1 V
20 4 V
20 6 V
3 1 V
20 8 V
20 10 V
2 1 V
20 11 V
20 13 V
2 2 V
20 15 V
20 17 V
3 2 V
20 18 V
20 21 V
1 1 V
1 1 V
20 22 V
20 24 V
2 2 V
20 26 V
21 27 V
2 4 V
20 29 V
20 31 V
2 3 V
20 33 V
20 34 V
2 4 V
21 36 V
20 38 V
2 4 V
20 40 V
20 42 V
2 4 V
2 5 V
3 5 V
2 4 V
2 5 V
2 5 V
5 10 V
4 12 V
18 50 V
18 50 V
4 14 V
5 15 V
2 8 V
2 9 V
2 8 V
2 8 V
3 8 V
2 9 V
20 74 V
20 74 V
2 8 V
20 73 V
20 73 V
3 8 V
20 73 V
20 72 V
2 8 V
20 72 V
20 72 V
2 8 V
20 71 V
21 71 V
2 7 V
20 71 V
20 70 V
1 4 V
1 3 V
20 70 V
20 69 V
2 8 V
21 69 V
20 68 V
2 7 V
20 68 V
20 68 V
2 8 V
20 67 V
20 67 V
3 7 V
20 66 V
20 66 V
2 8 V
20 65 V
20 66 V
2 7 V
3 7 V
2 7 V
2 7 V
2 8 V
2 7 V
5 11 V
4 3 V
18 0 V
18 0 V
4 -3 V
5 -11 V
2 -7 V
2 -8 V
2 -7 V
stroke
3161 3573 M
3 -7 V
2 -7 V
2 -7 V
20 -66 V
20 -65 V
2 -8 V
20 -66 V
21 -66 V
2 -7 V
20 -67 V
20 -67 V
2 -8 V
20 -68 V
20 -68 V
2 -7 V
21 -68 V
20 -69 V
2 -8 V
20 -69 V
20 -70 V
1 -3 V
1 -4 V
20 -70 V
20 -71 V
3 -7 V
20 -71 V
20 -71 V
2 -8 V
20 -72 V
20 -72 V
2 -8 V
20 -72 V
20 -73 V
3 -8 V
20 -73 V
20 -73 V
2 -8 V
20 -74 V
20 -74 V
2 -9 V
3 -8 V
2 -8 V
2 -8 V
2 -9 V
2 -8 V
5 -15 V
4 -14 V
18 -50 V
18 -50 V
4 -12 V
5 -10 V
2 -5 V
2 -5 V
2 -4 V
3 -5 V
2 -5 V
2 -4 V
20 -42 V
20 -40 V
2 -4 V
21 -38 V
20 -36 V
2 -4 V
20 -34 V
20 -33 V
2 -3 V
20 -31 V
20 -29 V
3 -4 V
20 -27 V
20 -26 V
2 -2 V
20 -24 V
20 -22 V
1 -1 V
1 -1 V
20 -21 V
20 -18 V
3 -2 V
20 -17 V
20 -15 V
2 -2 V
20 -13 V
20 -11 V
2 -1 V
20 -10 V
21 -8 V
2 -1 V
20 -6 V
20 -4 V
2 -1 V
20 -3 V
20 0 V
2 0 V
9 0 V
3 0 V
4 0 V
4 0 V
18 0 V
1 0 V
1 0 V
2 0 V
1 0 V
1 0 V
stroke
4306 1030 M
2 0 V
1 0 V
1 0 V
2 0 V
1 0 V
1 0 V
2 0 V
1 0 V
1 0 V
2 0 V
1 0 V
1 0 V
2 0 V
41 0 V
2 0 V
2 0 V
2 0 V
2 0 V
1 0 V
2 0 V
2 0 V
62 0 V
2 0 V
2 0 V
28 0 V
2 0 V
2 0 V
28 0 V
2 0 V
1 0 V
63 0 V
2 0 V
1 0 V
1 0 V
1 0 V
2 0 V
1 0 V
63 0 V
2 0 V
1 0 V
28 0 V
2 0 V
2 0 V
28 0 V
2 0 V
2 0 V
62 0 V
2 0 V
2 0 V
1 0 V
2 0 V
2 0 V
62 0 V
2 0 V
2 0 V
28 0 V
2 0 V
1 0 V
29 0 V
1 0 V
2 0 V
63 0 V
1 0 V
2 0 V
1 0 V
1 0 V
1 0 V
2 0 V
63 0 V
1 0 V
2 0 V
28 0 V
2 0 V
2 0 V
28 0 V
2 0 V
2 0 V
62 0 V
2 0 V
2 0 V
1 0 V
2 0 V
2 0 V
62 0 V
2 0 V
2 0 V
28 0 V
9 0 V
15 0 V
9 0 V
36 0 V
8 0 V
36 0 V
9 0 V
10 0 V
1 0 V
2 0 V
6 0 V
1 0 V
2 0 V
10 0 V
2 0 V
1 0 V
11 0 V
stroke
5442 1030 M
1 0 V
2 0 V
10 0 V
1 0 V
1 0 V
14 0 V
1 0 V
1 0 V
1 0 V
3 0 V
3 0 V
3 0 V
3 0 V
3 0 V
3 0 V
3 0 V
3 0 V
3 0 V
3 0 V
1 0 V
1 0 V
2 1 V
46 3 V
1 0 V
2 1 V
1 1 V
2 0 V
51 34 V
1 1 V
1 1 V
1 0 V
2 0 V
2 -1 V
1 -2 V
30 -43 V
2 -3 V
2 -2 V
2 -3 V
30 -44 V
1 -1 V
2 -1 V
2 0 V
1 2 V
1 1 V
1 1 V
12 14 V
4 4 V
1 1 V
1 1 V
1 1 V
1 0 V
1 1 V
1 0 V
2 1 V
41 7 V
13 1 V
13 1 V
14 0 V
13 -1 V
13 -2 V
13 -3 V
13 -3 V
13 -5 V
13 -5 V
13 -6 V
0 -1 V
1 0 V
2 -1 V
3 -1 V
3 -1 V
2 -1 V
3 -1 V
3 -1 V
2 -1 V
3 -1 V
3 -1 V
2 -2 V
3 -1 V
2 -1 V
1 1 V
1 0 V
2 1 V
3 1 V
3 1 V
2 1 V
3 1 V
2 1 V
3 1 V
3 1 V
2 1 V
3 1 V
2 0 V
1 -1 V
1 0 V
2 -1 V
3 -2 V
3 -2 V
2 -1 V
3 -2 V
3 -1 V
2 -2 V
3 -2 V
3 -1 V
2 -2 V
stroke
5979 963 M
1 0 V
2 -2 V
3 -2 V
3 -1 V
2 -2 V
3 -2 V
3 -2 V
2 -1 V
3 -2 V
3 -2 V
2 -2 V
1 0 V
2 -2 V
3 -2 V
3 -1 V
2 -2 V
3 -2 V
3 -2 V
2 -2 V
3 -2 V
2 -2 V
3 -2 V
1 0 V
2 -2 V
3 -2 V
2 -2 V
3 -2 V
3 -2 V
2 -1 V
3 -2 V
3 -2 V
2 -2 V
3 -2 V
0 -1 V
3 -2 V
3 -2 V
2 -2 V
3 -2 V
3 -2 V
2 -2 V
3 -2 V
3 -2 V
2 -2 V
3 -2 V
0 -1 V
3 -2 V
3 -2 V
2 -2 V
3 -2 V
3 -2 V
2 -3 V
3 -2 V
3 -2 V
2 -2 V
3 -2 V
0 -1 V
3 -2 V
3 -2 V
2 -3 V
3 -2 V
3 -2 V
2 -2 V
3 -3 V
2 -2 V
3 -2 V
3 -3 V
20 -17 V
3 -4 V
1 0 V
1 -1 V
3 9 V
2 30 V
1 12 V
4 50 V
1 12 V
0 6 V
1 6 V
0 6 V
1 6 V
2 27 V
2 16 V
7 32 V
1.000 UL
LTb
1224 720 M
5328 0 V
0 3096 V
-5328 0 V
0 -3096 V
1.000 UP
stroke
grestore
end
showpage
%%Trailer
%%DocumentFonts: Symbol Helvetica
%%Pages: 1
