\relax 
\ifx\hyper@anchor\@undefined
\global \let \oldcontentsline\contentsline
\gdef \contentsline#1#2#3#4{\oldcontentsline{#1}{#2}{#3}}
\global \let \oldnewlabel\newlabel
\gdef \newlabel#1#2{\newlabelxx{#1}#2}
\gdef \newlabelxx#1#2#3#4#5#6{\oldnewlabel{#1}{{#2}{#3}}}
\AtEndDocument{\let \contentsline\oldcontentsline
\let \newlabel\oldnewlabel}
\else
\global \let \hyper@last\relax 
\fi

\citation{pan}
\citation{CLICnote}
\citation{ATF2}
\citation{lowbeta}
\citation{lowbeta09}
\@writefile{lot}{\contentsline {table}{\numberline {1}{\ignorespaces Vertical IP beam sizes and vertical chromaticities for different projects. Chromaticity is computed from the elements of the transfer matrices as $(T_{346}R_{33}-T_{336}R_{34})/\sqrt  {\beta ^*_y}$. }}{1}{table.1}}
\newlabel{tabsy}{{1}{1}{\uppercase {Issue}\relax }{table.1}{}}
\@writefile{toc}{\contentsline {section}{\uppercase {Issue}}{1}{section*.1}}
\@writefile{toc}{\contentsline {section}{\uppercase {R\&D}}{1}{section*.2}}
\@writefile{lof}{\contentsline {figure}{\numberline {1}{\ignorespaces Optics functions along the CLIC BDS.}}{1}{figure.1}}
\newlabel{bds}{{1}{1}{\uppercase {Issue}\relax }{figure.1}{}}
\@writefile{lof}{\contentsline {figure}{\numberline {2}{\ignorespaces Probability distribution of the CLIC vertical IP beam size assuming realistic beam line imperfections.}}{1}{figure.2}}
\newlabel{initsigma}{{2}{1}{\uppercase {R\&D}\relax }{figure.2}{}}
\citation{lowbeta09}
\citation{inte}
\citation{andrea2}
\citation{andrea2}
\citation{andrea2}
\citation{Andrei}
\citation{rtomas}
\bibcite{pan}{1}
\bibcite{CLICnote}{2}
\bibcite{CLICover}{3}
\@writefile{lof}{\contentsline {figure}{\numberline {3}{\ignorespaces Probability distribution of the CLIC luminosity after tuning for a maximum of 18000 iterations.}}{2}{figure.3}}
\newlabel{tuni}{{3}{2}{\uppercase {Achievements}\relax }{figure.3}{}}
\@writefile{toc}{\contentsline {section}{\uppercase {Achievements}}{2}{section*.3}}
\@writefile{lof}{\contentsline {figure}{\numberline {4}{\ignorespaces Performance of the IP feedback combined with beam-based alignment techniques.}}{2}{figure.4}}
\newlabel{IP}{{4}{2}{\uppercase {Achievements}\relax }{figure.4}{}}
\@writefile{lof}{\contentsline {figure}{\numberline {5}{\ignorespaces Demonstration of stabilization to the sub-nanometer level via ground isolation and structure resonance rejection in a quiet environment\nobreakspace  {}\cite  {andrea2}.}}{2}{figure.5}}
\newlabel{qd0sta}{{5}{2}{\uppercase {Achievements}\relax }{figure.5}{}}
\@writefile{toc}{\contentsline {section}{\uppercase {REFERENCES}}{2}{section*.4}}
\bibcite{ATF2}{4}
\bibcite{lowbeta}{5}
\bibcite{lowbeta09}{6}
\bibcite{andrea2}{7}
\bibcite{Andrei}{8}
\bibcite{rtomas}{9}
\bibcite{inte}{10}
\@writefile{lot}{\contentsline {table}{\numberline {2}{\ignorespaces Total and Peak luminosities for different lattices with increasing L$^*$.}}{3}{table.2}}
\newlabel{tablecilla}{{2}{3}{\uppercase {Achievements}\relax }{table.2}{}}
