%!PS-Adobe-3.0 EPSF-3.0
%%Creator: MATLAB, The Mathworks, Inc. Version 7.6.0.324 (R2008a). Operating System: Microsoft Windows XP.
%%Title: E:\nanobeam_2008\clic\figures_matlab_article\int_rms_poutre_asserv_ss_quad_ss_title.eps
%%CreationDate: 10/05/2009  14:31:57
%%DocumentNeededFonts: Helvetica
%%+ Helvetica-Bold
%%DocumentProcessColors: Cyan Magenta Yellow Black
%%LanguageLevel: 2
%%Pages: 1
%%BoundingBox:  -182   167   778   674
%%EndComments

%%BeginProlog
% MathWorks dictionary
/MathWorks 160 dict begin
% definition operators
/bdef {bind def} bind def
/ldef {load def} bind def
/xdef {exch def} bdef
/xstore {exch store} bdef
% operator abbreviations
/c  /clip ldef
/cc /concat ldef
/cp /closepath ldef
/gr /grestore ldef
/gs /gsave ldef
/mt /moveto ldef
/np /newpath ldef
/cm /currentmatrix ldef
/sm /setmatrix ldef
/rm /rmoveto ldef
/rl /rlineto ldef
/s {show newpath} bdef
/sc {setcmykcolor} bdef
/sr /setrgbcolor ldef
/sg /setgray ldef
/w /setlinewidth ldef
/j /setlinejoin ldef
/cap /setlinecap ldef
/rc {rectclip} bdef
/rf {rectfill} bdef
% page state control
/pgsv () def
/bpage {/pgsv save def} bdef
/epage {pgsv restore} bdef
/bplot /gsave ldef
/eplot {stroke grestore} bdef
% orientation switch
/portraitMode 0 def /landscapeMode 1 def /rotateMode 2 def
% coordinate system mappings
/dpi2point 0 def
% font control
/FontSize 0 def
/FMS {/FontSize xstore findfont [FontSize 0 0 FontSize neg 0 0]
  makefont setfont} bdef
/ISOLatin1Encoding where {pop /WindowsLatin1Encoding 256 array bdef
ISOLatin1Encoding WindowsLatin1Encoding copy pop
/.notdef/.notdef/quotesinglbase/florin/quotedblbase/ellipsis/dagger
/daggerdbl/circumflex/perthousand/Scaron/guilsinglleft/OE/.notdef/.notdef
/.notdef/.notdef/quoteleft/quoteright/quotedblleft/quotedblright/bullet
/endash/emdash/tilde/trademark/scaron/guilsinglright/oe/.notdef/.notdef
/Ydieresis WindowsLatin1Encoding 128 32 getinterval astore pop}
{/WindowsLatin1Encoding StandardEncoding bdef} ifelse
/reencode {exch dup where {pop load} {pop StandardEncoding} ifelse
  exch dup 3 1 roll findfont dup length dict begin
  { 1 index /FID ne {def}{pop pop} ifelse } forall
  /Encoding exch def currentdict end definefont pop} bdef
/isroman {findfont /CharStrings get /Agrave known} bdef
/FMSR {3 1 roll 1 index dup isroman {reencode} {pop pop} ifelse
  exch FMS} bdef
/csm {1 dpi2point div -1 dpi2point div scale neg translate
 dup landscapeMode eq {pop -90 rotate}
  {rotateMode eq {90 rotate} if} ifelse} bdef
% line types: solid, dotted, dashed, dotdash
/SO { [] 0 setdash } bdef
/DO { [.5 dpi2point mul 4 dpi2point mul] 0 setdash } bdef
/DA { [6 dpi2point mul] 0 setdash } bdef
/DD { [.5 dpi2point mul 4 dpi2point mul 6 dpi2point mul 4
  dpi2point mul] 0 setdash } bdef
% macros for lines and objects
/L {lineto stroke} bdef
/MP {3 1 roll moveto 1 sub {rlineto} repeat} bdef
/AP {{rlineto} repeat} bdef
/PDlw -1 def
/W {/PDlw currentlinewidth def setlinewidth} def
/PP {closepath eofill} bdef
/DP {closepath stroke} bdef
/MR {4 -2 roll moveto dup  0 exch rlineto exch 0 rlineto
  neg 0 exch rlineto closepath} bdef
/FR {MR stroke} bdef
/PR {MR fill} bdef
/L1i {{currentfile picstr readhexstring pop} image} bdef
/tMatrix matrix def
/MakeOval {newpath tMatrix currentmatrix pop translate scale
0 0 1 0 360 arc tMatrix setmatrix} bdef
/FO {MakeOval stroke} bdef
/PO {MakeOval fill} bdef
/PD {currentlinewidth 2 div 0 360 arc fill
   PDlw -1 eq not {PDlw w /PDlw -1 def} if} def
/FA {newpath tMatrix currentmatrix pop translate scale
  0 0 1 5 -2 roll arc tMatrix setmatrix stroke} bdef
/PA {newpath tMatrix currentmatrix pop	translate 0 0 moveto scale
  0 0 1 5 -2 roll arc closepath tMatrix setmatrix fill} bdef
/FAn {newpath tMatrix currentmatrix pop translate scale
  0 0 1 5 -2 roll arcn tMatrix setmatrix stroke} bdef
/PAn {newpath tMatrix currentmatrix pop translate 0 0 moveto scale
  0 0 1 5 -2 roll arcn closepath tMatrix setmatrix fill} bdef
/vradius 0 def /hradius 0 def /lry 0 def
/lrx 0 def /uly 0 def /ulx 0 def /rad 0 def
/MRR {/vradius xdef /hradius xdef /lry xdef /lrx xdef /uly xdef
  /ulx xdef newpath tMatrix currentmatrix pop ulx hradius add uly
  vradius add translate hradius vradius scale 0 0 1 180 270 arc 
  tMatrix setmatrix lrx hradius sub uly vradius add translate
  hradius vradius scale 0 0 1 270 360 arc tMatrix setmatrix
  lrx hradius sub lry vradius sub translate hradius vradius scale
  0 0 1 0 90 arc tMatrix setmatrix ulx hradius add lry vradius sub
  translate hradius vradius scale 0 0 1 90 180 arc tMatrix setmatrix
  closepath} bdef
/FRR {MRR stroke } bdef
/PRR {MRR fill } bdef
/MlrRR {/lry xdef /lrx xdef /uly xdef /ulx xdef /rad lry uly sub 2 div def
  newpath tMatrix currentmatrix pop ulx rad add uly rad add translate
  rad rad scale 0 0 1 90 270 arc tMatrix setmatrix lrx rad sub lry rad
  sub translate rad rad scale 0 0 1 270 90 arc tMatrix setmatrix
  closepath} bdef
/FlrRR {MlrRR stroke } bdef
/PlrRR {MlrRR fill } bdef
/MtbRR {/lry xdef /lrx xdef /uly xdef /ulx xdef /rad lrx ulx sub 2 div def
  newpath tMatrix currentmatrix pop ulx rad add uly rad add translate
  rad rad scale 0 0 1 180 360 arc tMatrix setmatrix lrx rad sub lry rad
  sub translate rad rad scale 0 0 1 0 180 arc tMatrix setmatrix
  closepath} bdef
/FtbRR {MtbRR stroke } bdef
/PtbRR {MtbRR fill } bdef
/stri 6 array def /dtri 6 array def
/smat 6 array def /dmat 6 array def
/tmat1 6 array def /tmat2 6 array def /dif 3 array def
/asub {/ind2 exch def /ind1 exch def dup dup
  ind1 get exch ind2 get sub exch } bdef
/tri_to_matrix {
  2 0 asub 3 1 asub 4 0 asub 5 1 asub
  dup 0 get exch 1 get 7 -1 roll astore } bdef
/compute_transform {
  dmat dtri tri_to_matrix tmat1 invertmatrix 
  smat stri tri_to_matrix tmat2 concatmatrix } bdef
/ds {stri astore pop} bdef
/dt {dtri astore pop} bdef
/db {2 copy /cols xdef /rows xdef mul dup 3 mul string
  currentfile 
  3 index 0 eq {/ASCIIHexDecode filter}
  {/ASCII85Decode filter 3 index 2 eq {/RunLengthDecode filter} if }
  ifelse exch readstring pop
  dup 0 3 index getinterval /rbmap xdef
  dup 2 index dup getinterval /gbmap xdef
  1 index dup 2 mul exch getinterval /bbmap xdef pop pop}bdef
/it {gs np dtri aload pop moveto lineto lineto cp c
  cols rows 8 compute_transform 
  rbmap gbmap bbmap true 3 colorimage gr}bdef
/il {newpath moveto lineto stroke}bdef
currentdict end def
%%EndProlog

%%BeginSetup
MathWorks begin

0 cap

end
%%EndSetup

%%Page: 1 1
%%BeginPageSetup
%%PageBoundingBox:  -182   167   778   674
MathWorks begin
bpage
%%EndPageSetup

%%BeginObject: obj1
bplot

/dpi2point 12 def
portraitMode -2184 8088 csm

    0     0 11529  6078 rc
88 dict begin %Colortable dictionary
/c0 { 0.000000 0.000000 0.000000 sr} bdef
/c1 { 1.000000 1.000000 1.000000 sr} bdef
/c2 { 0.900000 0.000000 0.000000 sr} bdef
/c3 { 0.000000 0.820000 0.000000 sr} bdef
/c4 { 0.000000 0.000000 0.800000 sr} bdef
/c5 { 0.910000 0.820000 0.320000 sr} bdef
/c6 { 1.000000 0.260000 0.820000 sr} bdef
/c7 { 0.000000 0.820000 0.820000 sr} bdef
c0
1 j
1 sg
   0    0 11530 6079 rf
6 w
0 4924 8935 0 0 -4924 1499 5409 4 MP
PP
-8935 0 0 4924 8935 0 0 -4924 1499 5409 5 MP stroke
4 w
DO
SO
6 w
0 sg
1499  485 mt 10434  485 L
1499 5409 mt 10434 5409 L
10434 5409 mt 10434  485 L
1499 5409 mt 1499  485 L
1499 5409 mt 10434 5409 L
1499 5409 mt 1499  485 L
3732 5409 mt 3732 5364 L
3732  485 mt 3732  529 L
3393 5409 mt 3393 5364 L
3393  485 mt 3393  529 L
3013 5409 mt 3013 5364 L
3013  485 mt 3013  529 L
2583 5409 mt 2583 5364 L
2583  485 mt 2583  529 L
2086 5409 mt 2086 5364 L
2086  485 mt 2086  529 L
1499 5409 mt 1499 5364 L
1499  485 mt 1499  529 L
3732 5409 mt 3732 5319 L
3732  485 mt 3732  574 L
%%IncludeResource: font Helvetica
/Helvetica /WindowsLatin1Encoding 240 FMSR

3555 5739 mt 
(10) s
%%IncludeResource: font Helvetica
/Helvetica /WindowsLatin1Encoding 160 FMSR

3821 5591 mt 
(1) s
5966 5409 mt 5966 5364 L
5966  485 mt 5966  529 L
7273 5409 mt 7273 5364 L
7273  485 mt 7273  529 L
8200 5409 mt 8200 5364 L
8200  485 mt 8200  529 L
8919 5409 mt 8919 5364 L
8919  485 mt 8919  529 L
9506 5409 mt 9506 5364 L
9506  485 mt 9506  529 L
10003 5409 mt 10003 5364 L
10003  485 mt 10003  529 L
10434 5409 mt 10434 5364 L
10434  485 mt 10434  529 L
1499 5409 mt 1543 5409 L
10434 5409 mt 10389 5409 L
1499 5409 mt 1588 5409 L
10434 5409 mt 10344 5409 L
%%IncludeResource: font Helvetica
/Helvetica /WindowsLatin1Encoding 240 FMSR

 927 5498 mt 
(10) s
%%IncludeResource: font Helvetica
/Helvetica /WindowsLatin1Encoding 160 FMSR

1193 5350 mt 
(-12) s
1499 5038 mt 1543 5038 L
10434 5038 mt 10389 5038 L
1499 4821 mt 1543 4821 L
10434 4821 mt 10389 4821 L
1499 4667 mt 1543 4667 L
10434 4667 mt 10389 4667 L
1499 4548 mt 1543 4548 L
10434 4548 mt 10389 4548 L
1499 4451 mt 1543 4451 L
10434 4451 mt 10389 4451 L
1499 4368 mt 1543 4368 L
10434 4368 mt 10389 4368 L
1499 4297 mt 1543 4297 L
10434 4297 mt 10389 4297 L
1499 4234 mt 1543 4234 L
10434 4234 mt 10389 4234 L
1499 4178 mt 1543 4178 L
10434 4178 mt 10389 4178 L
1499 4178 mt 1588 4178 L
10434 4178 mt 10344 4178 L
%%IncludeResource: font Helvetica
/Helvetica /WindowsLatin1Encoding 240 FMSR

 927 4267 mt 
(10) s
%%IncludeResource: font Helvetica
/Helvetica /WindowsLatin1Encoding 160 FMSR

1193 4119 mt 
(-11) s
1499 3807 mt 1543 3807 L
10434 3807 mt 10389 3807 L
1499 3590 mt 1543 3590 L
10434 3590 mt 10389 3590 L
1499 3436 mt 1543 3436 L
10434 3436 mt 10389 3436 L
1499 3317 mt 1543 3317 L
10434 3317 mt 10389 3317 L
1499 3220 mt 1543 3220 L
10434 3220 mt 10389 3220 L
1499 3137 mt 1543 3137 L
10434 3137 mt 10389 3137 L
1499 3066 mt 1543 3066 L
10434 3066 mt 10389 3066 L
1499 3003 mt 1543 3003 L
10434 3003 mt 10389 3003 L
1499 2947 mt 1543 2947 L
10434 2947 mt 10389 2947 L
1499 2947 mt 1588 2947 L
10434 2947 mt 10344 2947 L
%%IncludeResource: font Helvetica
/Helvetica /WindowsLatin1Encoding 240 FMSR

 927 3036 mt 
(10) s
%%IncludeResource: font Helvetica
/Helvetica /WindowsLatin1Encoding 160 FMSR

1193 2888 mt 
(-10) s
1499 2576 mt 1543 2576 L
10434 2576 mt 10389 2576 L
1499 2359 mt 1543 2359 L
10434 2359 mt 10389 2359 L
1499 2205 mt 1543 2205 L
10434 2205 mt 10389 2205 L
1499 2086 mt 1543 2086 L
10434 2086 mt 10389 2086 L
1499 1989 mt 1543 1989 L
10434 1989 mt 10389 1989 L
1499 1906 mt 1543 1906 L
10434 1906 mt 10389 1906 L
1499 1835 mt 1543 1835 L
10434 1835 mt 10389 1835 L
1499 1772 mt 1543 1772 L
10434 1772 mt 10389 1772 L
1499 1716 mt 1543 1716 L
10434 1716 mt 10389 1716 L
1499 1716 mt 1588 1716 L
10434 1716 mt 10344 1716 L
%%IncludeResource: font Helvetica
/Helvetica /WindowsLatin1Encoding 240 FMSR

 927 1805 mt 
(10) s
%%IncludeResource: font Helvetica
/Helvetica /WindowsLatin1Encoding 160 FMSR

1193 1657 mt 
(-9) s
1499 1345 mt 1543 1345 L
10434 1345 mt 10389 1345 L
1499 1128 mt 1543 1128 L
10434 1128 mt 10389 1128 L
1499  974 mt 1543  974 L
10434  974 mt 10389  974 L
1499  855 mt 1543  855 L
10434  855 mt 10389  855 L
1499  758 mt 1543  758 L
10434  758 mt 10389  758 L
1499  675 mt 1543  675 L
10434  675 mt 10389  675 L
1499  604 mt 1543  604 L
10434  604 mt 10389  604 L
1499  541 mt 1543  541 L
10434  541 mt 10389  541 L
1499  485 mt 1543  485 L
10434  485 mt 10389  485 L
1499  485 mt 1588  485 L
10434  485 mt 10344  485 L
%%IncludeResource: font Helvetica
/Helvetica /WindowsLatin1Encoding 240 FMSR

 927  574 mt 
(10) s
%%IncludeResource: font Helvetica
/Helvetica /WindowsLatin1Encoding 160 FMSR

1193  426 mt 
(-8) s
1499  485 mt 10434  485 L
1499 5409 mt 10434 5409 L
10434 5409 mt 10434  485 L
1499 5409 mt 1499  485 L
gs 1499 484 8936 4926 rc
30 w
/c8 { 1.000000 0.000000 0.000000 sr} bdef
c8
5 61 6 81 7 84 6 100 6 120 7 432 6 296 7 55 
6 8 6 5 7 4 6 4 7 4 6 4 7 6 6 6 
7 7 6 7 7 8 6 12 7 9 7 8 6 10 7 10 
6 9 7 12 7 16 6 13 7 25 7 131 6 129 7 14 
7 5 7 8 6 5 7 4 7 5 7 6 7 7 6 8 
7 5 7 5 7 7 7 8 7 7 7 10 7 11 7 15 
7 43 7 32 7 10 7 8 7 8 7 6 7 4 7 5 
7 5 7 9 7 11 7 15 7 13 8 6 7 9 7 18 
7 10 7 6 8 8 7 9 7 7 8 8 7 10 7 11 
8 11 7 10 7 10 8 11 7 10 8 11 7 10 7 32 
8 57 7 19 8 16 8 20 7 23 8 23 7 19 8 10 
7 12 8 11 8 41 7 73 8 12 8 2 8 2 7 1 
8 2 8 1 8 1 8 1 7 1 8 1 8 0 8 1 
8 1 8 2 8 1 8 1 8 0 8 1 8 0 8 1 
8 0 8 0 8 0 9 1 8 0 8 0 8 0 8 0 
9 1 8 0 8 0 9 0 8 0 8 0 9 0 8 0 
8 0 9 1 8 0 9 0 8 0 9 0 8 0 9 0 
9 0 8 0 9 0 9 0 8 1 9 0 9 0 9 0 
8 0 9 0 9 0 9 0 9 0 9 0 9 1 9 0 
9 0 9 0 9 1 9 0 9 0 9 0 9 0 9 0 
9 1 10 0 9 0 9 1 9 0 10 1 9 0 9 1 
10 1 9 0 10 1 9 1 10 2 9 3 10 1 10 2 
9 3 10 1 10 2 9 3 10 2 10 2 10 3 9 2 
10 4 10 4 10 2 10 3 10 4 10 3 10 4 10 3 
10 1 10 0 11 1 10 7 10 9 10 4 11 3 10 2 
10 0 11 24 10 71 11 15 10 1 11 0 10 0 11 0 
11 1 10 0 11 0 11 0 11 0 11 0 10 0 11 0 
11 0 11 1 11 0 11 0 11 0 12 0 11 0 11 0 
11 0 11 0 12 1 11 0 12 1 11 1 11 1 12 0 
12 0 11 0 12 1 12 0 11 0 12 0 12 0 12 0 
12 1 12 0 12 0 12 0 12 0 12 0 12 0 12 0 
13 0 12 0 12 0 13 1 12 0 13 0 12 0 13 0 
13 0 12 1 13 6 13 22 13 9 13 1 13 0 13 0 
13 0 13 0 13 0 13 0 13 1 14 0 13 1 14 0 
13 0 14 0 13 0 14 0 14 0 14 1 13 0 14 0 
14 1 14 0 15 0 14 1 14 0 14 0 15 1 14 0 
14 2 15 9 15 7 14 1 15 1 15 1 15 2 15 2 
15 2 15 1 15 3 7592 2583 300 MP stroke
15 89 16 478 15 140 15 3 16 0 16 0 15 0 16 0 
16 0 16 0 16 0 16 0 16 0 16 0 16 0 17 0 
16 0 17 0 17 0 16 0 17 0 17 0 17 0 17 0 
17 1 18 0 17 0 17 0 18 1 18 0 17 0 18 0 
18 0 18 0 18 0 19 0 18 0 19 0 18 0 19 0 
19 0 19 0 19 0 19 0 19 0 19 0 20 0 19 0 
20 0 20 1 20 0 20 0 20 0 20 0 21 0 20 0 
21 0 21 0 21 0 21 0 21 1 22 0 21 0 22 0 
22 0 22 0 22 1 22 0 23 0 23 0 22 1 23 0 
23 1 24 1 23 0 24 2 23 1 24 1 25 1 24 1 
24 1 25 1 25 1 25 2 25 1 26 5 25 3 26 2 
26 1 27 3 26 4 27 3 27 1 27 2 28 1 27 2 
28 1 28 1 29 1 28 2 29 2 29 3 30 3 30 3 
29 5 31 27 30 136 31 47 31 4 32 2 31 3 33 3 
32 3 33 3 33 5 33 7 34 5 34 4 34 7 35 13 
35 33 36 37 36 14 36 7 37 6 38 7 37 7 38 5 
39 8 39 9 40 10 40 13 40 16 41 56 42 45 42 17 
43 18 43 25 44 43 44 72 45 158 46 146 46 69 47 32 
48 18 49 13 49 8 50 5 51 3 51 3 52 3 54 2 
54 1 55 1 56 1 57 1 58 1 59 1 61 0 61 0 
62 0 64 1 65 0 67 0 68 0 69 0 71 1 72 0 
74 0 76 0 78 0 79 0 82 0 84 0 86 0 88 0 
91 0 93 0 96 0 99 0 1499 620 181 MP stroke
DA
18 w
/c9 { 0.000000 0.498039 0.000000 sr} bdef
c9
3 11 6 28 7 32 6 30 7 22 6 20 7 17 6 14 
7 14 6 12 7 16 6 20 7 19 7 15 6 15 7 15 
6 16 7 11 7 13 6 13 7 13 7 11 6 12 7 11 
7 11 7 11 6 12 7 11 7 13 7 14 7 12 6 13 
7 13 7 12 7 11 7 8 7 9 7 8 7 9 7 15 
7 18 7 13 7 11 7 13 7 10 7 10 7 10 7 9 
7 12 7 15 7 14 7 12 7 9 8 11 7 16 7 15 
7 17 7 21 8 17 7 23 7 27 8 29 7 26 7 24 
8 27 7 30 7 48 8 47 7 36 8 42 7 36 7 35 
8 43 7 41 8 28 8 24 7 14 8 11 7 11 8 9 
7 6 8 6 8 4 7 4 8 3 8 2 8 3 7 3 
8 2 8 2 8 2 8 2 7 2 8 2 8 1 8 1 
8 1 8 1 8 1 8 1 8 0 8 1 8 0 8 1 
8 1 8 1 8 1 9 0 8 1 8 0 8 1 8 1 
9 0 8 1 8 1 9 0 8 0 8 1 9 0 8 1 
8 0 9 1 8 0 9 1 8 0 9 1 8 0 9 0 
9 1 8 0 9 1 9 0 8 0 9 1 9 0 9 0 
8 1 9 0 9 0 9 1 9 0 9 0 9 1 9 0 
9 0 9 1 9 0 9 0 9 1 9 0 9 0 9 1 
9 0 10 0 9 1 9 0 9 0 10 1 9 0 9 0 
10 1 9 0 10 1 9 0 10 0 9 1 10 0 10 1 
9 0 10 0 10 1 9 1 10 0 10 1 10 0 9 1 
10 0 10 1 10 0 10 1 10 1 10 2 10 6 10 1 
10 1 10 1 11 0 10 1 10 0 10 1 11 1 10 0 
10 1 11 0 10 0 11 1 10 0 11 1 10 1 11 0 
11 1 10 1 11 0 11 1 11 0 11 0 10 1 11 0 
11 1 11 0 11 1 11 0 11 1 12 0 11 1 11 0 
11 1 11 0 12 1 11 0 12 0 11 1 11 0 12 1 
12 0 11 1 12 0 12 1 11 0 12 1 12 1 12 0 
12 1 12 0 12 1 12 1 12 0 12 1 12 0 12 1 
13 1 12 0 12 1 13 1 12 0 13 1 12 1 13 0 
13 1 12 1 13 1 13 6 13 12 13 5 13 1 13 1 
13 1 13 1 13 0 13 1 13 0 14 1 13 1 14 0 
13 1 14 1 13 1 14 0 14 1 14 1 13 0 14 1 
14 1 14 0 15 1 14 1 14 0 14 0 15 1 14 1 
14 1 15 1 15 0 14 1 15 1 15 1 15 1 15 0 
15 2 15 0 15 1 15 2 16 1 15 2 15 1 16 1 
16 1 15 1 16 1 7468 3771 300 MP stroke
16 1 16 1 16 2 16 1 16 2 16 2 16 1 17 3 
16 4 17 3 17 2 16 3 17 2 17 3 17 3 17 3 
17 3 18 2 17 3 17 3 18 3 18 2 17 2 18 2 
18 1 18 2 18 2 19 3 18 5 19 4 18 2 19 4 
19 5 19 4 19 3 19 3 19 3 19 2 20 2 19 2 
20 5 20 4 20 5 20 11 20 16 20 11 21 6 20 10 
21 10 21 9 21 7 21 6 21 7 22 8 21 8 22 7 
22 4 22 3 22 3 22 4 23 8 23 11 22 9 23 8 
23 12 24 14 23 9 24 7 23 6 24 7 25 7 24 6 
24 3 25 4 25 6 25 9 25 8 26 7 25 10 26 12 
26 5 27 3 26 2 27 2 27 5 27 5 28 3 27 5 
28 4 28 2 29 3 28 3 29 2 29 3 30 3 30 2 
29 1 31 2 30 1 31 1 31 1 32 2 31 3 33 4 
32 4 33 5 33 5 33 11 34 8 34 5 34 6 35 5 
35 4 36 5 36 4 36 4 37 3 38 3 37 4 38 5 
39 9 39 7 40 10 40 8 40 14 41 49 42 44 42 16 
43 28 43 26 44 21 44 40 45 50 46 81 46 138 47 103 
48 35 49 15 49 8 50 8 51 5 51 3 52 4 54 2 
54 3 55 2 56 2 57 1 58 1 59 1 61 1 61 1 
62 1 64 0 65 1 67 0 68 1 69 0 71 1 72 1 
74 0 76 0 78 1 79 0 82 1 84 0 86 0 88 0 
91 1 93 0 96 1 99 1 1499 2467 173 MP stroke
SO
/c10 { 0.000000 0.000000 1.000000 sr} bdef
c10
3 55 7 37 6 30 6 41 7 32 6 20 7 20 6 24 
6 23 7 25 6 25 7 20 6 13 7 15 6 20 7 18 
6 17 7 17 6 14 7 14 7 17 6 17 7 16 6 11 
7 8 7 13 6 15 7 11 7 14 6 11 7 11 7 12 
7 11 6 8 7 7 7 6 7 12 7 16 6 17 7 13 
7 12 7 10 7 9 7 12 7 11 7 12 7 14 7 13 
7 8 7 6 7 11 7 11 7 7 7 12 7 7 7 8 
7 9 7 7 7 9 7 7 8 6 7 8 7 8 7 8 
7 6 8 5 7 7 7 11 8 9 7 6 7 6 8 8 
7 7 7 10 8 11 7 5 8 4 7 2 7 3 8 3 
7 3 8 2 8 1 7 2 8 2 7 1 8 1 7 1 
8 1 8 1 7 1 8 1 8 1 8 0 7 1 8 0 
8 0 8 1 8 0 7 1 8 0 8 1 8 0 8 0 
8 1 8 1 8 0 8 1 8 0 8 1 8 1 8 1 
8 1 8 1 9 1 8 1 8 1 8 0 8 2 9 2 
8 3 8 3 9 3 8 3 8 3 9 4 8 3 8 3 
9 3 8 4 9 4 8 4 9 5 8 5 9 5 9 4 
8 4 9 5 9 5 8 4 9 4 9 4 9 3 8 3 
9 3 9 4 9 5 9 4 9 5 9 7 9 4 9 5 
9 7 9 7 9 6 9 5 9 4 9 5 9 3 9 3 
10 5 9 5 9 4 9 4 10 4 9 4 9 5 10 6 
9 8 10 5 9 3 10 2 9 3 10 5 10 4 9 3 
10 4 10 8 9 12 10 4 10 7 10 6 9 4 10 3 
10 4 10 4 10 7 10 5 10 81 10 288 10 16 10 1 
10 1 11 1 10 0 10 0 10 1 11 3 10 3 10 0 
11 1 10 1 11 1 10 1 11 1 10 2 11 1 11 1 
10 1 11 1 11 0 11 1 11 0 10 1 11 1 11 1 
11 2 11 2 11 4 11 3 12 1 11 1 11 1 11 0 
11 1 12 1 11 1 12 1 11 0 11 1 12 0 12 1 
11 1 12 0 12 0 11 1 12 0 12 0 12 1 12 0 
12 1 12 1 12 1 12 1 12 1 12 1 12 2 13 2 
12 1 12 1 13 0 12 1 13 0 12 1 13 0 13 1 
12 1 13 1 13 4 13 6 13 3 13 1 13 1 13 1 
13 1 13 0 13 1 13 0 14 0 13 1 14 0 13 0 
14 0 13 1 14 0 14 0 14 1 13 0 14 0 14 1 
14 0 15 1 14 0 14 0 14 0 15 1 14 0 14 0 
15 1 15 0 14 1 15 0 15 0 15 0 15 1 15 0 
15 0 15 1 15 0 7577 3535 300 MP stroke
16 0 15 1 15 0 16 1 16 0 15 1 16 0 16 0 
16 0 16 1 16 0 16 1 16 1 16 1 17 2 16 2 
17 1 17 2 16 1 17 2 17 1 17 2 17 2 17 1 
18 1 17 3 17 4 18 3 18 2 17 1 18 1 18 2 
18 0 18 2 19 3 18 3 19 3 18 2 19 3 19 6 
19 5 19 3 19 3 19 2 19 3 20 3 19 3 20 9 
20 7 20 6 20 16 20 31 20 19 21 13 20 24 21 20 
21 12 21 12 21 9 21 8 22 7 21 5 22 4 22 2 
22 1 22 2 22 1 23 4 23 5 22 2 23 2 23 2 
24 2 23 2 24 2 23 1 24 2 25 1 24 1 24 0 
25 1 25 2 25 1 25 1 26 2 25 3 26 4 26 3 
27 1 26 2 27 1 27 5 27 4 28 3 27 4 28 5 
28 3 29 1 28 2 29 2 29 0 30 1 30 1 29 1 
31 1 30 1 31 2 31 1 32 3 31 5 33 4 32 5 
33 4 33 5 33 5 34 6 34 7 34 8 35 5 35 3 
36 4 36 4 36 4 37 5 38 8 37 6 38 5 39 9 
39 7 40 7 40 7 40 9 41 24 42 24 42 8 43 6 
43 6 44 9 44 13 45 18 46 9 46 1 47 1 48 0 
49 1 49 1 50 2 51 1 51 2 52 2 54 3 54 2 
55 4 56 2 57 3 58 2 59 1 61 1 61 1 62 2 
64 1 65 1 67 2 68 4 69 3 71 3 72 5 74 5 
76 5 78 4 79 3 82 3 84 5 86 4 88 4 91 2 
93 1 96 1 99 2 1499 2817 180 MP stroke
DD
/c11 { 0.600000 0.200000 0.000000 sr} bdef
c11
0 4 1 5 1 6 0 4 1 4 0 4 1 4 1 4 
0 6 1 5 1 5 0 5 1 6 1 6 0 4 1 3 
1 3 0 4 1 3 0 5 1 4 1 3 0 2 1 4 
1 4 0 3 1 2 1 3 0 3 1 3 0 3 1 4 
1 3 0 3 1 3 1 2 0 2 1 3 1 2 0 3 
1 2 0 2 1 3 1 2 0 2 1 3 1 3 0 3 
1 2 1 2 0 3 1 4 1 3 0 3 1 3 0 3 
1 3 1 2 0 2 1 3 1 2 0 2 1 2 1 3 
0 2 1 3 1 2 0 2 1 2 1 1 0 2 1 3 
0 3 1 2 1 2 0 2 1 2 1 2 0 2 1 3 
1 2 0 1 1 2 1 1 0 3 1 2 0 2 1 2 
1 2 0 2 1 1 1 2 0 2 1 1 1 2 0 2 
1 1 1 2 0 2 1 2 1 1 0 2 1 1 1 1 
0 2 1 2 0 3 1 2 1 1 0 2 1 2 1 1 
0 2 1 1 1 1 0 2 1 1 1 1 0 2 1 1 
1 2 0 1 1 2 1 2 0 1 1 2 0 1 1 1 
1 2 0 1 1 2 1 2 0 2 1 1 1 1 0 1 
1 2 1 2 0 1 1 1 1 2 0 1 1 1 1 1 
0 2 1 1 1 2 0 1 1 1 1 2 0 1 1 1 
0 2 1 1 1 1 0 1 1 2 1 1 0 1 1 1 
1 1 0 2 1 1 1 1 0 2 1 1 1 1 0 2 
1 1 1 1 0 2 1 1 1 1 0 1 1 1 1 2 
0 1 1 1 1 2 0 1 1 1 1 2 0 1 1 1 
1 2 1 1 1 1 0 1 1 1 1 1 0 1 1 1 
1 1 0 1 1 2 0 1 1 1 1 1 0 1 1 1 
1 1 0 1 1 1 1 1 0 1 1 1 1 1 0 1 
1 2 1 1 0 1 1 1 1 1 0 1 1 2 1 1 
0 1 1 2 1 1 0 1 1 1 1 1 0 1 1 1 
1 1 0 1 1 2 1 1 1 1 1 1 0 1 1 1 
1 1 0 1 1 1 1 1 0 1 1 1 1 1 0 1 
1 1 1 1 0 1 1 1 1 1 0 1 1 1 1 1 
0 1 1 1 1 1 0 1 1 1 1 1 0 1 1 1 
1 1 0 1 1 1 1 2 0 1 1 1 1 1 0 1 
1 1 1 1 0 2 1 1 1 0 1 1 0 1 1 1 
1 1 1 1 1 1 1 1 1 1 0 1 1 1 1 0 
-1 0 2 3 1 1 1 1 1 1 0 1 1 1 1 1 
0 1 1 1 1 0 -1 0 2 2 1 1 1 1 1 1 
0 1 1 1 1 1 10199 4889 300 MP stroke
0 1 1 1 1 1 0 1 1 1 1 1 1 0 -1 0 
2 2 1 1 1 1 1 1 0 1 1 1 1 0 -1 0 
2 2 1 1 1 1 1 1 0 1 1 1 1 1 1 1 
1 1 0 1 1 1 1 0 1 1 1 1 1 1 1 1 
1 1 0 1 1 1 1 1 0 1 1 1 1 0 0 2 
1 1 1 1 1 1 1 1 1 1 1 1 1 0 1 1 
1 1 1 1 1 1 1 0 1 1 0 1 1 1 1 1 
1 1 1 1 1 1 0 1 1 1 1 0 -1 0 2 2 
1 1 1 1 1 0 -1 0 2 2 1 0 -1 0 2 2 
1 1 1 1 1 1 1 1 1 1 1 0 -1 0 2 2 
1 0 -1 0 2 2 1 0 1 1 1 1 1 1 1 1 
1 1 1 1 1 1 1 1 1 1 1 1 1 1 1 1 
0 1 1 1 1 0 1 1 1 1 1 1 1 1 1 1 
1 1 1 0 1 1 1 1 1 1 1 1 0 1 1 1 
1 1 1 1 1 1 1 1 1 1 1 0 1 1 1 1 
1 1 1 1 1 0 1 1 1 1 1 1 1 1 1 0 
1 1 1 1 1 1 1 1 1 1 1 0 1 1 1 1 
1 1 1 1 1 0 -1 0 2 2 1 0 1 1 1 1 
1 1 1 1 1 0 1 1 1 1 1 0 1 1 1 1 
1 1 1 1 1 0 1 1 1 1 1 1 1 1 1 1 
1 1 1 0 1 1 1 1 1 1 1 1 1 0 -1 0 
2 2 1 0 1 1 1 1 1 0 1 1 1 1 1 1 
1 0 1 1 1 1 1 0 1 1 1 1 1 1 1 1 
1 0 1 1 1 1 1 1 1 1 1 0 -1 0 2 2 
1 0 1 1 1 1 1 0 1 1 1 1 1 1 1 1 
1 0 1 1 1 1 1 1 1 0 1 1 1 1 1 0 
1 1 1 1 1 0 1 1 1 1 1 0 1 1 1 1 
1 1 1 0 1 1 1 1 1 0 -1 0 2 2 1 0 
1 0 1 1 1 1 1 1 1 0 1 1 1 0 1 1 
1 0 1 1 1 1 1 1 1 1 1 0 1 1 1 1 
1 1 1 0 1 1 1 0 1 1 1 0 1 1 1 1 
1 1 1 0 1 1 1 0 1 1 1 0 1 1 1 1 
1 1 1 1 1 0 1 1 1 0 1 1 1 1 1 1 
1 0 1 1 1 0 1 1 1 1 1 0 1 1 1 0 
1 1 1 1 1 0 1 1 1 0 1 1 1 0 1 1 
1 0 1 1 1 0 1 1 1 0 1 1 1 1 1 0 
1 1 1 1 1 0 1 0 1 1 1 1 1 0 1 1 
1 0 1 1 1 0 9923 4659 300 MP stroke
1 1 1 1 1 1 1 0 1 1 1 0 1 1 1 1 
1 0 1 1 1 0 1 1 1 1 1 0 1 1 1 1 
1 0 1 1 1 0 1 1 1 0 1 1 1 1 1 0 
1 1 1 0 1 1 1 1 1 0 1 0 1 1 1 1 
1 0 1 1 1 0 1 1 1 1 1 0 1 1 1 0 
1 1 1 1 1 0 1 1 1 0 1 1 1 0 1 1 
1 0 1 1 1 0 1 1 1 0 1 1 1 1 1 0 
1 1 1 0 1 1 1 1 1 0 1 1 1 1 1 0 
1 0 1 1 1 1 1 0 1 0 1 1 1 0 1 0 
1 1 1 1 1 0 1 1 1 0 1 0 1 1 1 1 
1 0 1 1 1 0 1 1 1 0 1 1 1 0 1 1 
1 0 1 1 1 1 1 0 1 0 1 1 1 1 1 0 
1 1 1 0 1 1 1 0 1 1 1 0 1 1 1 1 
1 0 1 0 1 1 1 1 1 0 1 1 1 0 1 1 
1 1 1 0 1 0 1 1 1 1 1 0 1 0 1 1 
1 0 1 0 1 1 1 1 1 0 1 1 1 0 1 1 
1 0 1 1 1 0 1 1 1 0 1 1 1 0 1 1 
1 1 1 0 1 0 1 1 1 0 1 1 1 0 1 1 
1 0 1 0 1 1 1 0 1 1 1 0 1 1 1 0 
1 1 1 1 1 0 1 0 1 1 1 1 1 0 1 1 
1 0 1 0 1 1 1 0 1 1 1 0 1 1 1 0 
1 0 1 1 1 0 1 1 1 0 1 1 1 0 1 0 
1 1 1 0 1 1 1 0 1 0 1 1 1 0 1 0 
1 1 1 0 1 1 1 1 1 0 1 1 1 0 1 1 
1 0 1 0 1 1 1 0 1 1 1 0 1 1 1 0 
1 0 1 1 1 0 1 1 1 0 1 0 1 1 1 0 
1 0 1 1 1 0 1 1 1 0 1 1 1 0 1 0 
1 1 1 1 1 0 1 0 1 1 1 0 1 1 1 0 
1 1 1 0 1 1 1 0 1 1 1 0 1 1 1 0 
1 1 1 0 1 0 1 1 1 1 1 0 1 0 1 1 
1 0 1 1 1 0 1 1 1 0 1 0 1 1 1 0 
1 1 1 0 1 0 1 1 1 0 1 1 1 0 1 1 
1 0 1 0 1 0 1 1 1 0 1 1 1 0 1 1 
1 0 1 1 1 0 1 1 1 0 1 0 1 1 1 0 
1 1 1 0 1 0 1 1 1 0 1 1 1 0 1 1 
1 0 1 0 1 1 1 0 1 1 1 0 1 0 1 1 
1 0 1 1 1 0 1 1 1 0 1 1 1 0 1 0 
1 1 1 0 1 0 9624 4513 300 MP stroke
1 1 1 1 1 0 1 0 1 0 1 1 1 1 1 0 
1 0 1 1 1 0 1 0 1 1 1 0 1 1 1 0 
1 0 1 1 1 0 1 1 1 0 1 0 1 1 1 0 
1 0 1 1 1 0 1 1 1 0 1 0 1 1 1 0 
1 1 1 0 1 0 1 1 1 1 1 0 1 0 1 1 
1 0 1 0 1 1 1 0 1 0 1 1 1 0 1 1 
1 0 1 1 1 0 1 0 1 1 1 0 1 1 1 0 
1 0 1 1 1 0 1 1 1 0 1 0 1 1 1 1 
1 0 1 0 1 1 1 0 1 1 1 0 1 0 1 0 
1 0 1 1 1 0 1 1 1 0 1 0 1 1 1 0 
1 0 1 1 1 0 1 1 1 0 1 0 1 1 1 0 
1 1 1 0 1 0 1 0 1 1 1 1 1 0 1 0 
1 0 1 1 1 0 1 1 1 0 1 0 1 0 1 1 
1 0 1 0 1 1 1 0 1 0 1 1 1 0 1 0 
1 1 1 0 1 1 1 0 1 0 1 1 1 0 1 0 
1 1 1 0 1 0 1 1 1 0 1 1 1 0 1 0 
1 1 1 0 1 1 1 0 1 0 1 1 1 0 1 0 
1 1 1 0 1 0 1 1 1 0 1 0 1 1 1 0 
1 0 1 1 1 0 1 1 1 0 1 0 1 1 1 0 
1 0 1 1 1 0 1 0 1 1 1 0 1 0 1 1 
1 0 1 0 1 1 1 0 1 0 1 1 1 0 1 0 
1 1 1 0 1 0 1 1 1 0 1 1 1 0 1 0 
1 1 1 0 1 0 1 1 1 0 1 0 1 1 1 0 
1 0 1 1 1 0 1 1 1 0 1 0 1 0 1 1 
1 0 1 1 1 0 1 0 1 1 1 0 1 1 1 0 
1 0 1 1 1 0 1 0 1 1 1 0 1 0 1 1 
1 0 1 0 1 1 1 0 1 0 1 1 1 0 1 0 
1 1 1 0 1 0 1 1 1 0 1 0 1 0 1 1 
1 0 1 1 1 0 1 0 1 1 1 0 1 0 1 1 
1 0 1 0 1 0 1 1 1 0 1 1 1 0 1 0 
1 0 1 1 1 0 1 1 1 0 1 0 1 0 1 1 
1 0 1 1 1 0 1 0 1 0 1 1 1 0 1 0 
1 1 1 0 1 0 1 1 1 0 1 0 1 1 1 0 
1 0 1 1 1 0 1 0 1 0 1 1 1 0 1 0 
1 1 1 0 1 0 1 0 1 1 1 0 1 0 1 1 
1 0 1 0 1 0 1 1 1 0 1 0 1 1 1 0 
1 1 1 0 1 0 1 0 1 1 1 0 1 0 1 1 
1 0 1 0 1 1 9325 4406 300 MP stroke
1 0 1 0 1 1 1 0 1 0 1 1 1 0 1 0 
1 1 1 0 1 0 1 1 1 0 1 0 1 0 1 1 
1 0 1 0 1 1 1 0 1 0 1 1 1 0 1 0 
1 1 1 0 1 0 1 1 1 0 1 0 1 1 1 0 
1 0 1 1 1 0 1 0 1 1 1 0 1 1 1 0 
1 0 1 0 1 1 1 0 1 0 1 1 1 0 1 1 
1 0 1 0 1 0 1 1 1 0 1 0 1 0 1 1 
1 0 1 0 1 0 1 1 1 0 1 0 1 1 1 0 
1 0 1 1 1 0 1 0 1 0 1 1 1 0 1 0 
1 1 1 0 1 1 1 0 1 0 1 0 1 1 1 0 
1 0 1 1 1 0 1 1 1 0 1 0 1 0 1 1 
1 0 1 0 1 0 1 1 1 0 1 0 1 1 1 0 
1 0 1 1 1 0 1 0 1 0 1 1 1 0 1 0 
1 1 1 0 1 0 1 0 1 1 1 0 1 0 1 1 
1 0 1 0 1 0 1 1 1 0 1 1 1 0 1 0 
1 0 1 1 1 0 1 0 1 1 1 0 1 0 1 0 
1 1 1 0 1 0 1 1 1 0 1 0 1 1 1 0 
1 0 1 0 1 1 1 0 1 1 1 0 1 0 1 1 
1 0 1 0 1 0 1 1 1 0 1 0 1 0 1 1 
1 0 1 0 1 1 1 0 1 0 1 1 1 0 1 0 
1 0 1 0 1 1 1 0 1 0 1 1 1 0 1 0 
1 1 1 0 1 0 1 0 1 1 1 0 1 0 1 0 
1 1 1 0 1 0 1 0 1 1 1 0 1 0 1 1 
1 0 1 0 1 1 1 0 1 0 1 0 1 1 1 0 
1 0 1 0 1 1 1 0 1 0 1 0 1 1 1 0 
1 0 1 1 1 0 1 0 1 0 1 1 1 0 1 0 
1 1 1 0 1 0 1 0 1 1 1 0 1 0 1 0 
1 1 1 0 1 0 1 1 1 0 1 0 1 1 1 0 
1 0 1 1 1 0 1 0 1 0 1 1 1 0 1 0 
1 0 1 1 1 0 1 0 1 1 1 0 1 0 1 0 
1 1 1 0 1 0 1 0 1 1 1 0 1 0 1 0 
1 0 1 1 1 0 1 0 1 1 1 0 1 0 1 1 
1 0 1 0 1 0 1 1 1 0 1 0 1 0 1 1 
1 0 1 0 1 1 1 0 1 0 1 0 1 0 1 1 
1 0 1 0 1 1 1 0 1 0 1 0 1 1 1 0 
1 0 1 0 1 1 1 0 1 0 1 0 1 1 1 0 
1 0 1 1 1 0 1 0 1 0 1 1 1 0 1 0 
1 0 1 1 1 0 9026 4319 300 MP stroke
1 0 1 0 1 1 1 0 1 0 1 0 1 1 1 0 
1 0 1 0 1 1 1 0 1 0 1 1 1 0 1 0 
1 0 1 1 1 0 1 0 1 0 1 1 1 0 1 0 
1 0 1 0 1 1 1 0 1 0 1 0 1 1 1 0 
1 1 1 0 1 0 1 0 1 0 1 1 1 0 1 0 
1 0 1 1 1 0 1 0 1 0 1 1 1 0 1 0 
1 0 1 1 1 0 1 0 1 0 1 0 1 1 1 0 
1 0 1 1 1 0 1 0 1 0 1 1 1 0 1 0 
1 0 1 1 1 0 1 0 1 0 1 1 1 0 1 0 
1 0 1 1 1 0 1 0 1 0 1 0 1 1 1 0 
1 0 1 0 1 1 1 0 1 0 1 1 1 0 1 0 
1 0 1 0 1 1 1 0 1 0 1 1 1 0 1 0 
1 1 1 0 1 0 1 0 1 0 1 1 1 0 1 0 
1 1 1 0 1 1 1 1 1 0 1 0 1 0 1 1 
1 0 1 0 1 1 1 0 1 0 1 0 1 1 1 0 
1 0 1 0 1 0 1 1 1 0 1 0 1 0 1 1 
1 0 1 0 1 0 1 1 1 0 1 0 1 1 1 0 
1 0 2 0 1 1 1 0 1 0 1 0 1 1 1 0 
1 0 1 0 1 1 1 0 1 0 1 0 1 1 1 0 
1 0 1 0 1 0 1 1 1 0 1 0 1 0 1 1 
1 0 1 0 1 0 1 1 1 0 1 0 1 0 1 1 
1 0 1 0 1 0 1 0 1 1 1 0 1 0 1 1 
1 0 1 0 1 0 2 1 1 0 1 0 1 0 1 1 
1 0 1 0 1 0 1 1 1 0 1 0 1 0 1 1 
1 0 1 0 1 0 1 1 1 0 1 0 1 0 1 0 
1 1 1 0 1 0 1 0 1 1 1 0 1 0 1 1 
2 0 1 0 1 0 1 1 1 0 1 0 1 1 1 0 
1 0 1 0 1 1 1 0 1 0 1 0 1 1 1 0 
1 0 1 0 1 1 1 0 1 0 1 0 2 1 1 0 
1 0 1 0 1 1 1 0 1 0 1 0 1 1 1 0 
1 0 1 0 1 1 1 0 1 0 1 0 1 1 1 0 
1 0 1 1 2 0 1 0 1 0 1 1 1 0 1 0 
1 0 1 0 1 1 1 0 1 0 1 0 1 1 1 0 
1 0 1 0 1 1 2 0 1 0 1 1 1 0 1 0 
1 0 1 1 1 0 1 0 1 0 1 1 1 0 1 0 
1 0 1 0 1 1 2 0 1 0 1 0 1 1 1 0 
1 0 1 0 1 1 1 0 1 0 1 1 1 0 1 0 
1 0 1 1 2 0 8719 4242 300 MP stroke
1 0 1 0 1 1 1 0 1 0 1 0 1 0 1 1 
1 0 1 0 1 0 1 1 2 0 1 0 1 0 1 0 
1 1 1 0 1 0 1 1 1 0 1 0 1 1 1 0 
1 0 2 0 1 1 1 0 1 0 1 0 1 0 1 1 
1 0 1 0 1 0 1 1 1 0 2 0 1 0 1 0 
1 1 1 0 1 0 1 0 1 0 1 1 1 0 1 0 
1 0 2 1 1 0 1 0 1 1 1 0 1 0 1 0 
1 1 1 0 1 0 1 0 2 1 1 0 1 0 1 0 
1 1 1 0 1 0 1 0 1 1 1 0 2 0 1 0 
1 0 1 1 1 0 1 0 1 0 1 1 1 0 1 0 
2 0 1 1 1 0 1 0 1 0 1 1 1 0 1 0 
1 0 1 1 2 0 1 0 1 0 1 0 1 0 1 1 
1 0 1 0 1 0 2 0 1 1 1 0 1 0 1 0 
1 1 1 0 1 0 1 0 1 0 2 1 1 0 1 0 
1 0 1 0 1 1 1 0 1 0 2 0 1 0 1 1 
1 0 1 0 1 1 1 0 1 0 1 0 2 1 1 0 
1 0 1 0 1 1 1 0 1 0 1 0 2 1 1 0 
1 0 1 1 1 0 1 0 1 0 1 0 2 1 1 0 
1 0 1 0 1 1 1 0 1 0 1 0 2 1 1 0 
1 0 1 0 1 1 1 0 1 0 1 0 2 1 1 0 
1 0 1 0 1 1 1 0 1 0 1 0 2 1 1 0 
1 0 1 1 1 0 1 0 1 0 2 1 1 0 1 0 
1 0 1 1 1 0 1 0 2 0 1 1 1 0 1 0 
1 0 1 1 1 0 2 0 1 0 1 0 1 1 1 0 
1 0 1 0 2 1 1 0 1 0 1 0 1 1 1 0 
1 0 2 0 1 1 1 0 1 0 1 0 1 1 1 0 
2 0 1 0 1 0 1 1 1 0 1 0 2 0 1 1 
1 0 1 0 1 0 1 1 1 0 2 0 1 0 1 1 
1 0 1 0 1 0 2 1 1 0 1 0 1 1 1 0 
1 0 2 0 1 1 1 0 1 0 1 0 1 1 2 0 
1 0 1 1 1 0 1 0 1 0 1 0 2 1 1 0 
1 0 1 0 1 1 2 0 1 0 1 0 1 1 1 0 
1 0 2 0 1 0 1 1 1 0 1 0 1 0 2 1 
1 0 1 0 1 1 1 0 1 0 2 1 1 0 1 0 
1 0 1 1 2 0 1 0 1 0 1 1 1 0 1 0 
2 1 1 0 1 0 1 0 1 1 2 0 1 0 1 0 
1 1 1 0 1 0 2 0 1 1 1 0 1 0 1 0 
2 1 1 0 1 0 8382 4169 300 MP stroke
1 0 1 0 2 1 1 0 1 0 1 0 1 1 1 0 
2 0 1 0 1 1 1 0 1 0 2 1 1 0 1 0 
1 0 1 0 2 1 1 0 1 0 1 0 1 1 2 0 
1 0 1 0 1 0 1 1 2 0 1 0 1 0 1 1 
1 0 2 0 1 0 1 1 1 0 1 0 2 1 1 0 
1 0 1 0 2 0 1 1 1 0 1 0 1 0 2 1 
1 0 1 0 1 0 1 0 2 1 1 0 1 0 1 0 
1 1 2 0 1 0 1 0 1 0 2 0 1 1 1 0 
1 0 1 0 2 0 1 1 1 0 1 0 2 0 1 1 
1 0 1 0 1 0 2 0 1 1 1 0 1 0 2 0 
1 1 1 0 1 0 1 0 2 1 1 0 1 0 1 0 
2 1 1 0 1 0 1 0 2 1 1 0 1 0 1 0 
1 1 2 0 1 0 1 1 1 0 2 0 1 0 1 0 
1 1 2 0 1 0 1 0 1 1 2 0 1 0 1 0 
1 1 1 0 2 0 1 0 1 0 1 1 2 0 1 0 
1 0 1 1 2 0 1 0 1 0 1 1 2 0 1 0 
1 0 1 0 2 1 1 0 1 0 1 0 2 1 1 0 
1 0 1 0 2 0 1 1 1 0 1 0 2 0 1 1 
1 0 1 0 2 0 1 1 1 0 2 0 1 0 1 0 
1 1 2 0 1 0 1 0 1 0 2 1 1 0 1 0 
1 0 2 1 1 0 1 0 1 0 2 1 1 0 1 0 
2 0 1 0 1 1 1 0 2 0 1 0 1 0 1 1 
2 0 1 0 1 0 2 1 1 0 1 0 1 0 2 0 
1 1 1 0 1 0 2 0 1 1 1 0 2 0 1 0 
1 0 1 1 2 0 1 0 1 0 2 0 1 1 1 0 
1 0 2 0 1 0 1 0 2 1 1 0 1 0 1 0 
2 0 1 1 1 0 2 0 1 0 1 0 1 1 2 0 
1 0 1 0 2 0 1 1 1 0 1 0 2 1 1 0 
1 0 2 0 1 0 1 1 2 0 1 0 1 1 1 0 
2 0 1 0 1 1 2 0 1 0 1 0 2 0 1 1 
1 0 2 0 1 0 1 0 1 1 2 0 1 0 1 0 
2 0 1 1 1 0 2 0 1 0 1 1 2 0 1 0 
1 0 1 0 2 1 1 0 1 0 2 0 1 1 1 0 
2 0 1 0 1 0 2 1 1 0 1 0 2 0 1 1 
1 0 2 0 1 0 1 0 2 1 1 0 1 0 2 0 
1 1 1 0 2 0 1 0 1 0 1 1 2 0 1 0 
1 0 2 1 1 0 1 0 2 0 1 0 1 1 2 0 
1 0 1 0 2 0 8005 4102 300 MP stroke
1 1 2 0 1 0 1 0 2 1 1 0 1 0 2 0 
1 1 1 0 2 0 1 0 1 0 2 1 1 0 1 0 
2 0 1 1 1 0 2 0 1 0 1 1 2 0 1 0 
1 0 2 0 1 1 1 0 2 0 1 0 2 0 1 1 
1 0 2 0 1 0 1 1 2 0 1 0 1 0 2 0 
1 1 1 0 2 0 1 0 2 0 1 1 1 0 2 0 
1 0 1 0 2 1 1 0 1 0 2 0 1 1 2 0 
1 0 1 0 2 0 1 1 1 0 2 0 1 0 2 0 
1 1 1 0 2 0 1 0 1 0 2 1 1 0 2 0 
1 0 1 1 2 0 1 0 1 0 2 1 1 0 2 0 
1 0 1 0 2 1 1 0 2 0 1 1 1 0 2 0 
1 0 1 0 2 1 1 0 2 0 1 0 1 1 2 0 
1 0 2 0 1 0 1 1 2 0 1 0 2 0 1 0 
1 1 2 0 1 0 2 0 1 1 1 0 2 0 1 0 
2 1 1 0 1 0 2 0 1 0 2 1 1 0 1 0 
2 1 1 0 2 0 1 0 1 0 2 1 1 0 2 0 
1 0 2 0 1 1 1 0 2 0 1 0 2 0 1 1 
1 0 2 0 1 0 2 1 1 0 2 0 1 0 1 1 
2 0 1 0 2 1 1 0 1 0 2 1 1 0 2 0 
1 1 2 0 1 0 1 0 2 1 1 0 2 0 1 0 
2 0 1 1 2 0 1 0 1 0 2 0 1 1 2 0 
1 0 2 1 1 0 1 0 2 0 1 0 2 1 1 0 
2 0 1 0 2 1 1 0 1 0 2 1 1 0 2 0 
1 0 2 1 1 0 2 0 1 0 1 1 2 0 1 0 
2 0 1 1 2 0 1 0 2 0 1 1 2 0 1 0 
1 0 2 0 1 1 2 0 1 0 2 1 1 0 2 0 
1 0 2 1 1 0 2 0 1 0 2 1 1 0 1 0 
2 0 1 1 2 0 1 0 2 0 1 0 2 1 1 0 
2 0 1 0 2 1 1 0 2 0 1 0 2 1 1 0 
2 0 1 0 1 0 2 1 1 0 2 0 1 0 2 1 
1 0 2 0 1 0 2 1 1 0 2 0 1 0 2 1 
1 0 2 0 1 0 2 0 1 1 2 0 1 0 2 1 
1 0 2 0 1 0 2 1 1 0 2 0 1 0 2 1 
1 0 2 0 1 0 2 1 1 0 2 0 1 1 2 0 
1 0 2 0 1 1 2 0 1 0 2 0 1 0 2 1 
1 0 2 0 1 0 2 1 1 0 2 0 1 0 2 1 
1 0 2 0 2 0 1 0 2 1 1 0 2 0 1 0 
2 0 1 1 2 0 7578 4031 300 MP stroke
1 0 2 0 1 1 2 0 1 0 2 1 1 0 2 0 
1 0 2 0 2 1 1 0 2 0 1 0 2 1 1 0 
2 0 1 0 2 0 1 1 2 0 1 0 2 0 2 1 
1 0 2 0 1 0 2 1 1 0 2 0 1 0 2 0 
1 1 2 0 2 0 1 0 2 0 1 1 2 0 1 0 
2 0 1 1 2 0 2 0 1 0 2 0 1 1 2 0 
1 0 2 0 2 0 1 1 2 0 1 0 2 0 1 1 
2 0 1 0 2 0 2 1 1 0 2 0 1 0 2 1 
2 0 1 0 2 0 1 1 2 0 1 0 2 0 2 1 
1 0 2 0 1 0 2 0 1 1 2 0 2 0 1 0 
2 0 1 1 2 0 2 0 1 0 2 1 1 0 2 0 
2 0 1 1 2 0 1 0 2 0 2 0 1 1 2 0 
1 0 2 0 2 1 1 0 2 0 1 0 2 0 2 1 
1 0 2 0 1 0 2 1 2 0 1 0 2 0 1 1 
2 0 2 0 1 0 2 1 1 0 2 0 2 0 1 1 
2 0 2 0 1 0 2 0 1 1 2 0 2 0 1 0 
2 1 2 0 1 0 2 0 1 0 2 1 2 0 1 0 
2 0 2 1 1 0 2 0 1 0 2 0 2 1 1 0 
2 0 2 0 1 0 2 1 2 0 1 0 2 1 2 0 
1 0 2 0 1 1 2 0 2 0 1 0 2 0 2 1 
1 0 2 0 2 0 1 0 2 1 2 0 1 0 2 0 
2 1 1 0 2 0 2 0 1 0 2 0 2 1 1 0 
2 0 2 0 1 1 2 0 2 0 1 0 2 1 2 0 
1 0 2 0 2 0 1 1 2 0 2 0 1 0 2 1 
2 0 1 0 2 0 2 0 1 1 2 0 2 0 1 0 
2 1 2 0 2 0 1 0 2 0 2 1 1 0 2 0 
2 0 1 0 2 1 2 0 1 0 2 1 2 0 2 0 
1 0 2 1 2 0 1 0 2 0 2 0 2 1 1 0 
2 0 2 0 1 0 2 1 2 0 1 0 2 0 2 1 
2 0 1 0 2 0 2 1 1 0 2 0 2 0 2 1 
1 0 2 0 2 0 2 1 1 0 2 0 2 0 1 1 
2 0 2 0 2 0 1 0 2 1 2 0 2 0 1 0 
2 0 2 1 2 0 1 0 2 0 2 1 2 0 1 0 
2 0 2 0 1 1 2 0 2 0 2 0 1 1 2 0 
2 0 2 0 2 1 1 0 2 0 2 0 2 1 1 0 
2 0 2 0 2 1 1 0 2 0 2 1 2 0 1 0 
2 0 2 1 2 0 1 0 2 0 2 0 2 1 2 0 
1 0 2 0 2 1 7086 3962 300 MP stroke
2 0 1 0 2 0 2 1 2 0 2 0 1 0 2 1 
2 0 2 0 2 0 1 1 2 0 2 0 2 0 1 1 
2 0 2 0 2 0 2 1 1 0 2 0 2 0 2 1 
2 0 1 0 2 0 2 0 2 1 2 0 2 0 1 0 
2 0 2 1 2 0 2 0 1 0 2 1 2 0 2 0 
2 0 1 1 2 0 2 0 2 0 2 1 2 0 1 0 
2 0 2 1 2 0 2 0 2 0 1 1 2 0 2 0 
2 0 2 1 2 0 1 0 2 0 2 0 2 1 2 0 
2 0 1 0 2 0 2 1 2 0 2 0 2 0 2 1 
1 0 2 0 2 0 2 1 2 0 2 0 2 0 1 0 
2 1 2 0 2 0 2 0 2 0 2 1 1 0 2 0 
2 0 2 1 2 0 2 0 2 0 2 1 1 0 2 0 
2 0 2 0 2 1 2 0 2 0 2 0 2 1 1 0 
2 0 2 0 2 0 2 1 2 0 2 0 2 0 2 1 
1 0 2 0 2 0 2 1 2 0 2 0 2 0 2 1 
2 0 2 0 1 1 2 0 2 0 2 0 2 0 2 1 
2 0 2 0 2 1 2 0 2 0 1 0 2 1 2 0 
2 0 2 0 2 1 2 0 2 0 2 1 2 0 2 0 
2 0 2 0 2 1 1 0 2 0 2 0 2 1 2 0 
2 0 2 0 2 0 2 1 2 0 2 0 2 0 2 1 
2 0 2 0 2 0 2 0 2 1 2 0 2 0 1 0 
2 1 2 0 2 0 2 0 2 1 2 0 2 0 2 0 
2 1 2 0 2 0 2 0 2 0 2 1 2 0 2 0 
2 0 2 0 2 1 2 0 2 0 2 1 2 0 2 0 
2 0 2 1 2 0 2 0 2 0 2 1 2 0 2 0 
2 0 2 1 2 0 2 0 2 0 2 1 2 0 2 0 
2 0 2 0 2 1 2 0 2 0 2 0 2 1 2 0 
2 0 2 0 2 1 2 0 2 0 2 0 2 1 2 0 
2 0 2 0 2 1 2 0 2 0 2 0 2 1 2 0 
2 0 3 1 2 0 2 0 2 0 2 1 2 0 2 0 
2 0 2 1 2 0 2 0 2 0 2 1 2 0 2 0 
2 0 2 1 2 0 2 0 3 0 2 0 2 1 2 0 
2 0 2 1 2 0 2 0 2 0 2 1 2 0 2 0 
2 0 3 1 2 0 2 0 2 1 2 0 2 0 2 0 
2 1 2 0 2 0 2 0 3 1 2 0 2 0 2 0 
2 1 2 0 2 0 2 1 2 0 2 0 3 0 2 0 
2 1 2 0 2 0 2 1 2 0 2 0 3 0 2 0 
2 1 2 0 2 0 6505 3890 300 MP stroke
2 1 2 0 2 0 3 0 2 1 2 0 2 0 2 0 
2 1 2 0 3 0 2 0 2 1 2 0 2 0 2 0 
2 0 3 1 2 0 2 0 2 0 2 1 2 0 3 0 
2 0 2 1 2 0 2 0 2 0 3 1 2 0 2 0 
2 0 2 1 2 0 3 0 2 0 2 1 2 0 2 0 
3 0 2 1 2 0 2 0 2 0 3 0 2 1 2 0 
2 0 2 0 3 0 2 1 2 0 2 0 2 0 3 1 
2 0 2 0 2 0 2 1 3 0 2 0 2 0 2 1 
3 0 2 0 2 0 2 1 2 0 3 0 2 0 2 1 
2 0 3 0 2 0 2 1 2 0 3 0 2 0 2 1 
2 0 3 0 2 1 2 0 2 0 3 0 2 1 2 0 
2 0 3 0 2 1 2 0 3 0 2 0 2 1 2 0 
3 0 2 0 2 1 2 0 3 0 2 1 2 0 3 0 
2 0 2 1 2 0 3 0 2 0 2 1 3 0 2 0 
2 0 3 1 2 0 2 0 2 0 3 1 2 0 2 0 
3 1 2 0 2 0 3 0 2 1 2 0 3 0 2 1 
2 0 3 0 2 0 2 1 3 0 2 0 2 1 3 0 
2 0 2 0 3 1 2 0 2 0 3 1 2 0 2 1 
3 0 2 0 2 1 3 0 2 0 3 0 2 1 2 0 
3 0 2 0 2 1 3 0 2 0 2 0 3 1 2 0 
3 0 2 1 2 0 3 0 2 0 3 1 2 0 2 1 
3 0 2 0 3 0 2 1 2 0 3 0 2 0 3 1 
2 0 2 0 3 1 2 0 3 0 2 0 3 1 2 0 
2 0 3 0 2 1 3 0 2 0 3 0 2 1 2 0 
3 0 2 1 3 0 2 0 3 0 2 1 3 0 2 0 
2 1 3 0 2 0 3 1 2 0 3 0 2 1 3 0 
2 0 3 0 2 1 3 0 2 0 3 0 2 1 2 0 
3 0 2 1 3 0 2 0 3 1 2 0 3 1 2 0 
3 0 2 0 3 1 2 0 3 0 2 0 3 1 2 0 
3 0 3 1 2 0 3 0 2 1 3 0 2 0 3 0 
2 1 3 0 2 0 3 1 2 0 3 0 2 1 3 0 
3 0 2 1 3 0 2 0 3 0 2 1 3 0 2 0 
3 1 3 0 2 0 3 0 2 1 3 0 2 0 3 1 
3 0 2 1 3 0 2 0 3 1 3 0 2 0 3 1 
2 0 3 0 3 0 2 1 3 0 2 1 3 0 3 0 
2 1 3 0 2 0 3 1 3 0 2 0 3 1 3 0 
2 1 3 0 2 0 3 0 3 1 2 0 3 0 3 1 
2 0 3 0 3 1 5795 3805 300 MP stroke
2 0 3 0 3 0 2 1 3 0 3 0 2 1 3 0 
3 0 2 1 3 0 3 1 2 0 3 0 3 1 2 0 
3 0 3 0 2 1 3 0 3 0 3 1 2 0 3 0 
3 1 2 0 3 0 3 0 3 1 2 0 3 0 3 1 
2 0 3 0 3 1 3 0 2 1 3 0 3 1 3 0 
2 1 3 0 3 0 3 1 2 0 3 0 3 1 3 0 
2 0 3 1 3 0 3 0 2 0 3 1 3 0 3 1 
3 0 2 0 3 0 3 1 3 0 3 0 2 1 3 0 
3 1 3 0 3 0 2 1 3 0 3 0 3 1 3 0 
2 0 3 1 3 0 3 1 3 0 3 0 2 1 3 0 
3 0 3 1 3 0 3 0 3 1 2 0 3 0 3 0 
3 1 3 0 3 1 3 0 2 0 3 1 3 0 3 1 
3 0 3 0 3 1 3 0 3 0 2 1 3 0 3 0 
3 1 3 0 3 0 3 1 3 0 3 0 3 1 3 0 
2 1 3 0 3 0 3 0 3 1 3 0 3 0 3 1 
3 0 3 0 3 0 3 1 3 0 3 0 3 1 3 0 
3 1 3 0 3 0 3 1 3 0 3 0 3 0 2 1 
3 0 3 0 3 1 3 0 3 0 3 0 3 1 3 0 
4 1 3 0 3 0 3 0 3 1 3 0 3 1 3 0 
3 0 3 1 3 0 3 0 3 1 3 0 3 0 3 1 
3 0 3 0 3 0 3 1 3 0 3 0 4 1 3 0 
3 0 3 1 3 0 3 0 3 0 3 1 3 0 3 0 
3 1 4 0 3 0 3 1 3 0 3 1 3 0 3 0 
3 1 4 0 3 0 3 1 3 0 3 0 3 1 3 0 
4 1 3 0 3 0 3 1 3 0 3 0 4 1 3 0 
3 0 3 0 3 1 3 0 4 1 3 0 3 0 3 1 
3 0 4 0 3 1 3 0 3 1 4 0 3 0 3 1 
3 0 3 0 4 1 3 0 3 0 3 1 4 0 3 1 
3 0 3 0 4 1 3 0 3 0 4 1 3 0 3 1 
3 0 4 0 3 0 3 1 4 0 3 0 3 1 3 0 
4 0 3 1 3 0 4 0 3 0 3 1 4 0 3 0 
3 1 4 0 3 1 3 0 4 0 3 1 3 0 4 0 
3 1 4 0 3 0 3 1 4 0 3 0 3 1 4 0 
3 0 4 1 3 0 3 0 4 0 3 1 4 0 3 0 
4 1 3 0 3 0 4 1 3 0 4 1 3 0 4 0 
3 1 3 0 4 1 3 0 4 0 3 1 4 0 3 0 
4 1 3 0 4 0 3 1 4 0 3 0 4 1 3 0 
4 0 3 1 4 0 4884 3704 300 MP stroke
3 0 4 1 3 0 4 0 3 1 4 0 4 1 3 0 
4 0 3 1 4 0 3 0 4 1 3 0 4 1 4 0 
3 0 4 1 3 0 4 0 4 1 3 0 4 1 3 0 
4 1 4 0 3 1 4 0 4 0 3 1 4 0 4 0 
3 1 4 0 3 0 4 1 4 0 3 0 4 1 4 0 
4 1 3 0 4 1 4 0 3 1 4 0 4 1 3 0 
4 0 4 1 4 0 3 1 4 0 4 1 4 0 3 0 
4 1 4 0 4 1 3 0 4 0 4 1 4 0 3 0 
4 1 4 0 4 1 4 0 3 1 4 0 4 0 4 1 
4 0 4 1 3 0 4 1 4 0 4 1 4 0 4 0 
4 1 3 0 4 1 4 0 4 0 4 1 4 0 4 0 
4 1 3 0 4 1 4 0 4 1 4 0 4 1 4 0 
4 0 4 1 4 0 4 1 4 0 4 0 4 1 4 0 
4 0 4 1 4 0 4 1 4 0 4 0 4 1 4 0 
4 1 4 0 4 0 4 1 4 0 4 1 4 0 4 0 
4 1 4 0 4 1 4 0 4 1 4 0 4 0 4 1 
5 0 4 1 4 0 4 0 4 1 4 1 4 0 4 1 
5 0 4 1 4 0 4 1 4 0 4 1 4 0 5 1 
4 0 4 0 4 1 4 1 5 0 4 0 4 1 4 0 
4 0 5 1 4 0 4 1 4 0 5 1 4 0 4 0 
4 1 5 0 4 1 4 0 5 1 4 0 4 1 5 0 
4 1 4 0 5 0 4 1 4 0 5 1 4 0 4 1 
5 0 4 1 4 1 5 0 4 1 5 0 4 0 4 1 
5 0 4 1 5 0 4 1 4 0 5 1 4 0 5 1 
4 0 5 0 4 1 5 0 4 1 5 0 4 1 5 0 
4 1 5 0 4 1 5 0 4 1 5 0 4 1 5 0 
4 1 5 0 5 1 4 0 5 1 4 0 5 1 5 0 
4 1 5 0 4 1 5 0 5 0 4 1 5 0 5 1 
4 1 5 0 5 1 4 0 5 1 5 0 4 1 5 0 
5 1 5 0 4 1 5 0 5 1 5 1 4 0 5 1 
5 1 5 0 5 1 4 1 5 0 5 1 5 0 5 1 
4 0 5 0 5 1 5 1 5 0 5 1 5 0 4 1 
5 0 5 1 5 0 5 1 5 0 5 1 5 1 5 0 
5 1 5 1 5 0 5 1 5 0 5 1 5 0 5 1 
5 0 5 1 5 1 5 0 5 1 5 0 5 0 5 1 
5 1 5 0 5 1 5 0 6 1 5 0 5 1 5 0 
5 1 5 0 5 1 6 0 5 1 5 1 5 0 5 1 
5 1 6 0 5 0 3609 3566 300 MP stroke
5 1 5 0 6 1 5 0 5 1 5 1 6 1 5 0 
5 1 6 0 5 1 5 0 6 1 5 1 5 0 6 1 
5 0 5 1 6 0 5 1 6 0 5 1 6 1 5 0 
5 1 6 0 5 1 6 1 5 1 6 1 5 0 6 1 
5 1 6 0 5 1 6 0 6 1 5 0 6 1 5 1 
6 0 5 1 6 1 6 0 5 1 6 0 6 1 5 1 
6 0 6 1 5 1 6 1 6 0 6 1 5 1 6 0 
6 1 6 1 5 0 6 1 6 1 6 1 6 1 5 0 
6 1 6 1 6 1 6 1 6 1 6 0 6 1 5 1 
6 1 6 0 6 1 6 1 6 1 6 0 6 1 6 1 
6 0 6 1 6 1 6 1 6 1 7 0 6 1 6 1 
6 0 6 1 6 1 6 0 6 1 7 1 6 0 6 1 
6 1 6 1 7 1 6 0 6 1 6 1 7 1 6 1 
6 1 6 1 7 1 6 1 6 0 7 1 6 1 7 1 
6 1 6 1 7 0 6 1 7 1 6 1 7 0 6 1 
7 1 6 0 7 1 6 1 7 1 6 0 7 1 7 1 
6 1 7 0 6 1 7 1 7 1 6 1 7 1 7 1 
7 0 6 1 7 1 7 1 7 0 6 1 7 1 7 0 
7 1 7 1 7 1 6 0 7 1 7 1 7 1 7 0 
7 1 7 1 7 2 7 1 7 1 7 1 7 1 7 1 
7 1 7 1 7 1 8 1 7 1 7 1 7 1 7 1 
7 1 8 1 7 1 7 1 7 1 8 0 7 1 7 2 
8 0 7 2 7 1 8 1 7 1 7 1 8 1 7 1 
8 1 7 1 8 1 7 1 8 1 7 1 8 1 8 1 
7 1 8 1 7 1 8 1 8 1 8 1 7 1 8 1 
8 1 8 1 7 1 8 1 8 1 8 1 8 1 8 1 
7 1 8 1 8 1 8 1 8 1 8 1 8 1 8 1 
8 1 9 1 8 1 8 2 8 1 8 1 8 1 8 1 
9 1 8 1 8 1 9 2 8 1 8 0 9 1 8 1 
8 2 9 1 8 1 9 1 8 2 9 2 8 1 9 1 
8 1 9 1 9 1 8 1 9 2 9 1 8 1 9 1 
9 2 9 1 8 1 9 1 9 1 9 1 9 2 9 1 
9 1 9 1 9 2 9 1 9 1 9 1 9 2 9 1 
10 2 9 1 9 1 9 1 9 2 10 1 9 1 9 2 
10 1 9 1 10 1 9 1 10 2 9 2 10 1 9 1 
10 2 10 1 9 1 10 1 10 2 9 1 10 1 10 2 
10 1 10 2 10 1 9 2 10 2 10 1 10 2 10 1 
1499 3291 297 MP stroke
gr

18 w
c11
DD
0 sg
%%IncludeResource: font Helvetica
/Helvetica /WindowsLatin1Encoding 240 FMSR

5157 5970 mt 
(Frequency [Hz]) s
 404 4566 mt  -90 rotate
(Integrated RMS of motion [m]) s
90 rotate
%%IncludeResource: font Helvetica
/Helvetica /WindowsLatin1Encoding 120 FMSR

1482 5452 mt 
( ) s
10418  526 mt 
( ) s
SO
6 w
1 sg
0 1290 5184 0 0 -1290 2262 5351 4 MP
PP
-5184 0 0 1290 5184 0 0 -1290 2262 5351 5 MP stroke
4 w
DO
SO
6 w
0 sg
2262 4061 mt 7446 4061 L
2262 5351 mt 7446 5351 L
7446 5351 mt 7446 4061 L
2262 5351 mt 2262 4061 L
2262 5351 mt 7446 5351 L
2262 5351 mt 2262 4061 L
2262 4061 mt 7446 4061 L
2262 5351 mt 7446 5351 L
7446 5351 mt 7446 4061 L
2262 5351 mt 2262 4061 L
%%IncludeResource: font Helvetica
/Helvetica /WindowsLatin1Encoding 240 FMSR

2730 4323 mt 
(No stabilization) s
gs 2262 4061 5185 1291 rc
30 w
c8
360 0 2334 4238 2 MP stroke
gr

30 w
c8
0 sg
2730 4635 mt 
(Ground isolation) s
gs 2262 4061 5185 1291 rc
DA
18 w
c9
360 0 2334 4550 2 MP stroke
SO
gr

18 w
c9
0 sg
2730 4948 mt 
(Ground isolation and resonances rejection) s
gs 2262 4061 5185 1291 rc
c10
360 0 2334 4862 2 MP stroke
gr

c10
0 sg
2730 5260 mt 
(Integrated noise of the measurement chain) s
gs 2262 4061 5185 1291 rc
DD
c11
360 0 2334 5174 2 MP stroke
SO
6 w
gr

6 w
c11
0 sg
%%IncludeResource: font Helvetica-Bold
/Helvetica-Bold /WindowsLatin1Encoding 288 FMSR

1839 1666 mt 
(Ground isolation) s
24 w
0 1709 1722 663 2 MP stroke
0 78 -45 -120 1767 705 3 MP
PP
45 -42 -45 120 1722 585 3 MP
PP
0 -78 -45 120 1767 2330 3 MP
PP
45 42 -45 -120 1722 2450 3 MP
PP
0 175 1722 2565 2 MP stroke
0 78 -45 -120 1767 2607 3 MP
PP
45 -42 -45 120 1722 2487 3 MP
PP
0 -78 -45 120 1767 2698 3 MP
PP
45 42 -45 -120 1722 2818 3 MP
PP
1878 2744 mt 
(Resonances rejection) s
c10
%%IncludeResource: font Helvetica
/Helvetica /WindowsLatin1Encoding 288 FMSR

 503 2733 mt 
(0.13nm) s
c9
 507 2498 mt 
(0.25nm) s
c11
 497 3366 mt 
(0.05nm) s
c8
 659  808 mt 
(7.8nm) s
0 sg
%%IncludeResource: font Helvetica
/Helvetica /WindowsLatin1Encoding 240 FMSR

1438 5723 mt 
(5) s
10324 5722 mt 
(80) s
6 w

end %%Color Dict

eplot
%%EndObject

epage
end

showpage

%%Trailer
%%EOF