%!PS-Adobe-2.0
%%Title: layout.eps
%%Creator: gnuplot 4.0 patchlevel 0
%%CreationDate: Mon Oct 19 15:24:08 2009
%%DocumentFonts: (atend)
%%BoundingBox: 50 50 554 770
%%Orientation: Landscape
%%Pages: (atend)
%%EndComments
/gnudict 256 dict def
gnudict begin
/Color true def
/Solid false def
/gnulinewidth 5.000 def
/userlinewidth gnulinewidth def
/vshift -83 def
/dl {10.0 mul} def
/hpt_ 31.5 def
/vpt_ 31.5 def
/hpt hpt_ def
/vpt vpt_ def
/Rounded false def
/M {moveto} bind def
/L {lineto} bind def
/R {rmoveto} bind def
/V {rlineto} bind def
/N {newpath moveto} bind def
/C {setrgbcolor} bind def
/f {rlineto fill} bind def
/vpt2 vpt 2 mul def
/hpt2 hpt 2 mul def
/Lshow { currentpoint stroke M
  0 vshift R show } def
/Rshow { currentpoint stroke M
  dup stringwidth pop neg vshift R show } def
/Cshow { currentpoint stroke M
  dup stringwidth pop -2 div vshift R show } def
/UP { dup vpt_ mul /vpt exch def hpt_ mul /hpt exch def
  /hpt2 hpt 2 mul def /vpt2 vpt 2 mul def } def
/DL { Color {setrgbcolor Solid {pop []} if 0 setdash }
 {pop pop pop 0 setgray Solid {pop []} if 0 setdash} ifelse } def
/BL { stroke userlinewidth 2 mul setlinewidth
      Rounded { 1 setlinejoin 1 setlinecap } if } def
/AL { stroke userlinewidth 2 div setlinewidth
      Rounded { 1 setlinejoin 1 setlinecap } if } def
/UL { dup gnulinewidth mul /userlinewidth exch def
      dup 1 lt {pop 1} if 10 mul /udl exch def } def
/PL { stroke userlinewidth setlinewidth
      Rounded { 1 setlinejoin 1 setlinecap } if } def
/LTw { PL [] 1 setgray } def
/LTb { BL [] 0 0 0 DL } def
/LTa { AL [1 udl mul 2 udl mul] 0 setdash 0 0 0 setrgbcolor } def
/LT0 { PL [] 1 0 0 DL } def
/LT1 { PL [4 dl 2 dl] 0 1 0 DL } def
/LT2 { PL [2 dl 3 dl] 0 0 1 DL } def
/LT3 { PL [1 dl 1.5 dl] 1 0 1 DL } def
/LT4 { PL [5 dl 2 dl 1 dl 2 dl] 0 1 1 DL } def
/LT5 { PL [4 dl 3 dl 1 dl 3 dl] 1 1 0 DL } def
/LT6 { PL [2 dl 2 dl 2 dl 4 dl] 0 0 0 DL } def
/LT7 { PL [2 dl 2 dl 2 dl 2 dl 2 dl 4 dl] 1 0.3 0 DL } def
/LT8 { PL [2 dl 2 dl 2 dl 2 dl 2 dl 2 dl 2 dl 4 dl] 0.5 0.5 0.5 DL } def
/Pnt { stroke [] 0 setdash
   gsave 1 setlinecap M 0 0 V stroke grestore } def
/Dia { stroke [] 0 setdash 2 copy vpt add M
  hpt neg vpt neg V hpt vpt neg V
  hpt vpt V hpt neg vpt V closepath stroke
  Pnt } def
/Pls { stroke [] 0 setdash vpt sub M 0 vpt2 V
  currentpoint stroke M
  hpt neg vpt neg R hpt2 0 V stroke
  } def
/Box { stroke [] 0 setdash 2 copy exch hpt sub exch vpt add M
  0 vpt2 neg V hpt2 0 V 0 vpt2 V
  hpt2 neg 0 V closepath stroke
  Pnt } def
/Crs { stroke [] 0 setdash exch hpt sub exch vpt add M
  hpt2 vpt2 neg V currentpoint stroke M
  hpt2 neg 0 R hpt2 vpt2 V stroke } def
/TriU { stroke [] 0 setdash 2 copy vpt 1.12 mul add M
  hpt neg vpt -1.62 mul V
  hpt 2 mul 0 V
  hpt neg vpt 1.62 mul V closepath stroke
  Pnt  } def
/Star { 2 copy Pls Crs } def
/BoxF { stroke [] 0 setdash exch hpt sub exch vpt add M
  0 vpt2 neg V  hpt2 0 V  0 vpt2 V
  hpt2 neg 0 V  closepath fill } def
/TriUF { stroke [] 0 setdash vpt 1.12 mul add M
  hpt neg vpt -1.62 mul V
  hpt 2 mul 0 V
  hpt neg vpt 1.62 mul V closepath fill } def
/TriD { stroke [] 0 setdash 2 copy vpt 1.12 mul sub M
  hpt neg vpt 1.62 mul V
  hpt 2 mul 0 V
  hpt neg vpt -1.62 mul V closepath stroke
  Pnt  } def
/TriDF { stroke [] 0 setdash vpt 1.12 mul sub M
  hpt neg vpt 1.62 mul V
  hpt 2 mul 0 V
  hpt neg vpt -1.62 mul V closepath fill} def
/DiaF { stroke [] 0 setdash vpt add M
  hpt neg vpt neg V hpt vpt neg V
  hpt vpt V hpt neg vpt V closepath fill } def
/Pent { stroke [] 0 setdash 2 copy gsave
  translate 0 hpt M 4 {72 rotate 0 hpt L} repeat
  closepath stroke grestore Pnt } def
/PentF { stroke [] 0 setdash gsave
  translate 0 hpt M 4 {72 rotate 0 hpt L} repeat
  closepath fill grestore } def
/Circle { stroke [] 0 setdash 2 copy
  hpt 0 360 arc stroke Pnt } def
/CircleF { stroke [] 0 setdash hpt 0 360 arc fill } def
/C0 { BL [] 0 setdash 2 copy moveto vpt 90 450  arc } bind def
/C1 { BL [] 0 setdash 2 copy        moveto
       2 copy  vpt 0 90 arc closepath fill
               vpt 0 360 arc closepath } bind def
/C2 { BL [] 0 setdash 2 copy moveto
       2 copy  vpt 90 180 arc closepath fill
               vpt 0 360 arc closepath } bind def
/C3 { BL [] 0 setdash 2 copy moveto
       2 copy  vpt 0 180 arc closepath fill
               vpt 0 360 arc closepath } bind def
/C4 { BL [] 0 setdash 2 copy moveto
       2 copy  vpt 180 270 arc closepath fill
               vpt 0 360 arc closepath } bind def
/C5 { BL [] 0 setdash 2 copy moveto
       2 copy  vpt 0 90 arc
       2 copy moveto
       2 copy  vpt 180 270 arc closepath fill
               vpt 0 360 arc } bind def
/C6 { BL [] 0 setdash 2 copy moveto
      2 copy  vpt 90 270 arc closepath fill
              vpt 0 360 arc closepath } bind def
/C7 { BL [] 0 setdash 2 copy moveto
      2 copy  vpt 0 270 arc closepath fill
              vpt 0 360 arc closepath } bind def
/C8 { BL [] 0 setdash 2 copy moveto
      2 copy vpt 270 360 arc closepath fill
              vpt 0 360 arc closepath } bind def
/C9 { BL [] 0 setdash 2 copy moveto
      2 copy  vpt 270 450 arc closepath fill
              vpt 0 360 arc closepath } bind def
/C10 { BL [] 0 setdash 2 copy 2 copy moveto vpt 270 360 arc closepath fill
       2 copy moveto
       2 copy vpt 90 180 arc closepath fill
               vpt 0 360 arc closepath } bind def
/C11 { BL [] 0 setdash 2 copy moveto
       2 copy  vpt 0 180 arc closepath fill
       2 copy moveto
       2 copy  vpt 270 360 arc closepath fill
               vpt 0 360 arc closepath } bind def
/C12 { BL [] 0 setdash 2 copy moveto
       2 copy  vpt 180 360 arc closepath fill
               vpt 0 360 arc closepath } bind def
/C13 { BL [] 0 setdash  2 copy moveto
       2 copy  vpt 0 90 arc closepath fill
       2 copy moveto
       2 copy  vpt 180 360 arc closepath fill
               vpt 0 360 arc closepath } bind def
/C14 { BL [] 0 setdash 2 copy moveto
       2 copy  vpt 90 360 arc closepath fill
               vpt 0 360 arc } bind def
/C15 { BL [] 0 setdash 2 copy vpt 0 360 arc closepath fill
               vpt 0 360 arc closepath } bind def
/Rec   { newpath 4 2 roll moveto 1 index 0 rlineto 0 exch rlineto
       neg 0 rlineto closepath } bind def
/Square { dup Rec } bind def
/Bsquare { vpt sub exch vpt sub exch vpt2 Square } bind def
/S0 { BL [] 0 setdash 2 copy moveto 0 vpt rlineto BL Bsquare } bind def
/S1 { BL [] 0 setdash 2 copy vpt Square fill Bsquare } bind def
/S2 { BL [] 0 setdash 2 copy exch vpt sub exch vpt Square fill Bsquare } bind def
/S3 { BL [] 0 setdash 2 copy exch vpt sub exch vpt2 vpt Rec fill Bsquare } bind def
/S4 { BL [] 0 setdash 2 copy exch vpt sub exch vpt sub vpt Square fill Bsquare } bind def
/S5 { BL [] 0 setdash 2 copy 2 copy vpt Square fill
       exch vpt sub exch vpt sub vpt Square fill Bsquare } bind def
/S6 { BL [] 0 setdash 2 copy exch vpt sub exch vpt sub vpt vpt2 Rec fill Bsquare } bind def
/S7 { BL [] 0 setdash 2 copy exch vpt sub exch vpt sub vpt vpt2 Rec fill
       2 copy vpt Square fill
       Bsquare } bind def
/S8 { BL [] 0 setdash 2 copy vpt sub vpt Square fill Bsquare } bind def
/S9 { BL [] 0 setdash 2 copy vpt sub vpt vpt2 Rec fill Bsquare } bind def
/S10 { BL [] 0 setdash 2 copy vpt sub vpt Square fill 2 copy exch vpt sub exch vpt Square fill
       Bsquare } bind def
/S11 { BL [] 0 setdash 2 copy vpt sub vpt Square fill 2 copy exch vpt sub exch vpt2 vpt Rec fill
       Bsquare } bind def
/S12 { BL [] 0 setdash 2 copy exch vpt sub exch vpt sub vpt2 vpt Rec fill Bsquare } bind def
/S13 { BL [] 0 setdash 2 copy exch vpt sub exch vpt sub vpt2 vpt Rec fill
       2 copy vpt Square fill Bsquare } bind def
/S14 { BL [] 0 setdash 2 copy exch vpt sub exch vpt sub vpt2 vpt Rec fill
       2 copy exch vpt sub exch vpt Square fill Bsquare } bind def
/S15 { BL [] 0 setdash 2 copy Bsquare fill Bsquare } bind def
/D0 { gsave translate 45 rotate 0 0 S0 stroke grestore } bind def
/D1 { gsave translate 45 rotate 0 0 S1 stroke grestore } bind def
/D2 { gsave translate 45 rotate 0 0 S2 stroke grestore } bind def
/D3 { gsave translate 45 rotate 0 0 S3 stroke grestore } bind def
/D4 { gsave translate 45 rotate 0 0 S4 stroke grestore } bind def
/D5 { gsave translate 45 rotate 0 0 S5 stroke grestore } bind def
/D6 { gsave translate 45 rotate 0 0 S6 stroke grestore } bind def
/D7 { gsave translate 45 rotate 0 0 S7 stroke grestore } bind def
/D8 { gsave translate 45 rotate 0 0 S8 stroke grestore } bind def
/D9 { gsave translate 45 rotate 0 0 S9 stroke grestore } bind def
/D10 { gsave translate 45 rotate 0 0 S10 stroke grestore } bind def
/D11 { gsave translate 45 rotate 0 0 S11 stroke grestore } bind def
/D12 { gsave translate 45 rotate 0 0 S12 stroke grestore } bind def
/D13 { gsave translate 45 rotate 0 0 S13 stroke grestore } bind def
/D14 { gsave translate 45 rotate 0 0 S14 stroke grestore } bind def
/D15 { gsave translate 45 rotate 0 0 S15 stroke grestore } bind def
/DiaE { stroke [] 0 setdash vpt add M
  hpt neg vpt neg V hpt vpt neg V
  hpt vpt V hpt neg vpt V closepath stroke } def
/BoxE { stroke [] 0 setdash exch hpt sub exch vpt add M
  0 vpt2 neg V hpt2 0 V 0 vpt2 V
  hpt2 neg 0 V closepath stroke } def
/TriUE { stroke [] 0 setdash vpt 1.12 mul add M
  hpt neg vpt -1.62 mul V
  hpt 2 mul 0 V
  hpt neg vpt 1.62 mul V closepath stroke } def
/TriDE { stroke [] 0 setdash vpt 1.12 mul sub M
  hpt neg vpt 1.62 mul V
  hpt 2 mul 0 V
  hpt neg vpt -1.62 mul V closepath stroke } def
/PentE { stroke [] 0 setdash gsave
  translate 0 hpt M 4 {72 rotate 0 hpt L} repeat
  closepath stroke grestore } def
/CircE { stroke [] 0 setdash 
  hpt 0 360 arc stroke } def
/Opaque { gsave closepath 1 setgray fill grestore 0 setgray closepath } def
/DiaW { stroke [] 0 setdash vpt add M
  hpt neg vpt neg V hpt vpt neg V
  hpt vpt V hpt neg vpt V Opaque stroke } def
/BoxW { stroke [] 0 setdash exch hpt sub exch vpt add M
  0 vpt2 neg V hpt2 0 V 0 vpt2 V
  hpt2 neg 0 V Opaque stroke } def
/TriUW { stroke [] 0 setdash vpt 1.12 mul add M
  hpt neg vpt -1.62 mul V
  hpt 2 mul 0 V
  hpt neg vpt 1.62 mul V Opaque stroke } def
/TriDW { stroke [] 0 setdash vpt 1.12 mul sub M
  hpt neg vpt 1.62 mul V
  hpt 2 mul 0 V
  hpt neg vpt -1.62 mul V Opaque stroke } def
/PentW { stroke [] 0 setdash gsave
  translate 0 hpt M 4 {72 rotate 0 hpt L} repeat
  Opaque stroke grestore } def
/CircW { stroke [] 0 setdash 
  hpt 0 360 arc Opaque stroke } def
/BoxFill { gsave Rec 1 setgray fill grestore } def
/BoxColFill {
  gsave Rec
  /Fillden exch def
  currentrgbcolor
  /ColB exch def /ColG exch def /ColR exch def
  /ColR ColR Fillden mul Fillden sub 1 add def
  /ColG ColG Fillden mul Fillden sub 1 add def
  /ColB ColB Fillden mul Fillden sub 1 add def
  ColR ColG ColB setrgbcolor
  fill grestore } def
%
% PostScript Level 1 Pattern Fill routine
% Usage: x y w h s a XX PatternFill
%	x,y = lower left corner of box to be filled
%	w,h = width and height of box
%	  a = angle in degrees between lines and x-axis
%	 XX = 0/1 for no/yes cross-hatch
%
/PatternFill { gsave /PFa [ 9 2 roll ] def
    PFa 0 get PFa 2 get 2 div add PFa 1 get PFa 3 get 2 div add translate
    PFa 2 get -2 div PFa 3 get -2 div PFa 2 get PFa 3 get Rec
    gsave 1 setgray fill grestore clip
    currentlinewidth 0.5 mul setlinewidth
    /PFs PFa 2 get dup mul PFa 3 get dup mul add sqrt def
    0 0 M PFa 5 get rotate PFs -2 div dup translate
	0 1 PFs PFa 4 get div 1 add floor cvi
	{ PFa 4 get mul 0 M 0 PFs V } for
    0 PFa 6 get ne {
	0 1 PFs PFa 4 get div 1 add floor cvi
	{ PFa 4 get mul 0 2 1 roll M PFs 0 V } for
    } if
    stroke grestore } def
%
/Symbol-Oblique /Symbol findfont [1 0 .167 1 0 0] makefont
dup length dict begin {1 index /FID eq {pop pop} {def} ifelse} forall
currentdict end definefont pop
/MFshow {
   { dup 5 get 3 ge
     { 5 get 3 eq {gsave} {grestore} ifelse }
     {dup dup 0 get findfont exch 1 get scalefont setfont
     [ currentpoint ] exch dup 2 get 0 exch R dup 5 get 2 ne {dup dup 6
     get exch 4 get {show} {stringwidth pop 0 R} ifelse }if dup 5 get 0 eq
     {dup 3 get {2 get neg 0 exch R pop} {pop aload pop M} ifelse} {dup 5
     get 1 eq {dup 2 get exch dup 3 get exch 6 get stringwidth pop -2 div
     dup 0 R} {dup 6 get stringwidth pop -2 div 0 R 6 get
     show 2 index {aload pop M neg 3 -1 roll neg R pop pop} {pop pop pop
     pop aload pop M} ifelse }ifelse }ifelse }
     ifelse }
   forall} bind def
/MFwidth {0 exch {dup 3 get{dup dup 0 get findfont exch 1 get scalefont
     setfont 6 get stringwidth pop add} {pop} ifelse} forall} bind def
/MLshow { currentpoint stroke M
  0 exch R MFshow } bind def
/MRshow { currentpoint stroke M
  exch dup MFwidth neg 3 -1 roll R MFshow } def
/MCshow { currentpoint stroke M
  exch dup MFwidth -2 div 3 -1 roll R MFshow } def
end
%%EndProlog
%%Page: 1 1
gnudict begin
gsave
50 50 translate
0.100 0.100 scale
90 rotate
0 -5040 translate
0 setgray
newpath
(Helvetica) findfont 250 scalefont setfont
1.000 UL
LTb
1275 750 M
63 0 V
5437 0 R
-63 0 V
stroke
1125 750 M
[ [(Helvetica) 250.0 0.0 true true 0 (-2)]
] -83.3 MRshow
1.000 UL
LTb
1275 1249 M
63 0 V
5437 0 R
-63 0 V
stroke
1125 1249 M
[ [(Helvetica) 250.0 0.0 true true 0 (-1.5)]
] -83.3 MRshow
1.000 UL
LTb
1275 1748 M
63 0 V
5437 0 R
-63 0 V
stroke
1125 1748 M
[ [(Helvetica) 250.0 0.0 true true 0 (-1)]
] -83.3 MRshow
1.000 UL
LTb
1275 2246 M
63 0 V
5437 0 R
-63 0 V
stroke
1125 2246 M
[ [(Helvetica) 250.0 0.0 true true 0 (-0.5)]
] -83.3 MRshow
1.000 UL
LTb
1275 2745 M
63 0 V
5437 0 R
-63 0 V
stroke
1125 2745 M
[ [(Helvetica) 250.0 0.0 true true 0 ( 0)]
] -83.3 MRshow
1.000 UL
LTb
1275 3244 M
63 0 V
5437 0 R
-63 0 V
stroke
1125 3244 M
[ [(Helvetica) 250.0 0.0 true true 0 ( 0.5)]
] -83.3 MRshow
1.000 UL
LTb
1275 3743 M
63 0 V
5437 0 R
-63 0 V
stroke
1125 3743 M
[ [(Helvetica) 250.0 0.0 true true 0 ( 1)]
] -83.3 MRshow
1.000 UL
LTb
1275 4241 M
63 0 V
5437 0 R
-63 0 V
stroke
1125 4241 M
[ [(Helvetica) 250.0 0.0 true true 0 ( 1.5)]
] -83.3 MRshow
1.000 UL
LTb
1275 4740 M
63 0 V
5437 0 R
-63 0 V
stroke
1125 4740 M
[ [(Helvetica) 250.0 0.0 true true 0 ( 2)]
] -83.3 MRshow
1.000 UL
LTb
1275 750 M
0 63 V
0 3927 R
0 -63 V
stroke
1275 500 M
[ [(Helvetica) 250.0 0.0 true true 0 (-3000)]
] -83.3 MCshow
1.000 UL
LTb
2061 750 M
0 63 V
0 3927 R
0 -63 V
stroke
2061 500 M
[ [(Helvetica) 250.0 0.0 true true 0 (-2500)]
] -83.3 MCshow
1.000 UL
LTb
2846 750 M
0 63 V
0 3927 R
0 -63 V
stroke
2846 500 M
[ [(Helvetica) 250.0 0.0 true true 0 (-2000)]
] -83.3 MCshow
1.000 UL
LTb
3632 750 M
0 63 V
0 3927 R
0 -63 V
stroke
3632 500 M
[ [(Helvetica) 250.0 0.0 true true 0 (-1500)]
] -83.3 MCshow
1.000 UL
LTb
4418 750 M
0 63 V
0 3927 R
0 -63 V
stroke
4418 500 M
[ [(Helvetica) 250.0 0.0 true true 0 (-1000)]
] -83.3 MCshow
1.000 UL
LTb
5204 750 M
0 63 V
0 3927 R
0 -63 V
stroke
5204 500 M
[ [(Helvetica) 250.0 0.0 true true 0 (-500)]
] -83.3 MCshow
1.000 UL
LTb
5989 750 M
0 63 V
0 3927 R
0 -63 V
stroke
5989 500 M
[ [(Helvetica) 250.0 0.0 true true 0 ( 0)]
] -83.3 MCshow
1.000 UL
LTb
6775 750 M
0 63 V
0 3927 R
0 -63 V
stroke
6775 500 M
[ [(Helvetica) 250.0 0.0 true true 0 ( 500)]
] -83.3 MCshow
1.000 UL
LTb
1.000 UL
LTb
1275 750 M
5500 0 V
0 3990 V
-5500 0 V
0 -3990 V
LTb
250 2745 M
currentpoint gsave translate 90 rotate 0 0 moveto
[ [(Helvetica) 250.0 0.0 true true 0 (x[m])]
] -83.3 MCshow
grestore
LTb
4025 125 M
[ [(Helvetica) 250.0 0.0 true true 0 (s[m])]
] -83.3 MCshow
1.000 UP
LTb
5675 2895 M
[ [(Helvetica) 250.0 0.0 true true 0 (IP)]
] -83.3 MLshow
LTb
4732 2396 M
[ [(Helvetica) 250.0 0.0 true true 0 (20mrad)]
] -83.3 MLshow
LTb
1275 2496 M
[ [(Helvetica) 250.0 0.0 true true 0 (linac \(0.6mrad\))]
] -83.3 MLshow
1.000 UP
1.000 UL
LT0
LTb
3825 4552 M
[ [(Helvetica) 250.0 0.0 true true 0 (e)]
[(Helvetica) 200.0 125.0 true true 0 (-)]
[(Helvetica) 250.0 0.0 true true 0 ( BDS)]
] -108.3 MRshow
LT0
3975 4552 M
213 0 V
1596 2634 M
1 1 V
16 6 V
2 0 V
15 6 V
2 1 V
16 6 V
1 1 V
2 0 V
7 3 V
7 2 V
7 3 V
7 3 V
3 1 V
7 3 V
7 2 V
7 3 V
7 3 V
1 0 V
2 1 V
3 1 V
3 1 V
3 2 V
2 0 V
2 1 V
3 1 V
3 1 V
3 1 V
2 1 V
1 1 V
4 1 V
3 1 V
3 1 V
2 1 V
1 1 V
3 1 V
4 1 V
3 1 V
1 1 V
2 0 V
7 3 V
7 3 V
7 2 V
7 3 V
1 1 V
2 0 V
7 3 V
7 3 V
7 2 V
7 3 V
1 1 V
2 0 V
7 3 V
7 2 V
7 3 V
7 3 V
3 1 V
14 5 V
15 6 V
14 5 V
14 6 V
2 0 V
1 1 V
15 5 V
14 6 V
14 5 V
14 6 V
2 0 V
2 1 V
14 5 V
14 6 V
14 5 V
15 6 V
1 0 V
2 1 V
14 5 V
14 6 V
15 5 V
14 6 V
2 0 V
1 1 V
14 5 V
15 6 V
14 5 V
14 6 V
2 0 V
1 1 V
15 5 V
14 6 V
14 5 V
15 6 V
3 1 V
12 5 V
3 1 V
6 2 V
3 1 V
16 6 V
4 2 V
4 1 V
2 1 V
8 3 V
2 1 V
17 7 V
stroke
2296 2902 M
18 6 V
2 1 V
18 6 V
18 5 V
2 1 V
17 6 V
18 5 V
2 0 V
18 5 V
18 5 V
2 0 V
17 5 V
18 4 V
2 0 V
18 4 V
18 4 V
1 0 V
1 0 V
17 3 V
18 3 V
2 0 V
18 3 V
18 2 V
1 1 V
18 2 V
18 2 V
2 0 V
18 1 V
17 2 V
2 0 V
18 1 V
18 0 V
2 0 V
18 1 V
17 0 V
2 0 V
2 0 V
2 0 V
2 0 V
2 0 V
2 0 V
4 0 V
4 0 V
16 0 V
16 0 V
3 0 V
4 0 V
2 0 V
2 0 V
2 0 V
2 0 V
2 0 V
2 0 V
18 0 V
18 0 V
2 0 V
17 0 V
18 0 V
2 0 V
18 0 V
18 1 V
2 0 V
17 0 V
18 0 V
2 0 V
18 1 V
18 0 V
2 1 V
17 0 V
18 1 V
1 0 V
1 0 V
18 1 V
18 0 V
2 1 V
17 0 V
18 1 V
2 1 V
18 1 V
18 1 V
2 0 V
17 1 V
18 1 V
2 0 V
18 1 V
18 2 V
2 0 V
17 1 V
18 2 V
2 0 V
2 0 V
2 0 V
2 0 V
2 0 V
2 1 V
4 0 V
4 0 V
15 2 V
16 1 V
4 0 V
4 1 V
2 0 V
2 0 V
2 0 V
stroke
3310 3003 M
2 0 V
2 0 V
2 1 V
18 1 V
17 2 V
2 0 V
18 1 V
18 2 V
2 0 V
17 2 V
18 2 V
2 0 V
18 2 V
18 2 V
2 0 V
17 2 V
18 2 V
2 0 V
18 3 V
18 2 V
1 0 V
1 0 V
17 2 V
18 3 V
2 0 V
18 2 V
18 3 V
2 0 V
17 2 V
18 3 V
2 0 V
18 3 V
18 3 V
2 0 V
17 3 V
18 3 V
2 0 V
18 3 V
18 3 V
2 0 V
2 0 V
2 1 V
1 0 V
2 0 V
2 1 V
4 0 V
4 1 V
16 3 V
16 2 V
4 1 V
4 1 V
2 0 V
1 0 V
2 1 V
2 0 V
2 0 V
2 1 V
18 2 V
18 3 V
2 0 V
18 3 V
17 2 V
2 0 V
18 1 V
18 2 V
2 0 V
18 1 V
17 1 V
2 0 V
18 1 V
18 0 V
2 0 V
18 0 V
17 0 V
1 0 V
1 0 V
18 -1 V
18 -1 V
2 0 V
17 -1 V
18 -1 V
2 -1 V
18 -1 V
18 -2 V
2 -1 V
17 -2 V
18 -2 V
2 -1 V
18 -2 V
18 -4 V
2 0 V
17 -3 V
18 -4 V
2 -1 V
8 -1 V
2 -1 V
4 0 V
4 -1 V
16 -4 V
1 0 V
2 0 V
0 -1 V
2 0 V
2 0 V
stroke
4325 3052 M
1 -1 V
2 0 V
2 0 V
2 -1 V
2 0 V
1 -1 V
1 0 V
1 0 V
2 0 V
36 -8 V
2 -1 V
1 0 V
1 0 V
1 0 V
2 -1 V
1 0 V
2 0 V
1 -1 V
56 -12 V
1 0 V
2 0 V
25 -6 V
1 0 V
2 0 V
25 -6 V
1 0 V
2 0 V
55 -12 V
2 -1 V
1 0 V
1 0 V
1 0 V
1 -1 V
2 0 V
55 -12 V
2 0 V
1 0 V
25 -6 V
2 0 V
1 -1 V
25 -5 V
2 0 V
1 -1 V
55 -12 V
2 0 V
1 0 V
1 0 V
1 -1 V
1 0 V
2 0 V
55 -12 V
2 0 V
1 -1 V
25 -5 V
2 -1 V
1 0 V
25 -5 V
2 -1 V
1 0 V
56 -12 V
1 0 V
2 -1 V
1 0 V
2 0 V
1 0 V
56 -12 V
1 -1 V
2 0 V
25 -5 V
1 -1 V
2 0 V
25 -6 V
1 0 V
2 0 V
55 -12 V
2 0 V
1 -1 V
1 0 V
1 0 V
1 0 V
2 -1 V
55 -12 V
1 0 V
2 0 V
25 -6 V
8 -1 V
14 -3 V
7 -2 V
32 -7 V
8 -2 V
31 -6 V
8 -2 V
9 -2 V
1 0 V
1 -1 V
6 -1 V
1 0 V
1 0 V
10 -2 V
1 -1 V
1 0 V
9 -2 V
2 0 V
1 0 V
stroke
5330 2835 M
9 -2 V
1 -1 V
1 0 V
12 -2 V
1 -1 V
2 0 V
3 -1 V
2 0 V
3 -1 V
3 0 V
3 -1 V
2 -1 V
3 0 V
3 -1 V
2 0 V
3 -1 V
2 0 V
1 -1 V
41 -9 V
1 0 V
1 0 V
1 0 V
1 -1 V
1 0 V
45 -10 V
1 0 V
1 0 V
0 -1 V
1 0 V
2 0 V
1 0 V
1 -1 V
27 -6 V
2 0 V
1 0 V
2 -1 V
27 -6 V
1 0 V
1 0 V
1 0 V
1 -1 V
1 0 V
1 0 V
1 0 V
10 -3 V
4 -1 V
1 0 V
1 0 V
1 0 V
1 0 V
0 -1 V
2 0 V
1 0 V
37 -8 V
11 -3 V
12 -2 V
11 -3 V
12 -2 V
11 -2 V
12 -1 V
11 -2 V
12 -2 V
11 -1 V
12 -1 V
2 0 V
1 -1 V
3 0 V
2 0 V
2 0 V
3 -1 V
2 0 V
2 0 V
3 0 V
2 0 V
2 -1 V
3 0 V
1 0 V
2 0 V
2 0 V
3 0 V
2 0 V
2 -1 V
3 0 V
2 0 V
2 0 V
3 0 V
2 0 V
2 0 V
1 0 V
1 -1 V
1 0 V
1 0 V
2 0 V
2 0 V
3 0 V
2 0 V
2 0 V
3 0 V
2 0 V
3 -1 V
2 0 V
2 0 V
1 0 V
2 0 V
stroke
5806 2748 M
2 0 V
3 0 V
2 0 V
2 0 V
3 0 V
2 0 V
2 -1 V
3 0 V
2 0 V
3 0 V
2 0 V
2 0 V
3 0 V
2 0 V
2 0 V
3 0 V
2 0 V
2 0 V
3 -1 V
3 0 V
2 0 V
2 0 V
3 0 V
2 0 V
2 0 V
3 0 V
2 0 V
2 0 V
3 0 V
2 0 V
3 0 V
2 0 V
2 0 V
3 0 V
2 0 V
2 -1 V
3 0 V
2 0 V
2 0 V
1 0 V
2 0 V
3 0 V
2 0 V
2 0 V
3 0 V
2 0 V
2 0 V
3 0 V
2 0 V
2 0 V
1 0 V
2 0 V
2 0 V
3 0 V
2 0 V
2 0 V
3 0 V
2 0 V
2 0 V
3 0 V
2 0 V
18 0 V
3 0 V
1 0 V
3 0 V
2 0 V
1 0 V
3 0 V
1 0 V
1 0 V
3 0 V
2 0 V
5 0 V
1596 2634 Pls
1597 2635 Pls
1613 2641 Pls
1615 2641 Pls
1630 2647 Pls
1632 2648 Pls
1648 2654 Pls
1649 2655 Pls
1651 2655 Pls
1658 2658 Pls
1665 2660 Pls
1672 2663 Pls
1679 2666 Pls
1682 2667 Pls
1689 2670 Pls
1696 2672 Pls
1703 2675 Pls
1710 2678 Pls
1711 2678 Pls
1713 2679 Pls
1716 2680 Pls
1719 2681 Pls
1722 2683 Pls
1724 2683 Pls
1726 2684 Pls
1729 2685 Pls
1732 2686 Pls
1735 2687 Pls
1737 2688 Pls
1738 2689 Pls
1742 2690 Pls
1745 2691 Pls
1748 2692 Pls
1750 2693 Pls
1751 2694 Pls
1754 2695 Pls
1758 2696 Pls
1761 2697 Pls
1762 2698 Pls
1764 2698 Pls
1771 2701 Pls
1778 2704 Pls
1785 2706 Pls
1792 2709 Pls
1793 2710 Pls
1795 2710 Pls
1802 2713 Pls
1809 2716 Pls
1816 2718 Pls
1823 2721 Pls
1824 2722 Pls
1826 2722 Pls
1833 2725 Pls
1840 2727 Pls
1847 2730 Pls
1854 2733 Pls
1857 2734 Pls
1871 2739 Pls
1886 2745 Pls
1900 2750 Pls
1914 2756 Pls
1916 2756 Pls
1917 2757 Pls
1932 2762 Pls
1946 2768 Pls
1960 2773 Pls
1974 2779 Pls
1976 2779 Pls
1978 2780 Pls
1992 2785 Pls
2006 2791 Pls
2020 2796 Pls
2035 2802 Pls
2036 2802 Pls
2038 2803 Pls
2052 2808 Pls
2066 2814 Pls
2081 2819 Pls
2095 2825 Pls
2097 2825 Pls
2098 2826 Pls
2112 2831 Pls
2127 2837 Pls
2141 2842 Pls
2155 2848 Pls
2157 2848 Pls
2158 2849 Pls
2173 2854 Pls
2187 2860 Pls
2201 2865 Pls
2216 2871 Pls
2219 2872 Pls
2231 2877 Pls
2234 2878 Pls
2240 2880 Pls
2243 2881 Pls
2243 2881 Pls
2243 2881 Pls
2259 2887 Pls
2263 2889 Pls
2263 2889 Pls
2267 2890 Pls
2269 2891 Pls
2277 2894 Pls
2279 2895 Pls
2296 2902 Pls
2314 2908 Pls
2316 2909 Pls
2334 2915 Pls
2352 2920 Pls
2354 2921 Pls
2371 2927 Pls
2389 2932 Pls
2391 2932 Pls
2409 2937 Pls
2427 2942 Pls
2429 2942 Pls
2446 2947 Pls
2464 2951 Pls
2466 2951 Pls
2484 2955 Pls
2502 2959 Pls
2503 2959 Pls
2503 2959 Pls
2503 2959 Pls
2504 2959 Pls
2521 2962 Pls
2539 2965 Pls
2541 2965 Pls
2559 2968 Pls
2577 2970 Pls
2578 2971 Pls
2596 2973 Pls
2614 2975 Pls
2616 2975 Pls
2634 2976 Pls
2651 2978 Pls
2653 2978 Pls
2671 2979 Pls
2689 2979 Pls
2691 2979 Pls
2709 2980 Pls
2726 2980 Pls
2728 2980 Pls
2730 2980 Pls
2732 2980 Pls
2734 2980 Pls
2736 2980 Pls
2738 2980 Pls
2742 2980 Pls
2742 2980 Pls
2746 2980 Pls
2762 2980 Pls
2762 2980 Pls
2778 2980 Pls
2781 2980 Pls
2781 2980 Pls
2785 2980 Pls
2787 2980 Pls
2789 2980 Pls
2791 2980 Pls
2793 2980 Pls
2795 2980 Pls
2797 2980 Pls
2815 2980 Pls
2833 2980 Pls
2835 2980 Pls
2852 2980 Pls
2870 2980 Pls
2872 2980 Pls
2890 2980 Pls
2908 2981 Pls
2910 2981 Pls
2927 2981 Pls
2945 2981 Pls
2947 2981 Pls
2965 2982 Pls
2983 2982 Pls
2985 2983 Pls
3002 2983 Pls
3020 2984 Pls
3021 2984 Pls
3021 2984 Pls
3021 2984 Pls
3022 2984 Pls
3040 2985 Pls
3058 2985 Pls
3060 2986 Pls
3077 2986 Pls
3095 2987 Pls
3097 2988 Pls
3115 2989 Pls
3133 2990 Pls
3135 2990 Pls
3152 2991 Pls
3170 2992 Pls
3172 2992 Pls
3190 2993 Pls
3208 2995 Pls
3210 2995 Pls
3227 2996 Pls
3245 2998 Pls
3247 2998 Pls
3249 2998 Pls
3251 2998 Pls
3253 2998 Pls
3255 2998 Pls
3257 2999 Pls
3261 2999 Pls
3261 2999 Pls
3265 2999 Pls
3280 3001 Pls
3280 3001 Pls
3280 3001 Pls
3296 3002 Pls
3300 3002 Pls
3300 3002 Pls
3304 3003 Pls
3306 3003 Pls
3308 3003 Pls
3310 3003 Pls
3312 3003 Pls
3314 3003 Pls
3316 3004 Pls
3334 3005 Pls
3351 3007 Pls
3353 3007 Pls
3371 3008 Pls
3389 3010 Pls
3391 3010 Pls
3408 3012 Pls
3426 3014 Pls
3428 3014 Pls
3446 3016 Pls
3464 3018 Pls
3466 3018 Pls
3483 3020 Pls
3501 3022 Pls
3503 3022 Pls
3521 3025 Pls
3539 3027 Pls
3540 3027 Pls
3540 3027 Pls
3540 3027 Pls
3541 3027 Pls
3558 3029 Pls
3576 3032 Pls
3578 3032 Pls
3596 3034 Pls
3614 3037 Pls
3616 3037 Pls
3633 3039 Pls
3651 3042 Pls
3653 3042 Pls
3671 3045 Pls
3689 3048 Pls
3691 3048 Pls
3708 3051 Pls
3726 3054 Pls
3728 3054 Pls
3746 3057 Pls
3764 3060 Pls
3766 3060 Pls
3768 3060 Pls
3770 3061 Pls
3771 3061 Pls
3773 3061 Pls
3775 3062 Pls
3779 3062 Pls
3779 3062 Pls
3783 3063 Pls
3799 3066 Pls
3799 3066 Pls
3815 3068 Pls
3819 3069 Pls
3819 3069 Pls
3823 3070 Pls
3825 3070 Pls
3826 3070 Pls
3828 3071 Pls
3830 3071 Pls
3832 3071 Pls
3834 3072 Pls
3852 3074 Pls
3870 3077 Pls
3872 3077 Pls
3890 3080 Pls
3907 3082 Pls
3909 3082 Pls
3927 3083 Pls
3945 3085 Pls
3947 3085 Pls
3965 3086 Pls
3982 3087 Pls
3984 3087 Pls
4002 3088 Pls
4020 3088 Pls
4022 3088 Pls
4040 3088 Pls
4057 3088 Pls
4058 3088 Pls
4058 3088 Pls
4058 3088 Pls
4059 3088 Pls
4077 3087 Pls
4095 3086 Pls
4097 3086 Pls
4114 3085 Pls
4132 3084 Pls
4134 3083 Pls
4152 3082 Pls
4170 3080 Pls
4172 3079 Pls
4189 3077 Pls
4207 3075 Pls
4209 3074 Pls
4227 3072 Pls
4245 3068 Pls
4247 3068 Pls
4264 3065 Pls
4282 3061 Pls
4284 3060 Pls
4292 3059 Pls
4294 3058 Pls
4298 3058 Pls
4298 3058 Pls
4302 3057 Pls
4318 3053 Pls
4318 3053 Pls
4318 3053 Pls
4319 3053 Pls
4319 3053 Pls
4321 3053 Pls
4321 3052 Pls
4323 3052 Pls
4323 3052 Pls
4325 3052 Pls
4325 3052 Pls
4326 3051 Pls
4326 3051 Pls
4328 3051 Pls
4328 3051 Pls
4330 3051 Pls
4330 3051 Pls
4332 3050 Pls
4332 3050 Pls
4334 3050 Pls
4334 3050 Pls
4335 3049 Pls
4336 3049 Pls
4337 3049 Pls
4337 3049 Pls
4339 3049 Pls
4375 3041 Pls
4377 3040 Pls
4377 3040 Pls
4378 3040 Pls
4379 3040 Pls
4380 3040 Pls
4380 3040 Pls
4382 3039 Pls
4383 3039 Pls
4383 3039 Pls
4383 3039 Pls
4383 3039 Pls
4383 3039 Pls
4385 3039 Pls
4385 3039 Pls
4386 3038 Pls
4442 3026 Pls
4442 3026 Pls
4442 3026 Pls
4443 3026 Pls
4443 3026 Pls
4445 3026 Pls
4470 3020 Pls
4470 3020 Pls
4470 3020 Pls
4471 3020 Pls
4471 3020 Pls
4473 3020 Pls
4473 3020 Pls
4473 3020 Pls
4498 3014 Pls
4498 3014 Pls
4498 3014 Pls
4499 3014 Pls
4499 3014 Pls
4501 3014 Pls
4556 3002 Pls
4556 3002 Pls
4558 3001 Pls
4558 3001 Pls
4559 3001 Pls
4560 3001 Pls
4561 3001 Pls
4561 3001 Pls
4562 3000 Pls
4562 3000 Pls
4564 3000 Pls
4619 2988 Pls
4619 2988 Pls
4619 2988 Pls
4621 2988 Pls
4621 2988 Pls
4622 2988 Pls
4647 2982 Pls
4647 2982 Pls
4647 2982 Pls
4649 2982 Pls
4649 2982 Pls
4650 2981 Pls
4650 2981 Pls
4650 2981 Pls
4675 2976 Pls
4675 2976 Pls
4675 2976 Pls
4677 2976 Pls
4677 2976 Pls
4678 2975 Pls
4733 2963 Pls
4733 2963 Pls
4735 2963 Pls
4735 2963 Pls
4736 2963 Pls
4737 2963 Pls
4738 2962 Pls
4738 2962 Pls
4739 2962 Pls
4739 2962 Pls
4741 2962 Pls
4796 2950 Pls
4796 2950 Pls
4796 2950 Pls
4798 2950 Pls
4798 2950 Pls
4799 2949 Pls
4824 2944 Pls
4824 2944 Pls
4824 2944 Pls
4826 2943 Pls
4826 2943 Pls
4827 2943 Pls
4827 2943 Pls
4827 2943 Pls
4852 2938 Pls
4852 2938 Pls
4852 2938 Pls
4854 2937 Pls
4854 2937 Pls
4855 2937 Pls
4911 2925 Pls
4911 2925 Pls
4912 2925 Pls
4912 2925 Pls
4914 2924 Pls
4914 2924 Pls
4915 2924 Pls
4915 2924 Pls
4917 2924 Pls
4917 2924 Pls
4918 2924 Pls
4974 2912 Pls
4974 2912 Pls
4974 2912 Pls
4975 2911 Pls
4975 2911 Pls
4977 2911 Pls
5002 2906 Pls
5002 2906 Pls
5002 2906 Pls
5003 2905 Pls
5003 2905 Pls
5005 2905 Pls
5005 2905 Pls
5005 2905 Pls
5030 2899 Pls
5030 2899 Pls
5030 2899 Pls
5031 2899 Pls
5031 2899 Pls
5033 2899 Pls
5088 2887 Pls
5088 2887 Pls
5090 2887 Pls
5090 2887 Pls
5091 2886 Pls
5092 2886 Pls
5093 2886 Pls
5093 2886 Pls
5094 2886 Pls
5094 2886 Pls
5096 2885 Pls
5151 2873 Pls
5151 2873 Pls
5151 2873 Pls
5152 2873 Pls
5152 2873 Pls
5154 2873 Pls
5179 2867 Pls
5179 2867 Pls
5179 2867 Pls
5179 2867 Pls
5179 2867 Pls
5187 2866 Pls
5201 2863 Pls
5208 2861 Pls
5240 2854 Pls
5248 2852 Pls
5279 2846 Pls
5287 2844 Pls
5287 2844 Pls
5287 2844 Pls
5296 2842 Pls
5297 2842 Pls
5298 2841 Pls
5304 2840 Pls
5305 2840 Pls
5306 2840 Pls
5316 2838 Pls
5317 2837 Pls
5318 2837 Pls
5327 2835 Pls
5329 2835 Pls
5330 2835 Pls
5339 2833 Pls
5340 2832 Pls
5340 2832 Pls
5341 2832 Pls
5353 2830 Pls
5354 2829 Pls
5356 2829 Pls
5356 2829 Pls
5359 2828 Pls
5359 2828 Pls
5361 2828 Pls
5361 2828 Pls
5364 2827 Pls
5364 2827 Pls
5367 2827 Pls
5367 2827 Pls
5370 2826 Pls
5370 2826 Pls
5372 2825 Pls
5372 2825 Pls
5375 2825 Pls
5375 2825 Pls
5378 2824 Pls
5378 2824 Pls
5380 2824 Pls
5380 2824 Pls
5383 2823 Pls
5383 2823 Pls
5383 2823 Pls
5385 2823 Pls
5386 2822 Pls
5427 2813 Pls
5428 2813 Pls
5429 2813 Pls
5430 2813 Pls
5431 2812 Pls
5432 2812 Pls
5477 2802 Pls
5478 2802 Pls
5479 2802 Pls
5479 2801 Pls
5480 2801 Pls
5482 2801 Pls
5482 2801 Pls
5483 2801 Pls
5484 2800 Pls
5511 2794 Pls
5513 2794 Pls
5514 2794 Pls
5516 2793 Pls
5543 2787 Pls
5544 2787 Pls
5545 2787 Pls
5546 2787 Pls
5547 2786 Pls
5548 2786 Pls
5549 2786 Pls
5549 2786 Pls
5550 2786 Pls
5560 2783 Pls
5564 2782 Pls
5564 2782 Pls
5565 2782 Pls
5566 2782 Pls
5567 2782 Pls
5567 2782 Pls
5568 2782 Pls
5568 2781 Pls
5570 2781 Pls
5571 2781 Pls
5608 2773 Pls
5619 2770 Pls
5619 2770 Pls
5631 2768 Pls
5631 2768 Pls
5642 2765 Pls
5642 2765 Pls
5654 2763 Pls
5654 2763 Pls
5665 2761 Pls
5665 2761 Pls
5677 2760 Pls
5677 2760 Pls
5688 2758 Pls
5688 2758 Pls
5700 2756 Pls
5700 2756 Pls
5711 2755 Pls
5711 2755 Pls
5723 2754 Pls
5723 2754 Pls
5723 2754 Pls
5725 2754 Pls
5726 2753 Pls
5726 2753 Pls
5729 2753 Pls
5729 2753 Pls
5731 2753 Pls
5731 2753 Pls
5733 2753 Pls
5733 2753 Pls
5736 2752 Pls
5736 2752 Pls
5738 2752 Pls
5738 2752 Pls
5740 2752 Pls
5740 2752 Pls
5743 2752 Pls
5743 2752 Pls
5745 2752 Pls
5745 2752 Pls
5747 2751 Pls
5747 2751 Pls
5750 2751 Pls
5750 2751 Pls
5750 2751 Pls
5751 2751 Pls
5753 2751 Pls
5753 2751 Pls
5755 2751 Pls
5755 2751 Pls
5758 2751 Pls
5758 2751 Pls
5760 2751 Pls
5760 2751 Pls
5762 2750 Pls
5762 2750 Pls
5765 2750 Pls
5765 2750 Pls
5767 2750 Pls
5767 2750 Pls
5769 2750 Pls
5769 2750 Pls
5772 2750 Pls
5772 2750 Pls
5774 2750 Pls
5774 2750 Pls
5776 2750 Pls
5776 2750 Pls
5777 2750 Pls
5778 2749 Pls
5779 2749 Pls
5780 2749 Pls
5782 2749 Pls
5782 2749 Pls
5784 2749 Pls
5784 2749 Pls
5787 2749 Pls
5787 2749 Pls
5789 2749 Pls
5789 2749 Pls
5791 2749 Pls
5791 2749 Pls
5794 2749 Pls
5794 2749 Pls
5796 2749 Pls
5796 2749 Pls
5799 2748 Pls
5799 2748 Pls
5801 2748 Pls
5801 2748 Pls
5803 2748 Pls
5803 2748 Pls
5804 2748 Pls
5806 2748 Pls
5806 2748 Pls
5808 2748 Pls
5808 2748 Pls
5811 2748 Pls
5811 2748 Pls
5813 2748 Pls
5813 2748 Pls
5815 2748 Pls
5815 2748 Pls
5818 2748 Pls
5818 2748 Pls
5820 2748 Pls
5820 2748 Pls
5822 2747 Pls
5822 2747 Pls
5825 2747 Pls
5825 2747 Pls
5827 2747 Pls
5827 2747 Pls
5827 2747 Pls
5830 2747 Pls
5830 2747 Pls
5832 2747 Pls
5832 2747 Pls
5834 2747 Pls
5834 2747 Pls
5837 2747 Pls
5837 2747 Pls
5839 2747 Pls
5839 2747 Pls
5841 2747 Pls
5841 2747 Pls
5844 2747 Pls
5844 2747 Pls
5846 2747 Pls
5846 2747 Pls
5848 2747 Pls
5848 2747 Pls
5851 2746 Pls
5851 2746 Pls
5851 2746 Pls
5854 2746 Pls
5854 2746 Pls
5856 2746 Pls
5856 2746 Pls
5858 2746 Pls
5858 2746 Pls
5861 2746 Pls
5861 2746 Pls
5863 2746 Pls
5863 2746 Pls
5865 2746 Pls
5865 2746 Pls
5868 2746 Pls
5868 2746 Pls
5870 2746 Pls
5870 2746 Pls
5872 2746 Pls
5872 2746 Pls
5875 2746 Pls
5875 2746 Pls
5875 2746 Pls
5877 2746 Pls
5877 2746 Pls
5880 2746 Pls
5880 2746 Pls
5882 2746 Pls
5882 2746 Pls
5884 2746 Pls
5884 2746 Pls
5887 2746 Pls
5887 2746 Pls
5889 2746 Pls
5889 2746 Pls
5891 2745 Pls
5891 2745 Pls
5894 2745 Pls
5894 2745 Pls
5896 2745 Pls
5896 2745 Pls
5898 2745 Pls
5898 2745 Pls
5899 2745 Pls
5901 2745 Pls
5901 2745 Pls
5904 2745 Pls
5904 2745 Pls
5906 2745 Pls
5906 2745 Pls
5908 2745 Pls
5908 2745 Pls
5911 2745 Pls
5911 2745 Pls
5913 2745 Pls
5913 2745 Pls
5915 2745 Pls
5915 2745 Pls
5918 2745 Pls
5918 2745 Pls
5920 2745 Pls
5920 2745 Pls
5922 2745 Pls
5922 2745 Pls
5923 2745 Pls
5925 2745 Pls
5925 2745 Pls
5927 2745 Pls
5927 2745 Pls
5930 2745 Pls
5930 2745 Pls
5932 2745 Pls
5932 2745 Pls
5934 2745 Pls
5934 2745 Pls
5937 2745 Pls
5937 2745 Pls
5939 2745 Pls
5939 2745 Pls
5941 2745 Pls
5941 2745 Pls
5944 2745 Pls
5944 2745 Pls
5946 2745 Pls
5946 2745 Pls
5964 2745 Pls
5967 2745 Pls
5967 2745 Pls
5968 2745 Pls
5968 2745 Pls
5968 2745 Pls
5971 2745 Pls
5971 2745 Pls
5973 2745 Pls
5974 2745 Pls
5977 2745 Pls
5978 2745 Pls
5978 2745 Pls
5979 2745 Pls
5979 2745 Pls
5979 2745 Pls
5979 2745 Pls
5982 2745 Pls
5982 2745 Pls
5984 2745 Pls
5989 2745 Pls
5989 2745 Pls
5989 2745 Pls
5989 2745 Pls
4081 4552 Pls
1.000 UL
LTa
1596 2745 M
52 0 V
52 0 V
53 0 V
52 0 V
52 0 V
53 0 V
52 0 V
52 0 V
53 0 V
52 0 V
52 0 V
52 0 V
53 0 V
52 0 V
52 0 V
53 0 V
52 0 V
52 0 V
53 0 V
52 0 V
52 0 V
53 0 V
52 0 V
52 0 V
53 0 V
52 0 V
52 0 V
53 0 V
52 0 V
52 0 V
52 0 V
53 0 V
52 0 V
52 0 V
53 0 V
52 0 V
52 0 V
53 0 V
52 0 V
52 0 V
53 0 V
52 0 V
52 0 V
53 0 V
52 0 V
52 0 V
53 0 V
52 0 V
52 0 V
52 0 V
53 0 V
52 0 V
52 0 V
53 0 V
52 0 V
52 0 V
53 0 V
52 0 V
52 0 V
53 0 V
52 0 V
52 0 V
53 0 V
52 0 V
52 0 V
53 0 V
52 0 V
52 0 V
53 0 V
52 0 V
52 0 V
52 0 V
53 0 V
52 0 V
52 0 V
53 0 V
52 0 V
52 0 V
53 0 V
52 0 V
52 0 V
53 0 V
52 0 V
52 0 V
53 0 V
52 0 V
52 0 V
53 0 V
52 0 V
52 0 V
52 0 V
53 0 V
52 0 V
52 0 V
53 0 V
52 0 V
52 0 V
53 0 V
52 0 V
1.000 UL
LTa
5832 750 M
1 15 V
53 664 V
52 664 V
52 664 V
53 664 V
52 665 V
51 654 V
1.000 UP
1.000 UL
LT2
LTb
3825 4302 M
[ [(Helvetica) 250.0 0.0 true true 0 (e)]
[(Helvetica) 200.0 125.0 true true 0 (+)]
[(Helvetica) 250.0 0.0 true true 0 ( BDS)]
] -108.3 MRshow
LT2
3975 4302 M
213 0 V
1959 438 R
-1 -1 V
-2 -30 V
-2 -30 V
-3 -29 V
-2 -30 V
-2 -30 V
-3 -29 V
-2 -30 V
-2 -30 V
-1 -5 V
-2 -29 V
-2 -30 V
-3 -30 V
-2 -29 V
-2 -30 V
-3 -30 V
-2 -29 V
-2 -30 V
-3 -30 V
-2 -29 V
0 -5 V
-3 -30 V
-2 -30 V
-3 -29 V
-2 -30 V
-2 -30 V
-3 -29 V
-2 -30 V
-2 -30 V
-3 -29 V
-2 -30 V
0 -5 V
-3 -30 V
-2 -30 V
-2 -29 V
-3 -30 V
-2 -30 V
-2 -29 V
-3 -30 V
-2 -30 V
-2 -29 V
-3 -30 V
0 -5 V
-2 -30 V
-3 -30 V
-2 -29 V
-2 -30 V
-3 -30 V
-2 -29 V
-2 -30 V
-3 -30 V
-2 -30 V
-3 -29 V
-17 -226 V
-3 -39 V
-1 -5 V
0 -5 V
-1 -5 V
-2 -33 V
-3 -32 V
0 -10 V
-4 -40 V
0 -10 V
-1 -5 V
0 -5 V
-1 -5 V
0 -5 V
-2 -27 V
-2 -27 V
-6 -70 V
6146 4739 Star
6146 4739 Star
6144 4709 Star
6144 4709 Star
6142 4679 Star
6142 4679 Star
6139 4650 Star
6139 4650 Star
6137 4620 Star
6137 4620 Star
6135 4590 Star
6135 4590 Star
6132 4561 Star
6132 4561 Star
6130 4531 Star
6130 4531 Star
6128 4501 Star
6128 4501 Star
6127 4496 Star
6125 4467 Star
6125 4467 Star
6123 4437 Star
6123 4437 Star
6120 4407 Star
6120 4407 Star
6118 4378 Star
6118 4378 Star
6116 4348 Star
6116 4348 Star
6113 4318 Star
6113 4318 Star
6111 4289 Star
6111 4289 Star
6109 4259 Star
6109 4259 Star
6106 4229 Star
6106 4229 Star
6104 4200 Star
6104 4200 Star
6104 4195 Star
6101 4165 Star
6101 4165 Star
6099 4135 Star
6099 4135 Star
6096 4106 Star
6096 4106 Star
6094 4076 Star
6094 4076 Star
6092 4046 Star
6092 4046 Star
6089 4017 Star
6089 4017 Star
6087 3987 Star
6087 3987 Star
6085 3957 Star
6085 3957 Star
6082 3928 Star
6082 3928 Star
6080 3898 Star
6080 3898 Star
6080 3893 Star
6077 3863 Star
6077 3863 Star
6075 3833 Star
6075 3833 Star
6073 3804 Star
6073 3804 Star
6070 3774 Star
6070 3774 Star
6068 3744 Star
6068 3744 Star
6066 3715 Star
6066 3715 Star
6063 3685 Star
6063 3685 Star
6061 3655 Star
6061 3655 Star
6059 3626 Star
6059 3626 Star
6056 3596 Star
6056 3596 Star
6056 3591 Star
6054 3561 Star
6054 3561 Star
6051 3531 Star
6051 3531 Star
6049 3502 Star
6049 3502 Star
6047 3472 Star
6047 3472 Star
6044 3442 Star
6044 3442 Star
6042 3413 Star
6042 3413 Star
6040 3383 Star
6040 3383 Star
6037 3353 Star
6037 3353 Star
6035 3323 Star
6035 3323 Star
6032 3294 Star
6032 3294 Star
6015 3068 Star
6012 3029 Star
6011 3024 Star
6011 3019 Star
6011 3019 Star
6010 3014 Star
6008 2981 Star
6008 2981 Star
6005 2949 Star
6005 2939 Star
6001 2899 Star
6001 2889 Star
6000 2884 Star
6000 2879 Star
5999 2874 Star
5999 2869 Star
5999 2869 Star
5997 2842 Star
5997 2842 Star
5995 2815 Star
5989 2745 Star
5989 2745 Star
5989 2745 Star
5989 2745 Star
4081 4302 Star
1.000 UP
1.000 UL
LT6
LTb
3825 4052 M
[ [(Helvetica) 250.0 0.0 true true 0 (tune-up dump\(?\))]
] -83.3 MRshow
LT6
3975 4052 M
213 0 V
2389 2936 M
2 1 V
18 3 V
18 5 V
2 1 V
17 6 V
18 6 V
2 1 V
18 8 V
18 9 V
1 1 V
1 0 V
17 10 V
18 12 V
2 1 V
18 12 V
18 13 V
1 2 V
18 14 V
18 16 V
2 2 V
18 16 V
17 18 V
2 2 V
18 19 V
18 19 V
2389 2936 CircleF
2391 2937 CircleF
2409 2940 CircleF
2427 2945 CircleF
2429 2946 CircleF
2446 2952 CircleF
2464 2958 CircleF
2466 2959 CircleF
2484 2967 CircleF
2502 2976 CircleF
2503 2977 CircleF
2503 2977 CircleF
2503 2977 CircleF
2504 2977 CircleF
2521 2987 CircleF
2539 2999 CircleF
2541 3000 CircleF
2559 3012 CircleF
2577 3025 CircleF
2578 3027 CircleF
2596 3041 CircleF
2614 3057 CircleF
2616 3059 CircleF
2634 3075 CircleF
2651 3093 CircleF
2653 3095 CircleF
2671 3114 CircleF
2689 3133 CircleF
4081 4052 CircleF
1.000 UP
1.000 UL
LT7
LTb
3825 3802 M
[ [(Helvetica) 250.0 0.0 true true 0 (Post-IP e)]
[(Helvetica) 200.0 125.0 true true 0 (-)]
[(Helvetica) 250.0 0.0 true true 0 ( line)]
] -108.3 MRshow
LT7
3975 3802 M
213 0 V
5989 2745 M
3 0 V
4 0 V
3 0 V
3 0 V
3 0 V
3 0 V
3 0 V
3 0 V
4 0 V
1 0 V
2 0 V
6 0 V
1 0 V
1 0 V
7 0 V
1 0 V
1 0 V
6 0 V
1 0 V
1 0 V
1 0 V
6 0 V
1 0 V
2 0 V
2 0 V
1 0 V
2 0 V
1 0 V
2 0 V
1 0 V
1 0 V
1 0 V
1 0 V
1 0 V
3 0 V
2 0 V
1 0 V
1 0 V
1 0 V
7 0 V
1 0 V
6 0 V
2 0 V
6 0 V
2 0 V
6 0 V
2 0 V
6 0 V
3 0 V
107 0 V
5989 2745 TriU
5989 2745 TriU
5992 2745 TriU
5996 2745 TriU
5999 2745 TriU
6002 2745 TriU
6005 2745 TriU
6008 2745 TriU
6011 2745 TriU
6014 2745 TriU
6018 2745 TriU
6019 2745 TriU
6021 2745 TriU
6027 2745 TriU
6027 2745 TriU
6027 2745 TriU
6027 2745 TriU
6028 2745 TriU
6028 2745 TriU
6029 2745 TriU
6029 2745 TriU
6036 2745 TriU
6036 2745 TriU
6036 2745 TriU
6036 2745 TriU
6037 2745 TriU
6037 2745 TriU
6038 2745 TriU
6038 2745 TriU
6044 2745 TriU
6044 2745 TriU
6044 2745 TriU
6045 2745 TriU
6045 2745 TriU
6046 2745 TriU
6046 2745 TriU
6047 2745 TriU
6053 2745 TriU
6053 2745 TriU
6053 2745 TriU
6054 2745 TriU
6056 2745 TriU
6058 2745 TriU
6059 2745 TriU
6061 2745 TriU
6062 2745 TriU
6064 2745 TriU
6065 2745 TriU
6066 2745 TriU
6066 2745 TriU
6066 2745 TriU
6067 2745 TriU
6067 2745 TriU
6067 2745 TriU
6068 2745 TriU
6068 2745 TriU
6068 2745 TriU
6069 2745 TriU
6069 2745 TriU
6069 2745 TriU
6072 2745 TriU
6074 2745 TriU
6075 2745 TriU
6076 2745 TriU
6076 2745 TriU
6077 2745 TriU
6084 2745 TriU
6084 2745 TriU
6085 2745 TriU
6091 2745 TriU
6091 2745 TriU
6093 2745 TriU
6099 2745 TriU
6099 2745 TriU
6101 2745 TriU
6107 2745 TriU
6107 2745 TriU
6109 2745 TriU
6115 2745 TriU
6118 2745 TriU
6225 2745 TriU
6225 2745 TriU
4081 3802 TriU
1.000 UP
1.000 UL
LT4
LTb
3825 3552 M
[ [(Helvetica) 250.0 0.0 true true 0 (Post-IP e)]
[(Helvetica) 200.0 125.0 true true 0 (+)]
[(Helvetica) 250.0 0.0 true true 0 ( line)]
] -108.3 MRshow
LT4
3975 3552 M
213 0 V
5989 2745 M
-3 -40 V
-3 -40 V
-3 -40 V
-3 -40 V
-3 -39 V
-4 -40 V
-3 -40 V
-3 -40 V
-3 -40 V
-2 -20 V
-1 -20 V
-6 -80 V
-1 -6 V
0 -6 V
-1 -6 V
0 -6 V
-1 -6 V
-6 -79 V
-1 -6 V
0 -6 V
0 -6 V
-1 -6 V
0 -6 V
-7 -80 V
0 -6 V
-1 -6 V
0 -6 V
-1 -6 V
0 -6 V
-6 -80 V
-2 -20 V
-1 -20 V
-2 -20 V
-2 -20 V
-1 -20 V
-2 -20 V
-1 -20 V
-2 -20 V
-1 -9 V
0 -4 V
0 -4 V
-1 -4 V
0 -4 V
0 -4 V
-1 -5 V
0 -5 V
0 -5 V
-1 -5 V
-2 -30 V
-3 -30 V
0 -10 V
-1 -10 V
-1 -10 V
-1 -10 V
-6 -80 V
-2 -20 V
-6 -80 V
-1 -20 V
-7 -79 V
-1 -20 V
-7 -80 V
-1 -20 V
-6 -80 V
-4 -40 V
5832 750 L
5989 2745 BoxF
5989 2745 BoxF
5986 2705 BoxF
5983 2665 BoxF
5980 2625 BoxF
5977 2585 BoxF
5974 2546 BoxF
5970 2506 BoxF
5967 2466 BoxF
5964 2426 BoxF
5961 2386 BoxF
5959 2366 BoxF
5958 2346 BoxF
5952 2266 BoxF
5952 2266 BoxF
5952 2266 BoxF
5951 2260 BoxF
5951 2254 BoxF
5950 2248 BoxF
5950 2242 BoxF
5949 2236 BoxF
5943 2157 BoxF
5943 2157 BoxF
5943 2157 BoxF
5942 2151 BoxF
5942 2145 BoxF
5942 2139 BoxF
5941 2133 BoxF
5941 2127 BoxF
5934 2047 BoxF
5934 2047 BoxF
5934 2047 BoxF
5934 2041 BoxF
5933 2035 BoxF
5933 2029 BoxF
5932 2023 BoxF
5932 2017 BoxF
5926 1937 BoxF
5926 1937 BoxF
5926 1937 BoxF
5924 1917 BoxF
5923 1897 BoxF
5921 1877 BoxF
5919 1857 BoxF
5918 1837 BoxF
5916 1817 BoxF
5915 1797 BoxF
5913 1777 BoxF
5912 1768 BoxF
5912 1768 BoxF
5912 1768 BoxF
5912 1764 BoxF
5912 1760 BoxF
5911 1756 BoxF
5911 1752 BoxF
5911 1748 BoxF
5910 1743 BoxF
5910 1738 BoxF
5910 1733 BoxF
5909 1728 BoxF
5907 1698 BoxF
5904 1668 BoxF
5904 1658 BoxF
5903 1648 BoxF
5902 1638 BoxF
5901 1628 BoxF
5895 1548 BoxF
5895 1548 BoxF
5893 1528 BoxF
5887 1448 BoxF
5887 1448 BoxF
5886 1428 BoxF
5879 1349 BoxF
5879 1349 BoxF
5878 1329 BoxF
5871 1249 BoxF
5871 1249 BoxF
5870 1229 BoxF
5864 1149 BoxF
5860 1109 BoxF
4081 3552 BoxF
1.000 UL
LTb
1275 750 M
5500 0 V
0 3990 V
-5500 0 V
0 -3990 V
1.000 UP
stroke
grestore
end
showpage
%%Trailer
%%DocumentFonts: Helvetica
%%Pages: 1
