%!PS-Adobe-2.0
%%Title: layout3TeV.eps
%%Creator: gnuplot 4.0 patchlevel 0
%%CreationDate: Mon Dec  7 12:33:23 2009
%%DocumentFonts: (atend)
%%BoundingBox: 50 50 554 770
%%Orientation: Landscape
%%Pages: (atend)
%%EndComments
/gnudict 256 dict def
gnudict begin
/Color true def
/Solid false def
/gnulinewidth 5.000 def
/userlinewidth gnulinewidth def
/vshift -66 def
/dl {10.0 mul} def
/hpt_ 31.5 def
/vpt_ 31.5 def
/hpt hpt_ def
/vpt vpt_ def
/Rounded false def
/M {moveto} bind def
/L {lineto} bind def
/R {rmoveto} bind def
/V {rlineto} bind def
/N {newpath moveto} bind def
/C {setrgbcolor} bind def
/f {rlineto fill} bind def
/vpt2 vpt 2 mul def
/hpt2 hpt 2 mul def
/Lshow { currentpoint stroke M
  0 vshift R show } def
/Rshow { currentpoint stroke M
  dup stringwidth pop neg vshift R show } def
/Cshow { currentpoint stroke M
  dup stringwidth pop -2 div vshift R show } def
/UP { dup vpt_ mul /vpt exch def hpt_ mul /hpt exch def
  /hpt2 hpt 2 mul def /vpt2 vpt 2 mul def } def
/DL { Color {setrgbcolor Solid {pop []} if 0 setdash }
 {pop pop pop 0 setgray Solid {pop []} if 0 setdash} ifelse } def
/BL { stroke userlinewidth 2 mul setlinewidth
      Rounded { 1 setlinejoin 1 setlinecap } if } def
/AL { stroke userlinewidth 2 div setlinewidth
      Rounded { 1 setlinejoin 1 setlinecap } if } def
/UL { dup gnulinewidth mul /userlinewidth exch def
      dup 1 lt {pop 1} if 10 mul /udl exch def } def
/PL { stroke userlinewidth setlinewidth
      Rounded { 1 setlinejoin 1 setlinecap } if } def
/LTw { PL [] 1 setgray } def
/LTb { BL [] 0 0 0 DL } def
/LTa { AL [1 udl mul 2 udl mul] 0 setdash 0 0 0 setrgbcolor } def
/LT0 { PL [] 1 0 0 DL } def
/LT1 { PL [4 dl 2 dl] 0 1 0 DL } def
/LT2 { PL [2 dl 3 dl] 0 0 1 DL } def
/LT3 { PL [1 dl 1.5 dl] 1 0 1 DL } def
/LT4 { PL [5 dl 2 dl 1 dl 2 dl] 0 1 1 DL } def
/LT5 { PL [4 dl 3 dl 1 dl 3 dl] 1 1 0 DL } def
/LT6 { PL [2 dl 2 dl 2 dl 4 dl] 0 0 0 DL } def
/LT7 { PL [2 dl 2 dl 2 dl 2 dl 2 dl 4 dl] 1 0.3 0 DL } def
/LT8 { PL [2 dl 2 dl 2 dl 2 dl 2 dl 2 dl 2 dl 4 dl] 0.5 0.5 0.5 DL } def
/Pnt { stroke [] 0 setdash
   gsave 1 setlinecap M 0 0 V stroke grestore } def
/Dia { stroke [] 0 setdash 2 copy vpt add M
  hpt neg vpt neg V hpt vpt neg V
  hpt vpt V hpt neg vpt V closepath stroke
  Pnt } def
/Pls { stroke [] 0 setdash vpt sub M 0 vpt2 V
  currentpoint stroke M
  hpt neg vpt neg R hpt2 0 V stroke
  } def
/Box { stroke [] 0 setdash 2 copy exch hpt sub exch vpt add M
  0 vpt2 neg V hpt2 0 V 0 vpt2 V
  hpt2 neg 0 V closepath stroke
  Pnt } def
/Crs { stroke [] 0 setdash exch hpt sub exch vpt add M
  hpt2 vpt2 neg V currentpoint stroke M
  hpt2 neg 0 R hpt2 vpt2 V stroke } def
/TriU { stroke [] 0 setdash 2 copy vpt 1.12 mul add M
  hpt neg vpt -1.62 mul V
  hpt 2 mul 0 V
  hpt neg vpt 1.62 mul V closepath stroke
  Pnt  } def
/Star { 2 copy Pls Crs } def
/BoxF { stroke [] 0 setdash exch hpt sub exch vpt add M
  0 vpt2 neg V  hpt2 0 V  0 vpt2 V
  hpt2 neg 0 V  closepath fill } def
/TriUF { stroke [] 0 setdash vpt 1.12 mul add M
  hpt neg vpt -1.62 mul V
  hpt 2 mul 0 V
  hpt neg vpt 1.62 mul V closepath fill } def
/TriD { stroke [] 0 setdash 2 copy vpt 1.12 mul sub M
  hpt neg vpt 1.62 mul V
  hpt 2 mul 0 V
  hpt neg vpt -1.62 mul V closepath stroke
  Pnt  } def
/TriDF { stroke [] 0 setdash vpt 1.12 mul sub M
  hpt neg vpt 1.62 mul V
  hpt 2 mul 0 V
  hpt neg vpt -1.62 mul V closepath fill} def
/DiaF { stroke [] 0 setdash vpt add M
  hpt neg vpt neg V hpt vpt neg V
  hpt vpt V hpt neg vpt V closepath fill } def
/Pent { stroke [] 0 setdash 2 copy gsave
  translate 0 hpt M 4 {72 rotate 0 hpt L} repeat
  closepath stroke grestore Pnt } def
/PentF { stroke [] 0 setdash gsave
  translate 0 hpt M 4 {72 rotate 0 hpt L} repeat
  closepath fill grestore } def
/Circle { stroke [] 0 setdash 2 copy
  hpt 0 360 arc stroke Pnt } def
/CircleF { stroke [] 0 setdash hpt 0 360 arc fill } def
/C0 { BL [] 0 setdash 2 copy moveto vpt 90 450  arc } bind def
/C1 { BL [] 0 setdash 2 copy        moveto
       2 copy  vpt 0 90 arc closepath fill
               vpt 0 360 arc closepath } bind def
/C2 { BL [] 0 setdash 2 copy moveto
       2 copy  vpt 90 180 arc closepath fill
               vpt 0 360 arc closepath } bind def
/C3 { BL [] 0 setdash 2 copy moveto
       2 copy  vpt 0 180 arc closepath fill
               vpt 0 360 arc closepath } bind def
/C4 { BL [] 0 setdash 2 copy moveto
       2 copy  vpt 180 270 arc closepath fill
               vpt 0 360 arc closepath } bind def
/C5 { BL [] 0 setdash 2 copy moveto
       2 copy  vpt 0 90 arc
       2 copy moveto
       2 copy  vpt 180 270 arc closepath fill
               vpt 0 360 arc } bind def
/C6 { BL [] 0 setdash 2 copy moveto
      2 copy  vpt 90 270 arc closepath fill
              vpt 0 360 arc closepath } bind def
/C7 { BL [] 0 setdash 2 copy moveto
      2 copy  vpt 0 270 arc closepath fill
              vpt 0 360 arc closepath } bind def
/C8 { BL [] 0 setdash 2 copy moveto
      2 copy vpt 270 360 arc closepath fill
              vpt 0 360 arc closepath } bind def
/C9 { BL [] 0 setdash 2 copy moveto
      2 copy  vpt 270 450 arc closepath fill
              vpt 0 360 arc closepath } bind def
/C10 { BL [] 0 setdash 2 copy 2 copy moveto vpt 270 360 arc closepath fill
       2 copy moveto
       2 copy vpt 90 180 arc closepath fill
               vpt 0 360 arc closepath } bind def
/C11 { BL [] 0 setdash 2 copy moveto
       2 copy  vpt 0 180 arc closepath fill
       2 copy moveto
       2 copy  vpt 270 360 arc closepath fill
               vpt 0 360 arc closepath } bind def
/C12 { BL [] 0 setdash 2 copy moveto
       2 copy  vpt 180 360 arc closepath fill
               vpt 0 360 arc closepath } bind def
/C13 { BL [] 0 setdash  2 copy moveto
       2 copy  vpt 0 90 arc closepath fill
       2 copy moveto
       2 copy  vpt 180 360 arc closepath fill
               vpt 0 360 arc closepath } bind def
/C14 { BL [] 0 setdash 2 copy moveto
       2 copy  vpt 90 360 arc closepath fill
               vpt 0 360 arc } bind def
/C15 { BL [] 0 setdash 2 copy vpt 0 360 arc closepath fill
               vpt 0 360 arc closepath } bind def
/Rec   { newpath 4 2 roll moveto 1 index 0 rlineto 0 exch rlineto
       neg 0 rlineto closepath } bind def
/Square { dup Rec } bind def
/Bsquare { vpt sub exch vpt sub exch vpt2 Square } bind def
/S0 { BL [] 0 setdash 2 copy moveto 0 vpt rlineto BL Bsquare } bind def
/S1 { BL [] 0 setdash 2 copy vpt Square fill Bsquare } bind def
/S2 { BL [] 0 setdash 2 copy exch vpt sub exch vpt Square fill Bsquare } bind def
/S3 { BL [] 0 setdash 2 copy exch vpt sub exch vpt2 vpt Rec fill Bsquare } bind def
/S4 { BL [] 0 setdash 2 copy exch vpt sub exch vpt sub vpt Square fill Bsquare } bind def
/S5 { BL [] 0 setdash 2 copy 2 copy vpt Square fill
       exch vpt sub exch vpt sub vpt Square fill Bsquare } bind def
/S6 { BL [] 0 setdash 2 copy exch vpt sub exch vpt sub vpt vpt2 Rec fill Bsquare } bind def
/S7 { BL [] 0 setdash 2 copy exch vpt sub exch vpt sub vpt vpt2 Rec fill
       2 copy vpt Square fill
       Bsquare } bind def
/S8 { BL [] 0 setdash 2 copy vpt sub vpt Square fill Bsquare } bind def
/S9 { BL [] 0 setdash 2 copy vpt sub vpt vpt2 Rec fill Bsquare } bind def
/S10 { BL [] 0 setdash 2 copy vpt sub vpt Square fill 2 copy exch vpt sub exch vpt Square fill
       Bsquare } bind def
/S11 { BL [] 0 setdash 2 copy vpt sub vpt Square fill 2 copy exch vpt sub exch vpt2 vpt Rec fill
       Bsquare } bind def
/S12 { BL [] 0 setdash 2 copy exch vpt sub exch vpt sub vpt2 vpt Rec fill Bsquare } bind def
/S13 { BL [] 0 setdash 2 copy exch vpt sub exch vpt sub vpt2 vpt Rec fill
       2 copy vpt Square fill Bsquare } bind def
/S14 { BL [] 0 setdash 2 copy exch vpt sub exch vpt sub vpt2 vpt Rec fill
       2 copy exch vpt sub exch vpt Square fill Bsquare } bind def
/S15 { BL [] 0 setdash 2 copy Bsquare fill Bsquare } bind def
/D0 { gsave translate 45 rotate 0 0 S0 stroke grestore } bind def
/D1 { gsave translate 45 rotate 0 0 S1 stroke grestore } bind def
/D2 { gsave translate 45 rotate 0 0 S2 stroke grestore } bind def
/D3 { gsave translate 45 rotate 0 0 S3 stroke grestore } bind def
/D4 { gsave translate 45 rotate 0 0 S4 stroke grestore } bind def
/D5 { gsave translate 45 rotate 0 0 S5 stroke grestore } bind def
/D6 { gsave translate 45 rotate 0 0 S6 stroke grestore } bind def
/D7 { gsave translate 45 rotate 0 0 S7 stroke grestore } bind def
/D8 { gsave translate 45 rotate 0 0 S8 stroke grestore } bind def
/D9 { gsave translate 45 rotate 0 0 S9 stroke grestore } bind def
/D10 { gsave translate 45 rotate 0 0 S10 stroke grestore } bind def
/D11 { gsave translate 45 rotate 0 0 S11 stroke grestore } bind def
/D12 { gsave translate 45 rotate 0 0 S12 stroke grestore } bind def
/D13 { gsave translate 45 rotate 0 0 S13 stroke grestore } bind def
/D14 { gsave translate 45 rotate 0 0 S14 stroke grestore } bind def
/D15 { gsave translate 45 rotate 0 0 S15 stroke grestore } bind def
/DiaE { stroke [] 0 setdash vpt add M
  hpt neg vpt neg V hpt vpt neg V
  hpt vpt V hpt neg vpt V closepath stroke } def
/BoxE { stroke [] 0 setdash exch hpt sub exch vpt add M
  0 vpt2 neg V hpt2 0 V 0 vpt2 V
  hpt2 neg 0 V closepath stroke } def
/TriUE { stroke [] 0 setdash vpt 1.12 mul add M
  hpt neg vpt -1.62 mul V
  hpt 2 mul 0 V
  hpt neg vpt 1.62 mul V closepath stroke } def
/TriDE { stroke [] 0 setdash vpt 1.12 mul sub M
  hpt neg vpt 1.62 mul V
  hpt 2 mul 0 V
  hpt neg vpt -1.62 mul V closepath stroke } def
/PentE { stroke [] 0 setdash gsave
  translate 0 hpt M 4 {72 rotate 0 hpt L} repeat
  closepath stroke grestore } def
/CircE { stroke [] 0 setdash 
  hpt 0 360 arc stroke } def
/Opaque { gsave closepath 1 setgray fill grestore 0 setgray closepath } def
/DiaW { stroke [] 0 setdash vpt add M
  hpt neg vpt neg V hpt vpt neg V
  hpt vpt V hpt neg vpt V Opaque stroke } def
/BoxW { stroke [] 0 setdash exch hpt sub exch vpt add M
  0 vpt2 neg V hpt2 0 V 0 vpt2 V
  hpt2 neg 0 V Opaque stroke } def
/TriUW { stroke [] 0 setdash vpt 1.12 mul add M
  hpt neg vpt -1.62 mul V
  hpt 2 mul 0 V
  hpt neg vpt 1.62 mul V Opaque stroke } def
/TriDW { stroke [] 0 setdash vpt 1.12 mul sub M
  hpt neg vpt 1.62 mul V
  hpt 2 mul 0 V
  hpt neg vpt -1.62 mul V Opaque stroke } def
/PentW { stroke [] 0 setdash gsave
  translate 0 hpt M 4 {72 rotate 0 hpt L} repeat
  Opaque stroke grestore } def
/CircW { stroke [] 0 setdash 
  hpt 0 360 arc Opaque stroke } def
/BoxFill { gsave Rec 1 setgray fill grestore } def
/BoxColFill {
  gsave Rec
  /Fillden exch def
  currentrgbcolor
  /ColB exch def /ColG exch def /ColR exch def
  /ColR ColR Fillden mul Fillden sub 1 add def
  /ColG ColG Fillden mul Fillden sub 1 add def
  /ColB ColB Fillden mul Fillden sub 1 add def
  ColR ColG ColB setrgbcolor
  fill grestore } def
%
% PostScript Level 1 Pattern Fill routine
% Usage: x y w h s a XX PatternFill
%	x,y = lower left corner of box to be filled
%	w,h = width and height of box
%	  a = angle in degrees between lines and x-axis
%	 XX = 0/1 for no/yes cross-hatch
%
/PatternFill { gsave /PFa [ 9 2 roll ] def
    PFa 0 get PFa 2 get 2 div add PFa 1 get PFa 3 get 2 div add translate
    PFa 2 get -2 div PFa 3 get -2 div PFa 2 get PFa 3 get Rec
    gsave 1 setgray fill grestore clip
    currentlinewidth 0.5 mul setlinewidth
    /PFs PFa 2 get dup mul PFa 3 get dup mul add sqrt def
    0 0 M PFa 5 get rotate PFs -2 div dup translate
	0 1 PFs PFa 4 get div 1 add floor cvi
	{ PFa 4 get mul 0 M 0 PFs V } for
    0 PFa 6 get ne {
	0 1 PFs PFa 4 get div 1 add floor cvi
	{ PFa 4 get mul 0 2 1 roll M PFs 0 V } for
    } if
    stroke grestore } def
%
/Symbol-Oblique /Symbol findfont [1 0 .167 1 0 0] makefont
dup length dict begin {1 index /FID eq {pop pop} {def} ifelse} forall
currentdict end definefont pop
/MFshow {
   { dup 5 get 3 ge
     { 5 get 3 eq {gsave} {grestore} ifelse }
     {dup dup 0 get findfont exch 1 get scalefont setfont
     [ currentpoint ] exch dup 2 get 0 exch R dup 5 get 2 ne {dup dup 6
     get exch 4 get {show} {stringwidth pop 0 R} ifelse }if dup 5 get 0 eq
     {dup 3 get {2 get neg 0 exch R pop} {pop aload pop M} ifelse} {dup 5
     get 1 eq {dup 2 get exch dup 3 get exch 6 get stringwidth pop -2 div
     dup 0 R} {dup 6 get stringwidth pop -2 div 0 R 6 get
     show 2 index {aload pop M neg 3 -1 roll neg R pop pop} {pop pop pop
     pop aload pop M} ifelse }ifelse }ifelse }
     ifelse }
   forall} bind def
/MFwidth {0 exch {dup 3 get{dup dup 0 get findfont exch 1 get scalefont
     setfont 6 get stringwidth pop add} {pop} ifelse} forall} bind def
/MLshow { currentpoint stroke M
  0 exch R MFshow } bind def
/MRshow { currentpoint stroke M
  exch dup MFwidth neg 3 -1 roll R MFshow } def
/MCshow { currentpoint stroke M
  exch dup MFwidth -2 div 3 -1 roll R MFshow } def
end
%%EndProlog
%%Page: 1 1
gnudict begin
gsave
50 50 translate
0.100 0.100 scale
90 rotate
0 -5040 translate
0 setgray
newpath
(Helvetica) findfont 200 scalefont setfont
1.000 UL
LTb
1020 880 M
63 0 V
5777 0 R
-63 0 V
stroke
900 880 M
[ [(Helvetica) 200.0 0.0 true true 0 (-0.4)]
] -66.7 MRshow
1.000 UL
LTb
1020 1440 M
63 0 V
5777 0 R
-63 0 V
stroke
900 1440 M
[ [(Helvetica) 200.0 0.0 true true 0 (-0.2)]
] -66.7 MRshow
1.000 UL
LTb
1020 2000 M
63 0 V
5777 0 R
-63 0 V
stroke
900 2000 M
[ [(Helvetica) 200.0 0.0 true true 0 ( 0)]
] -66.7 MRshow
1.000 UL
LTb
1020 2560 M
63 0 V
5777 0 R
-63 0 V
stroke
900 2560 M
[ [(Helvetica) 200.0 0.0 true true 0 ( 0.2)]
] -66.7 MRshow
1.000 UL
LTb
1020 3120 M
63 0 V
5777 0 R
-63 0 V
stroke
900 3120 M
[ [(Helvetica) 200.0 0.0 true true 0 ( 0.4)]
] -66.7 MRshow
1.000 UL
LTb
1020 3680 M
63 0 V
5777 0 R
-63 0 V
stroke
900 3680 M
[ [(Helvetica) 200.0 0.0 true true 0 ( 0.6)]
] -66.7 MRshow
1.000 UL
LTb
1020 4240 M
63 0 V
5777 0 R
-63 0 V
stroke
900 4240 M
[ [(Helvetica) 200.0 0.0 true true 0 ( 0.8)]
] -66.7 MRshow
1.000 UL
LTb
1020 4800 M
63 0 V
5777 0 R
-63 0 V
stroke
900 4800 M
[ [(Helvetica) 200.0 0.0 true true 0 ( 1)]
] -66.7 MRshow
1.000 UL
LTb
1020 600 M
0 63 V
0 4137 R
0 -63 V
stroke
1020 400 M
[ [(Helvetica) 200.0 0.0 true true 0 (-3000)]
] -66.7 MCshow
1.000 UL
LTb
1854 600 M
0 63 V
0 4137 R
0 -63 V
stroke
1854 400 M
[ [(Helvetica) 200.0 0.0 true true 0 (-2500)]
] -66.7 MCshow
1.000 UL
LTb
2689 600 M
0 63 V
0 4137 R
0 -63 V
stroke
2689 400 M
[ [(Helvetica) 200.0 0.0 true true 0 (-2000)]
] -66.7 MCshow
1.000 UL
LTb
3523 600 M
0 63 V
0 4137 R
0 -63 V
stroke
3523 400 M
[ [(Helvetica) 200.0 0.0 true true 0 (-1500)]
] -66.7 MCshow
1.000 UL
LTb
4357 600 M
0 63 V
0 4137 R
0 -63 V
stroke
4357 400 M
[ [(Helvetica) 200.0 0.0 true true 0 (-1000)]
] -66.7 MCshow
1.000 UL
LTb
5191 600 M
0 63 V
0 4137 R
0 -63 V
stroke
5191 400 M
[ [(Helvetica) 200.0 0.0 true true 0 (-500)]
] -66.7 MCshow
1.000 UL
LTb
6026 600 M
0 63 V
0 4137 R
0 -63 V
stroke
6026 400 M
[ [(Helvetica) 200.0 0.0 true true 0 ( 0)]
] -66.7 MCshow
1.000 UL
LTb
6860 600 M
0 63 V
0 4137 R
0 -63 V
stroke
6860 400 M
[ [(Helvetica) 200.0 0.0 true true 0 ( 500)]
] -66.7 MCshow
1.000 UL
LTb
1.000 UL
LTb
1020 600 M
5840 0 V
0 4200 V
-5840 0 V
0 -4200 V
LTb
200 2700 M
currentpoint gsave translate 90 rotate 0 0 moveto
[ [(Helvetica) 200.0 0.0 true true 0 (x[m])]
] -66.7 MCshow
grestore
LTb
3940 100 M
[ [(Helvetica) 200.0 0.0 true true 0 (s[m])]
] -66.7 MCshow
1.000 UP
LTb
6092 2140 M
[ [(Helvetica) 200.0 0.0 true true 0 (IP)]
] -66.7 MLshow
LT0
5692 2420 M
[ [(Helvetica) 200.0 0.0 true true 0 (20mrad)]
] -66.7 MLshow
LT2
5609 1440 M
[ [(Helvetica) 200.0 0.0 true true 0 (18.6mrad)]
] -66.7 MLshow
LT1
1020 1300 M
[ [(Helvetica) 200.0 0.0 true true 0 (linac \(0.6mrad\))]
] -66.7 MLshow
1.000 UP
1.000 UL
LT0
LTb
5957 4637 M
[ [(Helvetica) 200.0 0.0 true true 0 (3Tev e)]
[(Helvetica) 160.0 100.0 true true 0 (-)]
[(Helvetica) 200.0 0.0 true true 0 ( BDS)]
] -86.7 MRshow
LT0
6077 4637 M
543 0 V
1360 1689 M
2 2 V
17 16 V
2 2 V
16 17 V
2 2 V
17 16 V
1 2 V
2 2 V
7 7 V
8 8 V
7 7 V
8 8 V
3 3 V
7 8 V
8 7 V
7 8 V
7 7 V
2 2 V
2 1 V
3 4 V
4 3 V
3 4 V
2 1 V
1 2 V
4 4 V
3 3 V
4 3 V
1 2 V
2 2 V
3 3 V
4 4 V
3 3 V
2 2 V
2 2 V
3 3 V
3 3 V
4 4 V
2 2 V
1 1 V
8 8 V
7 7 V
7 8 V
8 7 V
1 2 V
2 1 V
8 8 V
7 7 V
7 8 V
8 7 V
1 2 V
2 2 V
7 7 V
8 8 V
7 7 V
8 8 V
3 3 V
15 15 V
15 16 V
16 15 V
15 15 V
1 2 V
2 2 V
15 15 V
15 15 V
16 15 V
15 16 V
1 1 V
2 2 V
15 15 V
15 16 V
16 15 V
15 15 V
1 2 V
2 2 V
15 15 V
15 15 V
16 16 V
15 15 V
1 2 V
2 1 V
15 16 V
15 15 V
16 15 V
15 16 V
1 1 V
2 2 V
15 15 V
15 16 V
16 15 V
15 15 V
3 3 V
13 13 V
3 4 V
7 6 V
3 4 V
17 17 V
4 4 V
4 4 V
2 2 V
9 9 V
2 2 V
19 18 V
stroke
2105 2439 M
18 18 V
2 2 V
19 17 V
19 16 V
2 2 V
19 16 V
19 14 V
2 2 V
19 14 V
19 13 V
2 1 V
19 12 V
19 12 V
2 1 V
19 11 V
18 9 V
1 1 V
1 1 V
19 9 V
19 8 V
2 1 V
19 7 V
19 7 V
2 1 V
19 5 V
19 5 V
2 1 V
19 4 V
19 4 V
2 0 V
19 3 V
18 2 V
2 0 V
19 1 V
19 0 V
2 0 V
2 0 V
2 0 V
3 0 V
2 0 V
2 0 V
4 0 V
4 0 V
17 0 V
16 0 V
5 0 V
4 0 V
2 0 V
2 0 V
2 0 V
2 0 V
2 0 V
2 0 V
19 0 V
19 0 V
2 0 V
19 0 V
19 1 V
2 0 V
19 0 V
19 1 V
2 0 V
19 1 V
18 2 V
2 0 V
19 1 V
19 2 V
2 0 V
19 2 V
19 1 V
1 1 V
1 0 V
19 2 V
19 2 V
2 0 V
19 3 V
19 2 V
2 1 V
19 3 V
18 2 V
3 1 V
18 3 V
19 3 V
2 1 V
19 3 V
19 4 V
2 0 V
19 4 V
19 4 V
2 1 V
2 0 V
2 1 V
2 0 V
2 1 V
2 0 V
5 1 V
4 1 V
16 3 V
17 4 V
4 1 V
4 1 V
2 0 V
3 1 V
2 0 V
stroke
3181 2724 M
2 1 V
2 0 V
2 1 V
19 4 V
19 4 V
2 1 V
19 4 V
18 5 V
3 1 V
18 5 V
19 5 V
2 0 V
19 6 V
19 5 V
2 1 V
19 5 V
19 6 V
2 1 V
19 6 V
19 6 V
1 0 V
1 1 V
19 6 V
18 6 V
3 1 V
18 7 V
19 7 V
2 1 V
19 7 V
19 7 V
2 1 V
19 7 V
19 8 V
2 0 V
19 8 V
19 8 V
2 1 V
19 8 V
18 8 V
3 1 V
2 1 V
2 1 V
2 1 V
2 1 V
2 1 V
4 2 V
4 2 V
17 7 V
17 8 V
4 1 V
4 2 V
2 1 V
2 1 V
2 1 V
2 1 V
2 1 V
3 1 V
18 8 V
19 7 V
2 1 V
19 6 V
19 6 V
2 0 V
19 5 V
19 4 V
2 0 V
19 4 V
19 2 V
2 0 V
19 2 V
18 1 V
3 0 V
18 0 V
19 -1 V
1 0 V
1 0 V
19 -2 V
19 -2 V
2 0 V
19 -4 V
19 -4 V
2 0 V
19 -5 V
19 -5 V
2 -1 V
19 -7 V
18 -7 V
3 -1 V
18 -8 V
19 -8 V
2 -1 V
19 -10 V
19 -10 V
2 -1 V
9 -5 V
2 -1 V
4 -3 V
4 -2 V
17 -10 V
2 -1 V
1 -1 V
1 0 V
1 -1 V
2 -1 V
stroke
4258 2861 M
2 -1 V
2 -1 V
2 -1 V
2 -1 V
2 -1 V
1 -1 V
1 -1 V
1 -1 V
2 0 V
39 -23 V
2 -1 V
1 -1 V
1 0 V
1 -1 V
2 -1 V
1 0 V
2 -1 V
2 -1 V
58 -34 V
2 -1 V
2 -1 V
26 -15 V
2 -1 V
1 -1 V
27 -15 V
2 -1 V
1 -1 V
59 -33 V
2 -1 V
1 -1 V
1 -1 V
1 0 V
1 -1 V
2 -1 V
59 -33 V
1 -1 V
2 -1 V
26 -15 V
2 -1 V
2 -1 V
26 -15 V
2 -1 V
1 -1 V
59 -34 V
2 -1 V
1 -1 V
1 0 V
1 0 V
2 -1 V
1 -1 V
59 -34 V
2 -1 V
1 -1 V
27 -15 V
1 -1 V
2 -1 V
26 -15 V
2 -1 V
2 -1 V
58 -33 V
2 -1 V
2 -1 V
0 -1 V
1 0 V
2 -1 V
2 -1 V
58 -33 V
2 -1 V
2 -1 V
26 -15 V
2 -1 V
1 -1 V
27 -15 V
1 -1 V
2 -1 V
59 -34 V
1 -1 V
2 -1 V
1 0 V
2 -1 V
2 -1 V
59 -34 V
1 -1 V
2 -1 V
26 -15 V
9 -5 V
14 -8 V
9 -5 V
33 -19 V
8 -5 V
34 -19 V
8 -4 V
9 -6 V
2 -1 V
1 0 V
6 -4 V
1 0 V
2 -1 V
10 -6 V
1 -1 V
1 0 V
10 -6 V
1 -1 V
2 -1 V
stroke
5326 2251 M
9 -5 V
1 -1 V
2 0 V
12 -8 V
2 0 V
1 -1 V
3 -2 V
3 -2 V
3 -1 V
3 -2 V
3 -2 V
3 -1 V
2 -2 V
3 -2 V
3 -1 V
3 -2 V
2 -1 V
1 -1 V
43 -25 V
2 -1 V
1 -1 V
2 -1 V
1 -1 V
48 -28 V
1 -1 V
1 0 V
1 -1 V
2 -1 V
1 -1 V
2 -1 V
28 -17 V
2 -1 V
1 -1 V
2 -1 V
28 -17 V
2 0 V
1 -1 V
1 0 V
1 -1 V
1 -1 V
1 0 V
0 -1 V
1 0 V
11 -7 V
4 -2 V
1 -1 V
1 0 V
1 -1 V
1 0 V
1 -1 V
1 0 V
1 -1 V
40 -24 V
12 -7 V
12 -6 V
12 -7 V
13 -6 V
12 -5 V
12 -5 V
12 -5 V
12 -4 V
13 -4 V
12 -3 V
0 -1 V
2 0 V
1 0 V
3 -1 V
2 -1 V
3 0 V
2 -1 V
3 -1 V
2 0 V
3 -1 V
2 0 V
3 -1 V
2 0 V
1 0 V
1 -1 V
1 0 V
1 0 V
2 -1 V
3 0 V
2 0 V
3 -1 V
2 0 V
3 -1 V
2 0 V
3 -1 V
2 0 V
3 0 V
1 -1 V
2 0 V
3 0 V
2 0 V
3 -1 V
2 0 V
3 0 V
2 -1 V
3 0 V
2 0 V
3 -1 V
2 0 V
1 0 V
2 0 V
stroke
5831 2009 M
3 -1 V
2 0 V
2 0 V
3 0 V
2 -1 V
3 0 V
2 0 V
3 0 V
2 -1 V
1 0 V
2 0 V
3 0 V
2 0 V
3 -1 V
2 0 V
3 0 V
2 0 V
3 -1 V
2 0 V
3 0 V
3 0 V
2 0 V
3 -1 V
2 0 V
3 0 V
2 0 V
3 0 V
2 0 V
2 -1 V
3 0 V
3 0 V
2 0 V
3 0 V
2 0 V
3 0 V
2 -1 V
3 0 V
2 0 V
3 0 V
2 0 V
1 0 V
2 0 V
3 0 V
2 0 V
3 0 V
2 0 V
3 -1 V
2 0 V
3 0 V
2 0 V
3 0 V
2 0 V
3 0 V
2 0 V
3 0 V
2 0 V
3 0 V
2 0 V
3 0 V
2 0 V
3 0 V
19 0 V
3 0 V
1 0 V
3 0 V
3 0 V
4 0 V
1 0 V
1 0 V
3 0 V
2 0 V
6 0 V
1360 1689 Pls
1362 1691 Pls
1379 1707 Pls
1381 1709 Pls
1397 1726 Pls
1399 1728 Pls
1416 1744 Pls
1417 1746 Pls
1419 1748 Pls
1426 1755 Pls
1434 1763 Pls
1441 1770 Pls
1449 1778 Pls
1452 1781 Pls
1459 1789 Pls
1467 1796 Pls
1474 1804 Pls
1481 1811 Pls
1483 1813 Pls
1485 1814 Pls
1488 1818 Pls
1492 1821 Pls
1495 1825 Pls
1497 1826 Pls
1498 1828 Pls
1502 1832 Pls
1505 1835 Pls
1509 1838 Pls
1510 1840 Pls
1512 1842 Pls
1515 1845 Pls
1519 1849 Pls
1522 1852 Pls
1524 1854 Pls
1526 1856 Pls
1529 1859 Pls
1532 1862 Pls
1536 1866 Pls
1538 1868 Pls
1539 1869 Pls
1547 1877 Pls
1554 1884 Pls
1561 1892 Pls
1569 1899 Pls
1570 1901 Pls
1572 1902 Pls
1580 1910 Pls
1587 1917 Pls
1594 1925 Pls
1602 1932 Pls
1603 1934 Pls
1605 1936 Pls
1612 1943 Pls
1620 1951 Pls
1627 1958 Pls
1635 1966 Pls
1638 1969 Pls
1653 1984 Pls
1668 2000 Pls
1684 2015 Pls
1699 2030 Pls
1700 2032 Pls
1702 2034 Pls
1717 2049 Pls
1732 2064 Pls
1748 2079 Pls
1763 2095 Pls
1764 2096 Pls
1766 2098 Pls
1781 2113 Pls
1796 2129 Pls
1812 2144 Pls
1827 2159 Pls
1828 2161 Pls
1830 2163 Pls
1845 2178 Pls
1860 2193 Pls
1876 2209 Pls
1891 2224 Pls
1892 2226 Pls
1894 2227 Pls
1909 2243 Pls
1924 2258 Pls
1940 2273 Pls
1955 2289 Pls
1956 2290 Pls
1958 2292 Pls
1973 2307 Pls
1988 2323 Pls
2004 2338 Pls
2019 2353 Pls
2022 2356 Pls
2035 2369 Pls
2038 2373 Pls
2045 2379 Pls
2048 2383 Pls
2048 2383 Pls
2048 2383 Pls
2065 2400 Pls
2069 2404 Pls
2069 2404 Pls
2073 2408 Pls
2075 2410 Pls
2084 2419 Pls
2086 2421 Pls
2105 2439 Pls
2123 2457 Pls
2125 2459 Pls
2144 2476 Pls
2163 2492 Pls
2165 2494 Pls
2184 2510 Pls
2203 2524 Pls
2205 2526 Pls
2224 2540 Pls
2243 2553 Pls
2245 2554 Pls
2264 2566 Pls
2283 2578 Pls
2285 2579 Pls
2304 2590 Pls
2322 2599 Pls
2323 2600 Pls
2323 2600 Pls
2323 2600 Pls
2324 2601 Pls
2343 2610 Pls
2362 2618 Pls
2364 2619 Pls
2383 2626 Pls
2402 2633 Pls
2404 2634 Pls
2423 2639 Pls
2442 2644 Pls
2444 2645 Pls
2463 2649 Pls
2482 2653 Pls
2484 2653 Pls
2503 2656 Pls
2521 2658 Pls
2523 2658 Pls
2542 2659 Pls
2561 2659 Pls
2563 2659 Pls
2565 2659 Pls
2567 2659 Pls
2570 2659 Pls
2572 2659 Pls
2574 2659 Pls
2578 2659 Pls
2578 2659 Pls
2582 2659 Pls
2599 2659 Pls
2599 2659 Pls
2615 2659 Pls
2620 2659 Pls
2620 2659 Pls
2624 2659 Pls
2626 2659 Pls
2628 2659 Pls
2630 2659 Pls
2632 2659 Pls
2634 2659 Pls
2636 2659 Pls
2655 2659 Pls
2674 2659 Pls
2676 2659 Pls
2695 2659 Pls
2714 2660 Pls
2716 2660 Pls
2735 2660 Pls
2754 2661 Pls
2756 2661 Pls
2775 2662 Pls
2793 2664 Pls
2795 2664 Pls
2814 2665 Pls
2833 2667 Pls
2835 2667 Pls
2854 2669 Pls
2873 2670 Pls
2874 2671 Pls
2874 2671 Pls
2874 2671 Pls
2875 2671 Pls
2894 2673 Pls
2913 2675 Pls
2915 2675 Pls
2934 2678 Pls
2953 2680 Pls
2955 2681 Pls
2974 2684 Pls
2992 2686 Pls
2995 2687 Pls
3013 2690 Pls
3032 2693 Pls
3034 2694 Pls
3053 2697 Pls
3072 2701 Pls
3074 2701 Pls
3093 2705 Pls
3112 2709 Pls
3114 2710 Pls
3116 2710 Pls
3118 2711 Pls
3120 2711 Pls
3122 2712 Pls
3124 2712 Pls
3129 2713 Pls
3129 2713 Pls
3133 2714 Pls
3149 2717 Pls
3149 2717 Pls
3149 2717 Pls
3166 2721 Pls
3170 2722 Pls
3170 2722 Pls
3174 2723 Pls
3176 2723 Pls
3179 2724 Pls
3181 2724 Pls
3183 2725 Pls
3185 2725 Pls
3187 2726 Pls
3206 2730 Pls
3225 2734 Pls
3227 2735 Pls
3246 2739 Pls
3264 2744 Pls
3267 2745 Pls
3285 2750 Pls
3304 2755 Pls
3306 2755 Pls
3325 2761 Pls
3344 2766 Pls
3346 2767 Pls
3365 2772 Pls
3384 2778 Pls
3386 2779 Pls
3405 2785 Pls
3424 2791 Pls
3425 2791 Pls
3425 2791 Pls
3425 2791 Pls
3426 2792 Pls
3445 2798 Pls
3463 2804 Pls
3466 2805 Pls
3484 2812 Pls
3503 2819 Pls
3505 2820 Pls
3524 2827 Pls
3543 2834 Pls
3545 2835 Pls
3564 2842 Pls
3583 2850 Pls
3585 2850 Pls
3604 2858 Pls
3623 2866 Pls
3625 2867 Pls
3644 2875 Pls
3662 2883 Pls
3665 2884 Pls
3667 2885 Pls
3669 2886 Pls
3671 2887 Pls
3673 2888 Pls
3675 2889 Pls
3679 2891 Pls
3679 2891 Pls
3683 2893 Pls
3700 2900 Pls
3700 2900 Pls
3717 2908 Pls
3721 2909 Pls
3721 2909 Pls
3725 2911 Pls
3727 2912 Pls
3729 2913 Pls
3731 2914 Pls
3733 2915 Pls
3735 2916 Pls
3738 2917 Pls
3756 2925 Pls
3775 2932 Pls
3777 2933 Pls
3796 2939 Pls
3815 2945 Pls
3817 2945 Pls
3836 2950 Pls
3855 2954 Pls
3857 2954 Pls
3876 2958 Pls
3895 2960 Pls
3897 2960 Pls
3916 2962 Pls
3934 2963 Pls
3937 2963 Pls
3955 2963 Pls
3974 2962 Pls
3975 2962 Pls
3975 2962 Pls
3975 2962 Pls
3976 2962 Pls
3995 2960 Pls
4014 2958 Pls
4016 2958 Pls
4035 2954 Pls
4054 2950 Pls
4056 2950 Pls
4075 2945 Pls
4094 2940 Pls
4096 2939 Pls
4115 2932 Pls
4133 2925 Pls
4136 2924 Pls
4154 2916 Pls
4173 2908 Pls
4175 2907 Pls
4194 2897 Pls
4213 2887 Pls
4215 2886 Pls
4224 2881 Pls
4226 2880 Pls
4230 2877 Pls
4230 2877 Pls
4234 2875 Pls
4251 2865 Pls
4251 2865 Pls
4251 2865 Pls
4253 2864 Pls
4253 2864 Pls
4254 2863 Pls
4255 2863 Pls
4256 2862 Pls
4256 2862 Pls
4258 2861 Pls
4258 2861 Pls
4260 2860 Pls
4260 2860 Pls
4262 2859 Pls
4262 2859 Pls
4264 2858 Pls
4264 2858 Pls
4266 2857 Pls
4266 2857 Pls
4268 2856 Pls
4268 2856 Pls
4269 2855 Pls
4270 2854 Pls
4271 2853 Pls
4271 2853 Pls
4273 2853 Pls
4312 2830 Pls
4314 2829 Pls
4314 2829 Pls
4315 2828 Pls
4316 2828 Pls
4317 2827 Pls
4317 2827 Pls
4319 2826 Pls
4320 2826 Pls
4320 2826 Pls
4320 2826 Pls
4320 2826 Pls
4320 2826 Pls
4322 2825 Pls
4322 2825 Pls
4324 2824 Pls
4382 2790 Pls
4382 2790 Pls
4382 2790 Pls
4384 2789 Pls
4384 2789 Pls
4386 2788 Pls
4412 2773 Pls
4412 2773 Pls
4412 2773 Pls
4414 2772 Pls
4414 2772 Pls
4415 2771 Pls
4415 2771 Pls
4415 2771 Pls
4442 2756 Pls
4442 2756 Pls
4442 2756 Pls
4444 2755 Pls
4444 2755 Pls
4445 2754 Pls
4504 2721 Pls
4504 2721 Pls
4506 2720 Pls
4506 2720 Pls
4507 2719 Pls
4508 2718 Pls
4509 2718 Pls
4509 2718 Pls
4510 2717 Pls
4510 2717 Pls
4512 2716 Pls
4571 2683 Pls
4571 2683 Pls
4571 2683 Pls
4572 2682 Pls
4572 2682 Pls
4574 2681 Pls
4600 2666 Pls
4600 2666 Pls
4600 2666 Pls
4602 2665 Pls
4602 2665 Pls
4604 2664 Pls
4604 2664 Pls
4604 2664 Pls
4630 2649 Pls
4630 2649 Pls
4630 2649 Pls
4632 2648 Pls
4632 2648 Pls
4633 2647 Pls
4692 2613 Pls
4692 2613 Pls
4694 2612 Pls
4694 2612 Pls
4695 2611 Pls
4696 2611 Pls
4697 2611 Pls
4697 2611 Pls
4699 2610 Pls
4699 2610 Pls
4700 2609 Pls
4759 2575 Pls
4759 2575 Pls
4759 2575 Pls
4761 2574 Pls
4761 2574 Pls
4762 2573 Pls
4789 2558 Pls
4789 2558 Pls
4789 2558 Pls
4790 2557 Pls
4790 2557 Pls
4792 2556 Pls
4792 2556 Pls
4792 2556 Pls
4818 2541 Pls
4818 2541 Pls
4818 2541 Pls
4820 2540 Pls
4820 2540 Pls
4822 2539 Pls
4880 2506 Pls
4880 2506 Pls
4882 2505 Pls
4882 2505 Pls
4884 2504 Pls
4884 2503 Pls
4885 2503 Pls
4885 2503 Pls
4887 2502 Pls
4887 2502 Pls
4889 2501 Pls
4947 2468 Pls
4947 2468 Pls
4947 2468 Pls
4949 2467 Pls
4949 2467 Pls
4951 2466 Pls
4977 2451 Pls
4977 2451 Pls
4977 2451 Pls
4979 2450 Pls
4979 2450 Pls
4980 2449 Pls
4980 2449 Pls
4980 2449 Pls
5007 2434 Pls
5007 2434 Pls
5007 2434 Pls
5008 2433 Pls
5008 2433 Pls
5010 2432 Pls
5069 2398 Pls
5069 2398 Pls
5070 2397 Pls
5070 2397 Pls
5072 2396 Pls
5073 2396 Pls
5073 2396 Pls
5073 2396 Pls
5075 2395 Pls
5075 2395 Pls
5077 2394 Pls
5136 2360 Pls
5136 2360 Pls
5136 2360 Pls
5137 2359 Pls
5137 2359 Pls
5139 2358 Pls
5165 2343 Pls
5165 2343 Pls
5165 2343 Pls
5165 2343 Pls
5165 2343 Pls
5174 2338 Pls
5188 2330 Pls
5197 2325 Pls
5230 2306 Pls
5238 2301 Pls
5272 2282 Pls
5280 2278 Pls
5280 2278 Pls
5280 2278 Pls
5289 2272 Pls
5291 2271 Pls
5292 2271 Pls
5298 2267 Pls
5299 2267 Pls
5301 2266 Pls
5311 2260 Pls
5312 2259 Pls
5313 2259 Pls
5323 2253 Pls
5324 2252 Pls
5326 2251 Pls
5335 2246 Pls
5336 2245 Pls
5336 2245 Pls
5338 2245 Pls
5350 2237 Pls
5352 2237 Pls
5353 2236 Pls
5353 2236 Pls
5356 2234 Pls
5356 2234 Pls
5359 2232 Pls
5359 2232 Pls
5362 2231 Pls
5362 2231 Pls
5365 2229 Pls
5365 2229 Pls
5368 2227 Pls
5368 2227 Pls
5371 2226 Pls
5371 2226 Pls
5373 2224 Pls
5373 2224 Pls
5376 2222 Pls
5376 2222 Pls
5379 2221 Pls
5379 2221 Pls
5382 2219 Pls
5382 2219 Pls
5382 2219 Pls
5384 2218 Pls
5385 2217 Pls
5428 2192 Pls
5430 2191 Pls
5431 2190 Pls
5431 2190 Pls
5433 2189 Pls
5434 2188 Pls
5482 2160 Pls
5483 2159 Pls
5483 2159 Pls
5484 2159 Pls
5485 2158 Pls
5487 2157 Pls
5487 2157 Pls
5488 2156 Pls
5490 2155 Pls
5518 2138 Pls
5520 2137 Pls
5521 2136 Pls
5523 2135 Pls
5551 2118 Pls
5553 2118 Pls
5554 2117 Pls
5555 2117 Pls
5556 2116 Pls
5557 2115 Pls
5558 2115 Pls
5558 2114 Pls
5559 2114 Pls
5570 2107 Pls
5574 2105 Pls
5574 2105 Pls
5575 2104 Pls
5576 2104 Pls
5577 2103 Pls
5578 2103 Pls
5578 2103 Pls
5579 2102 Pls
5580 2102 Pls
5581 2101 Pls
5621 2077 Pls
5633 2070 Pls
5633 2070 Pls
5645 2064 Pls
5645 2064 Pls
5657 2057 Pls
5657 2057 Pls
5670 2051 Pls
5670 2051 Pls
5682 2046 Pls
5682 2046 Pls
5694 2041 Pls
5694 2041 Pls
5706 2036 Pls
5706 2036 Pls
5718 2032 Pls
5718 2032 Pls
5731 2028 Pls
5731 2028 Pls
5743 2025 Pls
5743 2025 Pls
5743 2024 Pls
5745 2024 Pls
5746 2024 Pls
5746 2024 Pls
5749 2023 Pls
5749 2023 Pls
5751 2022 Pls
5751 2022 Pls
5754 2022 Pls
5754 2022 Pls
5756 2021 Pls
5756 2021 Pls
5759 2020 Pls
5759 2020 Pls
5761 2020 Pls
5761 2020 Pls
5764 2019 Pls
5764 2019 Pls
5766 2019 Pls
5766 2019 Pls
5769 2018 Pls
5769 2018 Pls
5771 2018 Pls
5771 2018 Pls
5772 2018 Pls
5773 2017 Pls
5774 2017 Pls
5775 2017 Pls
5777 2016 Pls
5777 2016 Pls
5780 2016 Pls
5780 2016 Pls
5782 2016 Pls
5782 2016 Pls
5785 2015 Pls
5785 2015 Pls
5787 2015 Pls
5787 2015 Pls
5790 2014 Pls
5790 2014 Pls
5792 2014 Pls
5792 2014 Pls
5795 2013 Pls
5795 2013 Pls
5797 2013 Pls
5797 2013 Pls
5800 2013 Pls
5800 2013 Pls
5800 2013 Pls
5801 2012 Pls
5803 2012 Pls
5803 2012 Pls
5806 2012 Pls
5806 2012 Pls
5808 2012 Pls
5808 2012 Pls
5811 2011 Pls
5811 2011 Pls
5813 2011 Pls
5813 2011 Pls
5816 2011 Pls
5816 2011 Pls
5818 2010 Pls
5818 2010 Pls
5821 2010 Pls
5821 2010 Pls
5823 2010 Pls
5823 2010 Pls
5826 2009 Pls
5826 2009 Pls
5828 2009 Pls
5828 2009 Pls
5829 2009 Pls
5831 2009 Pls
5831 2009 Pls
5834 2008 Pls
5834 2008 Pls
5836 2008 Pls
5836 2008 Pls
5838 2008 Pls
5838 2008 Pls
5841 2008 Pls
5841 2008 Pls
5843 2007 Pls
5843 2007 Pls
5846 2007 Pls
5846 2007 Pls
5848 2007 Pls
5848 2007 Pls
5851 2007 Pls
5851 2007 Pls
5853 2006 Pls
5853 2006 Pls
5854 2006 Pls
5856 2006 Pls
5856 2006 Pls
5859 2006 Pls
5859 2006 Pls
5861 2006 Pls
5861 2006 Pls
5864 2005 Pls
5864 2005 Pls
5866 2005 Pls
5866 2005 Pls
5869 2005 Pls
5869 2005 Pls
5871 2005 Pls
5871 2005 Pls
5874 2004 Pls
5874 2004 Pls
5876 2004 Pls
5876 2004 Pls
5879 2004 Pls
5879 2004 Pls
5879 2004 Pls
5882 2004 Pls
5882 2004 Pls
5884 2004 Pls
5884 2004 Pls
5887 2003 Pls
5887 2003 Pls
5889 2003 Pls
5889 2003 Pls
5892 2003 Pls
5892 2003 Pls
5894 2003 Pls
5894 2003 Pls
5897 2003 Pls
5897 2003 Pls
5899 2003 Pls
5899 2003 Pls
5901 2002 Pls
5901 2002 Pls
5904 2002 Pls
5904 2002 Pls
5904 2002 Pls
5907 2002 Pls
5907 2002 Pls
5909 2002 Pls
5909 2002 Pls
5912 2002 Pls
5912 2002 Pls
5914 2002 Pls
5914 2002 Pls
5917 2002 Pls
5917 2002 Pls
5919 2001 Pls
5919 2001 Pls
5922 2001 Pls
5922 2001 Pls
5924 2001 Pls
5924 2001 Pls
5927 2001 Pls
5927 2001 Pls
5929 2001 Pls
5929 2001 Pls
5930 2001 Pls
5932 2001 Pls
5932 2001 Pls
5935 2001 Pls
5935 2001 Pls
5937 2001 Pls
5937 2001 Pls
5940 2001 Pls
5940 2001 Pls
5942 2001 Pls
5942 2001 Pls
5945 2000 Pls
5945 2000 Pls
5947 2000 Pls
5947 2000 Pls
5950 2000 Pls
5950 2000 Pls
5952 2000 Pls
5952 2000 Pls
5955 2000 Pls
5955 2000 Pls
5955 2000 Pls
5957 2000 Pls
5957 2000 Pls
5960 2000 Pls
5960 2000 Pls
5962 2000 Pls
5962 2000 Pls
5965 2000 Pls
5965 2000 Pls
5967 2000 Pls
5967 2000 Pls
5970 2000 Pls
5970 2000 Pls
5972 2000 Pls
5972 2000 Pls
5975 2000 Pls
5975 2000 Pls
5977 2000 Pls
5977 2000 Pls
5980 2000 Pls
5980 2000 Pls
5999 2000 Pls
6002 2000 Pls
6002 2000 Pls
6003 2000 Pls
6003 2000 Pls
6003 2000 Pls
6006 2000 Pls
6006 2000 Pls
6009 2000 Pls
6009 2000 Pls
6013 2000 Pls
6014 2000 Pls
6014 2000 Pls
6014 2000 Pls
6015 2000 Pls
6015 2000 Pls
6015 2000 Pls
6018 2000 Pls
6018 2000 Pls
6020 2000 Pls
6026 2000 Pls
6026 2000 Pls
6026 2000 Pls
6026 2000 Pls
6348 4637 Pls
1.000 UL
LTa
1360 2000 M
56 0 V
56 0 V
55 0 V
56 0 V
55 0 V
56 0 V
55 0 V
56 0 V
55 0 V
56 0 V
56 0 V
55 0 V
56 0 V
55 0 V
56 0 V
55 0 V
56 0 V
55 0 V
56 0 V
56 0 V
55 0 V
56 0 V
55 0 V
56 0 V
55 0 V
56 0 V
55 0 V
56 0 V
55 0 V
56 0 V
56 0 V
55 0 V
56 0 V
55 0 V
56 0 V
55 0 V
56 0 V
55 0 V
56 0 V
56 0 V
55 0 V
56 0 V
55 0 V
56 0 V
55 0 V
56 0 V
55 0 V
56 0 V
55 0 V
56 0 V
56 0 V
55 0 V
56 0 V
55 0 V
56 0 V
55 0 V
56 0 V
55 0 V
56 0 V
56 0 V
55 0 V
56 0 V
55 0 V
56 0 V
55 0 V
56 0 V
55 0 V
56 0 V
55 0 V
56 0 V
56 0 V
55 0 V
56 0 V
55 0 V
56 0 V
55 0 V
56 0 V
55 0 V
56 0 V
56 0 V
55 0 V
56 0 V
55 0 V
56 0 V
55 0 V
56 0 V
55 0 V
56 0 V
55 0 V
56 0 V
56 0 V
55 0 V
56 0 V
55 0 V
56 0 V
55 0 V
56 0 V
55 0 V
56 0 V
1.000 UP
1.000 UL
LT6
LTb
5957 4437 M
[ [(Helvetica) 200.0 0.0 true true 0 (tune-up dump\(?\))]
] -66.7 MRshow
LT6
6077 4437 M
543 0 V
2224 2548 M
19 14 V
2 1 V
19 17 V
19 19 V
2 2 V
19 23 V
18 25 V
1 1 V
1 2 V
19 28 V
19 32 V
2 3 V
19 35 V
19 37 V
2 5 V
19 40 V
19 43 V
2 5 V
19 47 V
19 49 V
2 6 V
19 53 V
18 55 V
2224 2548 CircleF
2243 2562 CircleF
2245 2563 CircleF
2264 2580 CircleF
2283 2599 CircleF
2285 2601 CircleF
2304 2624 CircleF
2322 2649 CircleF
2323 2650 CircleF
2323 2650 CircleF
2323 2650 CircleF
2324 2652 CircleF
2343 2680 CircleF
2362 2712 CircleF
2364 2715 CircleF
2383 2750 CircleF
2402 2787 CircleF
2404 2792 CircleF
2423 2832 CircleF
2442 2875 CircleF
2444 2880 CircleF
2463 2927 CircleF
2482 2976 CircleF
2484 2982 CircleF
2503 3035 CircleF
2521 3090 CircleF
6348 4437 CircleF
1.000 UP
1.000 UL
LT2
LTb
5957 4237 M
[ [(Helvetica) 200.0 0.0 true true 0 (500Gev e)]
[(Helvetica) 160.0 100.0 true true 0 (-)]
[(Helvetica) 200.0 0.0 true true 0 ( BDS)]
] -86.7 MRshow
LT2
6077 4237 M
543 0 V
3143 3503 M
1 1 V
8 8 V
1 1 V
8 9 V
1 1 V
9 8 V
0 1 V
1 1 V
4 4 V
4 3 V
3 4 V
4 4 V
2 2 V
3 3 V
4 4 V
4 4 V
4 4 V
1 1 V
2 2 V
2 2 V
1 1 V
1 1 V
1 1 V
2 2 V
1 2 V
2 1 V
1 1 V
1 1 V
1 2 V
2 2 V
2 1 V
1 1 V
1 1 V
1 2 V
2 1 V
2 2 V
1 1 V
0 1 V
4 4 V
4 3 V
3 4 V
4 4 V
1 1 V
1 1 V
4 3 V
3 4 V
4 4 V
4 4 V
1 1 V
4 4 V
4 4 V
3 4 V
4 3 V
2 2 V
7 8 V
8 7 V
8 8 V
7 8 V
1 1 V
1 1 V
7 7 V
8 8 V
8 8 V
7 7 V
1 1 V
1 1 V
7 8 V
8 7 V
8 8 V
7 8 V
1 1 V
1 0 V
7 8 V
8 8 V
8 8 V
7 7 V
1 1 V
1 1 V
7 8 V
8 7 V
8 8 V
7 8 V
1 1 V
1 0 V
7 8 V
8 8 V
8 8 V
7 7 V
2 2 V
6 6 V
2 2 V
3 3 V
2 2 V
8 9 V
2 2 V
2 2 V
1 1 V
5 4 V
1 1 V
9 9 V
9 9 V
2 1 V
stroke
3526 3890 M
9 8 V
9 7 V
1 1 V
10 6 V
9 6 V
1 1 V
10 5 V
9 4 V
1 1 V
10 4 V
9 3 V
1 0 V
10 3 V
9 1 V
1 1 V
9 1 V
10 0 V
1 0 V
9 0 V
10 -1 V
1 0 V
9 -2 V
10 -2 V
1 0 V
9 -3 V
10 -4 V
1 0 V
9 -5 V
9 -5 V
2 0 V
9 -6 V
9 -6 V
1 -1 V
1 -1 V
2 0 V
1 -1 V
1 -1 V
1 -1 V
2 -1 V
2 -2 V
8 -6 V
8 -5 V
3 -2 V
2 -1 V
1 -1 V
1 -1 V
1 -1 V
1 0 V
1 -1 V
1 -1 V
9 -6 V
10 -7 V
1 -1 V
9 -6 V
10 -6 V
1 -1 V
9 -6 V
10 -6 V
1 0 V
9 -6 V
9 -5 V
2 -1 V
9 -5 V
9 -6 V
1 0 V
10 -5 V
9 -5 V
1 -1 V
10 -5 V
9 -4 V
1 -1 V
10 -4 V
9 -5 V
1 0 V
10 -4 V
9 -4 V
1 -1 V
9 -4 V
10 -3 V
1 -1 V
9 -3 V
10 -4 V
1 0 V
9 -4 V
10 -3 V
1 0 V
1 0 V
1 -1 V
1 0 V
1 0 V
1 -1 V
2 0 V
2 -1 V
8 -3 V
9 -3 V
2 0 V
2 -1 V
1 0 V
1 -1 V
1 0 V
1 0 V
1 -1 V
1 0 V
10 -3 V
stroke
4066 3743 M
9 -3 V
1 0 V
10 -3 V
9 -2 V
1 -1 V
9 -2 V
10 -2 V
1 0 V
9 -3 V
10 -2 V
1 0 V
9 -2 V
10 -1 V
1 0 V
9 -2 V
10 -1 V
1 0 V
9 -2 V
10 -1 V
1 0 V
9 -1 V
9 0 V
1 0 V
10 -1 V
9 0 V
1 0 V
10 -1 V
9 0 V
1 0 V
10 0 V
9 0 V
1 0 V
10 1 V
9 0 V
1 0 V
1 0 V
1 0 V
1 0 V
1 0 V
1 0 V
2 1 V
2 0 V
9 0 V
8 1 V
2 0 V
2 0 V
1 0 V
1 0 V
1 0 V
1 0 V
2 0 V
1 0 V
9 0 V
9 0 V
1 0 V
10 -1 V
9 -2 V
1 0 V
10 -3 V
9 -3 V
1 0 V
10 -4 V
9 -5 V
1 0 V
10 -6 V
9 -5 V
1 -1 V
9 -7 V
10 -7 V
1 -1 V
9 -8 V
10 -8 V
1 -1 V
9 -10 V
10 -10 V
1 -1 V
9 -10 V
10 -12 V
1 -1 V
9 -12 V
10 -13 V
1 -1 V
9 -13 V
9 -14 V
1 -2 V
10 -15 V
9 -15 V
1 -2 V
5 -7 V
1 -2 V
2 -3 V
2 -3 V
8 -14 V
0 -1 V
1 -1 V
1 -1 V
0 -1 V
1 -1 V
1 -2 V
1 -1 V
1 -2 V
1 -1 V
1 -2 V
1 -2 V
stroke
4597 3479 M
0 -1 V
1 0 V
0 -2 V
1 -1 V
20 -32 V
1 -2 V
0 -1 V
1 -1 V
0 -1 V
1 -1 V
1 -1 V
1 -2 V
1 -1 V
29 -49 V
1 -1 V
1 -2 V
13 -22 V
1 -1 V
1 -2 V
13 -22 V
1 -1 V
0 -1 V
30 -49 V
1 -2 V
0 -1 V
1 -1 V
1 -2 V
1 -1 V
29 -49 V
1 -1 V
1 -2 V
13 -22 V
1 -1 V
1 -2 V
13 -22 V
1 -1 V
1 -1 V
29 -49 V
1 -2 V
1 -1 V
0 -1 V
1 -2 V
1 -1 V
29 -49 V
1 -1 V
1 -2 V
13 -22 V
1 -1 V
1 -1 V
13 -22 V
1 -2 V
1 -1 V
29 -49 V
1 -1 V
1 -2 V
0 -1 V
1 -1 V
1 -2 V
29 -49 V
1 -1 V
1 -2 V
13 -21 V
1 -2 V
1 -1 V
13 -22 V
1 -2 V
1 -1 V
29 -49 V
1 -1 V
1 -2 V
1 -1 V
0 -1 V
1 -2 V
30 -49 V
0 -1 V
1 -1 V
13 -22 V
5 -7 V
7 -13 V
4 -6 V
17 -28 V
4 -7 V
17 -28 V
4 -7 V
11 -19 V
2 -3 V
2 -3 V
7 -12 V
2 -3 V
1 -2 V
12 -20 V
2 -3 V
2 -3 V
12 -20 V
1 -3 V
2 -2 V
11 -20 V
2 -2 V
2 -3 V
15 -26 V
2 -2 V
1 -3 V
1 -1 V
3 -6 V
stroke
5196 2480 M
4 -6 V
3 -6 V
4 -6 V
3 -6 V
4 -6 V
3 -6 V
4 -6 V
3 -6 V
4 -7 V
2 -3 V
2 -3 V
61 -109 V
1 -3 V
2 -3 V
1 -1 V
1 -3 V
2 -3 V
59 -105 V
1 -2 V
0 -1 V
1 -1 V
2 -3 V
1 -3 V
1 -1 V
1 -3 V
2 -3 V
42 -76 V
2 -3 V
2 -3 V
1 -3 V
29 -51 V
1 -3 V
2 -3 V
1 0 V
1 -3 V
2 -3 V
0 -1 V
1 -2 V
1 -1 V
15 -27 V
3 -6 V
2 -2 V
1 -3 V
1 -1 V
1 -2 V
1 -1 V
0 -1 V
2 -3 V
1 -3 V
49 -86 V
15 -26 V
15 -23 V
15 -21 V
15 -18 V
15 -16 V
15 -14 V
15 -11 V
15 -8 V
15 -7 V
15 -3 V
2 -1 V
2 0 V
3 0 V
3 -1 V
3 0 V
3 0 V
3 0 V
3 0 V
3 0 V
3 0 V
4 0 V
3 1 V
2 0 V
1 0 V
1 1 V
3 0 V
3 1 V
3 0 V
3 1 V
3 1 V
3 1 V
3 1 V
3 2 V
3 1 V
3 1 V
1 1 V
2 0 V
1 1 V
1 1 V
3 1 V
3 2 V
3 1 V
3 2 V
3 1 V
3 2 V
3 2 V
3 1 V
3 2 V
3 2 V
1 0 V
3 2 V
3 2 V
3 2 V
3 2 V
stroke
5796 1777 M
3 2 V
3 2 V
3 2 V
3 2 V
3 2 V
3 2 V
1 0 V
3 2 V
3 2 V
3 2 V
3 3 V
3 2 V
3 2 V
3 2 V
3 3 V
3 2 V
3 3 V
1 0 V
3 2 V
3 3 V
3 2 V
3 3 V
3 2 V
3 3 V
3 2 V
3 3 V
3 3 V
3 2 V
1 1 V
3 3 V
3 2 V
3 3 V
3 3 V
3 3 V
3 3 V
3 3 V
3 2 V
3 3 V
3 3 V
1 1 V
3 3 V
3 3 V
3 3 V
3 3 V
3 3 V
3 3 V
3 4 V
3 3 V
3 3 V
3 3 V
1 1 V
3 3 V
3 4 V
3 3 V
3 3 V
3 4 V
3 3 V
3 4 V
3 3 V
3 4 V
3 3 V
24 29 V
4 4 V
1 1 V
3 4 V
4 4 V
2 2 V
3 4 V
1 2 V
1 1 V
1 1 V
3 3 V
3 4 V
7 8 V
3143 3503 Star
3144 3504 Star
3152 3512 Star
3153 3513 Star
3161 3522 Star
3162 3523 Star
3171 3531 Star
3171 3532 Star
3172 3533 Star
3176 3537 Star
3180 3540 Star
3183 3544 Star
3187 3548 Star
3189 3550 Star
3192 3553 Star
3196 3557 Star
3200 3561 Star
3204 3565 Star
3204 3565 Star
3205 3566 Star
3207 3568 Star
3209 3570 Star
3210 3571 Star
3211 3572 Star
3212 3573 Star
3214 3575 Star
3215 3577 Star
3217 3578 Star
3218 3579 Star
3219 3580 Star
3220 3582 Star
3222 3584 Star
3224 3585 Star
3225 3586 Star
3226 3587 Star
3227 3589 Star
3229 3590 Star
3231 3592 Star
3232 3593 Star
3232 3594 Star
3236 3598 Star
3240 3601 Star
3243 3605 Star
3247 3609 Star
3248 3610 Star
3249 3611 Star
3253 3614 Star
3256 3618 Star
3260 3622 Star
3264 3626 Star
3264 3626 Star
3265 3627 Star
3269 3631 Star
3273 3635 Star
3276 3639 Star
3280 3642 Star
3282 3644 Star
3289 3652 Star
3297 3659 Star
3305 3667 Star
3312 3675 Star
3313 3676 Star
3314 3677 Star
3321 3684 Star
3329 3692 Star
3337 3700 Star
3344 3707 Star
3345 3708 Star
3346 3709 Star
3353 3717 Star
3361 3724 Star
3369 3732 Star
3376 3740 Star
3377 3741 Star
3378 3741 Star
3385 3749 Star
3393 3757 Star
3401 3765 Star
3408 3772 Star
3409 3773 Star
3410 3774 Star
3417 3782 Star
3425 3789 Star
3433 3797 Star
3440 3805 Star
3441 3806 Star
3442 3806 Star
3449 3814 Star
3457 3822 Star
3465 3830 Star
3472 3837 Star
3474 3839 Star
3480 3845 Star
3482 3847 Star
3485 3850 Star
3487 3852 Star
3487 3852 Star
3487 3852 Star
3495 3861 Star
3497 3863 Star
3497 3863 Star
3499 3865 Star
3500 3866 Star
3505 3870 Star
3506 3871 Star
3515 3880 Star
3524 3889 Star
3526 3890 Star
3535 3898 Star
3544 3905 Star
3545 3906 Star
3555 3912 Star
3564 3918 Star
3565 3919 Star
3575 3924 Star
3584 3928 Star
3585 3929 Star
3595 3933 Star
3604 3936 Star
3605 3936 Star
3615 3939 Star
3624 3940 Star
3624 3940 Star
3624 3940 Star
3624 3940 Star
3625 3941 Star
3634 3942 Star
3644 3942 Star
3645 3942 Star
3654 3942 Star
3664 3941 Star
3665 3941 Star
3674 3939 Star
3684 3937 Star
3685 3937 Star
3694 3934 Star
3704 3930 Star
3705 3930 Star
3714 3925 Star
3723 3920 Star
3725 3920 Star
3734 3914 Star
3743 3908 Star
3744 3907 Star
3745 3906 Star
3747 3906 Star
3748 3905 Star
3749 3904 Star
3750 3903 Star
3752 3902 Star
3752 3902 Star
3754 3900 Star
3762 3894 Star
3762 3894 Star
3770 3889 Star
3773 3887 Star
3773 3887 Star
3775 3886 Star
3776 3885 Star
3777 3884 Star
3778 3883 Star
3779 3883 Star
3780 3882 Star
3781 3881 Star
3790 3875 Star
3800 3868 Star
3801 3867 Star
3810 3861 Star
3820 3855 Star
3821 3854 Star
3830 3848 Star
3840 3842 Star
3841 3842 Star
3850 3836 Star
3859 3831 Star
3861 3830 Star
3870 3825 Star
3879 3819 Star
3880 3819 Star
3890 3814 Star
3899 3809 Star
3900 3808 Star
3900 3808 Star
3900 3808 Star
3900 3808 Star
3910 3803 Star
3919 3799 Star
3920 3798 Star
3930 3794 Star
3939 3789 Star
3940 3789 Star
3950 3785 Star
3959 3781 Star
3960 3780 Star
3969 3776 Star
3979 3773 Star
3980 3772 Star
3989 3769 Star
3999 3765 Star
4000 3765 Star
4009 3761 Star
4019 3758 Star
4020 3758 Star
4021 3758 Star
4022 3757 Star
4023 3757 Star
4024 3757 Star
4025 3756 Star
4027 3756 Star
4027 3756 Star
4029 3755 Star
4037 3752 Star
4037 3752 Star
4037 3752 Star
4046 3749 Star
4048 3749 Star
4048 3749 Star
4050 3748 Star
4051 3748 Star
4052 3747 Star
4053 3747 Star
4054 3747 Star
4055 3746 Star
4056 3746 Star
4066 3743 Star
4075 3740 Star
4076 3740 Star
4086 3737 Star
4095 3735 Star
4096 3734 Star
4105 3732 Star
4115 3730 Star
4116 3730 Star
4125 3727 Star
4135 3725 Star
4136 3725 Star
4145 3723 Star
4155 3722 Star
4156 3722 Star
4165 3720 Star
4175 3719 Star
4175 3719 Star
4175 3719 Star
4175 3719 Star
4176 3719 Star
4185 3717 Star
4195 3716 Star
4196 3716 Star
4205 3715 Star
4214 3715 Star
4215 3715 Star
4225 3714 Star
4234 3714 Star
4235 3714 Star
4245 3713 Star
4254 3713 Star
4255 3713 Star
4265 3713 Star
4274 3713 Star
4275 3713 Star
4285 3714 Star
4294 3714 Star
4295 3714 Star
4296 3714 Star
4297 3714 Star
4298 3714 Star
4299 3714 Star
4300 3714 Star
4302 3715 Star
4302 3715 Star
4304 3715 Star
4313 3715 Star
4313 3715 Star
4321 3716 Star
4323 3716 Star
4323 3716 Star
4325 3716 Star
4326 3716 Star
4327 3716 Star
4328 3716 Star
4329 3716 Star
4331 3716 Star
4332 3716 Star
4341 3716 Star
4350 3716 Star
4351 3716 Star
4361 3715 Star
4370 3713 Star
4371 3713 Star
4381 3710 Star
4390 3707 Star
4391 3707 Star
4401 3703 Star
4410 3698 Star
4411 3698 Star
4421 3692 Star
4430 3687 Star
4431 3686 Star
4440 3679 Star
4450 3672 Star
4450 3672 Star
4450 3672 Star
4450 3672 Star
4451 3671 Star
4460 3663 Star
4470 3655 Star
4471 3654 Star
4480 3644 Star
4490 3634 Star
4491 3633 Star
4500 3623 Star
4510 3611 Star
4511 3610 Star
4520 3598 Star
4530 3585 Star
4531 3584 Star
4540 3571 Star
4549 3557 Star
4550 3555 Star
4560 3540 Star
4569 3525 Star
4570 3523 Star
4575 3516 Star
4576 3514 Star
4578 3511 Star
4578 3511 Star
4580 3508 Star
4588 3494 Star
4588 3494 Star
4588 3493 Star
4589 3492 Star
4589 3492 Star
4590 3491 Star
4590 3490 Star
4591 3489 Star
4591 3489 Star
4592 3487 Star
4592 3487 Star
4593 3486 Star
4593 3486 Star
4594 3484 Star
4594 3484 Star
4595 3483 Star
4595 3483 Star
4596 3481 Star
4596 3481 Star
4597 3479 Star
4597 3479 Star
4597 3478 Star
4598 3478 Star
4598 3476 Star
4598 3476 Star
4599 3475 Star
4619 3443 Star
4620 3441 Star
4620 3441 Star
4620 3440 Star
4621 3439 Star
4621 3438 Star
4621 3438 Star
4622 3437 Star
4623 3436 Star
4623 3436 Star
4623 3436 Star
4623 3436 Star
4623 3436 Star
4624 3434 Star
4624 3434 Star
4625 3433 Star
4654 3384 Star
4654 3384 Star
4654 3384 Star
4655 3383 Star
4655 3383 Star
4656 3381 Star
4669 3359 Star
4669 3359 Star
4669 3359 Star
4670 3358 Star
4670 3358 Star
4671 3356 Star
4671 3356 Star
4671 3356 Star
4684 3334 Star
4684 3334 Star
4684 3334 Star
4685 3333 Star
4685 3333 Star
4685 3332 Star
4715 3283 Star
4715 3283 Star
4716 3281 Star
4716 3281 Star
4716 3280 Star
4717 3279 Star
4717 3279 Star
4717 3279 Star
4718 3277 Star
4718 3277 Star
4719 3276 Star
4748 3227 Star
4748 3227 Star
4748 3227 Star
4749 3226 Star
4749 3226 Star
4750 3224 Star
4763 3202 Star
4763 3202 Star
4763 3202 Star
4764 3201 Star
4764 3201 Star
4765 3199 Star
4765 3199 Star
4765 3199 Star
4778 3177 Star
4778 3177 Star
4778 3177 Star
4779 3176 Star
4779 3176 Star
4780 3175 Star
4809 3126 Star
4809 3126 Star
4810 3124 Star
4810 3124 Star
4811 3123 Star
4811 3122 Star
4811 3122 Star
4811 3122 Star
4812 3120 Star
4812 3120 Star
4813 3119 Star
4842 3070 Star
4842 3070 Star
4842 3070 Star
4843 3069 Star
4843 3069 Star
4844 3067 Star
4857 3045 Star
4857 3045 Star
4857 3045 Star
4858 3044 Star
4858 3044 Star
4859 3043 Star
4859 3043 Star
4859 3043 Star
4872 3021 Star
4872 3021 Star
4872 3021 Star
4873 3019 Star
4873 3019 Star
4874 3018 Star
4903 2969 Star
4903 2969 Star
4904 2968 Star
4904 2968 Star
4905 2966 Star
4905 2966 Star
4905 2965 Star
4905 2965 Star
4906 2964 Star
4906 2964 Star
4907 2962 Star
4936 2913 Star
4936 2913 Star
4936 2913 Star
4937 2912 Star
4937 2912 Star
4938 2910 Star
4951 2889 Star
4951 2889 Star
4951 2889 Star
4952 2887 Star
4952 2887 Star
4953 2886 Star
4953 2886 Star
4953 2886 Star
4966 2864 Star
4966 2864 Star
4966 2864 Star
4967 2862 Star
4967 2862 Star
4968 2861 Star
4997 2812 Star
4997 2812 Star
4998 2811 Star
4998 2811 Star
4999 2809 Star
4999 2809 Star
5000 2808 Star
5000 2808 Star
5000 2807 Star
5000 2807 Star
5001 2805 Star
5031 2756 Star
5031 2756 Star
5031 2756 Star
5031 2755 Star
5031 2755 Star
5032 2754 Star
5045 2732 Star
5045 2732 Star
5045 2732 Star
5045 2732 Star
5045 2732 Star
5050 2725 Star
5057 2712 Star
5061 2706 Star
5078 2678 Star
5082 2671 Star
5099 2643 Star
5103 2636 Star
5103 2636 Star
5103 2636 Star
5103 2636 Star
5114 2617 Star
5116 2614 Star
5118 2611 Star
5125 2599 Star
5127 2596 Star
5128 2594 Star
5140 2574 Star
5142 2571 Star
5144 2568 Star
5156 2548 Star
5157 2545 Star
5159 2543 Star
5170 2523 Star
5172 2521 Star
5172 2521 Star
5174 2518 Star
5189 2492 Star
5191 2490 Star
5192 2487 Star
5193 2486 Star
5196 2480 Star
5196 2480 Star
5200 2474 Star
5200 2474 Star
5203 2468 Star
5203 2468 Star
5207 2462 Star
5207 2462 Star
5210 2456 Star
5210 2456 Star
5214 2450 Star
5214 2450 Star
5217 2444 Star
5217 2444 Star
5221 2438 Star
5221 2438 Star
5224 2432 Star
5224 2432 Star
5228 2425 Star
5228 2425 Star
5228 2425 Star
5230 2422 Star
5232 2419 Star
5293 2310 Star
5294 2307 Star
5296 2304 Star
5297 2303 Star
5298 2300 Star
5300 2297 Star
5359 2192 Star
5360 2190 Star
5360 2189 Star
5361 2188 Star
5363 2185 Star
5364 2182 Star
5365 2181 Star
5366 2178 Star
5368 2175 Star
5410 2099 Star
5412 2096 Star
5414 2093 Star
5415 2090 Star
5444 2039 Star
5445 2036 Star
5447 2033 Star
5448 2033 Star
5449 2030 Star
5451 2027 Star
5451 2026 Star
5452 2024 Star
5453 2023 Star
5468 1996 Star
5471 1990 Star
5471 1990 Star
5473 1988 Star
5474 1985 Star
5475 1984 Star
5476 1982 Star
5477 1981 Star
5477 1980 Star
5479 1977 Star
5480 1974 Star
5529 1888 Star
5544 1862 Star
5544 1862 Star
5559 1839 Star
5559 1839 Star
5574 1818 Star
5574 1818 Star
5589 1800 Star
5589 1800 Star
5604 1784 Star
5604 1784 Star
5619 1770 Star
5619 1770 Star
5634 1759 Star
5634 1759 Star
5649 1751 Star
5649 1751 Star
5664 1744 Star
5664 1744 Star
5679 1741 Star
5679 1741 Star
5679 1741 Star
5681 1740 Star
5683 1740 Star
5683 1740 Star
5686 1740 Star
5686 1740 Star
5689 1739 Star
5689 1739 Star
5692 1739 Star
5692 1739 Star
5695 1739 Star
5695 1739 Star
5698 1739 Star
5698 1739 Star
5701 1739 Star
5701 1739 Star
5704 1739 Star
5704 1739 Star
5707 1739 Star
5707 1739 Star
5711 1739 Star
5711 1739 Star
5714 1740 Star
5714 1740 Star
5714 1740 Star
5716 1740 Star
5717 1740 Star
5718 1741 Star
5721 1741 Star
5721 1741 Star
5724 1742 Star
5724 1742 Star
5727 1742 Star
5727 1742 Star
5730 1743 Star
5730 1743 Star
5733 1744 Star
5733 1744 Star
5736 1745 Star
5736 1745 Star
5739 1746 Star
5739 1746 Star
5742 1748 Star
5742 1748 Star
5745 1749 Star
5745 1749 Star
5748 1750 Star
5748 1750 Star
5749 1751 Star
5751 1751 Star
5752 1752 Star
5753 1753 Star
5756 1754 Star
5756 1754 Star
5759 1756 Star
5759 1756 Star
5762 1757 Star
5762 1757 Star
5765 1759 Star
5765 1759 Star
5768 1760 Star
5768 1760 Star
5771 1762 Star
5771 1762 Star
5774 1764 Star
5774 1764 Star
5777 1765 Star
5777 1765 Star
5780 1767 Star
5780 1767 Star
5783 1769 Star
5783 1769 Star
5784 1769 Star
5787 1771 Star
5787 1771 Star
5790 1773 Star
5790 1773 Star
5793 1775 Star
5793 1775 Star
5796 1777 Star
5796 1777 Star
5799 1779 Star
5799 1779 Star
5802 1781 Star
5802 1781 Star
5805 1783 Star
5805 1783 Star
5808 1785 Star
5808 1785 Star
5811 1787 Star
5811 1787 Star
5814 1789 Star
5814 1789 Star
5815 1789 Star
5818 1791 Star
5818 1791 Star
5821 1793 Star
5821 1793 Star
5824 1795 Star
5824 1795 Star
5827 1798 Star
5827 1798 Star
5830 1800 Star
5830 1800 Star
5833 1802 Star
5833 1802 Star
5836 1804 Star
5836 1804 Star
5839 1807 Star
5839 1807 Star
5842 1809 Star
5842 1809 Star
5845 1812 Star
5845 1812 Star
5846 1812 Star
5849 1814 Star
5849 1814 Star
5852 1817 Star
5852 1817 Star
5855 1819 Star
5855 1819 Star
5858 1822 Star
5858 1822 Star
5861 1824 Star
5861 1824 Star
5864 1827 Star
5864 1827 Star
5867 1829 Star
5867 1829 Star
5870 1832 Star
5870 1832 Star
5873 1835 Star
5873 1835 Star
5876 1837 Star
5876 1837 Star
5877 1838 Star
5880 1841 Star
5880 1841 Star
5883 1843 Star
5883 1843 Star
5886 1846 Star
5886 1846 Star
5889 1849 Star
5889 1849 Star
5892 1852 Star
5892 1852 Star
5895 1855 Star
5895 1855 Star
5898 1858 Star
5898 1858 Star
5901 1860 Star
5901 1860 Star
5904 1863 Star
5904 1863 Star
5907 1866 Star
5907 1866 Star
5908 1867 Star
5911 1870 Star
5911 1870 Star
5914 1873 Star
5914 1873 Star
5917 1876 Star
5917 1876 Star
5920 1879 Star
5920 1879 Star
5923 1882 Star
5923 1882 Star
5926 1885 Star
5926 1885 Star
5929 1889 Star
5929 1889 Star
5932 1892 Star
5932 1892 Star
5935 1895 Star
5935 1895 Star
5938 1898 Star
5938 1898 Star
5939 1899 Star
5942 1902 Star
5942 1902 Star
5945 1906 Star
5945 1906 Star
5948 1909 Star
5948 1909 Star
5951 1912 Star
5951 1912 Star
5954 1916 Star
5954 1916 Star
5957 1919 Star
5957 1919 Star
5960 1923 Star
5960 1923 Star
5963 1926 Star
5963 1926 Star
5966 1930 Star
5966 1930 Star
5969 1933 Star
5969 1933 Star
5993 1962 Star
5997 1966 Star
5997 1966 Star
5998 1967 Star
5998 1967 Star
6001 1971 Star
6005 1975 Star
6007 1977 Star
6010 1981 Star
6011 1983 Star
6011 1983 Star
6012 1984 Star
6012 1984 Star
6013 1985 Star
6016 1988 Star
6019 1992 Star
6026 2000 Star
6026 2000 Star
6026 2000 Star
6026 2000 Star
6348 4237 Star
1.000 UP
1.000 UL
LT6
3527 3913 M
19 13 V
2 2 V
19 17 V
19 19 V
2 2 V
19 22 V
19 26 V
1 1 V
1 2 V
18 28 V
19 32 V
2 3 V
19 35 V
19 37 V
2 4 V
19 41 V
19 43 V
2 5 V
19 47 V
19 49 V
2 6 V
19 53 V
19 55 V
3527 3913 CircleF
3546 3926 CircleF
3548 3928 CircleF
3567 3945 CircleF
3586 3964 CircleF
3588 3966 CircleF
3607 3988 CircleF
3626 4014 CircleF
3627 4015 CircleF
3627 4015 CircleF
3627 4015 CircleF
3628 4017 CircleF
3646 4045 CircleF
3665 4077 CircleF
3667 4080 CircleF
3686 4115 CircleF
3705 4152 CircleF
3707 4156 CircleF
3726 4197 CircleF
3745 4240 CircleF
3747 4245 CircleF
3766 4292 CircleF
3785 4341 CircleF
3787 4347 CircleF
3806 4400 CircleF
3825 4455 CircleF
6.000 UL
LT1
2084 2419 M
3143 3503 L
1.000 UL
LTb
1020 600 M
5840 0 V
0 4200 V
-5840 0 V
0 -4200 V
1.000 UP
stroke
grestore
end
showpage
%%Trailer
%%DocumentFonts: Helvetica
%%Pages: 1
