%!PS-Adobe-2.0 EPSF-2.0
%%Title: SigmasIProtated.ps
%%Creator: gnuplot 4.0 patchlevel 0
%%CreationDate: Wed Feb  3 10:50:49 2010
%%DocumentFonts: (atend)
%%BoundingBox: 50 50 626 881
%%Orientation: Portrait
%%EndComments
/gnudict 256 dict def
gnudict begin
/Color true def
/Solid false def
/gnulinewidth 5.000 def
/userlinewidth gnulinewidth def
/vshift -53 def
/dl {10.0 mul} def
/hpt_ 31.5 def
/vpt_ 31.5 def
/hpt hpt_ def
/vpt vpt_ def
/Rounded false def
/M {moveto} bind def
/L {lineto} bind def
/R {rmoveto} bind def
/V {rlineto} bind def
/N {newpath moveto} bind def
/C {setrgbcolor} bind def
/f {rlineto fill} bind def
/vpt2 vpt 2 mul def
/hpt2 hpt 2 mul def
/Lshow { currentpoint stroke M
  0 vshift R show } def
/Rshow { currentpoint stroke M
  dup stringwidth pop neg vshift R show } def
/Cshow { currentpoint stroke M
  dup stringwidth pop -2 div vshift R show } def
/UP { dup vpt_ mul /vpt exch def hpt_ mul /hpt exch def
  /hpt2 hpt 2 mul def /vpt2 vpt 2 mul def } def
/DL { Color {setrgbcolor Solid {pop []} if 0 setdash }
 {pop pop pop 0 setgray Solid {pop []} if 0 setdash} ifelse } def
/BL { stroke userlinewidth 2 mul setlinewidth
      Rounded { 1 setlinejoin 1 setlinecap } if } def
/AL { stroke userlinewidth 2 div setlinewidth
      Rounded { 1 setlinejoin 1 setlinecap } if } def
/UL { dup gnulinewidth mul /userlinewidth exch def
      dup 1 lt {pop 1} if 10 mul /udl exch def } def
/PL { stroke userlinewidth setlinewidth
      Rounded { 1 setlinejoin 1 setlinecap } if } def
/LTw { PL [] 1 setgray } def
/LTb { BL [] 0 0 0 DL } def
/LTa { AL [1 udl mul 2 udl mul] 0 setdash 0 0 0 setrgbcolor } def
/LT0 { PL [] 1 0 0 DL } def
/LT1 { PL [4 dl 2 dl] 0 1 0 DL } def
/LT2 { PL [2 dl 3 dl] 0 0 1 DL } def
/LT3 { PL [1 dl 1.5 dl] 1 0 1 DL } def
/LT4 { PL [5 dl 2 dl 1 dl 2 dl] 0 1 1 DL } def
/LT5 { PL [4 dl 3 dl 1 dl 3 dl] 1 1 0 DL } def
/LT6 { PL [2 dl 2 dl 2 dl 4 dl] 0 0 0 DL } def
/LT7 { PL [2 dl 2 dl 2 dl 2 dl 2 dl 4 dl] 1 0.3 0 DL } def
/LT8 { PL [2 dl 2 dl 2 dl 2 dl 2 dl 2 dl 2 dl 4 dl] 0.5 0.5 0.5 DL } def
/Pnt { stroke [] 0 setdash
   gsave 1 setlinecap M 0 0 V stroke grestore } def
/Dia { stroke [] 0 setdash 2 copy vpt add M
  hpt neg vpt neg V hpt vpt neg V
  hpt vpt V hpt neg vpt V closepath stroke
  Pnt } def
/Pls { stroke [] 0 setdash vpt sub M 0 vpt2 V
  currentpoint stroke M
  hpt neg vpt neg R hpt2 0 V stroke
  } def
/Box { stroke [] 0 setdash 2 copy exch hpt sub exch vpt add M
  0 vpt2 neg V hpt2 0 V 0 vpt2 V
  hpt2 neg 0 V closepath stroke
  Pnt } def
/Crs { stroke [] 0 setdash exch hpt sub exch vpt add M
  hpt2 vpt2 neg V currentpoint stroke M
  hpt2 neg 0 R hpt2 vpt2 V stroke } def
/TriU { stroke [] 0 setdash 2 copy vpt 1.12 mul add M
  hpt neg vpt -1.62 mul V
  hpt 2 mul 0 V
  hpt neg vpt 1.62 mul V closepath stroke
  Pnt  } def
/Star { 2 copy Pls Crs } def
/BoxF { stroke [] 0 setdash exch hpt sub exch vpt add M
  0 vpt2 neg V  hpt2 0 V  0 vpt2 V
  hpt2 neg 0 V  closepath fill } def
/TriUF { stroke [] 0 setdash vpt 1.12 mul add M
  hpt neg vpt -1.62 mul V
  hpt 2 mul 0 V
  hpt neg vpt 1.62 mul V closepath fill } def
/TriD { stroke [] 0 setdash 2 copy vpt 1.12 mul sub M
  hpt neg vpt 1.62 mul V
  hpt 2 mul 0 V
  hpt neg vpt -1.62 mul V closepath stroke
  Pnt  } def
/TriDF { stroke [] 0 setdash vpt 1.12 mul sub M
  hpt neg vpt 1.62 mul V
  hpt 2 mul 0 V
  hpt neg vpt -1.62 mul V closepath fill} def
/DiaF { stroke [] 0 setdash vpt add M
  hpt neg vpt neg V hpt vpt neg V
  hpt vpt V hpt neg vpt V closepath fill } def
/Pent { stroke [] 0 setdash 2 copy gsave
  translate 0 hpt M 4 {72 rotate 0 hpt L} repeat
  closepath stroke grestore Pnt } def
/PentF { stroke [] 0 setdash gsave
  translate 0 hpt M 4 {72 rotate 0 hpt L} repeat
  closepath fill grestore } def
/Circle { stroke [] 0 setdash 2 copy
  hpt 0 360 arc stroke Pnt } def
/CircleF { stroke [] 0 setdash hpt 0 360 arc fill } def
/C0 { BL [] 0 setdash 2 copy moveto vpt 90 450  arc } bind def
/C1 { BL [] 0 setdash 2 copy        moveto
       2 copy  vpt 0 90 arc closepath fill
               vpt 0 360 arc closepath } bind def
/C2 { BL [] 0 setdash 2 copy moveto
       2 copy  vpt 90 180 arc closepath fill
               vpt 0 360 arc closepath } bind def
/C3 { BL [] 0 setdash 2 copy moveto
       2 copy  vpt 0 180 arc closepath fill
               vpt 0 360 arc closepath } bind def
/C4 { BL [] 0 setdash 2 copy moveto
       2 copy  vpt 180 270 arc closepath fill
               vpt 0 360 arc closepath } bind def
/C5 { BL [] 0 setdash 2 copy moveto
       2 copy  vpt 0 90 arc
       2 copy moveto
       2 copy  vpt 180 270 arc closepath fill
               vpt 0 360 arc } bind def
/C6 { BL [] 0 setdash 2 copy moveto
      2 copy  vpt 90 270 arc closepath fill
              vpt 0 360 arc closepath } bind def
/C7 { BL [] 0 setdash 2 copy moveto
      2 copy  vpt 0 270 arc closepath fill
              vpt 0 360 arc closepath } bind def
/C8 { BL [] 0 setdash 2 copy moveto
      2 copy vpt 270 360 arc closepath fill
              vpt 0 360 arc closepath } bind def
/C9 { BL [] 0 setdash 2 copy moveto
      2 copy  vpt 270 450 arc closepath fill
              vpt 0 360 arc closepath } bind def
/C10 { BL [] 0 setdash 2 copy 2 copy moveto vpt 270 360 arc closepath fill
       2 copy moveto
       2 copy vpt 90 180 arc closepath fill
               vpt 0 360 arc closepath } bind def
/C11 { BL [] 0 setdash 2 copy moveto
       2 copy  vpt 0 180 arc closepath fill
       2 copy moveto
       2 copy  vpt 270 360 arc closepath fill
               vpt 0 360 arc closepath } bind def
/C12 { BL [] 0 setdash 2 copy moveto
       2 copy  vpt 180 360 arc closepath fill
               vpt 0 360 arc closepath } bind def
/C13 { BL [] 0 setdash  2 copy moveto
       2 copy  vpt 0 90 arc closepath fill
       2 copy moveto
       2 copy  vpt 180 360 arc closepath fill
               vpt 0 360 arc closepath } bind def
/C14 { BL [] 0 setdash 2 copy moveto
       2 copy  vpt 90 360 arc closepath fill
               vpt 0 360 arc } bind def
/C15 { BL [] 0 setdash 2 copy vpt 0 360 arc closepath fill
               vpt 0 360 arc closepath } bind def
/Rec   { newpath 4 2 roll moveto 1 index 0 rlineto 0 exch rlineto
       neg 0 rlineto closepath } bind def
/Square { dup Rec } bind def
/Bsquare { vpt sub exch vpt sub exch vpt2 Square } bind def
/S0 { BL [] 0 setdash 2 copy moveto 0 vpt rlineto BL Bsquare } bind def
/S1 { BL [] 0 setdash 2 copy vpt Square fill Bsquare } bind def
/S2 { BL [] 0 setdash 2 copy exch vpt sub exch vpt Square fill Bsquare } bind def
/S3 { BL [] 0 setdash 2 copy exch vpt sub exch vpt2 vpt Rec fill Bsquare } bind def
/S4 { BL [] 0 setdash 2 copy exch vpt sub exch vpt sub vpt Square fill Bsquare } bind def
/S5 { BL [] 0 setdash 2 copy 2 copy vpt Square fill
       exch vpt sub exch vpt sub vpt Square fill Bsquare } bind def
/S6 { BL [] 0 setdash 2 copy exch vpt sub exch vpt sub vpt vpt2 Rec fill Bsquare } bind def
/S7 { BL [] 0 setdash 2 copy exch vpt sub exch vpt sub vpt vpt2 Rec fill
       2 copy vpt Square fill
       Bsquare } bind def
/S8 { BL [] 0 setdash 2 copy vpt sub vpt Square fill Bsquare } bind def
/S9 { BL [] 0 setdash 2 copy vpt sub vpt vpt2 Rec fill Bsquare } bind def
/S10 { BL [] 0 setdash 2 copy vpt sub vpt Square fill 2 copy exch vpt sub exch vpt Square fill
       Bsquare } bind def
/S11 { BL [] 0 setdash 2 copy vpt sub vpt Square fill 2 copy exch vpt sub exch vpt2 vpt Rec fill
       Bsquare } bind def
/S12 { BL [] 0 setdash 2 copy exch vpt sub exch vpt sub vpt2 vpt Rec fill Bsquare } bind def
/S13 { BL [] 0 setdash 2 copy exch vpt sub exch vpt sub vpt2 vpt Rec fill
       2 copy vpt Square fill Bsquare } bind def
/S14 { BL [] 0 setdash 2 copy exch vpt sub exch vpt sub vpt2 vpt Rec fill
       2 copy exch vpt sub exch vpt Square fill Bsquare } bind def
/S15 { BL [] 0 setdash 2 copy Bsquare fill Bsquare } bind def
/D0 { gsave translate 45 rotate 0 0 S0 stroke grestore } bind def
/D1 { gsave translate 45 rotate 0 0 S1 stroke grestore } bind def
/D2 { gsave translate 45 rotate 0 0 S2 stroke grestore } bind def
/D3 { gsave translate 45 rotate 0 0 S3 stroke grestore } bind def
/D4 { gsave translate 45 rotate 0 0 S4 stroke grestore } bind def
/D5 { gsave translate 45 rotate 0 0 S5 stroke grestore } bind def
/D6 { gsave translate 45 rotate 0 0 S6 stroke grestore } bind def
/D7 { gsave translate 45 rotate 0 0 S7 stroke grestore } bind def
/D8 { gsave translate 45 rotate 0 0 S8 stroke grestore } bind def
/D9 { gsave translate 45 rotate 0 0 S9 stroke grestore } bind def
/D10 { gsave translate 45 rotate 0 0 S10 stroke grestore } bind def
/D11 { gsave translate 45 rotate 0 0 S11 stroke grestore } bind def
/D12 { gsave translate 45 rotate 0 0 S12 stroke grestore } bind def
/D13 { gsave translate 45 rotate 0 0 S13 stroke grestore } bind def
/D14 { gsave translate 45 rotate 0 0 S14 stroke grestore } bind def
/D15 { gsave translate 45 rotate 0 0 S15 stroke grestore } bind def
/DiaE { stroke [] 0 setdash vpt add M
  hpt neg vpt neg V hpt vpt neg V
  hpt vpt V hpt neg vpt V closepath stroke } def
/BoxE { stroke [] 0 setdash exch hpt sub exch vpt add M
  0 vpt2 neg V hpt2 0 V 0 vpt2 V
  hpt2 neg 0 V closepath stroke } def
/TriUE { stroke [] 0 setdash vpt 1.12 mul add M
  hpt neg vpt -1.62 mul V
  hpt 2 mul 0 V
  hpt neg vpt 1.62 mul V closepath stroke } def
/TriDE { stroke [] 0 setdash vpt 1.12 mul sub M
  hpt neg vpt 1.62 mul V
  hpt 2 mul 0 V
  hpt neg vpt -1.62 mul V closepath stroke } def
/PentE { stroke [] 0 setdash gsave
  translate 0 hpt M 4 {72 rotate 0 hpt L} repeat
  closepath stroke grestore } def
/CircE { stroke [] 0 setdash 
  hpt 0 360 arc stroke } def
/Opaque { gsave closepath 1 setgray fill grestore 0 setgray closepath } def
/DiaW { stroke [] 0 setdash vpt add M
  hpt neg vpt neg V hpt vpt neg V
  hpt vpt V hpt neg vpt V Opaque stroke } def
/BoxW { stroke [] 0 setdash exch hpt sub exch vpt add M
  0 vpt2 neg V hpt2 0 V 0 vpt2 V
  hpt2 neg 0 V Opaque stroke } def
/TriUW { stroke [] 0 setdash vpt 1.12 mul add M
  hpt neg vpt -1.62 mul V
  hpt 2 mul 0 V
  hpt neg vpt 1.62 mul V Opaque stroke } def
/TriDW { stroke [] 0 setdash vpt 1.12 mul sub M
  hpt neg vpt 1.62 mul V
  hpt 2 mul 0 V
  hpt neg vpt -1.62 mul V Opaque stroke } def
/PentW { stroke [] 0 setdash gsave
  translate 0 hpt M 4 {72 rotate 0 hpt L} repeat
  Opaque stroke grestore } def
/CircW { stroke [] 0 setdash 
  hpt 0 360 arc Opaque stroke } def
/BoxFill { gsave Rec 1 setgray fill grestore } def
/BoxColFill {
  gsave Rec
  /Fillden exch def
  currentrgbcolor
  /ColB exch def /ColG exch def /ColR exch def
  /ColR ColR Fillden mul Fillden sub 1 add def
  /ColG ColG Fillden mul Fillden sub 1 add def
  /ColB ColB Fillden mul Fillden sub 1 add def
  ColR ColG ColB setrgbcolor
  fill grestore } def
%
% PostScript Level 1 Pattern Fill routine
% Usage: x y w h s a XX PatternFill
%	x,y = lower left corner of box to be filled
%	w,h = width and height of box
%	  a = angle in degrees between lines and x-axis
%	 XX = 0/1 for no/yes cross-hatch
%
/PatternFill { gsave /PFa [ 9 2 roll ] def
    PFa 0 get PFa 2 get 2 div add PFa 1 get PFa 3 get 2 div add translate
    PFa 2 get -2 div PFa 3 get -2 div PFa 2 get PFa 3 get Rec
    gsave 1 setgray fill grestore clip
    currentlinewidth 0.5 mul setlinewidth
    /PFs PFa 2 get dup mul PFa 3 get dup mul add sqrt def
    0 0 M PFa 5 get rotate PFs -2 div dup translate
	0 1 PFs PFa 4 get div 1 add floor cvi
	{ PFa 4 get mul 0 M 0 PFs V } for
    0 PFa 6 get ne {
	0 1 PFs PFa 4 get div 1 add floor cvi
	{ PFa 4 get mul 0 2 1 roll M PFs 0 V } for
    } if
    stroke grestore } def
%
/Symbol-Oblique /Symbol findfont [1 0 .167 1 0 0] makefont
dup length dict begin {1 index /FID eq {pop pop} {def} ifelse} forall
currentdict end definefont pop
/MFshow {
   { dup 5 get 3 ge
     { 5 get 3 eq {gsave} {grestore} ifelse }
     {dup dup 0 get findfont exch 1 get scalefont setfont
     [ currentpoint ] exch dup 2 get 0 exch R dup 5 get 2 ne {dup dup 6
     get exch 4 get {show} {stringwidth pop 0 R} ifelse }if dup 5 get 0 eq
     {dup 3 get {2 get neg 0 exch R pop} {pop aload pop M} ifelse} {dup 5
     get 1 eq {dup 2 get exch dup 3 get exch 6 get stringwidth pop -2 div
     dup 0 R} {dup 6 get stringwidth pop -2 div 0 R 6 get
     show 2 index {aload pop M neg 3 -1 roll neg R pop pop} {pop pop pop
     pop aload pop M} ifelse }ifelse }ifelse }
     ifelse }
   forall} bind def
/MFwidth {0 exch {dup 3 get{dup dup 0 get findfont exch 1 get scalefont
     setfont 6 get stringwidth pop add} {pop} ifelse} forall} bind def
/MLshow { currentpoint stroke M
  0 exch R MFshow } bind def
/MRshow { currentpoint stroke M
  exch dup MFwidth neg 3 -1 roll R MFshow } def
/MCshow { currentpoint stroke M
  exch dup MFwidth -2 div 3 -1 roll R MFshow } def
end
%%EndProlog
gnudict begin
gsave
50 50 translate
0.050 0.050 scale
0 setgray
newpath
(Helvetica) findfont 160 scalefont setfont
1.000 UL
LTb
816 11568 M
63 0 V
3889 0 R
-63 0 V
stroke
720 11568 M
[ [(Helvetica) 160.0 0.0 true true 0 ( 244)]
] -53.3 MRshow
1.000 UL
LTb
816 11909 M
63 0 V
3889 0 R
-63 0 V
stroke
720 11909 M
[ [(Helvetica) 160.0 0.0 true true 0 ( 245)]
] -53.3 MRshow
1.000 UL
LTb
816 12251 M
63 0 V
3889 0 R
-63 0 V
stroke
720 12251 M
[ [(Helvetica) 160.0 0.0 true true 0 ( 246)]
] -53.3 MRshow
1.000 UL
LTb
816 12592 M
63 0 V
3889 0 R
-63 0 V
stroke
720 12592 M
[ [(Helvetica) 160.0 0.0 true true 0 ( 247)]
] -53.3 MRshow
1.000 UL
LTb
816 12933 M
63 0 V
3889 0 R
-63 0 V
stroke
720 12933 M
[ [(Helvetica) 160.0 0.0 true true 0 ( 248)]
] -53.3 MRshow
1.000 UL
LTb
816 13275 M
63 0 V
3889 0 R
-63 0 V
stroke
720 13275 M
[ [(Helvetica) 160.0 0.0 true true 0 ( 249)]
] -53.3 MRshow
1.000 UL
LTb
816 13616 M
63 0 V
3889 0 R
-63 0 V
stroke
720 13616 M
[ [(Helvetica) 160.0 0.0 true true 0 ( 250)]
] -53.3 MRshow
1.000 UL
LTb
816 13957 M
63 0 V
3889 0 R
-63 0 V
stroke
720 13957 M
[ [(Helvetica) 160.0 0.0 true true 0 ( 251)]
] -53.3 MRshow
1.000 UL
LTb
816 14299 M
63 0 V
3889 0 R
-63 0 V
stroke
720 14299 M
[ [(Helvetica) 160.0 0.0 true true 0 ( 252)]
] -53.3 MRshow
1.000 UL
LTb
816 14640 M
63 0 V
3889 0 R
-63 0 V
stroke
720 14640 M
[ [(Helvetica) 160.0 0.0 true true 0 ( 253)]
] -53.3 MRshow
1.000 UL
LTb
816 11568 M
0 63 V
0 3009 R
0 -63 V
stroke
816 11408 M
[ [(Helvetica) 160.0 0.0 true true 0 ( 1)]
] -53.3 MCshow
1.000 UL
LTb
1255 11568 M
0 63 V
0 3009 R
0 -63 V
stroke
1255 11408 M
[ [(Helvetica) 160.0 0.0 true true 0 ( 2)]
] -53.3 MCshow
1.000 UL
LTb
1694 11568 M
0 63 V
0 3009 R
0 -63 V
stroke
1694 11408 M
[ [(Helvetica) 160.0 0.0 true true 0 ( 3)]
] -53.3 MCshow
1.000 UL
LTb
2133 11568 M
0 63 V
0 3009 R
0 -63 V
stroke
2133 11408 M
[ [(Helvetica) 160.0 0.0 true true 0 ( 4)]
] -53.3 MCshow
1.000 UL
LTb
2572 11568 M
0 63 V
0 3009 R
0 -63 V
stroke
2572 11408 M
[ [(Helvetica) 160.0 0.0 true true 0 ( 5)]
] -53.3 MCshow
1.000 UL
LTb
3012 11568 M
0 63 V
0 3009 R
0 -63 V
stroke
3012 11408 M
[ [(Helvetica) 160.0 0.0 true true 0 ( 6)]
] -53.3 MCshow
1.000 UL
LTb
3451 11568 M
0 63 V
0 3009 R
0 -63 V
stroke
3451 11408 M
[ [(Helvetica) 160.0 0.0 true true 0 ( 7)]
] -53.3 MCshow
1.000 UL
LTb
3890 11568 M
0 63 V
0 3009 R
0 -63 V
stroke
3890 11408 M
[ [(Helvetica) 160.0 0.0 true true 0 ( 8)]
] -53.3 MCshow
1.000 UL
LTb
4329 11568 M
0 63 V
0 3009 R
0 -63 V
stroke
4329 11408 M
[ [(Helvetica) 160.0 0.0 true true 0 ( 9)]
] -53.3 MCshow
1.000 UL
LTb
4768 11568 M
0 63 V
0 3009 R
0 -63 V
stroke
4768 11408 M
[ [(Helvetica) 160.0 0.0 true true 0 ( 10)]
] -53.3 MCshow
1.000 UL
LTb
1.000 UL
LTb
816 11568 M
3952 0 V
0 3072 V
-3952 0 V
0 -3072 V
LTb
160 13104 M
currentpoint gsave translate 90 rotate 0 0 moveto
[ [(Symbol) 160.0 0.0 true true 0 (s)]
[(Helvetica) 128.0 -48.0 true true 0 (x)]
[(Helvetica) 160.0 0.0 true true 0 ( [10)]
[(Helvetica) 128.0 80.0 true true 0 (-9)]
[(Helvetica) 160.0 0.0 true true 0 (m] at FFIN )]
] -53.3 MCshow
grestore
LTb
2792 11168 M
[ [(Helvetica) 160.0 0.0 true true 0 (Maximum order considered)]
] -53.3 MCshow
LTb
2792 14880 M
[ [(Helvetica) 160.0 0.0 true true 0 (Sigma results at IP  )]
] -53.3 MCshow
1.000 UP
1.000 UL
LT0
LTb
4033 14497 M
[ [(Symbol) 160.0 0.0 true true 0 (s)]
[(Helvetica) 128.0 -48.0 true true 0 (x)]
[(Helvetica) 160.0 0.0 true true 0 ( )]
] -37.3 MRshow
LT0
4129 14497 M
447 0 V
816 11809 M
439 2691 V
439 -1082 V
439 629 V
439 -1621 V
440 -123 V
439 65 V
439 5 V
439 0 V
439 0 V
1.000 UL
LTb
816 11568 M
3952 0 V
0 3072 V
-3952 0 V
0 -3072 V
1.000 UP
1.000 UL
LTb
5856 11568 M
63 0 V
3889 0 R
-63 0 V
stroke
5760 11568 M
[ [(Helvetica) 160.0 0.0 true true 0 ( 5.5)]
] -53.3 MRshow
1.000 UL
LTb
5856 12080 M
63 0 V
3889 0 R
-63 0 V
stroke
5760 12080 M
[ [(Helvetica) 160.0 0.0 true true 0 ( 5.6)]
] -53.3 MRshow
1.000 UL
LTb
5856 12592 M
63 0 V
3889 0 R
-63 0 V
stroke
5760 12592 M
[ [(Helvetica) 160.0 0.0 true true 0 ( 5.7)]
] -53.3 MRshow
1.000 UL
LTb
5856 13104 M
63 0 V
3889 0 R
-63 0 V
stroke
5760 13104 M
[ [(Helvetica) 160.0 0.0 true true 0 ( 5.8)]
] -53.3 MRshow
1.000 UL
LTb
5856 13616 M
63 0 V
3889 0 R
-63 0 V
stroke
5760 13616 M
[ [(Helvetica) 160.0 0.0 true true 0 ( 5.9)]
] -53.3 MRshow
1.000 UL
LTb
5856 14128 M
63 0 V
3889 0 R
-63 0 V
stroke
5760 14128 M
[ [(Helvetica) 160.0 0.0 true true 0 ( 6)]
] -53.3 MRshow
1.000 UL
LTb
5856 14640 M
63 0 V
3889 0 R
-63 0 V
stroke
5760 14640 M
[ [(Helvetica) 160.0 0.0 true true 0 ( 6.1)]
] -53.3 MRshow
1.000 UL
LTb
5856 11568 M
0 63 V
0 3009 R
0 -63 V
stroke
5856 11408 M
[ [(Helvetica) 160.0 0.0 true true 0 ( 1)]
] -53.3 MCshow
1.000 UL
LTb
6295 11568 M
0 63 V
0 3009 R
0 -63 V
stroke
6295 11408 M
[ [(Helvetica) 160.0 0.0 true true 0 ( 2)]
] -53.3 MCshow
1.000 UL
LTb
6734 11568 M
0 63 V
0 3009 R
0 -63 V
stroke
6734 11408 M
[ [(Helvetica) 160.0 0.0 true true 0 ( 3)]
] -53.3 MCshow
1.000 UL
LTb
7173 11568 M
0 63 V
0 3009 R
0 -63 V
stroke
7173 11408 M
[ [(Helvetica) 160.0 0.0 true true 0 ( 4)]
] -53.3 MCshow
1.000 UL
LTb
7612 11568 M
0 63 V
0 3009 R
0 -63 V
stroke
7612 11408 M
[ [(Helvetica) 160.0 0.0 true true 0 ( 5)]
] -53.3 MCshow
1.000 UL
LTb
8052 11568 M
0 63 V
0 3009 R
0 -63 V
stroke
8052 11408 M
[ [(Helvetica) 160.0 0.0 true true 0 ( 6)]
] -53.3 MCshow
1.000 UL
LTb
8491 11568 M
0 63 V
0 3009 R
0 -63 V
stroke
8491 11408 M
[ [(Helvetica) 160.0 0.0 true true 0 ( 7)]
] -53.3 MCshow
1.000 UL
LTb
8930 11568 M
0 63 V
0 3009 R
0 -63 V
stroke
8930 11408 M
[ [(Helvetica) 160.0 0.0 true true 0 ( 8)]
] -53.3 MCshow
1.000 UL
LTb
9369 11568 M
0 63 V
0 3009 R
0 -63 V
stroke
9369 11408 M
[ [(Helvetica) 160.0 0.0 true true 0 ( 9)]
] -53.3 MCshow
1.000 UL
LTb
9808 11568 M
0 63 V
0 3009 R
0 -63 V
stroke
9808 11408 M
[ [(Helvetica) 160.0 0.0 true true 0 ( 10)]
] -53.3 MCshow
1.000 UL
LTb
1.000 UL
LTb
5856 11568 M
3952 0 V
0 3072 V
-3952 0 V
0 -3072 V
LTb
5200 13104 M
currentpoint gsave translate 90 rotate 0 0 moveto
[ [(Symbol) 160.0 0.0 true true 0 (s)]
[(Helvetica) 128.0 -48.0 true true 0 (y)]
[(Helvetica) 160.0 0.0 true true 0 ( [10)]
[(Helvetica) 128.0 80.0 true true 0 (-9)]
[(Helvetica) 160.0 0.0 true true 0 (m] at FFIN )]
] -53.3 MCshow
grestore
LTb
7832 11168 M
[ [(Helvetica) 160.0 0.0 true true 0 (Maximum order considered)]
] -53.3 MCshow
LTb
7832 14880 M
[ [(Helvetica) 160.0 0.0 true true 0 (Sigma results at IP  )]
] -53.3 MCshow
1.000 UP
1.000 UL
LT0
LTb
9073 14497 M
[ [(Symbol) 160.0 0.0 true true 0 (s)]
[(Helvetica) 128.0 -48.0 true true 0 (y)]
[(Helvetica) 160.0 0.0 true true 0 ( )]
] -37.3 MRshow
LT0
9169 14497 M
447 0 V
5856 11911 M
439 1578 V
439 -1441 V
439 2572 V
439 -679 V
440 -123 V
439 -49 V
439 -33 V
439 0 V
439 0 V
1.000 UL
LTb
5856 11568 M
3952 0 V
0 3072 V
-3952 0 V
0 -3072 V
1.000 UP
1.000 UL
LTb
1008 7536 M
63 0 V
3697 0 R
-63 0 V
stroke
912 7536 M
[ [(Helvetica) 160.0 0.0 true true 0 ( 35.2)]
] -53.3 MRshow
1.000 UL
LTb
1008 7843 M
63 0 V
3697 0 R
-63 0 V
stroke
912 7843 M
[ [(Helvetica) 160.0 0.0 true true 0 ( 35.25)]
] -53.3 MRshow
1.000 UL
LTb
1008 8150 M
63 0 V
3697 0 R
-63 0 V
stroke
912 8150 M
[ [(Helvetica) 160.0 0.0 true true 0 ( 35.3)]
] -53.3 MRshow
1.000 UL
LTb
1008 8458 M
63 0 V
3697 0 R
-63 0 V
stroke
912 8458 M
[ [(Helvetica) 160.0 0.0 true true 0 ( 35.35)]
] -53.3 MRshow
1.000 UL
LTb
1008 8765 M
63 0 V
3697 0 R
-63 0 V
stroke
912 8765 M
[ [(Helvetica) 160.0 0.0 true true 0 ( 35.4)]
] -53.3 MRshow
1.000 UL
LTb
1008 9072 M
63 0 V
3697 0 R
-63 0 V
stroke
912 9072 M
[ [(Helvetica) 160.0 0.0 true true 0 ( 35.45)]
] -53.3 MRshow
1.000 UL
LTb
1008 9379 M
63 0 V
3697 0 R
-63 0 V
stroke
912 9379 M
[ [(Helvetica) 160.0 0.0 true true 0 ( 35.5)]
] -53.3 MRshow
1.000 UL
LTb
1008 9686 M
63 0 V
3697 0 R
-63 0 V
stroke
912 9686 M
[ [(Helvetica) 160.0 0.0 true true 0 ( 35.55)]
] -53.3 MRshow
1.000 UL
LTb
1008 9994 M
63 0 V
3697 0 R
-63 0 V
stroke
912 9994 M
[ [(Helvetica) 160.0 0.0 true true 0 ( 35.6)]
] -53.3 MRshow
1.000 UL
LTb
1008 10301 M
63 0 V
3697 0 R
-63 0 V
stroke
912 10301 M
[ [(Helvetica) 160.0 0.0 true true 0 ( 35.65)]
] -53.3 MRshow
1.000 UL
LTb
1008 10608 M
63 0 V
3697 0 R
-63 0 V
stroke
912 10608 M
[ [(Helvetica) 160.0 0.0 true true 0 ( 35.7)]
] -53.3 MRshow
1.000 UL
LTb
1008 7536 M
0 63 V
0 3009 R
0 -63 V
stroke
1008 7376 M
[ [(Helvetica) 160.0 0.0 true true 0 ( 1)]
] -53.3 MCshow
1.000 UL
LTb
1426 7536 M
0 63 V
0 3009 R
0 -63 V
stroke
1426 7376 M
[ [(Helvetica) 160.0 0.0 true true 0 ( 2)]
] -53.3 MCshow
1.000 UL
LTb
1844 7536 M
0 63 V
0 3009 R
0 -63 V
stroke
1844 7376 M
[ [(Helvetica) 160.0 0.0 true true 0 ( 3)]
] -53.3 MCshow
1.000 UL
LTb
2261 7536 M
0 63 V
0 3009 R
0 -63 V
stroke
2261 7376 M
[ [(Helvetica) 160.0 0.0 true true 0 ( 4)]
] -53.3 MCshow
1.000 UL
LTb
2679 7536 M
0 63 V
0 3009 R
0 -63 V
stroke
2679 7376 M
[ [(Helvetica) 160.0 0.0 true true 0 ( 5)]
] -53.3 MCshow
1.000 UL
LTb
3097 7536 M
0 63 V
0 3009 R
0 -63 V
stroke
3097 7376 M
[ [(Helvetica) 160.0 0.0 true true 0 ( 6)]
] -53.3 MCshow
1.000 UL
LTb
3515 7536 M
0 63 V
0 3009 R
0 -63 V
stroke
3515 7376 M
[ [(Helvetica) 160.0 0.0 true true 0 ( 7)]
] -53.3 MCshow
1.000 UL
LTb
3932 7536 M
0 63 V
0 3009 R
0 -63 V
stroke
3932 7376 M
[ [(Helvetica) 160.0 0.0 true true 0 ( 8)]
] -53.3 MCshow
1.000 UL
LTb
4350 7536 M
0 63 V
0 3009 R
0 -63 V
stroke
4350 7376 M
[ [(Helvetica) 160.0 0.0 true true 0 ( 9)]
] -53.3 MCshow
1.000 UL
LTb
4768 7536 M
0 63 V
0 3009 R
0 -63 V
stroke
4768 7376 M
[ [(Helvetica) 160.0 0.0 true true 0 ( 10)]
] -53.3 MCshow
1.000 UL
LTb
1.000 UL
LTb
1008 7536 M
3760 0 V
0 3072 V
-3760 0 V
0 -3072 V
LTb
160 9072 M
currentpoint gsave translate 90 rotate 0 0 moveto
[ [(Symbol) 160.0 0.0 true true 0 (s)]
[(Helvetica) 128.0 -48.0 true true 0 (p)]
[(Helvetica) 160.0 0.0 true true 0 (x [10)]
[(Helvetica) 128.0 80.0 true true 0 (-6)]
[(Helvetica) 160.0 0.0 true true 0 (] at FFIN )]
] -53.3 MCshow
grestore
LTb
2888 7136 M
[ [(Helvetica) 160.0 0.0 true true 0 (Maximum order considered)]
] -53.3 MCshow
LTb
2888 10848 M
[ [(Helvetica) 160.0 0.0 true true 0 (Sigma results at IP  )]
] -53.3 MCshow
1.000 UP
1.000 UL
LT0
LTb
4033 10465 M
[ [(Symbol) 160.0 0.0 true true 0 (s)]
[(Helvetica) 128.0 -48.0 true true 0 (px)]
[(Helvetica) 160.0 0.0 true true 0 ( )]
] -37.3 MRshow
LT0
4129 10465 M
447 0 V
1008 9147 M
418 1162 V
1844 7866 L
417 -35 V
418 10 V
418 0 V
418 0 V
417 0 V
418 0 V
418 0 V
1.000 UL
LTb
1008 7536 M
3760 0 V
0 3072 V
-3760 0 V
0 -3072 V
1.000 UP
1.000 UL
LTb
5952 7536 M
63 0 V
3793 0 R
-63 0 V
stroke
5856 7536 M
[ [(Helvetica) 160.0 0.0 true true 0 ( 20.2)]
] -53.3 MRshow
1.000 UL
LTb
5952 7877 M
63 0 V
3793 0 R
-63 0 V
stroke
5856 7877 M
[ [(Helvetica) 160.0 0.0 true true 0 ( 20.4)]
] -53.3 MRshow
1.000 UL
LTb
5952 8219 M
63 0 V
3793 0 R
-63 0 V
stroke
5856 8219 M
[ [(Helvetica) 160.0 0.0 true true 0 ( 20.6)]
] -53.3 MRshow
1.000 UL
LTb
5952 8560 M
63 0 V
3793 0 R
-63 0 V
stroke
5856 8560 M
[ [(Helvetica) 160.0 0.0 true true 0 ( 20.8)]
] -53.3 MRshow
1.000 UL
LTb
5952 8901 M
63 0 V
3793 0 R
-63 0 V
stroke
5856 8901 M
[ [(Helvetica) 160.0 0.0 true true 0 ( 21)]
] -53.3 MRshow
1.000 UL
LTb
5952 9243 M
63 0 V
3793 0 R
-63 0 V
stroke
5856 9243 M
[ [(Helvetica) 160.0 0.0 true true 0 ( 21.2)]
] -53.3 MRshow
1.000 UL
LTb
5952 9584 M
63 0 V
3793 0 R
-63 0 V
stroke
5856 9584 M
[ [(Helvetica) 160.0 0.0 true true 0 ( 21.4)]
] -53.3 MRshow
1.000 UL
LTb
5952 9925 M
63 0 V
3793 0 R
-63 0 V
stroke
5856 9925 M
[ [(Helvetica) 160.0 0.0 true true 0 ( 21.6)]
] -53.3 MRshow
1.000 UL
LTb
5952 10267 M
63 0 V
3793 0 R
-63 0 V
stroke
5856 10267 M
[ [(Helvetica) 160.0 0.0 true true 0 ( 21.8)]
] -53.3 MRshow
1.000 UL
LTb
5952 10608 M
63 0 V
3793 0 R
-63 0 V
stroke
5856 10608 M
[ [(Helvetica) 160.0 0.0 true true 0 ( 22)]
] -53.3 MRshow
1.000 UL
LTb
5952 7536 M
0 63 V
0 3009 R
0 -63 V
stroke
5952 7376 M
[ [(Helvetica) 160.0 0.0 true true 0 ( 1)]
] -53.3 MCshow
1.000 UL
LTb
6380 7536 M
0 63 V
0 3009 R
0 -63 V
stroke
6380 7376 M
[ [(Helvetica) 160.0 0.0 true true 0 ( 2)]
] -53.3 MCshow
1.000 UL
LTb
6809 7536 M
0 63 V
0 3009 R
0 -63 V
stroke
6809 7376 M
[ [(Helvetica) 160.0 0.0 true true 0 ( 3)]
] -53.3 MCshow
1.000 UL
LTb
7237 7536 M
0 63 V
0 3009 R
0 -63 V
stroke
7237 7376 M
[ [(Helvetica) 160.0 0.0 true true 0 ( 4)]
] -53.3 MCshow
1.000 UL
LTb
7666 7536 M
0 63 V
0 3009 R
0 -63 V
stroke
7666 7376 M
[ [(Helvetica) 160.0 0.0 true true 0 ( 5)]
] -53.3 MCshow
1.000 UL
LTb
8094 7536 M
0 63 V
0 3009 R
0 -63 V
stroke
8094 7376 M
[ [(Helvetica) 160.0 0.0 true true 0 ( 6)]
] -53.3 MCshow
1.000 UL
LTb
8523 7536 M
0 63 V
0 3009 R
0 -63 V
stroke
8523 7376 M
[ [(Helvetica) 160.0 0.0 true true 0 ( 7)]
] -53.3 MCshow
1.000 UL
LTb
8951 7536 M
0 63 V
0 3009 R
0 -63 V
stroke
8951 7376 M
[ [(Helvetica) 160.0 0.0 true true 0 ( 8)]
] -53.3 MCshow
1.000 UL
LTb
9380 7536 M
0 63 V
0 3009 R
0 -63 V
stroke
9380 7376 M
[ [(Helvetica) 160.0 0.0 true true 0 ( 9)]
] -53.3 MCshow
1.000 UL
LTb
9808 7536 M
0 63 V
0 3009 R
0 -63 V
stroke
9808 7376 M
[ [(Helvetica) 160.0 0.0 true true 0 ( 10)]
] -53.3 MCshow
1.000 UL
LTb
1.000 UL
LTb
5952 7536 M
3856 0 V
0 3072 V
-3856 0 V
0 -3072 V
LTb
5200 9072 M
currentpoint gsave translate 90 rotate 0 0 moveto
[ [(Symbol) 160.0 0.0 true true 0 (s)]
[(Helvetica) 128.0 -48.0 true true 0 (p)]
[(Helvetica) 160.0 0.0 true true 0 (y [10)]
[(Helvetica) 128.0 80.0 true true 0 (-6)]
[(Helvetica) 160.0 0.0 true true 0 (] at FFIN )]
] -53.3 MCshow
grestore
LTb
7880 7136 M
[ [(Helvetica) 160.0 0.0 true true 0 (Maximum order considered)]
] -53.3 MCshow
LTb
7880 10848 M
[ [(Helvetica) 160.0 0.0 true true 0 (Sigma results at IP  )]
] -53.3 MCshow
1.000 UP
1.000 UL
LT0
LTb
9073 10465 M
[ [(Symbol) 160.0 0.0 true true 0 (s)]
[(Helvetica) 128.0 -48.0 true true 0 (py)]
[(Helvetica) 160.0 0.0 true true 0 ( )]
] -37.3 MRshow
LT0
9169 10465 M
447 0 V
5952 7802 M
428 1224 V
429 1374 V
428 9 V
429 -35 V
428 0 V
429 0 V
428 0 V
429 0 V
428 0 V
1.000 UL
LTb
5952 7536 M
3856 0 V
0 3072 V
-3856 0 V
0 -3072 V
1.000 UP
stroke
grestore
end
showpage
%%Trailer
%%DocumentFonts: Symbol Helvetica
