%!PS-Adobe-2.0
%%Title: filename.ps
%%Creator: gnuplot 4.0 patchlevel 0
%%CreationDate: Mon Aug 30 14:18:18 2010
%%DocumentFonts: (atend)
%%BoundingBox: -504 122 503 842
%%Orientation: Landscape
%%Pages: (atend)
%%EndComments
/gnudict 256 dict def
gnudict begin
/Color true def
/Solid true def
/gnulinewidth 10.000 def
/userlinewidth gnulinewidth def
/vshift -66 def
/dl {10.0 mul} def
/hpt_ 31.5 def
/vpt_ 31.5 def
/hpt hpt_ def
/vpt vpt_ def
/Rounded false def
/M {moveto} bind def
/L {lineto} bind def
/R {rmoveto} bind def
/V {rlineto} bind def
/N {newpath moveto} bind def
/C {setrgbcolor} bind def
/f {rlineto fill} bind def
/vpt2 vpt 2 mul def
/hpt2 hpt 2 mul def
/Lshow { currentpoint stroke M
  0 vshift R show } def
/Rshow { currentpoint stroke M
  dup stringwidth pop neg vshift R show } def
/Cshow { currentpoint stroke M
  dup stringwidth pop -2 div vshift R show } def
/UP { dup vpt_ mul /vpt exch def hpt_ mul /hpt exch def
  /hpt2 hpt 2 mul def /vpt2 vpt 2 mul def } def
/DL { Color {setrgbcolor Solid {pop []} if 0 setdash }
 {pop pop pop 0 setgray Solid {pop []} if 0 setdash} ifelse } def
/BL { stroke userlinewidth 2 mul setlinewidth
      Rounded { 1 setlinejoin 1 setlinecap } if } def
/AL { stroke userlinewidth 2 div setlinewidth
      Rounded { 1 setlinejoin 1 setlinecap } if } def
/UL { dup gnulinewidth mul /userlinewidth exch def
      dup 1 lt {pop 1} if 10 mul /udl exch def } def
/PL { stroke userlinewidth setlinewidth
      Rounded { 1 setlinejoin 1 setlinecap } if } def
/LTw { PL [] 1 setgray } def
/LTb { BL [] 0 0 0 DL } def
/LTa { AL [1 udl mul 2 udl mul] 0 setdash 0 0 0 setrgbcolor } def
/LT0 { PL [] 1 0 0 DL } def
/LT1 { PL [4 dl 2 dl] 0 1 0 DL } def
/LT2 { PL [2 dl 3 dl] 0 0 1 DL } def
/LT3 { PL [1 dl 1.5 dl] 1 0 1 DL } def
/LT4 { PL [5 dl 2 dl 1 dl 2 dl] 0 1 1 DL } def
/LT5 { PL [4 dl 3 dl 1 dl 3 dl] 1 1 0 DL } def
/LT6 { PL [2 dl 2 dl 2 dl 4 dl] 0 0 0 DL } def
/LT7 { PL [2 dl 2 dl 2 dl 2 dl 2 dl 4 dl] 1 0.3 0 DL } def
/LT8 { PL [2 dl 2 dl 2 dl 2 dl 2 dl 2 dl 2 dl 4 dl] 0.5 0.5 0.5 DL } def
/Pnt { stroke [] 0 setdash
   gsave 1 setlinecap M 0 0 V stroke grestore } def
/Dia { stroke [] 0 setdash 2 copy vpt add M
  hpt neg vpt neg V hpt vpt neg V
  hpt vpt V hpt neg vpt V closepath stroke
  Pnt } def
/Pls { stroke [] 0 setdash vpt sub M 0 vpt2 V
  currentpoint stroke M
  hpt neg vpt neg R hpt2 0 V stroke
  } def
/Box { stroke [] 0 setdash 2 copy exch hpt sub exch vpt add M
  0 vpt2 neg V hpt2 0 V 0 vpt2 V
  hpt2 neg 0 V closepath stroke
  Pnt } def
/Crs { stroke [] 0 setdash exch hpt sub exch vpt add M
  hpt2 vpt2 neg V currentpoint stroke M
  hpt2 neg 0 R hpt2 vpt2 V stroke } def
/TriU { stroke [] 0 setdash 2 copy vpt 1.12 mul add M
  hpt neg vpt -1.62 mul V
  hpt 2 mul 0 V
  hpt neg vpt 1.62 mul V closepath stroke
  Pnt  } def
/Star { 2 copy Pls Crs } def
/BoxF { stroke [] 0 setdash exch hpt sub exch vpt add M
  0 vpt2 neg V  hpt2 0 V  0 vpt2 V
  hpt2 neg 0 V  closepath fill } def
/TriUF { stroke [] 0 setdash vpt 1.12 mul add M
  hpt neg vpt -1.62 mul V
  hpt 2 mul 0 V
  hpt neg vpt 1.62 mul V closepath fill } def
/TriD { stroke [] 0 setdash 2 copy vpt 1.12 mul sub M
  hpt neg vpt 1.62 mul V
  hpt 2 mul 0 V
  hpt neg vpt -1.62 mul V closepath stroke
  Pnt  } def
/TriDF { stroke [] 0 setdash vpt 1.12 mul sub M
  hpt neg vpt 1.62 mul V
  hpt 2 mul 0 V
  hpt neg vpt -1.62 mul V closepath fill} def
/DiaF { stroke [] 0 setdash vpt add M
  hpt neg vpt neg V hpt vpt neg V
  hpt vpt V hpt neg vpt V closepath fill } def
/Pent { stroke [] 0 setdash 2 copy gsave
  translate 0 hpt M 4 {72 rotate 0 hpt L} repeat
  closepath stroke grestore Pnt } def
/PentF { stroke [] 0 setdash gsave
  translate 0 hpt M 4 {72 rotate 0 hpt L} repeat
  closepath fill grestore } def
/Circle { stroke [] 0 setdash 2 copy
  hpt 0 360 arc stroke Pnt } def
/CircleF { stroke [] 0 setdash hpt 0 360 arc fill } def
/C0 { BL [] 0 setdash 2 copy moveto vpt 90 450  arc } bind def
/C1 { BL [] 0 setdash 2 copy        moveto
       2 copy  vpt 0 90 arc closepath fill
               vpt 0 360 arc closepath } bind def
/C2 { BL [] 0 setdash 2 copy moveto
       2 copy  vpt 90 180 arc closepath fill
               vpt 0 360 arc closepath } bind def
/C3 { BL [] 0 setdash 2 copy moveto
       2 copy  vpt 0 180 arc closepath fill
               vpt 0 360 arc closepath } bind def
/C4 { BL [] 0 setdash 2 copy moveto
       2 copy  vpt 180 270 arc closepath fill
               vpt 0 360 arc closepath } bind def
/C5 { BL [] 0 setdash 2 copy moveto
       2 copy  vpt 0 90 arc
       2 copy moveto
       2 copy  vpt 180 270 arc closepath fill
               vpt 0 360 arc } bind def
/C6 { BL [] 0 setdash 2 copy moveto
      2 copy  vpt 90 270 arc closepath fill
              vpt 0 360 arc closepath } bind def
/C7 { BL [] 0 setdash 2 copy moveto
      2 copy  vpt 0 270 arc closepath fill
              vpt 0 360 arc closepath } bind def
/C8 { BL [] 0 setdash 2 copy moveto
      2 copy vpt 270 360 arc closepath fill
              vpt 0 360 arc closepath } bind def
/C9 { BL [] 0 setdash 2 copy moveto
      2 copy  vpt 270 450 arc closepath fill
              vpt 0 360 arc closepath } bind def
/C10 { BL [] 0 setdash 2 copy 2 copy moveto vpt 270 360 arc closepath fill
       2 copy moveto
       2 copy vpt 90 180 arc closepath fill
               vpt 0 360 arc closepath } bind def
/C11 { BL [] 0 setdash 2 copy moveto
       2 copy  vpt 0 180 arc closepath fill
       2 copy moveto
       2 copy  vpt 270 360 arc closepath fill
               vpt 0 360 arc closepath } bind def
/C12 { BL [] 0 setdash 2 copy moveto
       2 copy  vpt 180 360 arc closepath fill
               vpt 0 360 arc closepath } bind def
/C13 { BL [] 0 setdash  2 copy moveto
       2 copy  vpt 0 90 arc closepath fill
       2 copy moveto
       2 copy  vpt 180 360 arc closepath fill
               vpt 0 360 arc closepath } bind def
/C14 { BL [] 0 setdash 2 copy moveto
       2 copy  vpt 90 360 arc closepath fill
               vpt 0 360 arc } bind def
/C15 { BL [] 0 setdash 2 copy vpt 0 360 arc closepath fill
               vpt 0 360 arc closepath } bind def
/Rec   { newpath 4 2 roll moveto 1 index 0 rlineto 0 exch rlineto
       neg 0 rlineto closepath } bind def
/Square { dup Rec } bind def
/Bsquare { vpt sub exch vpt sub exch vpt2 Square } bind def
/S0 { BL [] 0 setdash 2 copy moveto 0 vpt rlineto BL Bsquare } bind def
/S1 { BL [] 0 setdash 2 copy vpt Square fill Bsquare } bind def
/S2 { BL [] 0 setdash 2 copy exch vpt sub exch vpt Square fill Bsquare } bind def
/S3 { BL [] 0 setdash 2 copy exch vpt sub exch vpt2 vpt Rec fill Bsquare } bind def
/S4 { BL [] 0 setdash 2 copy exch vpt sub exch vpt sub vpt Square fill Bsquare } bind def
/S5 { BL [] 0 setdash 2 copy 2 copy vpt Square fill
       exch vpt sub exch vpt sub vpt Square fill Bsquare } bind def
/S6 { BL [] 0 setdash 2 copy exch vpt sub exch vpt sub vpt vpt2 Rec fill Bsquare } bind def
/S7 { BL [] 0 setdash 2 copy exch vpt sub exch vpt sub vpt vpt2 Rec fill
       2 copy vpt Square fill
       Bsquare } bind def
/S8 { BL [] 0 setdash 2 copy vpt sub vpt Square fill Bsquare } bind def
/S9 { BL [] 0 setdash 2 copy vpt sub vpt vpt2 Rec fill Bsquare } bind def
/S10 { BL [] 0 setdash 2 copy vpt sub vpt Square fill 2 copy exch vpt sub exch vpt Square fill
       Bsquare } bind def
/S11 { BL [] 0 setdash 2 copy vpt sub vpt Square fill 2 copy exch vpt sub exch vpt2 vpt Rec fill
       Bsquare } bind def
/S12 { BL [] 0 setdash 2 copy exch vpt sub exch vpt sub vpt2 vpt Rec fill Bsquare } bind def
/S13 { BL [] 0 setdash 2 copy exch vpt sub exch vpt sub vpt2 vpt Rec fill
       2 copy vpt Square fill Bsquare } bind def
/S14 { BL [] 0 setdash 2 copy exch vpt sub exch vpt sub vpt2 vpt Rec fill
       2 copy exch vpt sub exch vpt Square fill Bsquare } bind def
/S15 { BL [] 0 setdash 2 copy Bsquare fill Bsquare } bind def
/D0 { gsave translate 45 rotate 0 0 S0 stroke grestore } bind def
/D1 { gsave translate 45 rotate 0 0 S1 stroke grestore } bind def
/D2 { gsave translate 45 rotate 0 0 S2 stroke grestore } bind def
/D3 { gsave translate 45 rotate 0 0 S3 stroke grestore } bind def
/D4 { gsave translate 45 rotate 0 0 S4 stroke grestore } bind def
/D5 { gsave translate 45 rotate 0 0 S5 stroke grestore } bind def
/D6 { gsave translate 45 rotate 0 0 S6 stroke grestore } bind def
/D7 { gsave translate 45 rotate 0 0 S7 stroke grestore } bind def
/D8 { gsave translate 45 rotate 0 0 S8 stroke grestore } bind def
/D9 { gsave translate 45 rotate 0 0 S9 stroke grestore } bind def
/D10 { gsave translate 45 rotate 0 0 S10 stroke grestore } bind def
/D11 { gsave translate 45 rotate 0 0 S11 stroke grestore } bind def
/D12 { gsave translate 45 rotate 0 0 S12 stroke grestore } bind def
/D13 { gsave translate 45 rotate 0 0 S13 stroke grestore } bind def
/D14 { gsave translate 45 rotate 0 0 S14 stroke grestore } bind def
/D15 { gsave translate 45 rotate 0 0 S15 stroke grestore } bind def
/DiaE { stroke [] 0 setdash vpt add M
  hpt neg vpt neg V hpt vpt neg V
  hpt vpt V hpt neg vpt V closepath stroke } def
/BoxE { stroke [] 0 setdash exch hpt sub exch vpt add M
  0 vpt2 neg V hpt2 0 V 0 vpt2 V
  hpt2 neg 0 V closepath stroke } def
/TriUE { stroke [] 0 setdash vpt 1.12 mul add M
  hpt neg vpt -1.62 mul V
  hpt 2 mul 0 V
  hpt neg vpt 1.62 mul V closepath stroke } def
/TriDE { stroke [] 0 setdash vpt 1.12 mul sub M
  hpt neg vpt 1.62 mul V
  hpt 2 mul 0 V
  hpt neg vpt -1.62 mul V closepath stroke } def
/PentE { stroke [] 0 setdash gsave
  translate 0 hpt M 4 {72 rotate 0 hpt L} repeat
  closepath stroke grestore } def
/CircE { stroke [] 0 setdash 
  hpt 0 360 arc stroke } def
/Opaque { gsave closepath 1 setgray fill grestore 0 setgray closepath } def
/DiaW { stroke [] 0 setdash vpt add M
  hpt neg vpt neg V hpt vpt neg V
  hpt vpt V hpt neg vpt V Opaque stroke } def
/BoxW { stroke [] 0 setdash exch hpt sub exch vpt add M
  0 vpt2 neg V hpt2 0 V 0 vpt2 V
  hpt2 neg 0 V Opaque stroke } def
/TriUW { stroke [] 0 setdash vpt 1.12 mul add M
  hpt neg vpt -1.62 mul V
  hpt 2 mul 0 V
  hpt neg vpt 1.62 mul V Opaque stroke } def
/TriDW { stroke [] 0 setdash vpt 1.12 mul sub M
  hpt neg vpt 1.62 mul V
  hpt 2 mul 0 V
  hpt neg vpt -1.62 mul V Opaque stroke } def
/PentW { stroke [] 0 setdash gsave
  translate 0 hpt M 4 {72 rotate 0 hpt L} repeat
  Opaque stroke grestore } def
/CircW { stroke [] 0 setdash 
  hpt 0 360 arc Opaque stroke } def
/BoxFill { gsave Rec 1 setgray fill grestore } def
/BoxColFill {
  gsave Rec
  /Fillden exch def
  currentrgbcolor
  /ColB exch def /ColG exch def /ColR exch def
  /ColR ColR Fillden mul Fillden sub 1 add def
  /ColG ColG Fillden mul Fillden sub 1 add def
  /ColB ColB Fillden mul Fillden sub 1 add def
  ColR ColG ColB setrgbcolor
  fill grestore } def
%
% PostScript Level 1 Pattern Fill routine
% Usage: x y w h s a XX PatternFill
%	x,y = lower left corner of box to be filled
%	w,h = width and height of box
%	  a = angle in degrees between lines and x-axis
%	 XX = 0/1 for no/yes cross-hatch
%
/PatternFill { gsave /PFa [ 9 2 roll ] def
    PFa 0 get PFa 2 get 2 div add PFa 1 get PFa 3 get 2 div add translate
    PFa 2 get -2 div PFa 3 get -2 div PFa 2 get PFa 3 get Rec
    gsave 1 setgray fill grestore clip
    currentlinewidth 0.5 mul setlinewidth
    /PFs PFa 2 get dup mul PFa 3 get dup mul add sqrt def
    0 0 M PFa 5 get rotate PFs -2 div dup translate
	0 1 PFs PFa 4 get div 1 add floor cvi
	{ PFa 4 get mul 0 M 0 PFs V } for
    0 PFa 6 get ne {
	0 1 PFs PFa 4 get div 1 add floor cvi
	{ PFa 4 get mul 0 2 1 roll M PFs 0 V } for
    } if
    stroke grestore } def
%
/Symbol-Oblique /Symbol findfont [1 0 .167 1 0 0] makefont
dup length dict begin {1 index /FID eq {pop pop} {def} ifelse} forall
currentdict end definefont pop
/MFshow {
   { dup 5 get 3 ge
     { 5 get 3 eq {gsave} {grestore} ifelse }
     {dup dup 0 get findfont exch 1 get scalefont setfont
     [ currentpoint ] exch dup 2 get 0 exch R dup 5 get 2 ne {dup dup 6
     get exch 4 get {show} {stringwidth pop 0 R} ifelse }if dup 5 get 0 eq
     {dup 3 get {2 get neg 0 exch R pop} {pop aload pop M} ifelse} {dup 5
     get 1 eq {dup 2 get exch dup 3 get exch 6 get stringwidth pop -2 div
     dup 0 R} {dup 6 get stringwidth pop -2 div 0 R 6 get
     show 2 index {aload pop M neg 3 -1 roll neg R pop pop} {pop pop pop
     pop aload pop M} ifelse }ifelse }ifelse }
     ifelse }
   forall} bind def
/MFwidth {0 exch {dup 3 get{dup dup 0 get findfont exch 1 get scalefont
     setfont 6 get stringwidth pop add} {pop} ifelse} forall} bind def
/MLshow { currentpoint stroke M
  0 exch R MFshow } bind def
/MRshow { currentpoint stroke M
  exch dup MFwidth neg 3 -1 roll R MFshow } def
/MCshow { currentpoint stroke M
  exch dup MFwidth -2 div 3 -1 roll R MFshow } def
end
%%EndProlog
%%Page: 1 1
gnudict begin
gsave
50 50 translate
0.100 0.100 scale
90 rotate
0 -5040 translate
0 setgray
newpath
(Times-Roman) findfont 200 scalefont setfont
1.000 UL
LTb
820 1660 M
63 0 V
5977 0 R
-63 0 V
stroke
700 1660 M
[ [(Times-Roman) 200.0 0.0 true true 0 (-1)]
] -66.7 MRshow
1.000 UL
LTb
820 1722 M
63 0 V
5977 0 R
-63 0 V
stroke
700 1722 M
[ [(Times-Roman) 200.0 0.0 true true 0 (-0.8)]
] -66.7 MRshow
1.000 UL
LTb
820 1784 M
63 0 V
5977 0 R
-63 0 V
stroke
700 1784 M
[ [(Times-Roman) 200.0 0.0 true true 0 (-0.6)]
] -66.7 MRshow
1.000 UL
LTb
820 1846 M
63 0 V
5977 0 R
-63 0 V
stroke
700 1846 M
[ [(Times-Roman) 200.0 0.0 true true 0 (-0.4)]
] -66.7 MRshow
1.000 UL
LTb
820 1908 M
63 0 V
5977 0 R
-63 0 V
stroke
700 1908 M
[ [(Times-Roman) 200.0 0.0 true true 0 (-0.2)]
] -66.7 MRshow
1.000 UL
LTb
820 1970 M
63 0 V
5977 0 R
-63 0 V
stroke
700 1970 M
[ [(Times-Roman) 200.0 0.0 true true 0 ( 0)]
] -66.7 MRshow
1.000 UL
LTb
820 2032 M
63 0 V
5977 0 R
-63 0 V
stroke
700 2032 M
[ [(Times-Roman) 200.0 0.0 true true 0 ( 0.2)]
] -66.7 MRshow
1.000 UL
LTb
820 2094 M
63 0 V
5977 0 R
-63 0 V
stroke
700 2094 M
[ [(Times-Roman) 200.0 0.0 true true 0 ( 0.4)]
] -66.7 MRshow
1.000 UL
LTb
820 2156 M
63 0 V
5977 0 R
-63 0 V
stroke
700 2156 M
[ [(Times-Roman) 200.0 0.0 true true 0 ( 0.6)]
] -66.7 MRshow
1.000 UL
LTb
820 2218 M
63 0 V
5977 0 R
-63 0 V
stroke
700 2218 M
[ [(Times-Roman) 200.0 0.0 true true 0 ( 0.8)]
] -66.7 MRshow
1.000 UL
LTb
820 2280 M
63 0 V
5977 0 R
-63 0 V
stroke
700 2280 M
[ [(Times-Roman) 200.0 0.0 true true 0 ( 1)]
] -66.7 MRshow
1.000 UL
LTb
820 1660 M
0 63 V
0 557 R
0 -63 V
stroke
820 1460 M
[ [(Times-Roman) 200.0 0.0 true true 0 (-10)]
] -66.7 MCshow
1.000 UL
LTb
2330 1660 M
0 63 V
0 557 R
0 -63 V
stroke
2330 1460 M
[ [(Times-Roman) 200.0 0.0 true true 0 (-5)]
] -66.7 MCshow
1.000 UL
LTb
3840 1660 M
0 63 V
0 557 R
0 -63 V
stroke
3840 1460 M
[ [(Times-Roman) 200.0 0.0 true true 0 ( 0)]
] -66.7 MCshow
1.000 UL
LTb
5350 1660 M
0 63 V
0 557 R
0 -63 V
stroke
5350 1460 M
[ [(Times-Roman) 200.0 0.0 true true 0 ( 5)]
] -66.7 MCshow
1.000 UL
LTb
6860 1660 M
0 63 V
0 557 R
0 -63 V
stroke
6860 1460 M
[ [(Times-Roman) 200.0 0.0 true true 0 ( 10)]
] -66.7 MCshow
1.000 UL
LTb
1.000 UL
LTb
820 1660 M
6040 0 V
0 620 V
-6040 0 V
0 -620 V
1.000 UP
1.000 UL
LT0
LTb
5957 2117 M
(sin\(x\)) Rshow
LT0
6077 2117 M
543 0 V
820 2139 M
61 -56 V
61 -60 V
61 -63 V
61 -62 V
61 -59 V
61 -53 V
61 -47 V
61 -36 V
61 -26 V
61 -15 V
61 -1 V
61 11 V
61 23 V
61 34 V
61 45 V
61 52 V
61 58 V
61 61 V
61 63 V
61 61 V
61 57 V
61 50 V
61 42 V
61 33 V
61 20 V
61 9 V
61 -4 V
61 -17 V
61 -28 V
61 -39 V
61 -48 V
61 -55 V
61 -60 V
61 -62 V
61 -62 V
61 -60 V
61 -54 V
61 -47 V
61 -38 V
61 -27 V
61 -16 V
61 -3 V
61 10 V
61 22 V
61 33 V
61 44 V
61 51 V
61 57 V
61 62 V
62 62 V
61 62 V
61 57 V
61 51 V
61 44 V
61 33 V
61 22 V
61 10 V
61 -3 V
61 -16 V
61 -27 V
61 -38 V
61 -47 V
61 -54 V
61 -60 V
61 -62 V
61 -62 V
61 -60 V
61 -55 V
61 -48 V
61 -39 V
61 -28 V
61 -17 V
61 -4 V
61 9 V
61 20 V
61 33 V
61 42 V
61 50 V
61 57 V
61 61 V
61 63 V
61 61 V
61 58 V
61 52 V
61 45 V
61 34 V
61 23 V
61 11 V
61 -1 V
61 -15 V
61 -26 V
61 -36 V
61 -47 V
61 -53 V
61 -59 V
61 -62 V
61 -63 V
61 -60 V
61 -56 V
1.000 UL
LTb
820 1660 M
6040 0 V
0 620 V
-6040 0 V
0 -620 V
1.000 UP
1.000 UL
LTb
820 2920 M
63 0 V
5977 0 R
-63 0 V
stroke
700 2920 M
[ [(Times-Roman) 200.0 0.0 true true 0 (-1)]
] -66.7 MRshow
1.000 UL
LTb
820 2982 M
63 0 V
5977 0 R
-63 0 V
stroke
700 2982 M
[ [(Times-Roman) 200.0 0.0 true true 0 (-0.8)]
] -66.7 MRshow
1.000 UL
LTb
820 3044 M
63 0 V
5977 0 R
-63 0 V
stroke
700 3044 M
[ [(Times-Roman) 200.0 0.0 true true 0 (-0.6)]
] -66.7 MRshow
1.000 UL
LTb
820 3106 M
63 0 V
5977 0 R
-63 0 V
stroke
700 3106 M
[ [(Times-Roman) 200.0 0.0 true true 0 (-0.4)]
] -66.7 MRshow
1.000 UL
LTb
820 3168 M
63 0 V
5977 0 R
-63 0 V
stroke
700 3168 M
[ [(Times-Roman) 200.0 0.0 true true 0 (-0.2)]
] -66.7 MRshow
1.000 UL
LTb
820 3230 M
63 0 V
5977 0 R
-63 0 V
stroke
700 3230 M
[ [(Times-Roman) 200.0 0.0 true true 0 ( 0)]
] -66.7 MRshow
1.000 UL
LTb
820 3292 M
63 0 V
5977 0 R
-63 0 V
stroke
700 3292 M
[ [(Times-Roman) 200.0 0.0 true true 0 ( 0.2)]
] -66.7 MRshow
1.000 UL
LTb
820 3354 M
63 0 V
5977 0 R
-63 0 V
stroke
700 3354 M
[ [(Times-Roman) 200.0 0.0 true true 0 ( 0.4)]
] -66.7 MRshow
1.000 UL
LTb
820 3416 M
63 0 V
5977 0 R
-63 0 V
stroke
700 3416 M
[ [(Times-Roman) 200.0 0.0 true true 0 ( 0.6)]
] -66.7 MRshow
1.000 UL
LTb
820 3478 M
63 0 V
5977 0 R
-63 0 V
stroke
700 3478 M
[ [(Times-Roman) 200.0 0.0 true true 0 ( 0.8)]
] -66.7 MRshow
1.000 UL
LTb
820 3540 M
63 0 V
5977 0 R
-63 0 V
stroke
700 3540 M
[ [(Times-Roman) 200.0 0.0 true true 0 ( 1)]
] -66.7 MRshow
1.000 UL
LTb
820 2920 M
0 63 V
0 557 R
0 -63 V
stroke
820 2720 M
[ [(Times-Roman) 200.0 0.0 true true 0 (-10)]
] -66.7 MCshow
1.000 UL
LTb
2330 2920 M
0 63 V
0 557 R
0 -63 V
stroke
2330 2720 M
[ [(Times-Roman) 200.0 0.0 true true 0 (-5)]
] -66.7 MCshow
1.000 UL
LTb
3840 2920 M
0 63 V
0 557 R
0 -63 V
stroke
3840 2720 M
[ [(Times-Roman) 200.0 0.0 true true 0 ( 0)]
] -66.7 MCshow
1.000 UL
LTb
5350 2920 M
0 63 V
0 557 R
0 -63 V
stroke
5350 2720 M
[ [(Times-Roman) 200.0 0.0 true true 0 ( 5)]
] -66.7 MCshow
1.000 UL
LTb
6860 2920 M
0 63 V
0 557 R
0 -63 V
stroke
6860 2720 M
[ [(Times-Roman) 200.0 0.0 true true 0 ( 10)]
] -66.7 MCshow
1.000 UL
LTb
1.000 UL
LTb
820 2920 M
6040 0 V
0 620 V
-6040 0 V
0 -620 V
1.000 UP
1.000 UL
LT0
LTb
5957 3377 M
(cos\(x\)) Rshow
LT0
6077 3377 M
543 0 V
820 2970 M
61 -29 V
61 -16 V
61 -5 V
61 8 V
61 21 V
61 32 V
61 42 V
61 50 V
61 57 V
61 61 V
61 63 V
61 61 V
61 58 V
61 52 V
61 45 V
61 34 V
61 24 V
61 11 V
61 -1 V
61 -14 V
61 -26 V
61 -37 V
61 -46 V
61 -53 V
61 -59 V
61 -62 V
61 -63 V
61 -60 V
61 -56 V
61 -48 V
61 -41 V
61 -29 V
61 -18 V
61 -6 V
61 7 V
61 19 V
61 31 V
61 41 V
61 50 V
61 56 V
61 61 V
61 62 V
61 62 V
61 59 V
61 52 V
61 46 V
61 35 V
61 25 V
61 12 V
62 0 V
61 -12 V
61 -25 V
61 -35 V
61 -46 V
61 -52 V
61 -59 V
61 -62 V
61 -62 V
61 -61 V
61 -56 V
61 -50 V
61 -41 V
61 -31 V
61 -19 V
61 -7 V
61 6 V
61 18 V
61 29 V
61 41 V
61 48 V
61 56 V
61 60 V
61 63 V
61 62 V
61 59 V
61 53 V
61 46 V
61 37 V
61 26 V
61 14 V
61 1 V
61 -11 V
61 -24 V
61 -34 V
61 -45 V
61 -52 V
61 -58 V
61 -61 V
61 -63 V
61 -61 V
61 -57 V
61 -50 V
61 -42 V
61 -32 V
61 -21 V
61 -8 V
61 5 V
61 16 V
61 29 V
1.000 UL
LTb
820 2920 M
6040 0 V
0 620 V
-6040 0 V
0 -620 V
1.000 UP
1.000 UL
LTb
700 4180 M
63 0 V
6097 0 R
-63 0 V
stroke
580 4180 M
[ [(Times-Roman) 200.0 0.0 true true 0 (-30)]
] -66.7 MRshow
1.000 UL
LTb
700 4283 M
63 0 V
6097 0 R
-63 0 V
stroke
580 4283 M
[ [(Times-Roman) 200.0 0.0 true true 0 (-20)]
] -66.7 MRshow
1.000 UL
LTb
700 4387 M
63 0 V
6097 0 R
-63 0 V
stroke
580 4387 M
[ [(Times-Roman) 200.0 0.0 true true 0 (-10)]
] -66.7 MRshow
1.000 UL
LTb
700 4490 M
63 0 V
6097 0 R
-63 0 V
stroke
580 4490 M
[ [(Times-Roman) 200.0 0.0 true true 0 ( 0)]
] -66.7 MRshow
1.000 UL
LTb
700 4593 M
63 0 V
6097 0 R
-63 0 V
stroke
580 4593 M
[ [(Times-Roman) 200.0 0.0 true true 0 ( 10)]
] -66.7 MRshow
1.000 UL
LTb
700 4697 M
63 0 V
6097 0 R
-63 0 V
stroke
580 4697 M
[ [(Times-Roman) 200.0 0.0 true true 0 ( 20)]
] -66.7 MRshow
1.000 UL
LTb
700 4800 M
63 0 V
6097 0 R
-63 0 V
stroke
580 4800 M
[ [(Times-Roman) 200.0 0.0 true true 0 ( 30)]
] -66.7 MRshow
1.000 UL
LTb
700 4180 M
0 63 V
0 557 R
0 -63 V
stroke
700 3980 M
[ [(Times-Roman) 200.0 0.0 true true 0 (-10)]
] -66.7 MCshow
1.000 UL
LTb
2240 4180 M
0 63 V
0 557 R
0 -63 V
stroke
2240 3980 M
[ [(Times-Roman) 200.0 0.0 true true 0 (-5)]
] -66.7 MCshow
1.000 UL
LTb
3780 4180 M
0 63 V
0 557 R
0 -63 V
stroke
3780 3980 M
[ [(Times-Roman) 200.0 0.0 true true 0 ( 0)]
] -66.7 MCshow
1.000 UL
LTb
5320 4180 M
0 63 V
0 557 R
0 -63 V
stroke
5320 3980 M
[ [(Times-Roman) 200.0 0.0 true true 0 ( 5)]
] -66.7 MCshow
1.000 UL
LTb
6860 4180 M
0 63 V
0 557 R
0 -63 V
stroke
6860 3980 M
[ [(Times-Roman) 200.0 0.0 true true 0 ( 10)]
] -66.7 MCshow
1.000 UL
LTb
1.000 UL
LTb
700 4180 M
6160 0 V
0 620 V
-6160 0 V
0 -620 V
1.000 UP
1.000 UL
LT0
LTb
5957 4637 M
(tan\(x\)) Rshow
LT0
6077 4637 M
543 0 V
700 4483 M
62 3 V
62 2 V
63 2 V
62 2 V
62 3 V
62 3 V
63 4 V
62 6 V
62 12 V
62 52 V
62 -217 V
63 99 V
62 16 V
62 7 V
62 5 V
63 3 V
62 2 V
62 2 V
62 2 V
62 2 V
63 3 V
62 3 V
62 5 V
62 8 V
63 21 V
62 251 V
62 -355 V
62 34 V
62 11 V
63 5 V
62 4 V
62 3 V
62 2 V
63 2 V
62 2 V
62 3 V
62 2 V
62 4 V
63 6 V
62 11 V
62 42 V
62 -256 V
63 147 V
62 18 V
62 8 V
62 4 V
62 3 V
63 3 V
62 2 V
62 2 V
62 2 V
63 3 V
62 3 V
62 4 V
62 8 V
62 18 V
63 147 V
62 -256 V
62 42 V
62 11 V
63 6 V
62 4 V
62 2 V
62 3 V
62 2 V
63 2 V
62 2 V
62 3 V
62 4 V
63 5 V
62 11 V
62 34 V
62 -355 V
62 251 V
63 21 V
62 8 V
62 5 V
62 3 V
63 3 V
62 2 V
62 2 V
62 2 V
62 2 V
63 3 V
62 5 V
62 7 V
62 16 V
63 99 V
62 -217 V
62 52 V
62 12 V
62 6 V
63 4 V
62 3 V
62 3 V
62 2 V
63 2 V
62 2 V
62 3 V
1.000 UL
LTb
700 4180 M
6160 0 V
0 620 V
-6160 0 V
0 -620 V
1.000 UP
stroke
grestore
end
showpage
%%Trailer
%%DocumentFonts: Times-Roman
%%Pages: 1
