kdectest	14472947	4.52254e+34	1.65675e+34
kdectest	14472952	4.52254e+34	1.65675e+34
kdectest	14472957	4.52254e+34	1.65675e+34
kdectest	14472962	4.52254e+34	1.65675e+34
kdectest	14472967	4.52254e+34	1.65675e+34
kdectest	14472972	4.52254e+34	1.65675e+34
kdectest	14472977	4.52254e+34	1.65675e+34
kdectest	14472982	4.52254e+34	1.65675e+34
kdectest	14472987	4.52254e+34	1.65675e+34
kdectest	14472992	4.52254e+34	1.65675e+34
kdectest	14472997	4.52254e+34	1.65675e+34
kdectest	14473002	4.52254e+34	1.65675e+34
kdectest	14473007	4.52254e+34	1.65672e+34
kdectest	14473012	4.52254e+34	1.65672e+34
kdectest	14473017	4.52254e+34	1.65672e+34
kdectest	14473022	4.52254e+34	1.65672e+34
kdectest	14473027	4.52254e+34	1.65672e+34
kdectest	14473032	4.52254e+34	1.65672e+34
kdectest	14473037	4.52254e+34	1.65672e+34
kdectest	14473042	4.52254e+34	1.65672e+34
kdectest	14473047	4.52254e+34	1.65672e+34
kdectest	14473052	4.52254e+34	1.65672e+34
kdectest	14473057	4.52254e+34	1.65672e+34
kdectest	14473062	4.52254e+34	1.65672e+34
kdectest	14473067	4.52254e+34	1.65672e+34
kdectest	14473072	4.52254e+34	1.65672e+34
kdectest	14473077	4.52254e+34	1.65672e+34
kdectest	14473082	4.52254e+34	1.65672e+34
kdectest	14473087	4.52254e+34	1.65672e+34
kdectest	14473092	4.52254e+34	1.65672e+34
kdectest	14473097	4.52254e+34	1.65672e+34
kdectest	14473102	4.52254e+34	1.65672e+34
kdectest	14473107	4.52254e+34	1.65672e+34
kdectest	14473112	4.52254e+34	1.65672e+34
kdectest	14473117	4.51901e+34	1.65309e+34
kdectest	14473122	4.51901e+34	1.65309e+34
kdectest	14473127	4.51901e+34	1.65308e+34
kdectest	14473132	4.51901e+34	1.65308e+34
kdectest	14473137	4.51901e+34	1.65308e+34
kdectest	14473142	4.51901e+34	1.65308e+34
kdectest	14473147	4.51901e+34	1.65308e+34
kdectest	14473152	4.51901e+34	1.65308e+34
kdectest	14473157	4.51901e+34	1.65308e+34
kdectest	14473162	4.52636e+34	1.6476e+34
kdectest	14473167	4.52636e+34	1.6476e+34
kdectest	14473172	4.52636e+34	1.6476e+34
kdectest	14473177	4.52636e+34	1.6476e+34
kdectest	14473182	4.52548e+34	1.64816e+34
kdectest	14473187	4.52498e+34	1.66196e+34
kdectest	14473192	4.52498e+34	1.66196e+34
kdectest	14473197	4.52548e+34	1.64816e+34
kdectest	14473202	4.52537e+34	1.66197e+34
kdectest	14473207	4.52537e+34	1.66197e+34
kdectest	14473212	4.5255e+34	1.64943e+34
kdectest	14473217	4.52548e+34	1.64816e+34
kdectest	14473222	4.52547e+34	1.64816e+34
kdectest	14473227	4.52547e+34	1.64816e+34
kdectest	14473232	4.52537e+34	1.66197e+34
kdectest	14473237	4.52537e+34	1.66197e+34
kdectest	14473242	4.52537e+34	1.66197e+34
kdectest	14473247	4.5254e+34	1.65882e+34
kdectest	14473252	4.52559e+34	1.66269e+34
kdectest	14473257	4.5254e+34	1.65882e+34
kdectest	14473262	4.5254e+34	1.65882e+34
kdectest	14473267	4.52559e+34	1.66269e+34
kdectest	14473272	4.52559e+34	1.66269e+34
kdectest	14473277	4.5243e+34	1.65118e+34
kdectest	14473282	4.5243e+34	1.65119e+34
kdectest	14473287	4.5243e+34	1.65119e+34
kdectest	14473292	4.52349e+34	1.6551e+34
kdectest	14473297	4.5243e+34	1.65119e+34
kdectest	14473302	4.52349e+34	1.6551e+34
kdectest	14473307	4.5243e+34	1.65119e+34
kdectest	14473312	4.5243e+34	1.65119e+34
kdectest	14473317	4.52408e+34	1.66334e+34
kdectest	14473322	4.52408e+34	1.66334e+34
kdectest	14473327	4.52408e+34	1.66334e+34
kdectest	14473332	4.52408e+34	1.66334e+34
kdectest	14473337	4.52408e+34	1.66334e+34
kdectest	14473342	4.52408e+34	1.66334e+34
kdectest	14473347	4.52408e+34	1.66334e+34
kdectest	14473352	4.52408e+34	1.66334e+34
kdectest	14473357	4.52408e+34	1.66334e+34
kdectest	14473362	4.52435e+34	1.66419e+34
kdectest	14473367	4.52145e+34	1.66243e+34
kdectest	14473372	4.52145e+34	1.66243e+34
kdectest	14473377	4.52145e+34	1.66243e+34
kdectest	14473382	4.52145e+34	1.66243e+34
kdectest	14473387	4.52227e+34	1.6553e+34
kdectest	14473392	4.52236e+34	1.65457e+34
kdectest	14473397	4.52236e+34	1.65458e+34
kdectest	14473402	4.52236e+34	1.65463e+34
kdectest	14473407	4.52225e+34	1.65521e+34
kdectest	14473412	4.52225e+34	1.65521e+34
kdectest	14473417	4.52225e+34	1.65521e+34
kdectest	14473422	4.52225e+34	1.65521e+34
kdectest	14473427	4.52236e+34	1.65464e+34
kdectest	14473432	4.52236e+34	1.65464e+34
kdectest	14473437	4.52236e+34	1.65464e+34
kdectest	14473442	4.52236e+34	1.65464e+34
kdectest	14473447	4.52236e+34	1.65464e+34
kdectest	14473452	4.52236e+34	1.65464e+34
kdectest	14473457	4.52236e+34	1.65464e+34
kdectest	14473462	4.51798e+34	1.66422e+34
kdectest	14473467	4.51798e+34	1.66422e+34
kdectest	14473472	4.51981e+34	1.67597e+34
kdectest	14473477	4.51981e+34	1.67597e+34
kdectest	14473482	4.51981e+34	1.67597e+34
kdectest	14473487	4.51981e+34	1.67597e+34
kdectest	14473492	4.51981e+34	1.67597e+34
kdectest	14473497	4.51951e+34	1.68059e+34
kdectest	14473502	4.51951e+34	1.68059e+34
kdectest	14473507	4.51809e+34	1.67383e+34
kdectest	14473512	4.51809e+34	1.67383e+34
kdectest	14473517	4.51809e+34	1.67383e+34
kdectest	14473522	4.51809e+34	1.67383e+34
kdectest	14473527	4.51809e+34	1.67383e+34
kdectest	14473532	4.51809e+34	1.67383e+34
kdectest	14473537	4.51809e+34	1.67383e+34
kdectest	14473542	4.51809e+34	1.67383e+34
kdectest	14473547	4.51809e+34	1.67383e+34
kdectest	14473552	4.51809e+34	1.67383e+34
kdectest	14473557	4.51809e+34	1.67383e+34
kdectest	14473562	4.52372e+34	1.6584e+34
kdectest	14473567	4.52386e+34	1.65796e+34
kdectest	14473572	4.5246e+34	1.66075e+34
kdectest	14473577	4.52409e+34	1.66053e+34
kdectest	14473582	4.52409e+34	1.66053e+34
kdectest	14473587	4.52292e+34	1.66012e+34
kdectest	14473592	4.52292e+34	1.66012e+34
kdectest	14473597	4.52292e+34	1.66012e+34
kdectest	14473602	4.52292e+34	1.66012e+34
kdectest	14473607	4.52203e+34	1.65908e+34
kdectest	14473612	4.52203e+34	1.65908e+34
kdectest	14473617	4.52203e+34	1.65908e+34
kdectest	14473622	4.52203e+34	1.65908e+34
kdectest	14473627	4.52203e+34	1.65908e+34
kdectest	14473632	4.52203e+34	1.65908e+34
kdectest	14473637	4.52318e+34	1.65664e+34
kdectest	14473642	4.52318e+34	1.65664e+34
kdectest	14473647	4.52318e+34	1.65664e+34
kdectest	14473652	4.52318e+34	1.65664e+34
kdectest	14473657	4.52318e+34	1.65664e+34
kdectest	14473662	4.52351e+34	1.65693e+34
kdectest	14473667	4.52351e+34	1.65693e+34
kdectest	14473672	4.52351e+34	1.65693e+34
kdectest	14473677	4.52351e+34	1.65693e+34
kdectest	14473682	4.52421e+34	1.66386e+34
kdectest	14473687	4.52421e+34	1.66386e+34
kdectest	14473692	4.52421e+34	1.66386e+34
kdectest	14473697	4.52421e+34	1.66386e+34
kdectest	14473702	4.52421e+34	1.66386e+34
kdectest	14473707	4.52421e+34	1.66386e+34
kdectest	14473712	4.52284e+34	1.66151e+34
kdectest	14473717	4.52313e+34	1.66241e+34
kdectest	14473722	4.52313e+34	1.66241e+34
kdectest	14473727	4.52313e+34	1.66241e+34
kdectest	14473732	4.52313e+34	1.66241e+34
kdectest	14473737	4.52313e+34	1.66241e+34
kdectest	14473742	4.52313e+34	1.66241e+34
kdectest	14473747	4.52313e+34	1.66241e+34
kdectest	14473752	4.52313e+34	1.66241e+34
kdectest	14473757	4.52313e+34	1.66241e+34
kdectest	14473762	4.52313e+34	1.66241e+34
kdectest	14473767	4.52313e+34	1.66241e+34
kdectest	14473772	4.5222e+34	1.66958e+34
kdectest	14473777	4.52217e+34	1.6714e+34
kdectest	14473782	4.52217e+34	1.6714e+34
kdectest	14473787	4.52217e+34	1.6714e+34
kdectest	14473792	4.52252e+34	1.66043e+34
kdectest	14473797	4.52217e+34	1.6714e+34
kdectest	14473802	4.52252e+34	1.66044e+34
kdectest	14473807	4.52217e+34	1.67141e+34
kdectest	14473812	4.52217e+34	1.67141e+34
kdectest	14473817	4.52391e+34	1.66121e+34
kdectest	14473822	4.52217e+34	1.67141e+34
kdectest	14473827	4.52217e+34	1.67141e+34
kdectest	14473832	4.52237e+34	1.67214e+34
kdectest	14473837	4.52412e+34	1.66445e+34
kdectest	14473842	4.52312e+34	1.6716e+34
kdectest	14473847	4.52312e+34	1.6716e+34
kdectest	14473852	4.52261e+34	1.67202e+34
kdectest	14473857	4.52199e+34	1.66374e+34
kdectest	14473862	4.52199e+34	1.66374e+34
kdectest	14473867	4.52199e+34	1.66374e+34
kdectest	14473872	4.52199e+34	1.66374e+34
kdectest	14473877	4.52199e+34	1.66374e+34
kdectest	14473882	4.5271e+34	1.63587e+34
kdectest	14473887	4.52345e+34	1.64463e+34
kdectest	14473892	4.52345e+34	1.64463e+34
kdectest	14473897	4.52528e+34	1.64046e+34
kdectest	14473902	4.52528e+34	1.64046e+34
kdectest	14473907	4.52059e+34	1.66875e+34
kdectest	14473912	4.52528e+34	1.64046e+34
kdectest	14473917	4.52279e+34	1.66063e+34
kdectest	14473922	4.52279e+34	1.66065e+34
kdectest	14473927	4.52279e+34	1.66065e+34
kdectest	14473932	4.52162e+34	1.64409e+34
kdectest	14473937	4.52061e+34	1.64858e+34
kdectest	14473942	4.52061e+34	1.64858e+34
kdectest	14473947	4.52132e+34	1.64596e+34
kdectest	14473952	4.52132e+34	1.64596e+34
kdectest	14473957	4.52132e+34	1.64596e+34
kdectest	14473962	4.52132e+34	1.64596e+34
kdectest	14473967	4.52225e+34	1.65213e+34
kdectest	14473972	4.52311e+34	1.65936e+34
kdectest	14473977	4.52311e+34	1.65936e+34
kdectest	14473982	4.52311e+34	1.65936e+34
kdectest	14473987	4.52311e+34	1.65936e+34
kdectest	14473992	4.52311e+34	1.65936e+34
kdectest	14473997	4.52307e+34	1.66513e+34
kdectest	14474002	4.52307e+34	1.66513e+34
kdectest	14474007	4.52307e+34	1.66513e+34
kdectest	14474012	4.52307e+34	1.66513e+34
kdectest	14474017	4.52307e+34	1.66513e+34
kdectest	14474022	4.52307e+34	1.66513e+34
kdectest	14474027	4.52307e+34	1.66513e+34
kdectest	14474032	4.52307e+34	1.66513e+34
kdectest	14474037	4.52307e+34	1.66513e+34
kdectest	14474042	4.52307e+34	1.66513e+34
kdectest	14474047	4.52307e+34	1.66513e+34
kdectest	14474052	4.52307e+34	1.66513e+34
kdectest	14474057	4.52307e+34	1.66513e+34
kdectest	14474062	4.52232e+34	1.66356e+34
kdectest	14474067	4.52232e+34	1.66356e+34
kdectest	14474072	4.52232e+34	1.66356e+34
kdectest	14474077	4.52232e+34	1.66356e+34
kdectest	14474082	4.52206e+34	1.66327e+34
kdectest	14474087	4.52206e+34	1.66327e+34
kdectest	14474092	4.52307e+34	1.66513e+34
kdectest	14474097	4.52307e+34	1.66513e+34
kdectest	14474102	4.52307e+34	1.66512e+34
kdectest	14474107	4.52334e+34	1.6482e+34
kdectest	14474112	4.52334e+34	1.6482e+34
kdectest	14474117	4.52412e+34	1.65308e+34
kdectest	14474122	4.52412e+34	1.65308e+34
kdectest	14474127	4.52412e+34	1.65308e+34
kdectest	14474132	4.52412e+34	1.65308e+34
kdectest	14474137	4.52412e+34	1.65308e+34
kdectest	14474142	4.52412e+34	1.65308e+34
kdectest	14474147	4.52412e+34	1.65308e+34
kdectest	14474152	4.52412e+34	1.65308e+34
kdectest	14474157	4.52412e+34	1.65308e+34
kdectest	14474162	4.52412e+34	1.65308e+34
kdectest	14474167	4.52412e+34	1.65308e+34
kdectest	14474172	4.52412e+34	1.65308e+34
kdectest	14474177	4.52412e+34	1.65308e+34
kdectest	14474182	4.52412e+34	1.65308e+34
kdectest	14474187	4.52412e+34	1.65308e+34
kdectest	14474192	4.52375e+34	1.65162e+34
kdectest	14474197	4.52375e+34	1.65161e+34
kdectest	14474202	4.52375e+34	1.65161e+34
kdectest	14474207	4.52375e+34	1.65161e+34
kdectest	14474212	4.52519e+34	1.65036e+34
kdectest	14474217	4.52519e+34	1.65036e+34
kdectest	14474222	4.52519e+34	1.65036e+34
kdectest	14474227	4.52519e+34	1.65036e+34
kdectest	14474232	4.52519e+34	1.65036e+34
kdectest	14474237	4.52519e+34	1.65036e+34
kdectest	14474242	4.52519e+34	1.65036e+34
kdectest	14474247	4.52519e+34	1.65036e+34
kdectest	14474252	4.52561e+34	1.65275e+34
kdectest	14474257	4.52519e+34	1.65036e+34
kdectest	14474262	4.52136e+34	1.66756e+34
kdectest	14474267	4.52426e+34	1.66111e+34
kdectest	14474272	4.52784e+34	1.66033e+34
kdectest	14474277	4.52784e+34	1.66033e+34
kdectest	14474282	4.52784e+34	1.66033e+34
kdectest	14474287	4.52784e+34	1.66033e+34
kdectest	14474292	4.52784e+34	1.66033e+34
kdectest	14474297	4.52538e+34	1.66464e+34
kdectest	14474302	4.52538e+34	1.66464e+34
kdectest	14474307	4.52637e+34	1.66254e+34
kdectest	14474312	4.52637e+34	1.66254e+34
kdectest	14474317	4.52637e+34	1.66254e+34
kdectest	14474322	4.52637e+34	1.66254e+34
kdectest	14474327	4.52638e+34	1.66254e+34
kdectest	14474332	4.52494e+34	1.66207e+34
kdectest	14474337	4.52588e+34	1.66425e+34
kdectest	14474342	4.52434e+34	1.66201e+34
kdectest	14474347	4.52573e+34	1.66305e+34
kdectest	14474352	4.52573e+34	1.66305e+34
kdectest	14474357	4.52558e+34	1.66824e+34
kdectest	14474362	4.52542e+34	1.66863e+34
kdectest	14474367	4.52588e+34	1.66889e+34
kdectest	14474372	4.52521e+34	1.66626e+34
kdectest	14474377	4.52524e+34	1.66276e+34
kdectest	14474382	4.52564e+34	1.66488e+34
kdectest	14474387	4.52564e+34	1.66488e+34
kdectest	14474392	4.52564e+34	1.66488e+34
kdectest	14474397	4.52571e+34	1.66432e+34
kdectest	14474402	4.52515e+34	1.6598e+34
kdectest	14474407	4.5249e+34	1.66103e+34
kdectest	14474412	4.5249e+34	1.66103e+34
kdectest	14474417	4.5249e+34	1.66103e+34
kdectest	14474422	4.52596e+34	1.66358e+34
kdectest	14474427	4.52596e+34	1.66358e+34
kdectest	14474432	4.52597e+34	1.66358e+34
kdectest	14474437	4.52597e+34	1.66358e+34
kdectest	14474442	4.52366e+34	1.65836e+34
kdectest	14474447	4.52659e+34	1.66416e+34
kdectest	14474452	4.52494e+34	1.66699e+34
kdectest	14474457	4.52506e+34	1.66721e+34
kdectest	14474462	4.52561e+34	1.66399e+34
kdectest	14474467	4.52561e+34	1.66399e+34
kdectest	14474472	4.52561e+34	1.66399e+34
kdectest	14474477	4.52561e+34	1.66399e+34
kdectest	14474482	4.52561e+34	1.66399e+34
kdectest	14474487	4.52561e+34	1.66399e+34
kdectest	14474492	4.52561e+34	1.66399e+34
kdectest	14474497	4.52561e+34	1.66399e+34
kdectest	14474502	4.52609e+34	1.68142e+34
kdectest	14474507	4.52609e+34	1.68142e+34
kdectest	14474512	4.52609e+34	1.68142e+34
kdectest	14474517	4.52561e+34	1.66399e+34
kdectest	14474522	4.52561e+34	1.66399e+34
kdectest	14474527	4.52561e+34	1.66399e+34
kdectest	14474532	4.52607e+34	1.68097e+34
kdectest	14474537	4.52561e+34	1.66399e+34
kdectest	14474542	4.52607e+34	1.68097e+34
kdectest	14474547	4.52607e+34	1.68097e+34
kdectest	14474552	4.52607e+34	1.68097e+34
kdectest	14474557	4.52561e+34	1.66399e+34
kdectest	14474562	4.52607e+34	1.68097e+34
kdectest	14474567	4.52607e+34	1.68097e+34
kdectest	14474572	4.52609e+34	1.68141e+34
kdectest	14474577	4.52567e+34	1.67616e+34
kdectest	14474582	4.52567e+34	1.67616e+34
kdectest	14474587	4.52567e+34	1.67616e+34
kdectest	14474592	4.52567e+34	1.67619e+34
kdectest	14474597	4.52567e+34	1.6762e+34
kdectest	14474602	4.52567e+34	1.67617e+34
kdectest	14474607	4.52567e+34	1.67617e+34
kdectest	14474612	4.52566e+34	1.6762e+34
kdectest	14474617	4.52566e+34	1.67617e+34
kdectest	14474622	4.52667e+34	1.68258e+34
kdectest	14474627	4.52667e+34	1.68255e+34
kdectest	14474632	4.52732e+34	1.683e+34
kdectest	14474637	4.52732e+34	1.683e+34
kdectest	14474642	4.52732e+34	1.68301e+34
kdectest	14474647	4.52732e+34	1.68301e+34
kdectest	14474652	4.52732e+34	1.68301e+34
kdectest	14474657	4.52732e+34	1.68301e+34
kdectest	14474662	4.52732e+34	1.68301e+34
kdectest	14474667	4.52732e+34	1.68301e+34
kdectest	14474672	4.52732e+34	1.68301e+34
kdectest	14474677	4.52698e+34	1.68425e+34
kdectest	14474682	4.52698e+34	1.68425e+34
kdectest	14474687	4.52685e+34	1.67772e+34
kdectest	14474692	4.52685e+34	1.67772e+34
kdectest	14474697	4.52685e+34	1.67772e+34
kdectest	14474702	4.52685e+34	1.67772e+34
kdectest	14474707	4.52376e+34	1.67423e+34
kdectest	14474712	4.52376e+34	1.67423e+34
kdectest	14474717	4.52376e+34	1.67423e+34
kdectest	14474722	4.52376e+34	1.6742e+34
kdectest	14474727	4.52376e+34	1.6742e+34
kdectest	14474732	4.52376e+34	1.6742e+34
kdectest	14474737	4.52376e+34	1.6742e+34
kdectest	14474742	4.52297e+34	1.67447e+34
kdectest	14474747	4.52297e+34	1.67447e+34
kdectest	14474752	4.52297e+34	1.67447e+34
kdectest	14474757	4.52376e+34	1.6742e+34
kdectest	14474762	4.52297e+34	1.67447e+34
kdectest	14474767	4.52297e+34	1.67447e+34
kdectest	14474772	4.52297e+34	1.67447e+34
kdectest	14474777	4.52297e+34	1.67447e+34
kdectest	14474782	4.52305e+34	1.68046e+34
kdectest	14474787	4.52305e+34	1.68047e+34
kdectest	14474792	4.52376e+34	1.67997e+34
kdectest	14474797	4.52376e+34	1.67997e+34
kdectest	14474802	4.52376e+34	1.67997e+34
kdectest	14474807	4.52376e+34	1.67997e+34
kdectest	14474812	4.52376e+34	1.67997e+34
kdectest	14474817	4.5238e+34	1.67984e+34
kdectest	14474822	4.5238e+34	1.67984e+34
kdectest	14474827	4.5238e+34	1.67983e+34
kdectest	14474832	4.5238e+34	1.67983e+34
kdectest	14474837	4.5238e+34	1.67983e+34
kdectest	14474842	4.5238e+34	1.67983e+34
kdectest	14474847	4.52299e+34	1.66745e+34
kdectest	14474852	4.52299e+34	1.66745e+34
kdectest	14474857	4.5238e+34	1.67984e+34
kdectest	14474862	4.52269e+34	1.67813e+34
kdectest	14474867	4.52269e+34	1.67813e+34
kdectest	14474872	4.52018e+34	1.67059e+34
kdectest	14474877	4.52018e+34	1.67059e+34
kdectest	14474882	4.52018e+34	1.67059e+34
kdectest	14474887	4.52018e+34	1.67059e+34
kdectest	14474892	4.52018e+34	1.67059e+34
kdectest	14474897	4.52018e+34	1.67059e+34
kdectest	14474902	4.52015e+34	1.68165e+34
kdectest	14474907	4.52015e+34	1.68165e+34
kdectest	14474912	4.52015e+34	1.68165e+34
kdectest	14474917	4.52015e+34	1.68165e+34
kdectest	14474922	4.52329e+34	1.66017e+34
kdectest	14474927	4.52329e+34	1.66017e+34
kdectest	14474932	4.52329e+34	1.66017e+34
kdectest	14474937	4.52329e+34	1.66017e+34
kdectest	14474942	4.52329e+34	1.66017e+34
