ksd4	2.5	9.00668e+32	6.04591e+32
ksd4	2.52	9.64256e+32	6.51156e+32
ksd4	2.54	1.03752e+33	6.73823e+32
ksd4	2.56	1.11727e+33	7.14975e+32
ksd4	2.58	1.21531e+33	7.84911e+32
ksd4	2.6	1.32241e+33	8.31373e+32
ksd4	2.62	1.44746e+33	9.03296e+32
ksd4	2.64	1.59226e+33	9.72343e+32
ksd4	2.66	1.76426e+33	1.04582e+33
ksd4	2.68	1.9764e+33	1.16631e+33
ksd4	2.7	2.22374e+33	1.27573e+33
ksd4	2.72	2.52926e+33	1.41787e+33
ksd4	2.74	2.90474e+33	1.54568e+33
ksd4	2.76	3.37769e+33	1.78496e+33
ksd4	2.78	3.98022e+33	2.00847e+33
ksd4	2.8	4.76165e+33	2.31383e+33
ksd4	2.82	5.78083e+33	2.69496e+33
ksd4	2.84	7.13628e+33	3.19939e+33
ksd4	2.86	9.02599e+33	3.8685e+33
ksd4	2.88	1.16685e+34	4.74826e+33
ksd4	2.9	1.55952e+34	6.15522e+33
ksd4	2.92	2.18682e+34	8.42472e+33
ksd4	2.94	3.19624e+34	1.18608e+34
ksd4	2.96	4.55419e+34	1.67134e+34
ksd4	2.98	3.81849e+34	1.4259e+34
ksd4	3.0	2.54191e+34	9.60122e+33
ksd4	3.02	1.78994e+34	6.89726e+33
ksd4	3.04	1.32894e+34	5.42313e+33
ksd4	3.06	1.01805e+34	4.23211e+33
ksd4	3.08	7.98709e+33	3.53476e+33
ksd4	3.1	6.42556e+33	2.91406e+33
ksd4	3.12	5.27148e+33	2.49416e+33
ksd4	3.14	4.37892e+33	2.1646e+33
ksd4	3.16	3.70615e+33	1.892e+33
ksd4	3.18	3.18121e+33	1.6827e+33
ksd4	3.2	2.74603e+33	1.51217e+33
ksd4	3.22	2.40198e+33	1.36274e+33
ksd4	3.24	2.12008e+33	1.2095e+33
ksd4	3.26	1.89159e+33	1.10427e+33
ksd4	3.28	1.69983e+33	1.03092e+33
ksd4	3.3	1.53904e+33	9.39122e+32
ksd4	3.32	1.40195e+33	8.76192e+32
ksd4	3.34	1.28921e+33	8.14718e+32
ksd4	3.36	1.18334e+33	7.68543e+32
ksd4	3.38	1.09242e+33	7.04535e+32
ksd4	3.4	1.01489e+33	6.7321e+32
ksd4	3.42	9.45251e+32	6.35113e+32
ksd4	3.44	8.8571e+32	6.02106e+32
ksd4	3.46	8.32185e+32	5.66829e+32
ksd4	3.48	7.82587e+32	5.39663e+32
