dec1	47436058	4.52374e+34	1.66983e+34
dec1	47436068	4.52436e+34	1.66948e+34
dec1	47436078	4.52436e+34	1.66948e+34
dec1	47436088	4.52436e+34	1.66948e+34
dec1	47436098	4.52436e+34	1.66949e+34
dec1	47436108	4.52436e+34	1.66949e+34
dec1	47436118	4.52436e+34	1.66949e+34
dec1	47436128	4.52436e+34	1.66949e+34
dec1	47436138	4.52436e+34	1.66949e+34
dec1	47436148	4.52436e+34	1.66949e+34
dec1	47436158	4.52267e+34	1.65811e+34
dec1	47436168	4.52267e+34	1.65811e+34
dec1	47436178	4.52216e+34	1.68191e+34
dec1	47436188	4.52216e+34	1.68191e+34
dec1	47436198	4.52397e+34	1.67257e+34
dec1	47436208	4.52397e+34	1.67257e+34
dec1	47436218	4.52397e+34	1.67257e+34
dec1	47436228	4.52216e+34	1.68191e+34
dec1	47436238	4.52397e+34	1.67257e+34
dec1	47436248	4.52216e+34	1.68191e+34
dec1	47436258	4.52249e+34	1.68289e+34
dec1	47436268	4.52216e+34	1.68191e+34
dec1	47436278	4.52397e+34	1.67259e+34
dec1	47436288	4.52397e+34	1.67259e+34
dec1	47436298	4.52397e+34	1.67258e+34
dec1	47436308	4.52312e+34	1.66291e+34
dec1	47436318	4.52324e+34	1.66372e+34
dec1	47436328	4.52397e+34	1.67258e+34
dec1	47436338	4.52218e+34	1.66436e+34
dec1	47436348	4.52655e+34	1.6691e+34
dec1	47436358	4.52592e+34	1.6667e+34
dec1	47436368	4.52298e+34	1.65952e+34
dec1	47436378	4.52298e+34	1.65952e+34
dec1	47436388	4.52298e+34	1.65952e+34
dec1	47436398	4.52298e+34	1.65952e+34
dec1	47436408	4.52298e+34	1.65952e+34
dec1	47436418	4.52298e+34	1.65953e+34
dec1	47436428	4.52295e+34	1.65786e+34
dec1	47436438	4.52295e+34	1.65786e+34
dec1	47436448	4.52295e+34	1.65736e+34
dec1	47436458	4.52295e+34	1.65736e+34
dec1	47436468	4.52295e+34	1.65736e+34
dec1	47436478	4.52295e+34	1.65736e+34
dec1	47436488	4.52295e+34	1.65736e+34
dec1	47436498	4.52295e+34	1.65736e+34
dec1	47436508	4.52295e+34	1.65736e+34
dec1	47436518	4.52227e+34	1.6596e+34
dec1	47436528	4.52227e+34	1.6596e+34
dec1	47436538	4.52227e+34	1.6596e+34
dec1	47436548	4.52227e+34	1.6596e+34
dec1	47436558	4.52227e+34	1.6596e+34
dec1	47436568	4.52227e+34	1.6596e+34
dec1	47436578	4.52227e+34	1.6596e+34
dec1	47436588	4.52227e+34	1.6596e+34
dec1	47436598	4.52227e+34	1.6596e+34
dec1	47436608	4.52227e+34	1.6596e+34
dec1	47436618	4.52227e+34	1.6596e+34
dec1	47436628	4.52227e+34	1.6596e+34
dec1	47436638	4.52227e+34	1.6596e+34
dec1	47436648	4.52227e+34	1.6596e+34
dec1	47436658	4.52227e+34	1.6596e+34
dec1	47436668	4.52227e+34	1.6596e+34
dec1	47436678	4.52277e+34	1.66391e+34
dec1	47436688	4.52227e+34	1.6596e+34
dec1	47436698	4.52227e+34	1.6596e+34
dec1	47436708	4.52227e+34	1.6596e+34
dec1	47436718	4.52277e+34	1.66391e+34
dec1	47436728	4.52277e+34	1.66391e+34
dec1	47436738	4.52162e+34	1.66858e+34
dec1	47436748	4.52181e+34	1.66799e+34
dec1	47436758	4.52181e+34	1.66799e+34
dec1	47436768	4.52162e+34	1.66858e+34
dec1	47436778	4.52217e+34	1.65876e+34
dec1	47436788	4.52202e+34	1.66857e+34
dec1	47436798	4.52384e+34	1.65321e+34
dec1	47436808	4.52202e+34	1.66857e+34
dec1	47436818	4.52148e+34	1.66838e+34
dec1	47436828	4.52252e+34	1.66499e+34
dec1	47436838	4.52252e+34	1.66499e+34
dec1	47436848	4.52252e+34	1.66499e+34
dec1	47436858	4.52252e+34	1.66499e+34
dec1	47436868	4.52252e+34	1.66499e+34
dec1	47436878	4.52252e+34	1.66499e+34
dec1	47436888	4.52252e+34	1.66499e+34
dec1	47436898	4.52252e+34	1.66499e+34
dec1	47436908	4.52252e+34	1.66499e+34
dec1	47436918	4.52252e+34	1.66499e+34
dec1	47436928	4.52252e+34	1.66499e+34
dec1	47436938	4.52165e+34	1.66401e+34
dec1	47436948	4.52336e+34	1.65476e+34
dec1	47436958	4.52315e+34	1.65616e+34
dec1	47436968	4.52326e+34	1.6685e+34
dec1	47436978	4.52326e+34	1.6685e+34
dec1	47436988	4.52386e+34	1.66302e+34
dec1	47436998	4.52332e+34	1.65601e+34
dec1	47437008	4.52193e+34	1.66881e+34
dec1	47437018	4.52313e+34	1.65409e+34
dec1	47437028	4.52193e+34	1.66881e+34
dec1	47437038	4.52696e+34	1.6513e+34
dec1	47437048	4.52193e+34	1.66881e+34
dec1	47437058	4.52263e+34	1.65575e+34
dec1	47437068	4.52263e+34	1.65575e+34
dec1	47437078	4.52197e+34	1.65611e+34
dec1	47437088	4.52197e+34	1.65612e+34
dec1	47437098	4.52197e+34	1.65611e+34
dec1	47437108	4.52594e+34	1.66271e+34
dec1	47437118	4.52132e+34	1.64596e+34
dec1	47437128	4.52132e+34	1.64596e+34
dec1	47437138	4.52132e+34	1.64596e+34
dec1	47437148	4.52132e+34	1.64596e+34
dec1	47437158	4.52132e+34	1.64596e+34
dec1	47437168	4.52132e+34	1.64596e+34
dec1	47437178	4.52132e+34	1.64596e+34
dec1	47437188	4.52132e+34	1.64596e+34
dec1	47437198	4.52132e+34	1.64596e+34
dec1	47437208	4.52132e+34	1.64596e+34
dec1	47437218	4.52132e+34	1.64596e+34
dec1	47437228	4.52061e+34	1.64858e+34
dec1	47437238	4.52061e+34	1.64858e+34
dec1	47437248	4.52132e+34	1.64596e+34
dec1	47437258	4.52132e+34	1.64596e+34
dec1	47437268	4.52148e+34	1.64673e+34
dec1	47437278	4.52148e+34	1.64673e+34
dec1	47437288	4.52148e+34	1.64673e+34
dec1	47437298	4.52148e+34	1.64673e+34
dec1	47437308	4.52148e+34	1.64673e+34
dec1	47437318	4.52061e+34	1.64858e+34
dec1	47437328	4.52061e+34	1.64858e+34
dec1	47437338	4.52585e+34	1.64193e+34
dec1	47437348	4.52585e+34	1.64193e+34
