%!PS-Adobe-2.0 EPSF-2.0
%%Title: magnetsOpt.ps
%%Creator: gnuplot 4.4 patchlevel 0
%%CreationDate: Thu Sep  2 16:57:28 2010
%%DocumentFonts: (atend)
%%BoundingBox: 86 50 806 554
%%EndComments
%%BeginProlog
/gnudict 256 dict def
gnudict begin
%
% The following true/false flags may be edited by hand if desired.
% The unit line width and grayscale image gamma correction may also be changed.
%
/Color true def
/Blacktext false def
/Solid true def
/Dashlength 1 def
/Landscape false def
/Level1 false def
/Rounded false def
/ClipToBoundingBox false def
/TransparentPatterns false def
/gnulinewidth 10.000 def
/userlinewidth gnulinewidth def
/Gamma 1.0 def
%
/vshift -86 def
/dl1 {
  10.0 Dashlength mul mul
  Rounded { currentlinewidth 0.75 mul sub dup 0 le { pop 0.01 } if } if
} def
/dl2 {
  10.0 Dashlength mul mul
  Rounded { currentlinewidth 0.75 mul add } if
} def
/hpt_ 31.5 def
/vpt_ 31.5 def
/hpt hpt_ def
/vpt vpt_ def
Level1 {} {
/SDict 10 dict def
systemdict /pdfmark known not {
  userdict /pdfmark systemdict /cleartomark get put
} if
SDict begin [
  /Title (magnetsOpt.ps)
  /Subject (gnuplot plot)
  /Creator (gnuplot 4.4 patchlevel 0)
  /Author (jvazny)
%  /Producer (gnuplot)
%  /Keywords ()
  /CreationDate (Thu Sep  2 16:57:28 2010)
  /DOCINFO pdfmark
end
} ifelse
/doclip {
  ClipToBoundingBox {
    newpath 86 50 moveto 806 50 lineto 806 554 lineto 86 554 lineto closepath
    clip
  } if
} def
%
% Gnuplot Prolog Version 4.4 (January 2010)
%
%/SuppressPDFMark true def
%
/M {moveto} bind def
/L {lineto} bind def
/R {rmoveto} bind def
/V {rlineto} bind def
/N {newpath moveto} bind def
/Z {closepath} bind def
/C {setrgbcolor} bind def
/f {rlineto fill} bind def
/Gshow {show} def   % May be redefined later in the file to support UTF-8
/vpt2 vpt 2 mul def
/hpt2 hpt 2 mul def
/Lshow {currentpoint stroke M 0 vshift R 
	Blacktext {gsave 0 setgray show grestore} {show} ifelse} def
/Rshow {currentpoint stroke M dup stringwidth pop neg vshift R
	Blacktext {gsave 0 setgray show grestore} {show} ifelse} def
/Cshow {currentpoint stroke M dup stringwidth pop -2 div vshift R 
	Blacktext {gsave 0 setgray show grestore} {show} ifelse} def
/UP {dup vpt_ mul /vpt exch def hpt_ mul /hpt exch def
  /hpt2 hpt 2 mul def /vpt2 vpt 2 mul def} def
/DL {Color {setrgbcolor Solid {pop []} if 0 setdash}
 {pop pop pop 0 setgray Solid {pop []} if 0 setdash} ifelse} def
/BL {stroke userlinewidth 2 mul setlinewidth
	Rounded {1 setlinejoin 1 setlinecap} if} def
/AL {stroke userlinewidth 2 div setlinewidth
	Rounded {1 setlinejoin 1 setlinecap} if} def
/UL {dup gnulinewidth mul /userlinewidth exch def
	dup 1 lt {pop 1} if 10 mul /udl exch def} def
/PL {stroke userlinewidth setlinewidth
	Rounded {1 setlinejoin 1 setlinecap} if} def
% Default Line colors
/LCw {1 1 1} def
/LCb {0 0 0} def
/LCa {0 0 0} def
/LC0 {1 0 0} def
/LC1 {0 1 0} def
/LC2 {0 0 1} def
/LC3 {1 0 1} def
/LC4 {0 1 1} def
/LC5 {1 1 0} def
/LC6 {0 0 0} def
/LC7 {1 0.3 0} def
/LC8 {0.5 0.5 0.5} def
% Default Line Types
/LTw {PL [] 1 setgray} def
/LTb {BL [] LCb DL} def
/LTa {AL [1 udl mul 2 udl mul] 0 setdash LCa setrgbcolor} def
/LT0 {PL [] LC0 DL} def
/LT1 {PL [4 dl1 2 dl2] LC1 DL} def
/LT2 {PL [2 dl1 3 dl2] LC2 DL} def
/LT3 {PL [1 dl1 1.5 dl2] LC3 DL} def
/LT4 {PL [6 dl1 2 dl2 1 dl1 2 dl2] LC4 DL} def
/LT5 {PL [3 dl1 3 dl2 1 dl1 3 dl2] LC5 DL} def
/LT6 {PL [2 dl1 2 dl2 2 dl1 6 dl2] LC6 DL} def
/LT7 {PL [1 dl1 2 dl2 6 dl1 2 dl2 1 dl1 2 dl2] LC7 DL} def
/LT8 {PL [2 dl1 2 dl2 2 dl1 2 dl2 2 dl1 2 dl2 2 dl1 4 dl2] LC8 DL} def
/Pnt {stroke [] 0 setdash gsave 1 setlinecap M 0 0 V stroke grestore} def
/Dia {stroke [] 0 setdash 2 copy vpt add M
  hpt neg vpt neg V hpt vpt neg V
  hpt vpt V hpt neg vpt V closepath stroke
  Pnt} def
/Pls {stroke [] 0 setdash vpt sub M 0 vpt2 V
  currentpoint stroke M
  hpt neg vpt neg R hpt2 0 V stroke
 } def
/Box {stroke [] 0 setdash 2 copy exch hpt sub exch vpt add M
  0 vpt2 neg V hpt2 0 V 0 vpt2 V
  hpt2 neg 0 V closepath stroke
  Pnt} def
/Crs {stroke [] 0 setdash exch hpt sub exch vpt add M
  hpt2 vpt2 neg V currentpoint stroke M
  hpt2 neg 0 R hpt2 vpt2 V stroke} def
/TriU {stroke [] 0 setdash 2 copy vpt 1.12 mul add M
  hpt neg vpt -1.62 mul V
  hpt 2 mul 0 V
  hpt neg vpt 1.62 mul V closepath stroke
  Pnt} def
/Star {2 copy Pls Crs} def
/BoxF {stroke [] 0 setdash exch hpt sub exch vpt add M
  0 vpt2 neg V hpt2 0 V 0 vpt2 V
  hpt2 neg 0 V closepath fill} def
/TriUF {stroke [] 0 setdash vpt 1.12 mul add M
  hpt neg vpt -1.62 mul V
  hpt 2 mul 0 V
  hpt neg vpt 1.62 mul V closepath fill} def
/TriD {stroke [] 0 setdash 2 copy vpt 1.12 mul sub M
  hpt neg vpt 1.62 mul V
  hpt 2 mul 0 V
  hpt neg vpt -1.62 mul V closepath stroke
  Pnt} def
/TriDF {stroke [] 0 setdash vpt 1.12 mul sub M
  hpt neg vpt 1.62 mul V
  hpt 2 mul 0 V
  hpt neg vpt -1.62 mul V closepath fill} def
/DiaF {stroke [] 0 setdash vpt add M
  hpt neg vpt neg V hpt vpt neg V
  hpt vpt V hpt neg vpt V closepath fill} def
/Pent {stroke [] 0 setdash 2 copy gsave
  translate 0 hpt M 4 {72 rotate 0 hpt L} repeat
  closepath stroke grestore Pnt} def
/PentF {stroke [] 0 setdash gsave
  translate 0 hpt M 4 {72 rotate 0 hpt L} repeat
  closepath fill grestore} def
/Circle {stroke [] 0 setdash 2 copy
  hpt 0 360 arc stroke Pnt} def
/CircleF {stroke [] 0 setdash hpt 0 360 arc fill} def
/C0 {BL [] 0 setdash 2 copy moveto vpt 90 450 arc} bind def
/C1 {BL [] 0 setdash 2 copy moveto
	2 copy vpt 0 90 arc closepath fill
	vpt 0 360 arc closepath} bind def
/C2 {BL [] 0 setdash 2 copy moveto
	2 copy vpt 90 180 arc closepath fill
	vpt 0 360 arc closepath} bind def
/C3 {BL [] 0 setdash 2 copy moveto
	2 copy vpt 0 180 arc closepath fill
	vpt 0 360 arc closepath} bind def
/C4 {BL [] 0 setdash 2 copy moveto
	2 copy vpt 180 270 arc closepath fill
	vpt 0 360 arc closepath} bind def
/C5 {BL [] 0 setdash 2 copy moveto
	2 copy vpt 0 90 arc
	2 copy moveto
	2 copy vpt 180 270 arc closepath fill
	vpt 0 360 arc} bind def
/C6 {BL [] 0 setdash 2 copy moveto
	2 copy vpt 90 270 arc closepath fill
	vpt 0 360 arc closepath} bind def
/C7 {BL [] 0 setdash 2 copy moveto
	2 copy vpt 0 270 arc closepath fill
	vpt 0 360 arc closepath} bind def
/C8 {BL [] 0 setdash 2 copy moveto
	2 copy vpt 270 360 arc closepath fill
	vpt 0 360 arc closepath} bind def
/C9 {BL [] 0 setdash 2 copy moveto
	2 copy vpt 270 450 arc closepath fill
	vpt 0 360 arc closepath} bind def
/C10 {BL [] 0 setdash 2 copy 2 copy moveto vpt 270 360 arc closepath fill
	2 copy moveto
	2 copy vpt 90 180 arc closepath fill
	vpt 0 360 arc closepath} bind def
/C11 {BL [] 0 setdash 2 copy moveto
	2 copy vpt 0 180 arc closepath fill
	2 copy moveto
	2 copy vpt 270 360 arc closepath fill
	vpt 0 360 arc closepath} bind def
/C12 {BL [] 0 setdash 2 copy moveto
	2 copy vpt 180 360 arc closepath fill
	vpt 0 360 arc closepath} bind def
/C13 {BL [] 0 setdash 2 copy moveto
	2 copy vpt 0 90 arc closepath fill
	2 copy moveto
	2 copy vpt 180 360 arc closepath fill
	vpt 0 360 arc closepath} bind def
/C14 {BL [] 0 setdash 2 copy moveto
	2 copy vpt 90 360 arc closepath fill
	vpt 0 360 arc} bind def
/C15 {BL [] 0 setdash 2 copy vpt 0 360 arc closepath fill
	vpt 0 360 arc closepath} bind def
/Rec {newpath 4 2 roll moveto 1 index 0 rlineto 0 exch rlineto
	neg 0 rlineto closepath} bind def
/Square {dup Rec} bind def
/Bsquare {vpt sub exch vpt sub exch vpt2 Square} bind def
/S0 {BL [] 0 setdash 2 copy moveto 0 vpt rlineto BL Bsquare} bind def
/S1 {BL [] 0 setdash 2 copy vpt Square fill Bsquare} bind def
/S2 {BL [] 0 setdash 2 copy exch vpt sub exch vpt Square fill Bsquare} bind def
/S3 {BL [] 0 setdash 2 copy exch vpt sub exch vpt2 vpt Rec fill Bsquare} bind def
/S4 {BL [] 0 setdash 2 copy exch vpt sub exch vpt sub vpt Square fill Bsquare} bind def
/S5 {BL [] 0 setdash 2 copy 2 copy vpt Square fill
	exch vpt sub exch vpt sub vpt Square fill Bsquare} bind def
/S6 {BL [] 0 setdash 2 copy exch vpt sub exch vpt sub vpt vpt2 Rec fill Bsquare} bind def
/S7 {BL [] 0 setdash 2 copy exch vpt sub exch vpt sub vpt vpt2 Rec fill
	2 copy vpt Square fill Bsquare} bind def
/S8 {BL [] 0 setdash 2 copy vpt sub vpt Square fill Bsquare} bind def
/S9 {BL [] 0 setdash 2 copy vpt sub vpt vpt2 Rec fill Bsquare} bind def
/S10 {BL [] 0 setdash 2 copy vpt sub vpt Square fill 2 copy exch vpt sub exch vpt Square fill
	Bsquare} bind def
/S11 {BL [] 0 setdash 2 copy vpt sub vpt Square fill 2 copy exch vpt sub exch vpt2 vpt Rec fill
	Bsquare} bind def
/S12 {BL [] 0 setdash 2 copy exch vpt sub exch vpt sub vpt2 vpt Rec fill Bsquare} bind def
/S13 {BL [] 0 setdash 2 copy exch vpt sub exch vpt sub vpt2 vpt Rec fill
	2 copy vpt Square fill Bsquare} bind def
/S14 {BL [] 0 setdash 2 copy exch vpt sub exch vpt sub vpt2 vpt Rec fill
	2 copy exch vpt sub exch vpt Square fill Bsquare} bind def
/S15 {BL [] 0 setdash 2 copy Bsquare fill Bsquare} bind def
/D0 {gsave translate 45 rotate 0 0 S0 stroke grestore} bind def
/D1 {gsave translate 45 rotate 0 0 S1 stroke grestore} bind def
/D2 {gsave translate 45 rotate 0 0 S2 stroke grestore} bind def
/D3 {gsave translate 45 rotate 0 0 S3 stroke grestore} bind def
/D4 {gsave translate 45 rotate 0 0 S4 stroke grestore} bind def
/D5 {gsave translate 45 rotate 0 0 S5 stroke grestore} bind def
/D6 {gsave translate 45 rotate 0 0 S6 stroke grestore} bind def
/D7 {gsave translate 45 rotate 0 0 S7 stroke grestore} bind def
/D8 {gsave translate 45 rotate 0 0 S8 stroke grestore} bind def
/D9 {gsave translate 45 rotate 0 0 S9 stroke grestore} bind def
/D10 {gsave translate 45 rotate 0 0 S10 stroke grestore} bind def
/D11 {gsave translate 45 rotate 0 0 S11 stroke grestore} bind def
/D12 {gsave translate 45 rotate 0 0 S12 stroke grestore} bind def
/D13 {gsave translate 45 rotate 0 0 S13 stroke grestore} bind def
/D14 {gsave translate 45 rotate 0 0 S14 stroke grestore} bind def
/D15 {gsave translate 45 rotate 0 0 S15 stroke grestore} bind def
/DiaE {stroke [] 0 setdash vpt add M
  hpt neg vpt neg V hpt vpt neg V
  hpt vpt V hpt neg vpt V closepath stroke} def
/BoxE {stroke [] 0 setdash exch hpt sub exch vpt add M
  0 vpt2 neg V hpt2 0 V 0 vpt2 V
  hpt2 neg 0 V closepath stroke} def
/TriUE {stroke [] 0 setdash vpt 1.12 mul add M
  hpt neg vpt -1.62 mul V
  hpt 2 mul 0 V
  hpt neg vpt 1.62 mul V closepath stroke} def
/TriDE {stroke [] 0 setdash vpt 1.12 mul sub M
  hpt neg vpt 1.62 mul V
  hpt 2 mul 0 V
  hpt neg vpt -1.62 mul V closepath stroke} def
/PentE {stroke [] 0 setdash gsave
  translate 0 hpt M 4 {72 rotate 0 hpt L} repeat
  closepath stroke grestore} def
/CircE {stroke [] 0 setdash 
  hpt 0 360 arc stroke} def
/Opaque {gsave closepath 1 setgray fill grestore 0 setgray closepath} def
/DiaW {stroke [] 0 setdash vpt add M
  hpt neg vpt neg V hpt vpt neg V
  hpt vpt V hpt neg vpt V Opaque stroke} def
/BoxW {stroke [] 0 setdash exch hpt sub exch vpt add M
  0 vpt2 neg V hpt2 0 V 0 vpt2 V
  hpt2 neg 0 V Opaque stroke} def
/TriUW {stroke [] 0 setdash vpt 1.12 mul add M
  hpt neg vpt -1.62 mul V
  hpt 2 mul 0 V
  hpt neg vpt 1.62 mul V Opaque stroke} def
/TriDW {stroke [] 0 setdash vpt 1.12 mul sub M
  hpt neg vpt 1.62 mul V
  hpt 2 mul 0 V
  hpt neg vpt -1.62 mul V Opaque stroke} def
/PentW {stroke [] 0 setdash gsave
  translate 0 hpt M 4 {72 rotate 0 hpt L} repeat
  Opaque stroke grestore} def
/CircW {stroke [] 0 setdash 
  hpt 0 360 arc Opaque stroke} def
/BoxFill {gsave Rec 1 setgray fill grestore} def
/Density {
  /Fillden exch def
  currentrgbcolor
  /ColB exch def /ColG exch def /ColR exch def
  /ColR ColR Fillden mul Fillden sub 1 add def
  /ColG ColG Fillden mul Fillden sub 1 add def
  /ColB ColB Fillden mul Fillden sub 1 add def
  ColR ColG ColB setrgbcolor} def
/BoxColFill {gsave Rec PolyFill} def
/PolyFill {gsave Density fill grestore grestore} def
/h {rlineto rlineto rlineto gsave closepath fill grestore} bind def
%
% PostScript Level 1 Pattern Fill routine for rectangles
% Usage: x y w h s a XX PatternFill
%	x,y = lower left corner of box to be filled
%	w,h = width and height of box
%	  a = angle in degrees between lines and x-axis
%	 XX = 0/1 for no/yes cross-hatch
%
/PatternFill {gsave /PFa [ 9 2 roll ] def
  PFa 0 get PFa 2 get 2 div add PFa 1 get PFa 3 get 2 div add translate
  PFa 2 get -2 div PFa 3 get -2 div PFa 2 get PFa 3 get Rec
  gsave 1 setgray fill grestore clip
  currentlinewidth 0.5 mul setlinewidth
  /PFs PFa 2 get dup mul PFa 3 get dup mul add sqrt def
  0 0 M PFa 5 get rotate PFs -2 div dup translate
  0 1 PFs PFa 4 get div 1 add floor cvi
	{PFa 4 get mul 0 M 0 PFs V} for
  0 PFa 6 get ne {
	0 1 PFs PFa 4 get div 1 add floor cvi
	{PFa 4 get mul 0 2 1 roll M PFs 0 V} for
 } if
  stroke grestore} def
%
/languagelevel where
 {pop languagelevel} {1} ifelse
 2 lt
	{/InterpretLevel1 true def}
	{/InterpretLevel1 Level1 def}
 ifelse
%
% PostScript level 2 pattern fill definitions
%
/Level2PatternFill {
/Tile8x8 {/PaintType 2 /PatternType 1 /TilingType 1 /BBox [0 0 8 8] /XStep 8 /YStep 8}
	bind def
/KeepColor {currentrgbcolor [/Pattern /DeviceRGB] setcolorspace} bind def
<< Tile8x8
 /PaintProc {0.5 setlinewidth pop 0 0 M 8 8 L 0 8 M 8 0 L stroke} 
>> matrix makepattern
/Pat1 exch def
<< Tile8x8
 /PaintProc {0.5 setlinewidth pop 0 0 M 8 8 L 0 8 M 8 0 L stroke
	0 4 M 4 8 L 8 4 L 4 0 L 0 4 L stroke}
>> matrix makepattern
/Pat2 exch def
<< Tile8x8
 /PaintProc {0.5 setlinewidth pop 0 0 M 0 8 L
	8 8 L 8 0 L 0 0 L fill}
>> matrix makepattern
/Pat3 exch def
<< Tile8x8
 /PaintProc {0.5 setlinewidth pop -4 8 M 8 -4 L
	0 12 M 12 0 L stroke}
>> matrix makepattern
/Pat4 exch def
<< Tile8x8
 /PaintProc {0.5 setlinewidth pop -4 0 M 8 12 L
	0 -4 M 12 8 L stroke}
>> matrix makepattern
/Pat5 exch def
<< Tile8x8
 /PaintProc {0.5 setlinewidth pop -2 8 M 4 -4 L
	0 12 M 8 -4 L 4 12 M 10 0 L stroke}
>> matrix makepattern
/Pat6 exch def
<< Tile8x8
 /PaintProc {0.5 setlinewidth pop -2 0 M 4 12 L
	0 -4 M 8 12 L 4 -4 M 10 8 L stroke}
>> matrix makepattern
/Pat7 exch def
<< Tile8x8
 /PaintProc {0.5 setlinewidth pop 8 -2 M -4 4 L
	12 0 M -4 8 L 12 4 M 0 10 L stroke}
>> matrix makepattern
/Pat8 exch def
<< Tile8x8
 /PaintProc {0.5 setlinewidth pop 0 -2 M 12 4 L
	-4 0 M 12 8 L -4 4 M 8 10 L stroke}
>> matrix makepattern
/Pat9 exch def
/Pattern1 {PatternBgnd KeepColor Pat1 setpattern} bind def
/Pattern2 {PatternBgnd KeepColor Pat2 setpattern} bind def
/Pattern3 {PatternBgnd KeepColor Pat3 setpattern} bind def
/Pattern4 {PatternBgnd KeepColor Landscape {Pat5} {Pat4} ifelse setpattern} bind def
/Pattern5 {PatternBgnd KeepColor Landscape {Pat4} {Pat5} ifelse setpattern} bind def
/Pattern6 {PatternBgnd KeepColor Landscape {Pat9} {Pat6} ifelse setpattern} bind def
/Pattern7 {PatternBgnd KeepColor Landscape {Pat8} {Pat7} ifelse setpattern} bind def
} def
%
%
%End of PostScript Level 2 code
%
/PatternBgnd {
  TransparentPatterns {} {gsave 1 setgray fill grestore} ifelse
} def
%
% Substitute for Level 2 pattern fill codes with
% grayscale if Level 2 support is not selected.
%
/Level1PatternFill {
/Pattern1 {0.250 Density} bind def
/Pattern2 {0.500 Density} bind def
/Pattern3 {0.750 Density} bind def
/Pattern4 {0.125 Density} bind def
/Pattern5 {0.375 Density} bind def
/Pattern6 {0.625 Density} bind def
/Pattern7 {0.875 Density} bind def
} def
%
% Now test for support of Level 2 code
%
Level1 {Level1PatternFill} {Level2PatternFill} ifelse
%
/Symbol-Oblique /Symbol findfont [1 0 .167 1 0 0] makefont
dup length dict begin {1 index /FID eq {pop pop} {def} ifelse} forall
currentdict end definefont pop
/MFshow {
   { dup 5 get 3 ge
     { 5 get 3 eq {gsave} {grestore} ifelse }
     {dup dup 0 get findfont exch 1 get scalefont setfont
     [ currentpoint ] exch dup 2 get 0 exch R dup 5 get 2 ne {dup dup 6
     get exch 4 get {Gshow} {stringwidth pop 0 R} ifelse }if dup 5 get 0 eq
     {dup 3 get {2 get neg 0 exch R pop} {pop aload pop M} ifelse} {dup 5
     get 1 eq {dup 2 get exch dup 3 get exch 6 get stringwidth pop -2 div
     dup 0 R} {dup 6 get stringwidth pop -2 div 0 R 6 get
     show 2 index {aload pop M neg 3 -1 roll neg R pop pop} {pop pop pop
     pop aload pop M} ifelse }ifelse }ifelse }
     ifelse }
   forall} def
/Gswidth {dup type /stringtype eq {stringwidth} {pop (n) stringwidth} ifelse} def
/MFwidth {0 exch { dup 5 get 3 ge { 5 get 3 eq { 0 } { pop } ifelse }
 {dup 3 get{dup dup 0 get findfont exch 1 get scalefont setfont
     6 get Gswidth pop add} {pop} ifelse} ifelse} forall} def
/MLshow { currentpoint stroke M
  0 exch R
  Blacktext {gsave 0 setgray MFshow grestore} {MFshow} ifelse } bind def
/MRshow { currentpoint stroke M
  exch dup MFwidth neg 3 -1 roll R
  Blacktext {gsave 0 setgray MFshow grestore} {MFshow} ifelse } bind def
/MCshow { currentpoint stroke M
  exch dup MFwidth -2 div 3 -1 roll R
  Blacktext {gsave 0 setgray MFshow grestore} {MFshow} ifelse } bind def
/XYsave    { [( ) 1 2 true false 3 ()] } bind def
/XYrestore { [( ) 1 2 true false 4 ()] } bind def
end
%%EndProlog
gnudict begin
gsave
doclip
50 50 translate
0.050 0.050 scale
0 setgray
newpath
(Times-Roman) findfont 260 scalefont setfont
1.000 UL
LTb
2150 1092 M
63 0 V
4379 0 R
-63 0 V
stroke
1994 1092 M
[ [(Times-Roman) 260.0 0.0 true true 0 (4.52)]
] -86.7 MRshow
1.000 UL
LTb
2150 2304 M
63 0 V
4379 0 R
-63 0 V
stroke
1994 2304 M
[ [(Times-Roman) 260.0 0.0 true true 0 (4.52)]
] -86.7 MRshow
1.000 UL
LTb
2150 3515 M
63 0 V
4379 0 R
-63 0 V
stroke
1994 3515 M
[ [(Times-Roman) 260.0 0.0 true true 0 (4.52)]
] -86.7 MRshow
1.000 UL
LTb
2150 4727 M
63 0 V
4379 0 R
-63 0 V
stroke
1994 4727 M
[ [(Times-Roman) 260.0 0.0 true true 0 (4.53)]
] -86.7 MRshow
1.000 UL
LTb
2150 1092 M
0 63 V
0 3572 R
0 -63 V
stroke
2150 832 M
[ [(Times-Roman) 260.0 0.0 true true 0 (4.74360)]
] -86.7 MCshow
1.000 UL
LTb
3631 1092 M
0 63 V
0 3572 R
0 -63 V
stroke
3631 832 M
[ [(Times-Roman) 260.0 0.0 true true 0 (4.74365)]
] -86.7 MCshow
1.000 UL
LTb
5111 1092 M
0 63 V
0 3572 R
0 -63 V
stroke
5111 832 M
[ [(Times-Roman) 260.0 0.0 true true 0 (4.74370)]
] -86.7 MCshow
1.000 UL
LTb
6592 1092 M
0 63 V
0 3572 R
0 -63 V
stroke
6592 832 M
[ [(Times-Roman) 260.0 0.0 true true 0 (4.74375)]
] -86.7 MCshow
1.000 UL
LTb
6592 1092 M
-63 0 V
stroke
6748 1092 M
[ [(Times-Roman) 260.0 0.0 true true 0 (1.62)]
] -86.7 MLshow
1.000 UL
LTb
6592 2304 M
-63 0 V
stroke
6748 2304 M
[ [(Times-Roman) 260.0 0.0 true true 0 (1.65)]
] -86.7 MLshow
1.000 UL
LTb
6592 3515 M
-63 0 V
stroke
6748 3515 M
[ [(Times-Roman) 260.0 0.0 true true 0 (1.68)]
] -86.7 MLshow
1.000 UL
LTb
6592 4727 M
-63 0 V
stroke
6748 4727 M
[ [(Times-Roman) 260.0 0.0 true true 0 (1.71)]
] -86.7 MLshow
1.000 UL
LTb
1.000 UL
LTb
2150 4727 N
0 -3635 V
4442 0 V
0 3635 V
-4442 0 V
Z stroke
LCb setrgbcolor
1084 2909 M
currentpoint gsave translate -270 rotate 0 0 moveto
[ [(Times-Roman) 260.0 0.0 true true 0 (L [10)]
[(Times-Roman) 208.0 130.0 true true 0 (34)]
[(Times-Roman) 260.0 0.0 true true 0 ( cm)]
[(Times-Roman) 208.0 130.0 true true 0 (-2)]
[(Times-Roman) 260.0 0.0 true true 0 ( s)]
[(Times-Roman) 208.0 130.0 true true 0 (-1)]
[(Times-Roman) 260.0 0.0 true true 0 (])]
] -112.7 MCshow
grestore
LTb
LCb setrgbcolor
4371 442 M
[ [(Times-Roman) 260.0 0.0 true true 0 (Strength of magnet dec1 [T/m)]
[(Times-Roman) 208.0 130.0 true true 0 (4)]
[(Times-Roman) 260.0 0.0 true true 0 (].)]
] -112.7 MCshow
LTb
1.000 UP
1.000 UL
LTb
% Begin plot #1
1.000 UL
LT0
2322 3410 M
29 251 V
30 0 V
30 0 V
29 0 V
30 0 V
29 0 V
30 0 V
30 0 V
29 0 V
30 -683 V
30 0 V
29 -206 V
30 0 V
29 731 V
30 0 V
30 0 V
29 -731 V
30 731 V
29 -731 V
30 133 V
30 -133 V
29 731 V
30 0 V
29 0 V
30 -343 V
30 48 V
29 295 V
30 -723 V
30 1765 V
29 -254 V
30 -1188 V
29 0 V
30 0 V
30 0 V
29 0 V
30 0 V
29 -12 V
30 0 V
30 0 V
29 0 V
30 0 V
30 0 V
29 0 V
30 0 V
29 0 V
30 -274 V
30 0 V
29 0 V
30 0 V
29 0 V
30 0 V
30 0 V
29 0 V
30 0 V
29 0 V
30 0 V
30 0 V
29 0 V
30 0 V
30 0 V
29 0 V
30 202 V
29 -202 V
30 0 V
30 0 V
29 202 V
30 0 V
29 -465 V
30 77 V
30 0 V
29 -77 V
30 222 V
30 -60 V
29 735 V
30 -735 V
29 -218 V
30 420 V
30 0 V
29 0 V
30 0 V
29 0 V
30 0 V
30 0 V
29 0 V
30 0 V
30 0 V
29 0 V
30 -352 V
29 691 V
30 -85 V
30 44 V
29 0 V
30 243 V
29 -218 V
30 -562 V
30 485 V
29 -485 V
30 2032 V
29 -2032 V
30 283 V
30 0 V
29 -267 V
30 0 V
30 0 V
stroke 5402 2695 M
29 1604 V
30 -1866 V
29 0 V
30 0 V
30 0 V
29 0 V
30 0 V
29 0 V
30 0 V
30 0 V
29 0 V
30 0 V
30 -287 V
29 0 V
30 287 V
29 0 V
30 65 V
30 0 V
29 0 V
30 0 V
29 0 V
30 -352 V
30 0 V
29 2117 V
30 0 V
% End plot #1
% Begin plot #2
stroke
LT1
2322 3105 M
29 -15 V
30 0 V
30 0 V
29 1 V
30 0 V
29 0 V
30 0 V
30 0 V
29 0 V
30 -460 V
30 0 V
29 961 V
30 0 V
29 -377 V
30 0 V
30 0 V
29 377 V
30 -377 V
29 377 V
30 40 V
30 -40 V
29 -376 V
30 0 V
29 0 V
30 -391 V
30 33 V
29 358 V
30 -332 V
30 191 V
29 -97 V
30 -290 V
29 0 V
30 0 V
30 0 V
29 0 V
30 1 V
29 -68 V
30 0 V
30 -20 V
29 0 V
30 0 V
30 0 V
29 0 V
30 0 V
29 0 V
30 90 V
30 0 V
29 0 V
30 0 V
29 0 V
30 0 V
30 0 V
29 0 V
30 0 V
29 0 V
30 0 V
30 0 V
29 0 V
30 0 V
30 0 V
29 0 V
30 174 V
29 -174 V
30 0 V
30 0 V
29 174 V
30 0 V
29 189 V
30 -24 V
30 0 V
29 24 V
30 -397 V
30 397 V
29 -621 V
30 621 V
29 -8 V
30 -137 V
30 0 V
29 0 V
30 0 V
29 0 V
30 0 V
30 0 V
29 0 V
30 0 V
30 0 V
29 0 V
30 -39 V
29 -374 V
30 56 V
30 499 V
29 0 V
30 -221 V
29 -284 V
30 517 V
30 -594 V
29 594 V
30 -707 V
29 707 V
30 -527 V
30 0 V
29 14 V
30 1 V
30 -1 V
stroke 5402 2550 M
29 267 V
30 -677 V
29 0 V
30 0 V
30 0 V
29 0 V
30 0 V
29 0 V
30 0 V
30 0 V
29 0 V
30 0 V
30 106 V
29 0 V
30 -106 V
29 0 V
30 32 V
30 0 V
29 0 V
30 0 V
29 0 V
30 74 V
30 0 V
29 -268 V
30 0 V
% End plot #2
stroke
LTb
2150 4727 N
0 -3635 V
4442 0 V
0 3635 V
-4442 0 V
Z stroke
1.000 UP
1.000 UL
LTb
1.000 UL
LTb
9090 1092 M
63 0 V
4638 0 R
-63 0 V
stroke
8934 1092 M
[ [(Times-Roman) 260.0 0.0 true true 0 (3.60)]
] -86.7 MRshow
1.000 UL
LTb
9090 2001 M
63 0 V
4638 0 R
-63 0 V
stroke
8934 2001 M
[ [(Times-Roman) 260.0 0.0 true true 0 (3.90)]
] -86.7 MRshow
1.000 UL
LTb
9090 2909 M
63 0 V
4638 0 R
-63 0 V
stroke
8934 2909 M
[ [(Times-Roman) 260.0 0.0 true true 0 (4.20)]
] -86.7 MRshow
1.000 UL
LTb
9090 3818 M
63 0 V
4638 0 R
-63 0 V
stroke
8934 3818 M
[ [(Times-Roman) 260.0 0.0 true true 0 (4.50)]
] -86.7 MRshow
1.000 UL
LTb
9090 4727 M
63 0 V
4638 0 R
-63 0 V
stroke
8934 4727 M
[ [(Times-Roman) 260.0 0.0 true true 0 (4.80)]
] -86.7 MRshow
1.000 UL
LTb
9090 1092 M
0 63 V
0 3572 R
0 -63 V
stroke
9090 832 M
[ [(Times-Roman) 260.0 0.0 true true 0 (-3000)]
] -86.7 MCshow
1.000 UL
LTb
10265 1092 M
0 63 V
0 3572 R
0 -63 V
stroke
10265 832 M
[ [(Times-Roman) 260.0 0.0 true true 0 (-1500)]
] -86.7 MCshow
1.000 UL
LTb
11440 1092 M
0 63 V
0 3572 R
0 -63 V
stroke
11440 832 M
[ [(Times-Roman) 260.0 0.0 true true 0 (0)]
] -86.7 MCshow
1.000 UL
LTb
12616 1092 M
0 63 V
0 3572 R
0 -63 V
stroke
12616 832 M
[ [(Times-Roman) 260.0 0.0 true true 0 (1500)]
] -86.7 MCshow
1.000 UL
LTb
13791 1092 M
0 63 V
0 3572 R
0 -63 V
stroke
13791 832 M
[ [(Times-Roman) 260.0 0.0 true true 0 (3000)]
] -86.7 MCshow
1.000 UL
LTb
13791 1092 M
-63 0 V
stroke
13947 1092 M
[ [(Times-Roman) 260.0 0.0 true true 0 (1.40)]
] -86.7 MLshow
1.000 UL
LTb
13791 2304 M
-63 0 V
stroke
13947 2304 M
[ [(Times-Roman) 260.0 0.0 true true 0 (1.50)]
] -86.7 MLshow
1.000 UL
LTb
13791 3515 M
-63 0 V
stroke
13947 3515 M
[ [(Times-Roman) 260.0 0.0 true true 0 (1.60)]
] -86.7 MLshow
1.000 UL
LTb
13791 4727 M
-63 0 V
stroke
13947 4727 M
[ [(Times-Roman) 260.0 0.0 true true 0 (1.70)]
] -86.7 MLshow
1.000 UL
LTb
1.000 UL
LTb
9090 4727 N
0 -3635 V
4701 0 V
0 3635 V
-4701 0 V
Z stroke
LCb setrgbcolor
11440 442 M
[ [(Times-Roman) 260.0 0.0 true true 0 (Strength of magnet oct0 [T/m)]
[(Times-Roman) 208.0 130.0 true true 0 (3)]
[(Times-Roman) 260.0 0.0 true true 0 (].)]
] -112.7 MCshow
LTb
1.000 UP
1.000 UL
LTb
% Begin plot #1
1.000 UL
LT0
LCb setrgbcolor
11773 2174 M
[ [(Times-Roman) 260.0 0.0 true true 0 (Luminostity)]
] -86.7 MRshow
LT0
11929 2174 M
687 0 V
9090 1695 M
8 4 V
8 1 V
8 11 V
7 21 V
8 1 V
8 6 V
8 13 V
8 16 V
8 6 V
7 8 V
8 4 V
8 13 V
8 1 V
8 29 V
8 -10 V
7 14 V
8 10 V
8 6 V
8 -1 V
8 27 V
8 10 V
7 -6 V
8 17 V
8 15 V
8 -1 V
8 14 V
8 6 V
7 18 V
8 9 V
8 9 V
8 0 V
8 9 V
8 13 V
7 2 V
8 19 V
8 9 V
8 15 V
8 3 V
8 8 V
7 10 V
8 5 V
8 29 V
8 -3 V
8 3 V
8 20 V
7 2 V
8 5 V
8 11 V
8 19 V
8 2 V
8 5 V
7 1 V
8 17 V
8 12 V
8 6 V
8 9 V
8 19 V
7 1 V
8 19 V
8 1 V
8 12 V
8 7 V
8 10 V
7 3 V
8 13 V
8 0 V
8 35 V
8 6 V
8 3 V
7 -11 V
8 19 V
8 30 V
8 -12 V
8 13 V
8 7 V
7 17 V
8 13 V
8 -1 V
8 12 V
8 11 V
8 6 V
7 13 V
8 -4 V
8 14 V
8 26 V
8 -9 V
8 19 V
7 -10 V
8 18 V
8 18 V
8 11 V
8 8 V
8 5 V
7 0 V
8 26 V
8 6 V
8 -9 V
8 2 V
8 27 V
7 12 V
8 0 V
8 16 V
stroke 9889 2619 M
8 -6 V
8 23 V
8 3 V
8 21 V
7 -1 V
8 14 V
8 13 V
8 -6 V
8 26 V
8 -3 V
7 5 V
8 11 V
8 25 V
8 -13 V
8 17 V
8 8 V
7 18 V
8 16 V
8 -9 V
8 3 V
8 31 V
8 15 V
7 -20 V
8 14 V
8 6 V
8 13 V
8 14 V
8 11 V
7 5 V
8 5 V
8 12 V
8 16 V
8 1 V
8 2 V
7 26 V
8 -4 V
8 14 V
8 -5 V
8 24 V
8 -5 V
7 19 V
8 10 V
8 5 V
8 9 V
8 -2 V
8 11 V
7 15 V
8 9 V
8 9 V
8 7 V
8 18 V
8 7 V
7 -6 V
8 8 V
8 3 V
8 26 V
8 -9 V
8 17 V
7 0 V
8 15 V
8 23 V
8 -12 V
8 22 V
8 -2 V
7 2 V
8 15 V
8 24 V
8 -6 V
8 13 V
8 6 V
7 17 V
8 2 V
8 7 V
8 11 V
8 -16 V
8 28 V
7 17 V
8 -4 V
8 5 V
8 6 V
8 25 V
8 -4 V
7 20 V
8 -2 V
8 -5 V
8 13 V
8 4 V
8 17 V
7 8 V
8 -4 V
8 13 V
8 9 V
8 -8 V
8 23 V
7 9 V
8 2 V
8 18 V
8 1 V
8 0 V
8 13 V
8 13 V
7 -2 V
8 11 V
8 -11 V
stroke 10704 3451 M
8 26 V
8 13 V
8 -5 V
7 1 V
8 5 V
8 10 V
8 19 V
8 -4 V
8 -4 V
7 12 V
8 17 V
8 -2 V
8 4 V
8 15 V
8 6 V
7 11 V
8 -8 V
8 27 V
8 2 V
8 2 V
8 0 V
7 -4 V
8 18 V
8 8 V
8 -2 V
8 18 V
8 9 V
7 -12 V
8 27 V
8 -18 V
8 22 V
8 -3 V
8 5 V
7 6 V
8 11 V
8 -9 V
8 25 V
8 -2 V
8 -5 V
7 24 V
8 -14 V
8 38 V
8 -15 V
8 -2 V
8 20 V
7 -10 V
8 5 V
8 4 V
8 7 V
8 16 V
8 4 V
7 -13 V
8 6 V
8 13 V
8 2 V
8 16 V
8 13 V
7 -11 V
8 5 V
8 9 V
8 -8 V
8 18 V
8 -13 V
7 14 V
8 -10 V
8 8 V
8 6 V
8 4 V
8 11 V
7 -11 V
8 7 V
8 -1 V
8 2 V
8 7 V
8 13 V
7 -5 V
8 -9 V
8 15 V
8 2 V
8 -6 V
8 9 V
7 -7 V
8 23 V
8 -9 V
8 9 V
8 -9 V
8 8 V
7 -7 V
8 -11 V
8 21 V
8 5 V
8 18 V
8 -29 V
7 35 V
8 4 V
8 -30 V
8 18 V
8 -17 V
8 5 V
8 10 V
7 -4 V
8 -4 V
8 20 V
8 -20 V
stroke 11519 3891 M
8 8 V
8 6 V
7 -9 V
8 -14 V
8 24 V
8 -16 V
8 1 V
8 4 V
7 -6 V
8 0 V
8 6 V
8 -9 V
8 -5 V
8 18 V
7 -10 V
8 14 V
8 -28 V
8 41 V
8 -34 V
8 -1 V
7 -1 V
8 -3 V
8 12 V
8 -14 V
8 15 V
8 -14 V
7 -6 V
8 -16 V
8 23 V
8 -4 V
8 -3 V
8 3 V
7 -23 V
8 20 V
8 -7 V
8 -14 V
8 -5 V
8 -1 V
7 -1 V
8 16 V
8 -14 V
8 -3 V
8 -7 V
8 4 V
7 -2 V
8 -8 V
8 -7 V
8 -5 V
8 -3 V
8 -8 V
7 2 V
8 0 V
8 -14 V
8 2 V
8 -10 V
8 0 V
7 0 V
8 2 V
8 -6 V
8 2 V
8 -8 V
8 5 V
7 -2 V
8 -22 V
8 -1 V
8 -7 V
8 3 V
8 -1 V
7 3 V
8 -21 V
8 17 V
8 -20 V
8 -15 V
8 -3 V
7 3 V
8 0 V
8 -18 V
8 2 V
8 -7 V
8 -3 V
7 -6 V
8 -9 V
8 1 V
8 -9 V
8 4 V
8 -11 V
7 -7 V
8 17 V
8 -25 V
8 13 V
8 -21 V
8 5 V
8 -18 V
7 8 V
8 -27 V
8 8 V
8 -11 V
8 1 V
8 -8 V
7 -12 V
8 -8 V
8 -3 V
8 -1 V
8 -5 V
stroke 12334 3564 M
8 -3 V
7 -5 V
8 -16 V
8 -12 V
8 -2 V
8 0 V
8 0 V
7 -9 V
8 -15 V
8 3 V
8 -27 V
8 19 V
8 -9 V
7 -30 V
8 6 V
8 -4 V
8 0 V
8 -16 V
8 -4 V
7 -4 V
8 -13 V
8 -2 V
8 -14 V
8 -6 V
8 -6 V
7 -14 V
8 -8 V
8 -5 V
8 -17 V
8 0 V
8 7 V
7 -9 V
8 -14 V
8 -5 V
8 -2 V
8 -7 V
8 -6 V
7 -17 V
8 5 V
8 -13 V
8 -11 V
8 1 V
8 -10 V
7 -1 V
8 -22 V
8 0 V
8 6 V
8 -28 V
8 -12 V
7 -9 V
8 4 V
8 -17 V
8 -11 V
8 2 V
8 -6 V
7 -14 V
8 6 V
8 -25 V
8 6 V
8 -7 V
8 -17 V
7 -6 V
8 -11 V
8 0 V
8 -8 V
8 -16 V
8 4 V
7 -11 V
8 6 V
8 -22 V
8 -2 V
8 -31 V
8 4 V
7 -3 V
8 3 V
8 -20 V
8 10 V
8 -31 V
8 -7 V
7 7 V
8 -23 V
8 -6 V
8 -4 V
8 -16 V
8 -6 V
7 -1 V
8 -14 V
8 -4 V
8 -3 V
8 -14 V
8 2 V
8 -19 V
7 7 V
8 -18 V
8 1 V
8 -30 V
8 13 V
8 -6 V
7 -15 V
8 -15 V
8 -21 V
8 0 V
8 -10 V
8 3 V
stroke 13149 2792 M
7 -3 V
8 -11 V
8 -21 V
8 -6 V
8 12 V
8 -15 V
7 -10 V
8 -9 V
8 -8 V
8 -11 V
8 -10 V
8 0 V
7 -9 V
8 -7 V
8 -8 V
8 -31 V
8 9 V
8 -22 V
7 0 V
8 -7 V
8 -28 V
8 25 V
8 -6 V
8 -29 V
7 -8 V
8 -23 V
8 0 V
8 -10 V
8 0 V
8 -17 V
7 -2 V
8 -3 V
8 6 V
8 -26 V
8 1 V
8 -35 V
7 -3 V
8 -2 V
8 0 V
8 -18 V
8 -5 V
8 -8 V
7 -14 V
8 -9 V
8 -13 V
8 7 V
8 -20 V
8 -4 V
7 -3 V
8 -25 V
8 2 V
8 -4 V
8 -14 V
8 -4 V
7 -8 V
8 -17 V
8 -6 V
8 -22 V
8 23 V
8 -27 V
7 -6 V
8 -23 V
8 7 V
8 -25 V
8 1 V
8 -9 V
7 -17 V
8 -8 V
8 5 V
8 -1 V
8 -22 V
8 2 V
7 -11 V
8 -9 V
8 -17 V
8 -6 V
8 -5 V
8 -19 V
7 4 V
8 -14 V
8 -9 V
% End plot #1
% Begin plot #2
stroke
LT1
LCb setrgbcolor
11773 1914 M
[ [(Times-Roman) 260.0 0.0 true true 0 (Luminosity peak)]
] -86.7 MRshow
LT1
11929 1914 M
687 0 V
9090 1306 M
8 -34 V
8 -47 V
8 -74 V
7 117 V
8 -66 V
8 -71 V
8 172 V
8 15 V
8 -226 V
7 240 V
8 -38 V
8 312 V
8 -24 V
8 -71 V
8 -112 V
7 -92 V
8 43 V
8 -63 V
8 108 V
8 71 V
8 -235 V
7 190 V
8 99 V
8 48 V
8 -80 V
8 153 V
8 -258 V
7 151 V
8 32 V
8 166 V
8 -142 V
8 148 V
8 -247 V
7 76 V
8 93 V
8 -82 V
8 128 V
8 -97 V
8 68 V
7 101 V
8 -64 V
8 -40 V
8 227 V
8 -101 V
8 -59 V
7 277 V
8 -32 V
8 -70 V
8 5 V
8 -71 V
8 -9 V
7 -44 V
8 108 V
8 29 V
8 218 V
8 -38 V
8 -349 V
7 191 V
8 40 V
8 137 V
8 -14 V
8 -90 V
8 17 V
7 154 V
8 32 V
8 -9 V
8 -83 V
8 -80 V
8 28 V
7 74 V
8 -193 V
8 135 V
8 63 V
8 60 V
8 38 V
7 -104 V
8 201 V
8 66 V
8 -72 V
8 -338 V
8 236 V
7 -155 V
8 -38 V
8 188 V
8 22 V
8 -95 V
8 110 V
7 -36 V
8 270 V
8 -230 V
8 95 V
8 -68 V
8 -85 V
7 108 V
8 -75 V
8 289 V
8 -168 V
8 82 V
8 -96 V
7 -191 V
8 112 V
8 56 V
stroke 9889 2349 M
8 219 V
8 108 V
8 -22 V
8 -116 V
7 244 V
8 -258 V
8 -193 V
8 470 V
8 -472 V
8 -16 V
7 380 V
8 -91 V
8 283 V
8 -366 V
8 298 V
8 -404 V
7 246 V
8 152 V
8 -278 V
8 94 V
8 292 V
8 -148 V
7 72 V
8 -98 V
8 74 V
8 -18 V
8 32 V
8 -67 V
7 12 V
8 60 V
8 -216 V
8 92 V
8 70 V
8 -102 V
7 81 V
8 127 V
8 97 V
8 -75 V
8 248 V
8 -425 V
7 221 V
8 -84 V
8 242 V
8 -211 V
8 86 V
8 -40 V
7 -75 V
8 150 V
8 -181 V
8 253 V
8 47 V
8 -89 V
7 94 V
8 -73 V
8 -3 V
8 -89 V
8 147 V
8 -126 V
7 373 V
8 -154 V
8 -244 V
8 74 V
8 97 V
8 43 V
7 -108 V
8 117 V
8 130 V
8 -34 V
8 -186 V
8 14 V
7 29 V
8 322 V
8 -51 V
8 -201 V
8 217 V
8 27 V
7 -291 V
8 5 V
8 299 V
8 -83 V
8 -29 V
8 93 V
7 -10 V
8 22 V
8 -34 V
8 112 V
8 -299 V
8 149 V
7 86 V
8 241 V
8 -271 V
8 -14 V
8 264 V
8 -116 V
7 173 V
8 -128 V
8 -227 V
8 128 V
8 118 V
8 -34 V
8 -142 V
7 285 V
8 -46 V
8 99 V
stroke 10704 3819 M
8 -186 V
8 -203 V
8 143 V
7 157 V
8 74 V
8 165 V
8 -79 V
8 -290 V
8 -37 V
7 -128 V
8 261 V
8 -18 V
8 -72 V
8 319 V
8 -167 V
7 11 V
8 -109 V
8 -83 V
8 279 V
8 68 V
8 -110 V
7 -226 V
8 450 V
8 -62 V
8 -10 V
8 -21 V
8 65 V
7 -32 V
8 -103 V
8 393 V
8 -289 V
8 -35 V
8 174 V
7 -1 V
8 -96 V
8 -22 V
8 -1 V
8 -65 V
8 224 V
7 -82 V
8 48 V
8 83 V
8 -266 V
8 466 V
8 -207 V
7 -220 V
8 181 V
8 121 V
8 -225 V
8 -123 V
8 212 V
7 -204 V
8 192 V
8 254 V
8 -342 V
8 42 V
8 97 V
7 -103 V
8 381 V
8 -284 V
8 6 V
8 33 V
8 -24 V
7 -194 V
8 256 V
8 -52 V
8 228 V
8 -247 V
8 -160 V
7 95 V
8 -194 V
8 139 V
8 482 V
8 -318 V
8 36 V
7 198 V
8 -126 V
8 -71 V
8 77 V
8 87 V
8 -337 V
7 358 V
8 37 V
8 -153 V
8 -6 V
8 109 V
8 -171 V
7 161 V
8 -34 V
8 -186 V
8 47 V
8 28 V
8 -71 V
7 35 V
8 111 V
8 -74 V
8 -8 V
8 2 V
8 212 V
8 -321 V
7 224 V
8 -72 V
8 -5 V
8 241 V
stroke 11519 4556 M
8 -226 V
8 149 V
7 -163 V
8 -78 V
8 183 V
8 -249 V
8 233 V
8 -90 V
7 145 V
8 -183 V
8 112 V
8 97 V
8 -194 V
8 66 V
7 72 V
8 22 V
8 -128 V
8 -83 V
8 132 V
8 113 V
7 -12 V
8 -42 V
8 -25 V
8 -84 V
8 -13 V
8 -7 V
7 218 V
8 -86 V
8 -209 V
8 -39 V
8 254 V
8 -179 V
7 8 V
8 3 V
8 55 V
8 -102 V
8 153 V
8 -24 V
7 -41 V
8 88 V
8 -5 V
8 -125 V
8 -4 V
8 19 V
7 48 V
8 96 V
8 34 V
8 -174 V
8 90 V
8 -17 V
7 -103 V
8 -91 V
8 -55 V
8 -42 V
8 -5 V
8 83 V
7 -9 V
8 239 V
8 -154 V
8 -210 V
8 249 V
8 -169 V
7 -125 V
8 316 V
8 -192 V
8 215 V
8 -266 V
8 5 V
7 64 V
8 44 V
8 -339 V
8 281 V
8 124 V
8 -242 V
7 101 V
8 -248 V
8 411 V
8 -281 V
8 313 V
8 -235 V
7 145 V
8 -144 V
8 46 V
8 11 V
8 -119 V
8 -198 V
7 225 V
8 170 V
8 107 V
8 -440 V
8 -23 V
8 179 V
8 -27 V
7 -131 V
8 132 V
8 -2 V
8 -414 V
8 427 V
8 -63 V
7 121 V
8 -344 V
8 198 V
8 135 V
8 -417 V
stroke 12334 3617 M
8 198 V
7 153 V
8 -381 V
8 223 V
8 104 V
8 -115 V
8 113 V
7 -187 V
8 69 V
8 131 V
8 -273 V
8 -25 V
8 23 V
7 143 V
8 -98 V
8 43 V
8 -74 V
8 253 V
8 -337 V
7 26 V
8 31 V
8 45 V
8 -223 V
8 175 V
8 -119 V
7 207 V
8 -344 V
8 140 V
8 -41 V
8 51 V
8 -32 V
7 -120 V
8 29 V
8 80 V
8 157 V
8 -111 V
8 29 V
7 -163 V
8 19 V
8 -292 V
8 355 V
8 -67 V
8 -11 V
7 -140 V
8 28 V
8 44 V
8 -64 V
8 87 V
8 15 V
7 48 V
8 -102 V
8 -43 V
8 220 V
8 -176 V
8 107 V
7 59 V
8 -524 V
8 245 V
8 3 V
8 106 V
8 -123 V
7 82 V
8 -241 V
8 234 V
8 -53 V
8 80 V
8 -86 V
7 1 V
8 -105 V
8 -149 V
8 224 V
8 -136 V
8 73 V
7 -149 V
8 309 V
8 -243 V
8 29 V
8 -31 V
8 53 V
7 14 V
8 135 V
8 -221 V
8 26 V
8 -52 V
8 -12 V
7 -91 V
8 -103 V
8 332 V
8 -248 V
8 95 V
8 3 V
8 -198 V
7 -37 V
8 187 V
8 -197 V
8 266 V
8 -218 V
8 191 V
7 16 V
8 35 V
8 63 V
8 -220 V
8 -86 V
8 120 V
stroke 13149 2883 M
7 -211 V
8 268 V
8 113 V
8 -366 V
8 -38 V
8 3 V
7 190 V
8 -128 V
8 -100 V
8 71 V
8 -172 V
8 -89 V
7 245 V
8 -5 V
8 -44 V
8 164 V
8 -55 V
8 -50 V
7 -155 V
8 312 V
8 -190 V
8 -41 V
8 -86 V
8 241 V
7 -398 V
8 160 V
8 50 V
8 59 V
8 -214 V
8 190 V
7 1 V
8 -48 V
8 124 V
8 -243 V
8 96 V
8 55 V
7 42 V
8 -79 V
8 -130 V
8 117 V
8 -184 V
8 60 V
7 106 V
8 -146 V
8 -285 V
8 258 V
8 -82 V
8 29 V
7 2 V
8 76 V
8 -261 V
8 195 V
8 -306 V
8 -29 V
7 197 V
8 -32 V
8 -4 V
8 2 V
8 -70 V
8 46 V
7 -6 V
8 111 V
8 25 V
8 -116 V
8 -62 V
8 -168 V
7 136 V
8 -266 V
8 340 V
8 159 V
8 -479 V
8 310 V
7 -185 V
8 -39 V
8 60 V
8 64 V
8 -161 V
8 -101 V
7 207 V
8 -361 V
8 195 V
% End plot #2
stroke
LTb
9090 4727 N
0 -3635 V
4701 0 V
0 3635 V
-4701 0 V
Z stroke
1.000 UP
1.000 UL
LTb
1.000 UL
LTb
2150 6132 M
63 0 V
4379 0 R
-63 0 V
stroke
1994 6132 M
[ [(Times-Roman) 260.0 0.0 true true 0 (4.35)]
] -86.7 MRshow
1.000 UL
LTb
2150 7041 M
63 0 V
4379 0 R
-63 0 V
stroke
1994 7041 M
[ [(Times-Roman) 260.0 0.0 true true 0 (4.40)]
] -86.7 MRshow
1.000 UL
LTb
2150 7949 M
63 0 V
4379 0 R
-63 0 V
stroke
1994 7949 M
[ [(Times-Roman) 260.0 0.0 true true 0 (4.45)]
] -86.7 MRshow
1.000 UL
LTb
2150 8858 M
63 0 V
4379 0 R
-63 0 V
stroke
1994 8858 M
[ [(Times-Roman) 260.0 0.0 true true 0 (4.50)]
] -86.7 MRshow
1.000 UL
LTb
2150 9766 M
63 0 V
4379 0 R
-63 0 V
stroke
1994 9766 M
[ [(Times-Roman) 260.0 0.0 true true 0 (4.55)]
] -86.7 MRshow
1.000 UL
LTb
2150 6132 M
0 63 V
0 3571 R
0 -63 V
stroke
2150 5872 M
[ [(Times-Roman) 260.0 0.0 true true 0 (-300)]
] -86.7 MCshow
1.000 UL
LTb
2890 6132 M
0 63 V
0 3571 R
0 -63 V
stroke
2890 5872 M
[ [(Times-Roman) 260.0 0.0 true true 0 (-200)]
] -86.7 MCshow
1.000 UL
LTb
3631 6132 M
0 63 V
0 3571 R
0 -63 V
stroke
3631 5872 M
[ [(Times-Roman) 260.0 0.0 true true 0 (-100)]
] -86.7 MCshow
1.000 UL
LTb
4371 6132 M
0 63 V
0 3571 R
0 -63 V
stroke
4371 5872 M
[ [(Times-Roman) 260.0 0.0 true true 0 (0)]
] -86.7 MCshow
1.000 UL
LTb
5111 6132 M
0 63 V
0 3571 R
0 -63 V
stroke
5111 5872 M
[ [(Times-Roman) 260.0 0.0 true true 0 (100)]
] -86.7 MCshow
1.000 UL
LTb
5852 6132 M
0 63 V
0 3571 R
0 -63 V
stroke
5852 5872 M
[ [(Times-Roman) 260.0 0.0 true true 0 (200)]
] -86.7 MCshow
1.000 UL
LTb
6592 6132 M
0 63 V
0 3571 R
0 -63 V
stroke
6592 5872 M
[ [(Times-Roman) 260.0 0.0 true true 0 (300)]
] -86.7 MCshow
1.000 UL
LTb
6592 6132 M
-63 0 V
stroke
6748 6132 M
[ [(Times-Roman) 260.0 0.0 true true 0 (1.59)]
] -86.7 MLshow
1.000 UL
LTb
6592 7041 M
-63 0 V
stroke
6748 7041 M
[ [(Times-Roman) 260.0 0.0 true true 0 (1.62)]
] -86.7 MLshow
1.000 UL
LTb
6592 7949 M
-63 0 V
stroke
6748 7949 M
[ [(Times-Roman) 260.0 0.0 true true 0 (1.65)]
] -86.7 MLshow
1.000 UL
LTb
6592 8858 M
-63 0 V
stroke
6748 8858 M
[ [(Times-Roman) 260.0 0.0 true true 0 (1.68)]
] -86.7 MLshow
1.000 UL
LTb
6592 9766 M
-63 0 V
stroke
6748 9766 M
[ [(Times-Roman) 260.0 0.0 true true 0 (1.71)]
] -86.7 MLshow
1.000 UL
LTb
1.000 UL
LTb
2150 9766 N
0 -3634 V
4442 0 V
0 3634 V
-4442 0 V
Z stroke
LCb setrgbcolor
1084 7949 M
currentpoint gsave translate -270 rotate 0 0 moveto
[ [(Times-Roman) 260.0 0.0 true true 0 (L [10)]
[(Times-Roman) 208.0 130.0 true true 0 (34)]
[(Times-Roman) 260.0 0.0 true true 0 ( cm)]
[(Times-Roman) 208.0 130.0 true true 0 (-2)]
[(Times-Roman) 260.0 0.0 true true 0 ( s)]
[(Times-Roman) 208.0 130.0 true true 0 (-1)]
[(Times-Roman) 260.0 0.0 true true 0 (])]
] -112.7 MCshow
grestore
LTb
LCb setrgbcolor
4371 5482 M
[ [(Times-Roman) 260.0 0.0 true true 0 (Strength of magnet kocttest [T/m)]
[(Times-Roman) 208.0 130.0 true true 0 (3)]
[(Times-Roman) 260.0 0.0 true true 0 (].)]
] -112.7 MCshow
LTb
1.000 UP
1.000 UL
LTb
% Begin plot #1
1.000 UL
LT0
2150 9295 M
74 -49 V
74 44 V
74 51 V
74 -5 V
74 -31 V
74 14 V
74 13 V
74 -46 V
74 -40 V
74 86 V
74 -24 V
74 -87 V
74 73 V
74 -22 V
74 -5 V
75 -41 V
74 -52 V
74 65 V
74 -103 V
74 67 V
74 -94 V
74 -19 V
74 9 V
74 -160 V
74 19 V
74 -52 V
74 55 V
74 -44 V
74 -89 V
74 -9 V
74 -61 V
74 -85 V
74 -3 V
74 -5 V
74 -27 V
74 -187 V
74 43 V
74 -119 V
74 21 V
74 -125 V
74 -44 V
74 29 V
74 -68 V
74 -134 V
74 -47 V
75 -64 V
74 -128 V
74 -3 V
74 -84 V
74 -62 V
74 -66 V
74 -93 V
74 -44 V
74 -100 V
74 -46 V
74 -136 V
74 14 V
74 -106 V
74 -136 V
% End plot #1
% Begin plot #2
stroke
LT1
2150 7956 M
74 191 V
74 274 V
74 309 V
74 -486 V
74 -52 V
74 385 V
74 -142 V
74 -347 V
74 1015 V
74 -1037 V
74 782 V
74 -333 V
74 175 V
74 -683 V
74 298 V
75 162 V
74 246 V
74 129 V
74 -457 V
74 -51 V
74 104 V
74 -761 V
74 1377 V
74 -740 V
74 287 V
74 -565 V
74 -542 V
74 656 V
74 237 V
74 -42 V
74 -300 V
74 -144 V
74 546 V
74 -397 V
74 170 V
74 -337 V
74 10 V
74 2 V
74 320 V
74 -117 V
74 -745 V
74 505 V
74 580 V
74 -655 V
74 -300 V
75 -151 V
74 423 V
74 -334 V
74 92 V
74 -269 V
74 -312 V
74 673 V
74 -850 V
74 480 V
74 71 V
74 -237 V
74 628 V
74 -690 V
74 287 V
% End plot #2
stroke
LTb
2150 9766 N
0 -3634 V
4442 0 V
0 3634 V
-4442 0 V
Z stroke
1.000 UP
1.000 UL
LTb
1.000 UL
LTb
9090 6132 M
63 0 V
4638 0 R
-63 0 V
stroke
8934 6132 M
[ [(Times-Roman) 260.0 0.0 true true 0 (4.51)]
] -86.7 MRshow
1.000 UL
LTb
9090 7343 M
63 0 V
4638 0 R
-63 0 V
stroke
8934 7343 M
[ [(Times-Roman) 260.0 0.0 true true 0 (4.52)]
] -86.7 MRshow
1.000 UL
LTb
9090 8555 M
63 0 V
4638 0 R
-63 0 V
stroke
8934 8555 M
[ [(Times-Roman) 260.0 0.0 true true 0 (4.52)]
] -86.7 MRshow
1.000 UL
LTb
9090 9766 M
63 0 V
4638 0 R
-63 0 V
stroke
8934 9766 M
[ [(Times-Roman) 260.0 0.0 true true 0 (4.53)]
] -86.7 MRshow
1.000 UL
LTb
9090 6132 M
0 63 V
0 3571 R
0 -63 V
stroke
9090 5872 M
[ [(Times-Roman) 260.0 0.0 true true 0 (1.4473)]
] -86.7 MCshow
1.000 UL
LTb
10265 6132 M
0 63 V
0 3571 R
0 -63 V
stroke
10265 5872 M
[ [(Times-Roman) 260.0 0.0 true true 0 (1.4474)]
] -86.7 MCshow
1.000 UL
LTb
11441 6132 M
0 63 V
0 3571 R
0 -63 V
stroke
11441 5872 M
[ [(Times-Roman) 260.0 0.0 true true 0 (1.4474)]
] -86.7 MCshow
1.000 UL
LTb
12616 6132 M
0 63 V
0 3571 R
0 -63 V
stroke
12616 5872 M
[ [(Times-Roman) 260.0 0.0 true true 0 (1.4475)]
] -86.7 MCshow
1.000 UL
LTb
13791 6132 M
0 63 V
0 3571 R
0 -63 V
stroke
13791 5872 M
[ [(Times-Roman) 260.0 0.0 true true 0 (1.4475)]
] -86.7 MCshow
1.000 UL
LTb
13791 6132 M
-63 0 V
stroke
13947 6132 M
[ [(Times-Roman) 260.0 0.0 true true 0 (1.62)]
] -86.7 MLshow
1.000 UL
LTb
13791 7343 M
-63 0 V
stroke
13947 7343 M
[ [(Times-Roman) 260.0 0.0 true true 0 (1.65)]
] -86.7 MLshow
1.000 UL
LTb
13791 8555 M
-63 0 V
stroke
13947 8555 M
[ [(Times-Roman) 260.0 0.0 true true 0 (1.68)]
] -86.7 MLshow
1.000 UL
LTb
13791 9766 M
-63 0 V
stroke
13947 9766 M
[ [(Times-Roman) 260.0 0.0 true true 0 (1.71)]
] -86.7 MLshow
1.000 UL
LTb
1.000 UL
LTb
9090 9766 N
0 -3634 V
4701 0 V
0 3634 V
-4701 0 V
Z stroke
LCb setrgbcolor
LTb
LCb setrgbcolor
11440 5482 M
[ [(Times-Roman) 260.0 0.0 true true 0 (Strength of magnet kdectest [T/m)]
[(Times-Roman) 208.0 130.0 true true 0 (4)]
[(Times-Roman) 260.0 0.0 true true 0 (].)]
] -112.7 MCshow
LTb
1.000 UP
1.000 UL
LTb
% Begin plot #1
1.000 UL
LT0
9090 7959 M
5 0 V
11 0 V
12 0 V
12 0 V
12 0 V
11 0 V
12 0 V
12 0 V
12 0 V
11 0 V
12 0 V
12 0 V
12 0 V
11 0 V
12 0 V
12 0 V
12 0 V
11 0 V
12 0 V
12 0 V
12 0 V
12 0 V
11 0 V
12 -856 V
12 0 V
12 0 V
11 0 V
12 0 V
12 0 V
12 0 V
11 0 V
12 0 V
12 1781 V
12 0 V
11 0 V
12 0 V
12 -213 V
12 -121 V
11 0 V
12 121 V
12 -27 V
12 0 V
11 32 V
12 -5 V
12 -2 V
12 0 V
11 -25 V
12 0 V
12 0 V
12 8 V
11 46 V
12 -46 V
12 0 V
12 46 V
11 0 V
12 -313 V
12 0 V
12 0 V
11 -196 V
12 196 V
12 -196 V
12 196 V
11 0 V
12 -53 V
12 0 V
12 0 V
11 0 V
12 0 V
12 0 V
12 0 V
11 0 V
12 0 V
12 65 V
12 -702 V
11 0 V
12 0 V
12 0 V
12 198 V
11 22 V
12 0 V
12 0 V
12 -27 V
11 0 V
12 0 V
12 0 V
12 27 V
11 0 V
12 0 V
12 0 V
12 0 V
11 0 V
12 0 V
12 -1061 V
12 0 V
11 443 V
12 0 V
12 0 V
12 0 V
11 0 V
12 -72 V
12 0 V
12 -344 V
11 0 V
12 0 V
stroke 10305 6881 M
12 0 V
12 0 V
11 0 V
12 0 V
12 0 V
12 0 V
11 0 V
12 0 V
12 1364 V
12 33 V
11 180 V
12 -124 V
12 0 V
12 -283 V
11 0 V
12 0 V
12 0 V
12 -216 V
12 0 V
11 0 V
12 0 V
12 0 V
12 0 V
11 279 V
12 0 V
12 0 V
12 0 V
11 0 V
12 80 V
12 0 V
12 0 V
11 0 V
12 169 V
12 0 V
12 0 V
11 0 V
12 0 V
12 0 V
12 -332 V
11 71 V
12 0 V
12 0 V
12 0 V
11 0 V
12 0 V
12 0 V
12 0 V
11 0 V
12 0 V
12 0 V
12 -226 V
11 -7 V
12 0 V
12 0 V
12 85 V
11 -85 V
12 85 V
12 -85 V
12 0 V
11 422 V
12 -422 V
12 0 V
12 49 V
11 423 V
12 -242 V
12 0 V
12 -123 V
11 -151 V
12 0 V
12 0 V
12 0 V
11 0 V
12 1238 V
12 -884 V
12 0 V
11 444 V
12 0 V
12 -1137 V
12 1137 V
11 -604 V
12 0 V
12 0 V
12 -283 V
11 -245 V
12 0 V
12 172 V
12 0 V
11 0 V
12 0 V
12 225 V
12 209 V
11 0 V
12 0 V
12 0 V
12 0 V
11 -10 V
12 0 V
12 0 V
12 0 V
11 0 V
12 0 V
12 0 V
12 0 V
11 0 V
stroke 11527 8087 M
12 0 V
12 0 V
12 0 V
11 0 V
12 -182 V
12 0 V
12 0 V
11 0 V
12 -63 V
12 0 V
12 245 V
11 0 V
12 0 V
12 66 V
12 0 V
12 188 V
11 0 V
12 0 V
12 0 V
12 0 V
11 0 V
12 0 V
12 0 V
12 0 V
11 0 V
12 0 V
12 0 V
12 0 V
11 0 V
12 0 V
12 -89 V
12 0 V
11 0 V
12 0 V
12 349 V
12 0 V
11 0 V
12 0 V
12 0 V
12 0 V
11 0 V
12 0 V
12 101 V
12 -101 V
11 -928 V
12 702 V
12 868 V
12 0 V
11 0 V
12 0 V
12 0 V
12 -596 V
11 0 V
12 240 V
12 0 V
12 0 V
11 0 V
12 2 V
12 -349 V
12 228 V
11 -373 V
12 337 V
12 0 V
12 -37 V
11 -39 V
12 112 V
12 -162 V
12 7 V
11 97 V
12 0 V
12 0 V
12 17 V
11 -136 V
12 -61 V
12 0 V
12 0 V
11 257 V
12 0 V
12 3 V
12 0 V
11 -560 V
12 710 V
12 -400 V
12 29 V
11 133 V
12 0 V
12 0 V
12 0 V
11 0 V
12 0 V
12 0 V
12 0 V
11 117 V
12 0 V
12 0 V
12 -117 V
11 0 V
12 0 V
12 112 V
12 -112 V
11 112 V
12 0 V
12 0 V
12 -112 V
stroke 12750 8702 M
11 112 V
12 0 V
12 5 V
12 -102 V
11 0 V
12 0 V
12 0 V
12 0 V
12 0 V
11 0 V
12 -2 V
12 0 V
12 244 V
11 0 V
12 158 V
12 0 V
12 0 V
11 0 V
12 0 V
12 0 V
12 0 V
11 0 V
12 0 V
12 -83 V
12 0 V
11 -31 V
12 0 V
12 0 V
12 0 V
11 -749 V
12 0 V
12 0 V
12 0 V
11 0 V
12 0 V
12 0 V
12 -191 V
11 0 V
12 0 V
12 191 V
12 -191 V
11 0 V
12 0 V
12 0 V
12 19 V
11 0 V
12 172 V
12 0 V
12 0 V
11 0 V
12 0 V
12 10 V
12 0 V
11 0 V
12 0 V
12 0 V
12 0 V
11 -196 V
12 0 V
12 196 V
12 -269 V
11 0 V
12 -608 V
12 0 V
12 0 V
11 0 V
12 0 V
12 0 V
12 -7 V
11 0 V
12 0 V
12 0 V
12 760 V
11 0 V
12 0 V
12 0 V
12 0 V
% End plot #1
% Begin plot #2
stroke
LT1
9090 7616 M
5 0 V
11 -1 V
12 0 V
12 0 V
12 0 V
11 0 V
12 0 V
12 0 V
12 0 V
11 0 V
12 0 V
12 0 V
12 0 V
11 0 V
12 0 V
12 0 V
12 0 V
11 0 V
12 0 V
12 0 V
12 0 V
12 0 V
11 0 V
12 -147 V
12 0 V
12 0 V
11 0 V
12 0 V
12 0 V
12 0 V
11 0 V
12 0 V
12 -222 V
12 0 V
11 0 V
12 0 V
12 23 V
12 557 V
11 0 V
12 -557 V
12 558 V
12 0 V
11 -507 V
12 -51 V
12 0 V
12 0 V
11 558 V
12 0 V
12 0 V
12 -128 V
11 157 V
12 -157 V
12 0 V
12 157 V
11 0 V
12 -465 V
12 0 V
12 0 V
11 158 V
12 -158 V
12 158 V
12 -158 V
11 0 V
12 491 V
12 0 V
12 0 V
11 0 V
12 0 V
12 0 V
12 0 V
11 0 V
12 0 V
12 34 V
12 -71 V
11 0 V
12 0 V
12 0 V
12 -288 V
11 -29 V
12 0 V
12 2 V
12 24 V
11 0 V
12 0 V
12 0 V
12 -23 V
11 0 V
12 0 V
12 0 V
12 0 V
11 0 V
12 0 V
12 387 V
12 0 V
11 474 V
12 0 V
12 0 V
12 0 V
11 0 V
12 186 V
12 0 V
12 -272 V
11 0 V
12 0 V
stroke 10305 8306 M
12 0 V
12 0 V
11 0 V
12 0 V
12 0 V
12 0 V
11 0 V
12 0 V
12 -623 V
12 -18 V
11 112 V
12 -8 V
12 0 V
12 -17 V
11 0 V
12 0 V
12 0 V
12 -42 V
12 0 V
11 0 V
12 0 V
12 0 V
12 0 V
11 -99 V
12 0 V
12 0 V
12 0 V
11 0 V
12 12 V
12 0 V
12 0 V
11 0 V
12 280 V
12 0 V
12 0 V
11 0 V
12 0 V
12 0 V
12 -95 V
11 36 V
12 0 V
12 0 V
12 0 V
11 0 V
12 0 V
12 0 V
12 0 V
11 0 V
12 0 V
12 0 V
12 290 V
11 73 V
12 0 V
12 0 V
12 -443 V
11 443 V
12 -442 V
12 443 V
12 0 V
11 -412 V
12 412 V
12 0 V
12 29 V
11 -310 V
12 288 V
12 0 V
12 17 V
11 -334 V
12 0 V
12 0 V
12 0 V
11 0 V
12 -1125 V
12 354 V
12 0 V
11 -169 V
12 0 V
12 1142 V
12 -1142 V
11 815 V
12 0 V
12 0 V
12 -668 V
11 181 V
12 0 V
12 -106 V
12 0 V
11 0 V
12 0 V
12 249 V
12 292 V
11 0 V
12 0 V
12 0 V
12 0 V
11 233 V
12 0 V
12 0 V
12 0 V
11 0 V
12 0 V
12 0 V
12 0 V
11 0 V
stroke 11527 7954 M
12 0 V
12 0 V
12 0 V
11 0 V
12 -63 V
12 0 V
12 0 V
11 0 V
12 -12 V
12 0 V
12 75 V
11 0 V
12 0 V
12 -683 V
12 0 V
12 197 V
11 0 V
12 0 V
12 0 V
12 0 V
11 0 V
12 0 V
12 0 V
12 0 V
11 0 V
12 0 V
12 0 V
12 0 V
11 0 V
12 0 V
12 -59 V
12 -1 V
11 0 V
12 0 V
12 -50 V
12 0 V
11 0 V
12 0 V
12 0 V
12 0 V
11 0 V
12 0 V
12 96 V
12 -96 V
11 694 V
12 -260 V
12 -32 V
12 0 V
11 0 V
12 0 V
12 0 V
12 174 V
11 0 V
12 -84 V
12 0 V
12 0 V
11 0 V
12 0 V
12 -19 V
12 88 V
11 -91 V
12 42 V
12 0 V
12 210 V
11 16 V
12 10 V
12 -106 V
12 -141 V
11 85 V
12 0 V
12 0 V
12 -22 V
11 -183 V
12 50 V
12 0 V
12 0 V
11 103 V
12 0 V
12 0 V
12 0 V
11 -211 V
12 234 V
12 114 V
12 9 V
11 -130 V
12 0 V
12 0 V
12 0 V
11 0 V
12 0 V
12 0 V
12 0 V
11 704 V
12 0 V
12 0 V
12 -704 V
11 0 V
12 0 V
12 686 V
12 -686 V
11 686 V
12 0 V
12 0 V
12 -686 V
stroke 12750 7908 M
11 686 V
12 0 V
12 18 V
12 -212 V
11 0 V
12 0 V
12 1 V
12 0 V
12 -1 V
11 0 V
12 1 V
12 -1 V
12 259 V
11 -1 V
12 18 V
12 0 V
12 0 V
11 0 V
12 0 V
12 0 V
12 0 V
11 0 V
12 0 V
12 50 V
12 0 V
11 -263 V
12 0 V
12 0 V
12 0 V
11 -141 V
12 0 V
12 0 V
12 -2 V
11 0 V
12 0 V
12 0 V
12 11 V
11 0 V
12 0 V
12 -11 V
12 11 V
11 0 V
12 0 V
12 0 V
12 242 V
11 1 V
12 -21 V
12 0 V
12 0 V
11 0 V
12 0 V
12 -5 V
12 0 V
11 0 V
12 0 V
12 0 V
12 0 V
11 -500 V
12 0 V
12 500 V
12 -69 V
11 0 V
12 -304 V
12 0 V
12 0 V
11 0 V
12 0 V
12 0 V
12 446 V
11 0 V
12 0 V
12 0 V
12 -867 V
11 0 V
12 0 V
12 0 V
12 0 V
% End plot #2
stroke
LTb
9090 9766 N
0 -3634 V
4701 0 V
0 3634 V
-4701 0 V
Z stroke
1.000 UP
1.000 UL
LTb
stroke
grestore
end
showpage
%%Trailer
%%DocumentFonts: Times-Roman
