# Created by Octave 3.4.3, Wed Apr 26 15:38:27 2017 CEST <yhan@lxplus045.cern.ch>
# name: Response
# type: scalar struct
# ndims: 2
 1 1
# length: 12
# name: Corrector_all
# type: matrix
# rows: 1
# columns: 1053
 4 8 12 16 20 24 28 32 36 40 44 48 52 56 60 64 68 72 76 80 84 88 92 96 100 104 108 112 116 120 124 128 132 136 140 144 148 152 157 161 165 169 173 177 181 185 190 194 198 202 208 214 221 227 233 239 243 247 251 255 260 264 268 272 276 280 284 288 294 298 302 306 310 325 337 349 361 375 379 383 387 399 403 407 411 415 419 423 427 431 435 439 443 447 451 455 459 463 467 471 475 479 483 487 491 495 499 503 507 511 515 519 523 527 531 536 540 544 548 552 568 580 592 604 616 628 640 652 664 676 688 700 712 724 736 748 760 772 784 796 808 820 832 844 856 868 880 892 904 916 928 940 952 964 976 988 1000 1012 1024 1036 1048 1060 1072 1084 1096 1108 1120 1132 1144 1156 1168 1180 1192 1204 1216 1228 1240 1252 1264 1276 1288 1300 1312 1324 1336 1348 1360 1372 1386 1389 1393 1396 1400 1403 1407 1410 1414 1417 1421 1424 1428 1431 1435 1438 1442 1446 1450 1453 1457 1460 1471 1477 1481 1491 1495 1501 1509 1518 1524 1528 1538 1542 1548 1556 1565 1571 1575 1585 1589 1595 1603 1612 1618 1622 1632 1636 1642 1650 1659 1665 1669 1679 1683 1689 1697 1706 1712 1716 1726 1730 1736 1744 1753 1759 1763 1773 1777 1783 1791 1800 1806 1810 1820 1824 1830 1838 1847 1853 1857 1867 1871 1877 1885 1894 1900 1904 1914 1918 1924 1932 1941 1947 1951 1961 1965 1971 1979 1988 1994 1998 2008 2012 2018 2026 2035 2041 2045 2055 2059 2065 2073 2082 2088 2092 2102 2106 2112 2120 2129 2135 2139 2149 2153 2159 2167 2176 2182 2186 2196 2200 2206 2214 2223 2229 2233 2243 2247 2253 2261 2270 2276 2280 2290 2294 2300 2308 2317 2323 2327 2337 2341 2347 2355 2364 2370 2374 2384 2388 2394 2402 2411 2417 2421 2431 2435 2441 2449 2458 2464 2468 2478 2482 2488 2496 2505 2511 2515 2525 2529 2535 2543 2552 2558 2562 2572 2576 2582 2590 2599 2605 2609 2619 2623 2629 2637 2646 2652 2656 2666 2670 2676 2684 2693 2699 2703 2713 2717 2723 2731 2740 2746 2750 2760 2764 2770 2778 2787 2793 2797 2807 2811 2817 2825 2834 2840 2844 2854 2858 2864 2874 2882 2888 2892 2902 2906 2912 2922 2925 2929 2932 2936 2939 2943 2946 2950 2951 2954 2958 2959 2962 2966 2967 2970 2974 2975 2978 2982 2985 2989 2992 2996 2999 3010 3014 3020 3024 3032 3036 3040 3044 3048 3052 3056 3060 3064 3068 3072 3076 3080 3084 3088 3092 3096 3100 3104 3108 3112 3116 3120 3128 3132 3138 3142 3150 3154 3158 3162 3171 3177 3181 3191 3195 3201 3210 3214 3218 3222 3226 3231 3235 3239 3243 3247 3251 3255 3259 3263 3267 3271 3275 3279 3283 3287 3291 3295 3299 3303 3307 3311 3315 3319 3323 3327 3331 3335 3339 3343 3347 3351 3355 3359 3363 3367 3371 3375 3379 3383 3387 3391 3395 3399 3403 3407 3411 3415 3419 3423 3427 3431 3435 3439 3443 3447 3451 3455 3459 3463 3467 3471 3475 3479 3483 3487 3491 3495 3499 3503 3507 3511 3515 3519 3523 3527 3531 3535 3539 3543 3547 3551 3555 3559 3563 3567 3571 3575 3579 3583 3587 3591 3595 3599 3603 3607 3611 3617 3619 3622 3624 3629 3631 3634 3636 3639 3641 3646 3648 3651 3653 3658 3661 3664 3667 3670 3673 3676 3679 3682 3684 3687 3689 3694 3697 3701 3704 3713 3719 3723 3733 3737 3743 3751 3760 3766 3770 3780 3784 3790 3798 3807 3813 3817 3827 3831 3837 3845 3854 3860 3864 3874 3878 3884 3892 3901 3907 3911 3921 3925 3931 3939 3948 3954 3958 3968 3972 3978 3986 3995 4001 4005 4015 4019 4025 4033 4042 4048 4052 4062 4066 4072 4080 4089 4095 4099 4109 4113 4119 4127 4136 4142 4146 4156 4160 4166 4176 4180 4184 4188 4192 4196 4200 4204 4208 4212 4216 4220 4224 4228 4232 4236 4240 4244 4248 4252 4257 4266 4273 4276 4286 4290 4296 4304 4313 4320 4323 4333 4337 4343 4351 4360 4367 4370 4380 4384 4390 4398 4407 4414 4417 4427 4431 4437 4445 4454 4461 4464 4474 4478 4484 4492 4501 4508 4511 4521 4525 4531 4539 4548 4555 4558 4568 4572 4578 4586 4595 4602 4605 4615 4619 4625 4633 4642 4649 4652 4662 4666 4672 4680 4689 4696 4699 4709 4713 4719 4727 4736 4743 4746 4756 4760 4766 4774 4783 4790 4793 4803 4807 4813 4821 4830 4837 4840 4850 4854 4860 4868 4877 4884 4887 4897 4901 4907 4915 4924 4931 4934 4944 4948 4954 4962 4971 4978 4981 4991 4995 5001 5009 5018 5025 5028 5038 5042 5048 5056 5065 5072 5075 5085 5089 5095 5103 5112 5119 5122 5132 5136 5142 5150 5159 5166 5169 5179 5183 5189 5197 5206 5213 5216 5226 5230 5236 5244 5253 5260 5263 5273 5277 5283 5291 5300 5307 5310 5320 5324 5330 5338 5347 5354 5357 5367 5371 5377 5385 5394 5401 5404 5414 5418 5424 5432 5441 5448 5451 5461 5465 5471 5479 5488 5495 5498 5508 5512 5518 5526 5535 5542 5545 5555 5559 5565 5573 5582 5589 5592 5602 5606 5612 5620 5629 5636 5639 5649 5653 5659 5667 5676 5683 5686 5696 5700 5706 5714 5723 5730 5733 5743 5747 5753 5761 5770 5777 5780 5790 5794 5800 5808 5817 5824 5827 5837 5841 5847 5855 5864 5871 5874 5884 5888 5894 5902 5911 5918 5921 5931 5935 5941 5949 5958 5965 5968 5978 5982 5988 5996 6005 6012 6015 6025 6029 6035 6043 6052 6059 6062 6072 6076 6082 6090 6099 6106 6109 6119 6123 6129 6138 6141 6145 6148 6152 6155 6159 6164 6166 6169 6173 6176 6180 6183 6187 6190 6194 6198 6202 6205 6209 6212 6232 6248 6264 6280 6296 6312 6328 6344 6360 6376 6392 6408 6426 6430 6434 6438 6450 6454 6458 6462 6474 6478 6482 6486 6490 6494 6498 6502 6506 6510 6514 6518 6523 6527 6531 6535 6539 6542


# name: Bpms_all
# type: matrix
# rows: 1
# columns: 1030
 2 6 10 14 18 22 26 30 34 38 42 46 50 54 58 62 66 70 74 78 82 86 90 94 98 102 106 110 114 118 122 126 130 134 138 142 146 150 155 159 163 167 171 175 179 183 188 192 196 200 206 212 219 225 231 237 241 245 249 253 258 262 266 270 274 278 282 286 292 296 300 304 308 323 335 347 359 373 377 381 385 397 401 405 409 413 417 421 425 429 433 437 441 445 449 453 457 461 465 469 473 477 481 485 489 493 497 501 505 509 513 517 521 525 529 534 538 542 546 550 556 566 578 590 602 614 626 638 650 662 674 686 698 710 722 734 746 758 770 782 794 806 818 830 842 854 866 878 890 902 914 926 938 950 962 974 986 998 1010 1022 1034 1046 1058 1070 1082 1094 1106 1118 1130 1142 1154 1166 1178 1190 1202 1214 1226 1238 1250 1262 1274 1286 1298 1310 1322 1334 1346 1358 1370 1384 1387 1391 1394 1398 1401 1405 1408 1412 1415 1419 1422 1426 1429 1433 1436 1440 1444 1448 1451 1455 1458 1469 1475 1479 1489 1493 1499 1507 1516 1522 1526 1536 1540 1546 1554 1563 1569 1573 1583 1587 1593 1601 1610 1616 1620 1630 1634 1640 1648 1657 1663 1667 1677 1681 1687 1695 1704 1710 1714 1724 1728 1734 1742 1751 1757 1761 1771 1775 1781 1789 1798 1804 1808 1818 1822 1828 1836 1845 1851 1855 1865 1869 1875 1883 1892 1898 1902 1912 1916 1922 1930 1939 1945 1949 1959 1963 1969 1977 1986 1992 1996 2006 2010 2016 2024 2033 2039 2043 2053 2057 2063 2071 2080 2086 2090 2100 2104 2110 2118 2127 2133 2137 2147 2151 2157 2165 2174 2180 2184 2194 2198 2204 2212 2221 2227 2231 2241 2245 2251 2259 2268 2274 2278 2288 2292 2298 2306 2315 2321 2325 2335 2339 2345 2353 2362 2368 2372 2382 2386 2392 2400 2409 2415 2419 2429 2433 2439 2447 2456 2462 2466 2476 2480 2486 2494 2503 2509 2513 2523 2527 2533 2541 2550 2556 2560 2570 2574 2580 2588 2597 2603 2607 2617 2621 2627 2635 2644 2650 2654 2664 2668 2674 2682 2691 2697 2701 2711 2715 2721 2729 2738 2744 2748 2758 2762 2768 2776 2785 2791 2795 2805 2809 2815 2823 2832 2838 2842 2852 2856 2862 2872 2880 2886 2890 2900 2904 2910 2920 2923 2927 2930 2934 2937 2941 2944 2948 2952 2956 2960 2964 2968 2972 2976 2980 2983 2987 2990 2994 2997 3001 3008 3012 3018 3022 3030 3034 3038 3042 3046 3050 3054 3058 3062 3066 3070 3074 3078 3082 3086 3090 3094 3098 3102 3106 3110 3114 3118 3126 3130 3136 3140 3148 3152 3156 3160 3169 3175 3179 3189 3193 3199 3208 3212 3216 3220 3224 3229 3233 3237 3241 3245 3249 3253 3257 3261 3265 3269 3273 3277 3281 3285 3289 3293 3297 3301 3305 3309 3313 3317 3321 3325 3329 3333 3337 3341 3345 3349 3353 3357 3361 3365 3369 3373 3377 3381 3385 3389 3393 3397 3401 3405 3409 3413 3417 3421 3425 3429 3433 3437 3441 3445 3449 3453 3457 3461 3465 3469 3473 3477 3481 3485 3489 3493 3497 3501 3505 3509 3513 3517 3521 3525 3529 3533 3537 3541 3545 3549 3553 3557 3561 3565 3569 3573 3577 3581 3585 3589 3593 3597 3601 3605 3609 3659 3665 3671 3677 3692 3695 3699 3702 3714 3720 3724 3734 3738 3744 3752 3761 3767 3771 3781 3785 3791 3799 3808 3814 3818 3828 3832 3838 3846 3855 3861 3865 3875 3879 3885 3893 3902 3908 3912 3922 3926 3932 3940 3949 3955 3959 3969 3973 3979 3987 3996 4002 4006 4016 4020 4026 4034 4043 4049 4053 4063 4067 4073 4081 4090 4096 4100 4110 4114 4120 4128 4137 4143 4147 4157 4161 4167 4177 4181 4185 4189 4193 4197 4201 4205 4209 4213 4217 4221 4225 4229 4233 4237 4241 4245 4249 4253 4256 4267 4272 4277 4287 4291 4297 4305 4314 4319 4324 4334 4338 4344 4352 4361 4366 4371 4381 4385 4391 4399 4408 4413 4418 4428 4432 4438 4446 4455 4460 4465 4475 4479 4485 4493 4502 4507 4512 4522 4526 4532 4540 4549 4554 4559 4569 4573 4579 4587 4596 4601 4606 4616 4620 4626 4634 4643 4648 4653 4663 4667 4673 4681 4690 4695 4700 4710 4714 4720 4728 4737 4742 4747 4757 4761 4767 4775 4784 4789 4794 4804 4808 4814 4822 4831 4836 4841 4851 4855 4861 4869 4878 4883 4888 4898 4902 4908 4916 4925 4930 4935 4945 4949 4955 4963 4972 4977 4982 4992 4996 5002 5010 5019 5024 5029 5039 5043 5049 5057 5066 5071 5076 5086 5090 5096 5104 5113 5118 5123 5133 5137 5143 5151 5160 5165 5170 5180 5184 5190 5198 5207 5212 5217 5227 5231 5237 5245 5254 5259 5264 5274 5278 5284 5292 5301 5306 5311 5321 5325 5331 5339 5348 5353 5358 5368 5372 5378 5386 5395 5400 5405 5415 5419 5425 5433 5442 5447 5452 5462 5466 5472 5480 5489 5494 5499 5509 5513 5519 5527 5536 5541 5546 5556 5560 5566 5574 5583 5588 5593 5603 5607 5613 5621 5630 5635 5640 5650 5654 5660 5668 5677 5682 5687 5697 5701 5707 5715 5724 5729 5734 5744 5748 5754 5762 5771 5776 5781 5791 5795 5801 5809 5818 5823 5828 5838 5842 5848 5856 5865 5870 5875 5885 5889 5895 5903 5912 5917 5922 5932 5936 5942 5950 5959 5964 5969 5979 5983 5989 5997 6006 6011 6016 6026 6030 6036 6044 6053 6058 6063 6073 6077 6083 6091 6100 6105 6110 6120 6124 6130 6139 6142 6146 6149 6153 6156 6160 6162 6167 6170 6174 6177 6181 6184 6188 6191 6195 6199 6203 6206 6210 6213 6233 6249 6265 6281 6297 6313 6329 6345 6361 6377 6393 6409 6427 6431 6435 6439 6451 6455 6459 6463 6475 6479 6483 6487 6491 6495 6499 6503 6507 6511 6515 6519 6524 6528 6532 6536 6540 6543 6546


# name: Start
# type: scalar
6197


# name: End
# type: scalar
6547


# name: Corrector
# type: matrix
# rows: 1
# columns: 43
 6198 6202 6205 6209 6212 6232 6248 6264 6280 6296 6312 6328 6344 6360 6376 6392 6408 6426 6430 6434 6438 6450 6454 6458 6462 6474 6478 6482 6486 6490 6494 6498 6502 6506 6510 6514 6518 6523 6527 6531 6535 6539 6542


# name: Bpms
# type: matrix
# rows: 1
# columns: 44
 6199 6203 6206 6210 6213 6233 6249 6265 6281 6297 6313 6329 6345 6361 6377 6393 6409 6427 6431 6435 6439 6451 6455 6459 6463 6475 6479 6483 6487 6491 6495 6499 6503 6507 6511 6515 6519 6524 6528 6532 6536 6540 6543 6546


# name: B0
# type: matrix
# rows: 44
# columns: 2
 3.175213724062006 -0.09227634881924326
 2.420117220254508 -0.09775245318205641
 2.252778590077527 -0.09853498694463617
 1.715449517519006 -0.0943228165093201
 1.624399564107017 -0.09135661964173697
 1.64024486000722 0.01937904242079293
 5.065276354947218e-05 0.1435170158556265
 -1.96540718629601 0.1121265170350833
 -1.754565048783604 0.1844895391685278
 -3.218743673388317 0.07139604431695969
 -1.420084918585235 0.005957241703866685
 -0.6537784545471831 -0.05415792520596154
 0.5926476825759844 -0.1793087284726735
 2.666044713184625 -0.115007024193298
 1.890640907585678 -0.1508027343222915
 2.809936102592711 -0.03889703560147089
 0.945027983142822 0.05705582805222834
 -0.8589328040865063 0.09105110296803123
 -4.097582242030569 0.3712099994584576
 -9.220758251607736 0.1973992262950242
 -9.630283779682667 0.1742166914477513
 -1.780623367175182 -0.3764479409886806
 -2.363188373829116 -0.4553916037823493
 -3.649429139968146 -0.3769096977002396
 -4.78993872660142 -0.2959365075971633
 -1.401964055617605 -0.3417075215772143
 -1.606459206743804 -0.2361608514380182
 -1.39471872418595 -0.1704282829066449
 -1.10937048026397 -0.1018357419965834
 -1.029682906246381 -0.05283789480269502
 0.04209815411907779 0.1107972108588305
 1.165042206779169 0.1875785233457595
 1.395692940210525 0.4081966370037502
 2.680547693864139 0.317073081841353
 1.940680660776496 0.4650701038823846
 2.647193927271439 0.260145790782223
 1.366874864751799 0.2490250275703214
 1.075331246928712 0.03916939836808202
 0.8942101816494296 0.01871401264973952
 0.1294087518932748 -0.04496515810244463
 -0.8293521272034365 -0.07145613428062014
 -0.6063919783211249 -0.1477696168338884
 -0.6074521102615659 -0.1483546776327968
 -0.7934324696847411 -0.1120122661020927


# name: R0x
# type: matrix
# rows: 44
# columns: 43
 0 0 0 0 0 0 0 0 0 0 0 0 0 0 0 0 0 0 0 0 0 0 0 0 0 0 0 0 0 0 0 0 0 0 0 0 0 0 0 0 0 0 0
 0.08182719063686816 0 0 0 0 0 0 0 0 0 0 0 0 0 0 0 0 0 0 0 0 0 0 0 0 0 0 0 0 0 0 0 0 0 0 0 0 0 0 0 0 0 0
 0.1017315705279467 0.01948330375578911 0 0 0 0 0 0 0 0 0 0 0 0 0 0 0 0 0 0 0 0 0 0 0 0 0 0 0 0 0 0 0 0 0 0 0 0 0 0 0 0 0
 0.1940175926451413 0.1036694590131406 0.08269076740677139 0 0 0 0 0 0 0 0 0 0 0 0 0 0 0 0 0 0 0 0 0 0 0 0 0 0 0 0 0 0 0 0 0 0 0 0 0 0 0 0
 0.2199414957156516 0.1257738439832476 0.1039994609156032 0.01956712264519234 0 0 0 0 0 0 0 0 0 0 0 0 0 0 0 0 0 0 0 0 0 0 0 0 0 0 0 0 0 0 0 0 0 0 0 0 0 0 0
 0.7535399659517827 0.5320050179543709 0.4819945318249876 0.3067349914367055 0.2717235419588866 0 0 0 0 0 0 0 0 0 0 0 0 0 0 0 0 0 0 0 0 0 0 0 0 0 0 0 0 0 0 0 0 0 0 0 0 0 0
 0.3908789530576727 0.2980860771411927 0.277525720803503 0.2115642206341796 0.2004115006670486 0.2037195584866446 0 0 0 0 0 0 0 0 0 0 0 0 0 0 0 0 0 0 0 0 0 0 0 0 0 0 0 0 0 0 0 0 0 0 0 0 0
 0.3399528425525991 0.3102758525476026 0.3048062789797519 0.3049862527334024 0.3114521036850919 0.647066503950334 0.2437378072093075 0 0 0 0 0 0 0 0 0 0 0 0 0 0 0 0 0 0 0 0 0 0 0 0 0 0 0 0 0 0 0 0 0 0 0 0
 -0.02242794517144064 0.02856706558243638 0.04085609517296107 0.09614817952710175 0.1112568187934351 0.4088771205339699 0.2181617105437328 0.2037417813730245 0 0 0 0 0 0 0 0 0 0 0 0 0 0 0 0 0 0 0 0 0 0 0 0 0 0 0 0 0 0 0 0 0 0 0
 -0.4780120769593106 -0.2805212490740177 -0.234941698945998 -0.05952712314092867 -0.01927272739385488 0.5245091903102033 0.4013164973414787 0.6471423553232452 0.2437656385424098 0 0 0 0 0 0 0 0 0 0 0 0 0 0 0 0 0 0 0 0 0 0 0 0 0 0 0 0 0 0 0 0 0 0
 -0.4090431389159794 -0.2749181812546748 -0.2443973488203415 -0.1336196455824257 -0.1102206053768449 0.1277151308811069 0.1768486535091811 0.4089108403335062 0.2181806700420923 0.2037645730023805 0 0 0 0 0 0 0 0 0 0 0 0 0 0 0 0 0 0 0 0 0 0 0 0 0 0 0 0 0 0 0 0 0
 -0.727328486633935 -0.5376006052077723 -0.4951922606761979 -0.3532103700042643 -0.3270522931771128 -0.2219465033912346 0.08153831090188701 0.524524778611302 0.4013448069118933 0.6472216361445923 0.2437944484470783 0 0 0 0 0 0 0 0 0 0 0 0 0 0 0 0 0 0 0 0 0 0 0 0 0 0 0 0 0 0 0 0
 -0.3090909598855328 -0.251376558002549 -0.2389280924402797 -0.2044319252336527 -0.2005745636297029 -0.3053183030358762 -0.07479959811312953 0.1277047802457967 0.1768538010724666 0.4089420206871744 0.2181986783019418 0.2037879334748052 0 0 0 0 0 0 0 0 0 0 0 0 0 0 0 0 0 0 0 0 0 0 0 0 0 0 0 0 0 0 0
 -0.111442022688014 -0.1551603520896601 -0.1663681123457041 -0.226702747099738 -0.2457539747343165 -0.7042744890380794 -0.3351837121949433 -0.2220212646687121 0.08151135721462799 0.5245285191465672 0.4013693653505634 0.6473043465684909 0.243824237028893 0 0 0 0 0 0 0 0 0 0 0 0 0 0 0 0 0 0 0 0 0 0 0 0 0 0 0 0 0 0
 0.1584230264965301 0.07111232949332291 0.05068942382484631 -0.0320971368404912 -0.05236261334685266 -0.3751037067367797 -0.2374222418024123 -0.3053303066626998 -0.07480843862622177 0.1276873779773673 0.1768557057843243 0.408970662546875 0.2182157356143872 0.2038118629251666 0 0 0 0 0 0 0 0 0 0 0 0 0 0 0 0 0 0 0 0 0 0 0 0 0 0 0 0 0
 0.6366964847743706 0.4116417956911205 0.3601740068488217 0.1693814953188024 0.1278021696814768 -0.3487077425447138 -0.3530733963836816 -0.704246179074739 -0.3351966730846856 -0.2221084799479938 0.08147694482651868 0.5245204151528764 0.4013901737034868 0.6473904870567568 0.2438550044631742 0 0 0 0 0 0 0 0 0 0 0 0 0 0 0 0 0 0 0 0 0 0 0 0 0 0 0 0
 0.4372263397919388 0.3088171355948554 0.2798316799772237 0.1782900101821564 0.1580173641180277 0.001224995332943513 -0.1176166940081492 -0.375039749711181 -0.2373985334376729 -0.3053372300735306 -0.07481676613768551 0.1276629251779212 0.1768543678022504 0.4089967662326838 0.2182318420565513 0.2038363615128881 0 0 0 0 0 0 0 0 0 0 0 0 0 0 0 0 0 0 0 0 0 0 0 0 0 0 0
 0.7199296232252961 0.5724073881809608 0.5402273272970617 0.4451108058088568 0.4319778038210136 0.5905594784340286 0.1116033337626277 -0.3520612279586006 -0.408531070685203 -0.876387781506804 -0.4428916921407098 -0.3582464597498978 0.04972485524088843 0.5865349593395551 0.4834487841352298 0.833855918229425 0.3420888284588331 0 0 0 0 0 0 0 0 0 0 0 0 0 0 0 0 0 0 0 0 0 0 0 0 0 0
 0.1786916456326773 0.2452247930849518 0.2623280688817777 0.3550460147857373 0.3844625644818005 1.096388854474247 0.5203929624206509 0.3411787066030816 -0.129799676604117 -0.8204412442356137 -0.6259718805133314 -1.006674338094136 -0.3776617832543243 0.004802838550433286 0.3201637674428559 1.01117786766809 0.6373867233789188 0.9103780769745393 0 0 0 0 0 0 0 0 0 0 0 0 0 0 0 0 0 0 0 0 0 0 0 0 0
 0.04095566601695211 0.2762206824552695 0.3336586069130298 0.603032513439647 0.6794728845292859 2.277222582672569 1.170150319124877 0.9922190054068061 -0.09040266183096612 -1.47419260719917 -1.244203132419882 -2.188198406712623 -0.9182767116164339 -0.2987967703473124 0.5005494613749271 1.947365489975899 1.324469762158511 2.149937465115975 0.4809178358588539 0 0 0 0 0 0 0 0 0 0 0 0 0 0 0 0 0 0 0 0 0 0 0 0
 0.01352284757632027 0.2661437510701781 0.3276622763401598 0.6138942615252514 0.694552418280276 2.362772525743675 1.221948605366803 1.054390988034369 -0.07806413767054465 -1.509382685774542 -1.286031227042125 -2.278952384155733 -0.9645415484661388 -0.3371701101322593 0.5048926230048352 2.007068490432215 1.374281862881334 2.253506956254996 0.5413356714435871 0.08796805966593979 0 0 0 0 0 0 0 0 0 0 0 0 0 0 0 0 0 0 0 0 0 0 0
 -1.07206596028464 -0.7318816784197968 -0.6400659477056143 -0.290353839062409 -0.1828316755224837 0.7043955099682913 0.6836591533819025 1.259061204584592 0.598984721522007 0.3295579517473057 -0.2094720249741699 -1.021319447717332 -0.731794455231626 -1.161343101290773 -0.3975373845698464 0.06702337864619845 0.4273847808927951 1.569238922179508 1.818359040999032 3.450840112456569 3.528040648708917 -0.03181804741082361 0 0 0 0 0 0 0 0 0 0 0 0 0 0 0 0 0 0 0 0 0
 -1.28092492007903 -0.9171191023505387 -0.8189796399775515 -0.4524784053361657 -0.3286462465812479 0.4452585114404715 0.6101810514426849 1.32451804243223 0.7233794172539429 0.640172975653994 -0.03370424747306267 -0.8366384553283237 -0.7130129239887544 -1.327016940195041 -0.5588121222582649 -0.2567758136005329 0.2786386370632239 1.494987059219615 2.07775318467873 4.093945330681708 4.207695543869225 0.5524846038906688 -0.02839798712892572 0 0 0 0 0 0 0 0 0 0 0 0 0 0 0 0 0 0 0 0
 -1.88536617436636 -1.381920331034457 -1.246069028165734 -0.7451516942699152 -0.5664339398461919 0.3578418892386965 0.7430489025568519 1.814601673610131 1.070593569075982 1.127317686983457 0.1128569357279932 -0.9434421546345861 -0.9282204863816155 -1.907563228585487 -0.8852505926268828 -0.6306086795842081 0.2361691389945491 1.915468900617466 2.986899769253403 6.00366327338678 6.187070498972 1.255597372412768 0.485444587072756 -0.01160236175499119 0 0 0 0 0 0 0 0 0 0 0 0 0 0 0 0 0 0 0
 -2.433569464315856 -1.798926424181682 -1.627624526153074 -0.9993131489942648 -0.7703320892039116 0.3208721204121003 0.8856266416154557 2.278291832253271 1.384692149958109 1.542849150786215 0.222646728295155 -1.081265743042079 -1.140610888154272 -2.440540717677659 -1.172343602743609 -0.933675371360347 0.2224512772560647 2.337435805817662 3.821586788445871 7.738816140343092 7.983080023547582 1.830140832137781 0.8762488717617676 0.3523932669505152 0.05456572128746284 0 0 0 0 0 0 0 0 0 0 0 0 0 0 0 0 0 0
 -0.8319570784033323 -0.7231333204795098 -0.6947751108205833 -0.6108827369940713 -0.544080611633676 -0.8986392753929113 -0.2239297426042539 0.3203544157062503 0.4919540299126155 1.152304081135323 0.6276606396831624 0.6060341902677783 0.01919901121526912 -0.6815170824254349 -0.6156541297533771 -1.177789167442401 -0.5162844891817038 -0.17121860382293 1.064120953507561 2.569332024533124 2.70897645767489 2.134552941571838 2.097283393815915 2.767059571523284 3.442121237616177 0.01737912597623281 0 0 0 0 0 0 0 0 0 0 0 0 0 0 0 0 0
 -0.9436651596317507 -0.8516643338924665 -0.8282348425488451 -0.7709806196793125 -0.6986338133223211 -1.311975502384512 -0.4068819432819391 0.2302811037011914 0.5634093697008669 1.488503354999484 0.8719936389438587 0.9705994599548966 0.140589973957556 -0.7286988041727116 -0.7606329972510277 -1.585182540292272 -0.7573822944359931 -0.4755358708310333 1.136994214839907 2.892902044913342 3.067523127042625 2.858929679692446 2.90034540815645 3.906290169341771 4.897212705067644 0.3575149843414798 0.0004482328769683797 0 0 0 0 0 0 0 0 0 0 0 0 0 0 0 0
 -0.8064798630053081 -0.7609442924217675 -0.750196495774929 -0.7412715937859189 -0.6829910467532598 -1.429750460694493 -0.5089085570606811 0.05653475129388474 0.4871649253217304 1.463280533985782 0.9139740590061565 1.128039622689093 0.2453454514669373 -0.5760119000909878 -0.7158011160064648 -1.617455654308173 -0.8285364173409815 -0.7033077112170716 0.8974962170856324 2.448928150554321 2.61532594068297 2.904898087561586 3.028622346948426 4.148124238011421 5.232565488223119 0.6624077577792697 0.4066707951048383 0.008649406041667085 0 0 0 0 0 0 0 0 0 0 0 0 0 0 0
 -0.6242731508003101 -0.6334862797392562 -0.6376374550359118 -0.6844926305479706 -0.6441419319253516 -1.521280523663508 -0.6105154098030812 -0.1447227201172119 0.3847049568588217 1.389553587765874 0.9342373813590767 1.274351398726648 0.3581399859754771 -0.3830469452110472 -0.6424317399414838 -1.605052723241493 -0.8849319887220377 -0.9434105747440651 0.5949653987855943 1.864086302948171 2.015957087664794 2.868864249518358 3.083340094642663 4.299038887651801 5.457730016634811 0.9923732251406666 0.8608605591170936 0.4703663753813249 0.01798969775077919 0 0 0 0 0 0 0 0 0 0 0 0 0 0
 -0.5670444463109017 -0.6098407264774131 -0.6232506086797935 -0.7074117992911511 -0.6744603355115208 -1.702711298234027 -0.7221961691785657 -0.2773645967918421 0.3553274567655085 1.461034347342979 1.024115251303817 1.46804895487418 0.4555296486980118 -0.2993205581145357 -0.6519220339091776 -1.731196511890046 -0.9923162184079974 -1.165688226781534 0.4633329371709928 1.669040452744359 1.824838833851664 3.086013679581793 3.372681766952086 4.747142284321827 6.046718972410879 1.272442352372485 1.20433023950997 0.7858544937957157 0.2966687231939993 -0.007005245698019857 0 0 0 0 0 0 0 0 0 0 0 0 0
 0.08168493512083635 -0.06430914745739355 -0.1051301652210568 -0.277154377936327 -0.2981482163311817 -1.174003229479861 -0.637472391627693 -0.6052923474882418 -0.02515028008764581 0.6688270030528614 0.6288012491131904 1.162042357508894 0.5103322427241327 0.2583658733289793 -0.2085641996927381 -0.9591296302951413 -0.6911969847677664 -1.198549226506254 -0.409007444450909 -0.3499487918894301 -0.2934234787712841 1.678758548306544 2.044025934038594 3.041415169275506 3.947246343597424 1.459856655832608 1.697583197083272 1.475825157964755 1.200239560078456 1.122755562357488 -0.01558593916538217 0 0 0 0 0 0 0 0 0 0 0 0
 0.8029978856906295 0.4414216474106021 0.3418120298892209 -0.04979338751166251 -0.1415523804321575 -1.526207816262862 -1.034460847977759 -1.397402470925602 -0.4310121659718744 0.3704814305894657 0.7035393224364392 1.731487182861748 0.9526541888759157 1.020736563624794 0.0839284722860465 -0.9014153122775073 -0.9088059741779219 -2.139854137271515 -1.604779606275444 -2.665571588061718 -2.66700575882147 1.521300700471288 2.243097359518566 3.613200585644756 4.805492205853835 2.75555430795669 3.483973428514531 3.293839042060211 3.02632858412305 3.119897117980599 1.120763267888667 -0.0134553743846102 0 0 0 0 0 0 0 0 0 0 0
 0.9070635448448388 0.6058808505569238 0.5235886817715405 0.2109238708600125 0.1186620352719356 -0.7238811815352574 -0.6458683240210534 -1.12363184072127 -0.5050494313993903 -0.2010869817074337 0.2474528250557437 0.9880843006904427 0.6705266847450801 1.00184691654259 0.3082957077613486 -0.1661265221276258 -0.4386174629599051 -1.454278320031922 -1.572566748033379 -2.935930896321662 -2.993522836825961 0.2202980458473498 0.7492503480649007 1.453752080414447 2.029487193238836 1.955458293351352 2.617706565124809 2.602397304030333 2.544460396045591 2.73575802151154 1.395653970388758 1.118955493163016 -0.0237920218375216 0 0 0 0 0 0 0 0 0 0
 1.700275509697087 1.23226694313618 1.105088128174772 0.6357617439369898 0.473164676925713 -0.456640422940775 -0.7403299498980398 -1.696913564260838 -0.9632303700754494 -0.9347734226870004 -0.02858501798888957 0.9809445661891663 0.8915528564792288 1.741488538807376 0.7697467453717013 0.4552326061552745 -0.2932068197867723 -1.859538526936432 -2.731081090573274 -5.434768204790522 -5.592805059567159 -0.9339902487022487 -0.2002648811834171 0.3621674988031556 0.7480922380907966 2.623893535419905 3.720976334360735 3.871188779518595 3.982146984629013 4.417699989216894 2.731552171752241 3.115550206232519 1.098816711647019 -0.02948288775639885 0 0 0 0 0 0 0 0 0
 1.199754159759957 0.9199799709047982 0.8446724137881441 0.5746397835455233 0.465119744532619 0.1488929913978609 -0.2760483107585812 -0.9830056591763215 -0.6880620892104192 -0.9512086407051049 -0.2781693677001396 0.2362876365408175 0.4383186882350374 1.157934606036381 0.6440770926452186 0.7229599965317501 0.07054318303751139 -0.8579150115538789 -1.813935953066781 -3.799496828358825 -3.937713775092619 -1.366399739783947 -0.9837010856762317 -0.9850304195299187 -1.076850956691658 1.305421014004341 2.003295358871787 2.203925796628413 2.397521972256279 2.745186777953299 1.988958465832353 2.734680180892368 1.376866176088554 1.109112924526838 -0.01491025250780309 0 0 0 0 0 0 0 0
 1.600172862995795 1.299826414003063 1.219993115001614 0.9478942282846514 0.8094916660561866 0.8776166660418574 -0.01324515913819413 -1.002181861036147 -0.9299581222400397 -1.689254360585069 -0.7426863658820786 -0.3419306273868612 0.3093722598376658 1.441952454674406 1.004171102638887 1.542999209829556 0.493484056957485 -0.4902662848267929 -2.256424358186773 -5.016953666038242 -5.239476894234404 -2.840524211209668 -2.524572752136514 -3.099307413220292 -3.745762440324446 0.9552034200743531 1.776765822507876 2.180143387064394 2.604336070735472 3.126187507832616 2.741340211348331 4.418826202966153 2.701604542170066 3.104604766375081 1.124708867203301 -0.01252089192492534 0 0 0 0 0 0 0
 0.7894077647863109 0.6946555257962754 0.6707002611329296 0.6013533318524167 0.5384861568163715 0.9323209933928154 0.2546469925251051 -0.2671707766079194 -0.4675805700340471 -1.142227262826631 -0.6399356684600599 -0.6519647080241978 -0.04949459366676834 0.636202277054946 0.6025123222624524 1.187071806148865 0.5378844622433425 0.2402430040143242 -0.9925514257374637 -2.436186154751281 -2.574401403155731 -2.151534712230116 -2.138990936198307 -2.845114697277777 -3.550403621278857 -0.1089217137080083 0.214926710812426 0.5144722375583088 0.8459669128553386 1.146055240830956 1.416664538101988 2.747928802010733 1.970813573388427 2.73073853259815 1.399716647220859 1.122297463373291 -0.006488205878812936 0 0 0 0 0 0
 0.5504048725441693 0.6010162461734661 0.6178382195202097 0.7110034205441493 0.6791165991636612 1.739981263263269 0.7475483159460512 0.3096933754985798 -0.3453286912139831 -1.470836336867546 -1.043163495818996 -1.509337914452227 -0.4757741553884285 0.2795802601047015 0.6537493739589759 1.757166319446053 1.017251866879356 1.21898034799315 -0.4296313266719394 -1.615549234273303 -1.773841203061803 -3.137153604346035 -3.440999236311571 -4.8551095373346 -6.189737332601968 -1.340540175551445 -1.291758332132492 -0.8636958025380974 -0.3657800659087131 -0.06333728835414809 1.129283285294823 3.156424606377223 2.766313902708768 4.519666952351896 2.818313137050261 3.24230865429663 1.212604529746776 -0.01969150695693589 0 0 0 0 0
 0.4462630116065806 0.5068411008285424 0.5261229914793341 0.6254158566537354 0.6015421426755824 1.593507310749037 0.7016754102064523 0.3342372573511948 -0.2832225144437354 -1.305565199472441 -0.9458777901351884 -1.400623539313602 -0.459736131339642 0.1991356971576056 0.5692350796551856 1.580500145899548 0.932528433076209 1.164795343233128 -0.3040926646828002 -1.295433730277161 -1.434160488702424 -2.817976291028139 -3.116797541842382 -4.41794700930598 -5.641390885946245 -1.299321007541037 -1.289606269987236 -0.905792152955144 -0.4573895256215654 -0.1965852340012673 0.9389062893838481 2.766696306777217 2.47619056826875 4.103116434446868 2.594180514733422 3.041850483191396 1.187809172790388 0.1254994529716859 0.01368428412351419 0 0 0 0
 0.01758365885319563 0.1004262924867292 0.1244488722081892 0.2262220431471824 0.2334071179399606 0.8153604658512982 0.4212152705657868 0.3555294187631599 -0.02446983885442824 -0.5168256411010619 -0.4494491742025917 -0.783564363437892 -0.3227827882488608 -0.1056478884769488 0.183785411921763 0.7038515293473895 0.4805542846034676 0.7727572324470383 0.1705423729443615 0.009041129719409291 -0.03919302373272257 -1.240949777657957 -1.468850641224076 -2.15684222148088 -2.787118453683566 -0.9264517287368793 -1.04912872845967 -0.8827011484911278 -0.6810080938674952 -0.6065955754047108 0.1323873941791523 0.962899321379119 1.058099194363985 1.967960838323147 1.375443819600864 1.821401091797774 0.8902166086633001 0.5886252062232851 0.4857586575354689 0.008356906108432816 0 0 0
 -0.5909776888749683 -0.3642497543647218 -0.3010746475054102 -0.05939768278377522 0.003263419990434002 0.7603328561110907 0.5720529936766738 0.8633821142116619 0.3243383501471656 -0.04636288527846821 -0.319677813264805 -0.9234033986064902 -0.5532152080970634 -0.6963064377894186 -0.1382515616607978 0.3544757902650172 0.4577813074751615 1.229528739981245 1.097848344470067 1.942485655255597 1.962963184531802 -0.5790052423592167 -1.007480388996637 -1.713216818792235 -2.31350197587064 -1.616502167781421 -2.098291912142966 -2.029164397461775 -1.92080274270222 -2.021362213432081 -0.8774635559224175 -0.4040252639743678 0.3859461822087723 1.457189005002244 1.42102189613045 2.460626374070567 1.64223057436935 2.056560210175941 1.829297309389996 0.7083586789612902 -0.005159813257779478 0 0
 -0.393496771017372 -0.2859909417549905 -0.2565901850943449 -0.1484906751895494 -0.1111070657019034 0.09975164045748441 0.1681850318096226 0.3898111336812365 0.2230232631902189 0.2204672609849926 0.009949081619814781 -0.2214367236785219 -0.2039762819018051 -0.4026753994145755 -0.1794681817384399 -0.1108926065546252 0.06490445219664109 0.4259677006215961 0.6329899242827904 1.262183244566201 1.299160361969721 0.2262188442392369 0.05763552699172003 -0.06771407267362528 -0.1523546753537047 -0.6038275590155822 -0.8580860551601814 -0.8943158333085266 -0.9218390075440319 -1.023541621563372 -0.6372018721436072 -0.7329883433848037 -0.2637306158777577 -0.007949842284829978 0.2572064455455103 0.7183098895355331 0.638007623500494 1.055550645813155 0.9574259593466055 0.4582911964481911 0.3383400017244888 -0.007932896305709369 0
 -0.3912150258048843 -0.2880827968666526 -0.2599432692210222 -0.1570274657090309 -0.1202363008880054 0.06409978806140637 0.1488586603971245 0.3715846877268075 0.2223414034742442 0.240876481067328 0.02911299268980272 -0.1862100512552565 -0.1886086445619408 -0.3950785109727475 -0.1859662845961282 -0.1401782210945396 0.04383349800800562 0.3896213551851948 0.6208643513068381 1.252172618556449 1.29094627174953 0.2776731691091637 0.1201360644170164 0.02523246211929431 -0.03174305228034158 -0.5595672587613467 -0.8066162679805879 -0.8497268571646712 -0.8856880537339191 -0.9897988596109075 -0.6380714445796312 -0.7687507085020724 -0.3071091223102507 -0.09227059978523944 0.1962926122685722 0.6347908836305441 0.5950273782072828 1.022365982636053 0.9293977231187655 0.4544824916115086 0.3658522932779872 0.01154819726280976 -0.003895494689805212
 -0.4781669097390866 -0.394892533173951 -0.3729146464378976 -0.2990956550155772 -0.2584288099987986 -0.3216835656874355 -0.02733906045498435 0.2720892517619397 0.2787558533237021 0.5418004549634365 0.2547904841456977 0.159536759471177 -0.06870951271332848 -0.4228314651523948 -0.3132371884474401 -0.5126384172744405 -0.182401482951859 0.08991335856832605 0.6624135485789089 1.499753639786098 1.570039556331912 0.9410012674162982 0.8632738809507019 1.086114683688046 1.326297110850874 -0.219154530710693 -0.4557680038433876 -0.5892485727265362 -0.7312289421993841 -0.8926703004772141 -0.8318641473420911 -1.395689389040798 -0.8872947081112974 -1.074581760321025 -0.4375389463796715 -0.1288155101682634 0.2794449608445857 0.9409954076658973 0.8796587739415684 0.5423604743742291 0.7831195303117408 0.2356670729907638 0.2165553796469469


# name: R0y
# type: matrix
# rows: 44
# columns: 43
 0 0 0 0 0 0 0 0 0 0 0 0 0 0 0 0 0 0 0 0 0 0 0 0 0 0 0 0 0 0 0 0 0 0 0 0 0 0 0 0 0 0 0
 0.0826471401732041 0 0 0 0 0 0 0 0 0 0 0 0 0 0 0 0 0 0 0 0 0 0 0 0 0 0 0 0 0 0 0 0 0 0 0 0 0 0 0 0 0 0
 0.1016200535951214 0.01939845774282846 0 0 0 0 0 0 0 0 0 0 0 0 0 0 0 0 0 0 0 0 0 0 0 0 0 0 0 0 0 0 0 0 0 0 0 0 0 0 0 0 0
 0.173855235549891 0.09970192991372406 0.08178373753710871 0 0 0 0 0 0 0 0 0 0 0 0 0 0 0 0 0 0 0 0 0 0 0 0 0 0 0 0 0 0 0 0 0 0 0 0 0 0 0 0
 0.187276621317764 0.1165807631479732 0.0993871749440884 0.01931507348118122 0 0 0 0 0 0 0 0 0 0 0 0 0 0 0 0 0 0 0 0 0 0 0 0 0 0 0 0 0 0 0 0 0 0 0 0 0 0 0
 0.2244714213515804 0.2552927382794998 0.2612124582258045 0.2662372961354605 0.2618519958929562 0 0 0 0 0 0 0 0 0 0 0 0 0 0 0 0 0 0 0 0 0 0 0 0 0 0 0 0 0 0 0 0 0 0 0 0 0 0
 0.5017568936429102 0.6603888320934643 0.6942216981768168 0.7838857331233527 0.7886560489014364 0.2437242589980348 0 0 0 0 0 0 0 0 0 0 0 0 0 0 0 0 0 0 0 0 0 0 0 0 0 0 0 0 0 0 0 0 0 0 0 0 0
 0.2614789728113724 0.3776999964673851 0.4030339950345736 0.4790873997944546 0.4870224829356505 0.2181518808348671 0.2037305993109978 0 0 0 0 0 0 0 0 0 0 0 0 0 0 0 0 0 0 0 0 0 0 0 0 0 0 0 0 0 0 0 0 0 0 0 0
 0.2301874309431695 0.409540761016244 0.4495289031462464 0.5838166919436248 0.6033134502264542 0.4013009632392589 0.6471040085544024 0.2437516010603781 0 0 0 0 0 0 0 0 0 0 0 0 0 0 0 0 0 0 0 0 0 0 0 0 0 0 0 0 0 0 0 0 0 0 0
 -0.01251250686211678 0.05087445555146156 0.06549038801756139 0.1221144572729002 0.1329320764834197 0.1768448933932183 0.408894321392602 0.2181713161060532 0.2037531065574329 0 0 0 0 0 0 0 0 0 0 0 0 0 0 0 0 0 0 0 0 0 0 0 0 0 0 0 0 0 0 0 0 0 0
 -0.3151820881581757 -0.3284474267581634 -0.3298697191658999 -0.3106925510354545 -0.2996604305619379 0.08154905738009108 0.5245185436032029 0.401331149006493 0.6471815746506373 0.2437799216718734 0 0 0 0 0 0 0 0 0 0 0 0 0 0 0 0 0 0 0 0 0 0 0 0 0 0 0 0 0 0 0 0 0
 -0.2716017543226015 -0.3364376459332493 -0.3499232234230987 -0.380075748134217 -0.3792422151955264 -0.07479494759790978 0.127710900821594 0.1768516623702593 0.4089267713223061 0.2181897999409183 0.2037761825934658 0 0 0 0 0 0 0 0 0 0 0 0 0 0 0 0 0 0 0 0 0 0 0 0 0 0 0 0 0 0 0 0
 -0.4855875446962545 -0.6756698458669711 -0.7168058937780004 -0.8355369601158839 -0.8460911221364126 -0.3351742893997826 -0.2219822139323781 0.08152583283761719 0.5245282074605805 0.4013575828328564 0.6472625702319804 0.2438092208970492 0 0 0 0 0 0 0 0 0 0 0 0 0 0 0 0 0 0 0 0 0 0 0 0 0 0 0 0 0 0 0
 -0.2076110386550216 -0.3235273685980286 -0.3490688413826084 -0.4301158126433067 -0.4402554013074405 -0.2374298569752557 -0.305324898125654 -0.07480404596223215 0.1276970242826574 0.1768551885025697 0.4089566823532542 0.2182073327068018 0.2037998275373119 0 0 0 0 0 0 0 0 0 0 0 0 0 0 0 0 0 0 0 0 0 0 0 0 0 0 0 0 0 0
 -0.07836295646041325 -0.2191073469202504 -0.2510141190865316 -0.3663817090697774 -0.3859614511931494 -0.3531098580062322 -0.7042637140557516 -0.3351911265077757 -0.2220632022780036 0.08149514982407084 0.5245260255494054 0.4013802661749288 0.6473469956185839 0.2438394988784542 0 0 0 0 0 0 0 0 0 0 0 0 0 0 0 0 0 0 0 0 0 0 0 0 0 0 0 0 0
 0.1032426619954839 0.07412502524691891 0.06690888236679327 0.03137772210105674 0.02232880899253272 -0.1176358229406652 -0.375074889391163 -0.2374118110887369 -0.3053343606363391 -0.07481262959051838 0.1276760966128055 0.1768554718560005 0.4089840551222571 0.2182239145840039 0.2038240415337956 0 0 0 0 0 0 0 0 0 0 0 0 0 0 0 0 0 0 0 0 0 0 0 0 0 0 0 0
 0.4218112879512151 0.4977790960728105 0.5130465629609609 0.5382610366157993 0.5329496953627366 0.04894652024836833 -0.3486165141821276 -0.3530303525811506 -0.7042219296784605 -0.3352002133716895 -0.2221566436613607 0.0814570082119335 0.5245119994984062 0.4013991995503069 0.6474348513969037 0.2438707558297312 0 0 0 0 0 0 0 0 0 0 0 0 0 0 0 0 0 0 0 0 0 0 0 0 0 0 0
 0.2214970287850572 0.3168542024762988 0.3376044825289396 0.399326275059718 0.4055460192425637 0.1764020139985067 0.1538332965957148 -0.009813955001340274 -0.2152102866787068 -0.1844808574833261 -0.3284775088295924 -0.1397797427252854 -0.05099731941778766 0.0712689385618667 0.2873722197675476 0.1976603068201319 0.2840129620061738 0 0 0 0 0 0 0 0 0 0 0 0 0 0 0 0 0 0 0 0 0 0 0 0 0 0
 -0.07419978216395162 0.2584335641713857 0.3351777706102677 0.6331697041029636 0.6903005408371503 0.9314410985874688 2.162833584017366 1.157232267595651 1.088067995373925 0.006125528378169709 -1.28227703280665 -1.153036383209684 -2.12828864406162 -0.9407115725136923 -0.4417567890959749 0.3913406252619876 1.771589711514962 0.9800415265471683 0 0 0 0 0 0 0 0 0 0 0 0 0 0 0 0 0 0 0 0 0 0 0 0 0
 -0.1492909418766093 0.02112885548495935 0.06102071352872232 0.2245582532781384 0.2584847899993834 0.5187590023656207 1.321811716546507 0.749537327323593 0.7993066742330674 0.08868614749167367 -0.6745672905711613 -0.678119146803861 -1.346824885615674 -0.6385533480371863 -0.416905603514042 0.1608297262928034 1.009628160955178 0.6311744883391758 0.4530998872085307 0 0 0 0 0 0 0 0 0 0 0 0 0 0 0 0 0 0 0 0 0 0 0 0
 -0.1727965415531336 -0.02479750095946073 0.01006832136388874 0.1563036861168156 0.1875722705903031 0.4666201676688545 1.230778403677974 0.7116626812506498 0.7879164542613659 0.110181809477148 -0.5926624371542892 -0.6227887264869219 -1.269059981669883 -0.6152514559875533 -0.435921630585345 0.1243099384760035 0.9163708622358825 0.5981719812751977 0.5690287869885465 0.08991715880155177 0 0 0 0 0 0 0 0 0 0 0 0 0 0 0 0 0 0 0 0 0 0 0
 -1.465268743185376 -1.892551479574142 -1.983095612641849 -2.213493811946886 -2.22157795425125 -0.613799559348849 0.218955513120103 0.7101284755492199 1.993480658689981 1.191302485943905 1.399047262583238 0.2553874564944455 -0.8621708540231287 -0.9868714116581446 -2.102825482158141 -1.05738366408925 -0.8431402307988459 0.5504977855240449 6.342609592449096 3.830127080529147 3.55140920839245 -1.767906765426375e-09 0 0 0 0 0 0 0 0 0 0 0 0 0 0 0 0 0 0 0 0 0
 -1.631649493362225 -2.140322947256567 -2.248694934595632 -2.533988268805857 -2.548329588554781 -0.7728112391254476 0.04415066951632507 0.6867141140528417 2.128232294101116 1.331598949074876 1.683463398872925 0.3925845276909148 -0.766612370953579 -1.016259711240316 -2.31045920820155 -1.218721888144398 -1.107234800860782 0.5246270207030702 7.092465316749839 4.325008426734447 4.024100923342862 0.5888049867552591 4.805108255734325e-09 0 0 0 0 0 0 0 0 0 0 0 0 0 0 0 0 0 0 0 0
 -1.249918727070029 -1.665324591284425 -1.754251561513601 -1.995298076087932 -2.010465121642505 -0.6619603607281117 -0.1225738950611973 0.4445505533886905 1.558548760523385 1.024022972825666 1.388038794846693 0.3855772527595799 -0.4355394807566039 -0.7136754690710141 -1.745503317098305 -0.9660319677877187 -0.9804111279197498 0.3324578605909592 5.45624908709544 3.360322243347717 3.137290841923463 0.9155080039634818 0.5172164237926156 5.720154461208438e-09 0 0 0 0 0 0 0 0 0 0 0 0 0 0 0 0 0 0 0
 -0.8957274662059842 -1.217157646219589 -1.286335152287019 -1.479826518648502 -1.494551781091495 -0.5388987162440748 -0.2320925814932677 0.2434004781529385 1.050693368905228 0.7374962501794817 1.08550648994435 0.3545825691479796 -0.1721469326367565 -0.4516335822142175 -1.228350274850292 -0.7222177343901535 -0.8245975044688572 0.1741735485652907 3.931362162037828 2.451626602717226 2.298705202497173 1.085010426143746 0.8483134341976525 0.3659157823607397 -1.435203185184974e-07 0 0 0 0 0 0 0 0 0 0 0 0 0 0 0 0 0 0
 0.0205149637654351 -0.2911829127838977 -0.3628473053360589 -0.6373101559931273 -0.6887991394789705 -0.8547308719125695 -1.93322260512143 -1.015792684126651 -0.9136015390070191 0.03216105275181463 1.195067131466068 1.043270992443063 1.884024794022226 0.8135913199787738 0.3304374255265264 -0.3853860059125696 -1.619309814982224 -0.8639831150106279 0.1978262390514334 0.5287822921894123 0.6247443005285125 5.724125496360201 6.382429237525237 4.895537686169614 3.514030702830423 -5.843709796615748e-07 0 0 0 0 0 0 0 0 0 0 0 0 0 0 0 0 0
 0.0990137744016085 -0.1115857828927218 -0.1604448042792419 -0.3542024852700482 -0.39255497883303 -0.6093174417825855 -1.469794177495563 -0.8062445563677946 -0.8024376996821537 -0.04374516103815468 0.8209874776451801 0.7718588952001503 1.469432262845786 0.6696821492755292 0.36926718530601 -0.2300591769657392 -1.17239604805877 -0.6827828551947321 -0.213847737701848 0.1794215792160461 0.2677099382520179 4.314933349384425 4.844872947265435 3.74279256015589 2.711142995238887 0.3282408323034737 9.223753577591864e-08 0 0 0 0 0 0 0 0 0 0 0 0 0 0 0 0
 0.2275729940230056 0.08442521044302284 0.05038912319091969 -0.09696314306691867 -0.1297395236884841 -0.4740430209388197 -1.306971392398237 -0.7737096136112807 -0.8938794160940748 -0.1529266556224546 0.583591246591984 0.6507091075733149 1.36858607255223 0.6809394766666661 0.5256209549702349 -0.0994062765272688 -0.9444285190639437 -0.6504286672972128 -0.7985453728476553 -0.2122473306547406 -0.1081323525360912 3.775219394961201 4.295640394088653 3.362969342211826 2.476751392454024 0.8396824539722891 0.416478338766402 5.533764406151498e-07 0 0 0 0 0 0 0 0 0 0 0 0 0 0 0
 0.3787251680344539 0.3069210503766354 0.2884849664593961 0.1887336440962503 0.1612200160436784 -0.3366329653062579 -1.163909648229301 -0.7606651836708271 -1.023584857755897 -0.2800678265326136 0.3349250180915166 0.5345075572637997 1.296932558921001 0.7142142047535484 0.7169803036669995 0.0441672070425661 -0.7172932536084523 -0.6338449800184395 -1.478737500041675 -0.6581030661872991 -0.5330756408252285 3.284148478174284 3.809666511494189 3.03878104257905 2.288856720309225 1.438889450223525 0.8963250398219957 0.467225118282135 -3.855988129908283e-07 0 0 0 0 0 0 0 0 0 0 0 0 0 0
 0.4367241680431516 0.4130768315565919 0.4053975923800794 0.3420766237193242 0.3199579814920605 -0.2274314838276698 -0.982750548745523 -0.6898632546250527 -1.015423684632019 -0.3320572157914941 0.1600318114647844 0.4214307091428619 1.146976863886391 0.6746727853324009 0.7707496901091375 0.1254631987104146 -0.5233923821838923 -0.5714683770305204 -1.758641938656911 -0.8673914011743198 -0.7403585042015243 2.721080791996415 3.206023417556793 2.594847614274967 1.987804683266241 1.674271738467081 1.106049736477101 0.7050684592417221 0.2765961007528989 6.081196900903363e-08 0 0 0 0 0 0 0 0 0 0 0 0 0
 1.001328771579892 1.159323639478126 1.190435883243964 1.230751230455784 1.214508017629436 0.05524794669635795 -0.9639154251966988 -0.9097970558748181 -1.736472557327796 -0.7939034253164685 -0.4443273926432671 0.2670272436561414 1.379373861862355 1.012578702579412 1.565868411553698 0.5547886679016488 -0.1108032518556682 -0.7382698041645045 -4.222501328535004 -2.376969172806655 -2.147226837326177 2.416706463813802 3.094406963071113 2.68888319894748 2.221037542491705 3.890655726203983 2.794212325499817 2.211428418995302 1.62465533357067 1.142532002894693 4.27169248709558e-07 0 0 0 0 0 0 0 0 0 0 0 0
 0.8023370607909793 1.019730363539189 1.065504807217097 1.17717601782691 1.178909662306498 0.2910368262366592 -0.2206334210958261 -0.4414915274284205 -1.138249427824781 -0.6501672993009769 -0.7034184804426502 -0.08540293065859751 0.5699679310587574 0.5827322866951476 1.168831001063132 0.5591868182573989 0.3780509472921102 -0.3466171474592344 -3.466150860065782 -2.071926598002679 -1.914196843923065 0.2961313600561661 0.6529431825438079 0.7554904842385664 0.7772440718130893 3.141524419261497 2.351192208881784 2.028585888716223 1.728147069584417 1.406957986467301 1.125618922485479 2.769410110681214e-07 0 0 0 0 0 0 0 0 0 0 0
 1.208035517078022 1.650636294214079 1.746022937847247 2.014931411959219 2.036267712368408 0.7514960299750088 0.3682578276188203 -0.2997227139646783 -1.392428709057487 -0.9966987260134075 -1.500010862685046 -0.5085404253863506 0.1787934706347949 0.5871965587604657 1.650800478630435 0.9873276258021585 1.161433902917119 -0.2111277130747898 -5.323702750642363 -3.331593702303647 -3.12750484978374 -1.632825720122223 -1.331578499817436 -0.635468088134684 -0.1001039893507487 4.760340934850105 3.682142359873189 3.379306279050363 3.141980268879759 2.740890976882847 3.120667937047227 1.142532132492578 1.006276715398435e-06 0 0 0 0 0 0 0 0 0 0
 0.6975668000168421 1.028139110509836 1.100437225746393 1.321274023971238 1.34577752335514 0.6377961320402766 0.6684388522516004 0.06446131388580051 -0.5948515313887979 -0.5871096475997536 -1.153167107280654 -0.5410392115411228 -0.3391891597505801 0.1500638666064795 0.8821143878518546 0.6648407618142477 1.056539471086028 0.08070488192298131 -3.141528724354315 -2.061714223885311 -1.965744209746558 -2.301181123242591 -2.281530117438709 -1.525671093292251 -0.8881496447631382 2.767279634701425 2.218154833311305 2.163019424838788 2.166709027704614 1.989206178176803 2.733894512293193 1.40695777225185 1.125619529118153 6.048390193136299e-07 0 0 0 0 0 0 0 0 0
 0.7071697261807504 1.174461432369865 1.278098317357574 1.617508402970651 1.663818967244433 1.005803195642244 1.48081429463919 0.483891850791492 -0.2344989029424139 -0.6156215052320804 -1.674788096652893 -0.984347624540038 -1.123254349106147 -0.180764961810177 0.769180812690319 0.8409289976001486 1.750879668563483 0.4385643838042934 -3.304812472333889 -2.33360424146645 -2.274748532399787 -4.723144481884434 -4.974623494147212 -3.585470676073919 -2.361231917875499 2.839706502651619 2.411796164039919 2.566376173138031 2.817550025744588 2.732595731961864 4.411799819023866 2.740890350601363 3.120669085350448 1.142532896467743 1.189046981431297e-07 0 0 0 0 0 0 0 0
 0.1847478105669955 0.4346026690072899 0.4910128059445356 0.6913777837900494 0.7242332953029034 0.6100829042275564 1.163426649221281 0.531142826281543 0.2952289466046168 -0.1804941182941319 -0.9264170378601977 -0.6786366744386511 -1.047313424515516 -0.3693617936151076 0.07949128091429442 0.3809132954951608 1.114687050662944 0.4599086840678766 -0.9768786311935416 -0.843839478581345 -0.8658035632823624 -3.54836135796635 -3.877103948671126 -2.911320871251692 -2.032050956901336 0.771432157147997 0.7853003724261962 1.029879535294727 1.33545333654227 1.405635099575849 2.739616191949827 1.989205503097462 2.733895163527719 1.406958538924589 1.125618662670926 5.629614032720553e-07 0 0 0 0 0 0 0
 -0.2064868242241876 0.01169334286078511 0.06284830223594917 0.2737374960604909 0.3178231786412723 0.6702395784797786 1.722843044826888 0.9819226999505981 1.057740709999172 0.1251015462545119 -0.867914828667438 -0.8823224840588586 -1.764119562134625 -0.841082186544755 -0.5612772815461995 0.2021016397701996 1.313096571684903 0.8301535237098765 0.6480386965097205 0.03035500772533545 -0.09035902954154751 -5.043373744117402 -5.699692169014582 -4.432182207543086 -3.237102425656501 -0.7443932671920862 -0.271440527316398 0.2497876044502014 0.8420658262257192 1.122930277023101 3.116858927337731 2.732594534241971 4.411800607611634 2.740891607491685 3.120667653150489 1.142532829829844 -1.242577018001345e-06 0 0 0 0 0 0
 -0.4483495244375825 -0.4369512104050576 -0.4320232012108716 -0.3782682253394944 -0.3576499858091175 0.1985946110444021 0.9309780617860803 0.6677240998680565 1.007061727040698 0.3430043624943313 -0.1152010668901774 -0.3906875479626475 -1.102917831989465 -0.6610449070392908 -0.7802251802584113 -0.1451074078019621 0.4722028695923358 0.5533669496493153 1.822524977289494 0.9161361926971018 0.7889296966887422 -2.576164789813224 -3.049896171852155 -2.479631378153707 -1.909323465764586 -1.729946383268003 -1.156062362773211 -0.7625562374212385 -0.3442315142783778 -0.06797823204452684 1.022170673417557 1.326363707118218 2.639289313957498 1.943768292644171 2.709749388814664 1.422000438018132 1.191824252235058 -5.515493203822608e-08 0 0 0 0 0
 -0.5411650139289249 -0.5537031967062233 -0.5537921402773646 -0.5118955825266059 -0.4912807594417661 0.1682312268634876 0.9638952810737413 0.7226648294053648 1.14217840581902 0.4180551586909133 -0.03845334182045232 -0.3848407750341826 -1.176122579289949 -0.7316062064878073 -0.9167495264402634 -0.2083107816806562 0.4347385304163108 0.5968790957811068 2.223177280026188 1.153954742150878 1.008091186587981 -2.633562919602582 -3.151276955566375 -2.586923581332877 -2.013587594506087 -2.094165753883613 -1.427306594260555 -0.9943183784999908 -0.5387261764112568 -0.2242738909089776 0.907484372776083 1.339193765515915 2.791222627375611 2.118275286592376 3.039312410260818 1.655920777835823 1.505827620881988 0.1467843183716467 -2.308796837706406e-07 0 0 0 0
 -0.9423295290303398 -1.035505825619114 -1.052039894956296 -1.041449798522267 -1.017142760469791 0.09902320243279808 1.244857441375427 1.032402561341813 1.789823120246617 0.7389074754218172 0.2059174496573143 -0.4348546174853026 -1.627159961581436 -1.094091005837119 -1.528448571344233 -0.4526414824228738 0.3902749949589592 0.8466060462389363 3.934240456208049 2.139790439829885 1.906630196970027 -3.295234021696656 -4.050020597055691 -3.403450117641216 -2.71703206280039 -3.662609261466846 -2.571557317753621 -1.931473031480008 -1.271961560072363 -0.7759458992453375 0.6956406387950073 1.622197677375579 3.790637046768099 3.07038402503393 4.664414480850298 2.719125644956044 2.803937018201194 0.6532769865282495 0.4800610315558611 -1.312778912049284e-06 0 0 0
 -0.2569018570021163 -0.337402787938447 -0.354560606179051 -0.3998396487386897 -0.4021640697383815 -0.122797610985172 0.004427415035700946 0.106941454575745 0.3343311226186867 0.210116221918624 0.2674311894447511 0.06346590656175374 -0.118201923339099 -0.1594534915920083 -0.364930161578534 -0.1935408285495666 -0.1782592041581257 0.08171329185381589 1.124490029362228 0.6866786423311513 0.6392112441167678 0.1063029928528671 0.01444411232897728 -0.07128333624880119 -0.1271950114544795 -1.015361006598472 -0.7715922800834444 -0.6854635426711378 -0.609610317314053 -0.5141446189433649 -0.5018674410798867 -0.1112447882371338 0.200744761161867 0.3572524047544456 0.7863667883841456 0.6168124617764484 0.9116342583830391 0.4914154987755473 0.5085989950126489 0.6563693748994521 2.861979927076819e-07 0 0
 -0.0903559285649583 -0.2327298072785815 -0.2649517382195237 -0.3805857790252806 -0.3999328957948873 -0.3532710547919211 -0.6918036883911822 -0.3236399657030929 -0.2003944684246365 0.09184735589683551 0.5314173644832734 0.3990720003086584 0.6319445971778755 0.2312519307885761 -0.02122492171157947 -0.2132306998122929 -0.6518256924231025 -0.2798020477411273 0.5031013326228352 0.4553608367446177 0.4719591907855371 2.115831338169387 2.319173043698353 1.746988089765652 1.224503614991985 -0.3921806343682913 -0.4174168526200148 -0.5699102379411161 -0.7582320833558911 -0.806877968470574 -1.607051395892428 -1.184055502251906 -1.651722316252868 -0.866738644574095 -0.7269783835398529 -0.04042521038464814 0.6253308524940598 0.8209683211966146 0.9602286631108418 1.588569592261106 0.370046407030296 9.124702582408162e-08 0
 -0.07961783509782733 -0.2219486082008117 -0.2542160033881515 -0.3708612111807722 -0.3906508027724082 -0.3571688355742216 -0.7121816547020653 -0.3386314985128704 -0.2236318729975953 0.08358587272018722 0.5329737448609213 0.4073911882882606 0.6565024242397969 0.2462882141606139 -0.002843818698738343 -0.2093644188152841 -0.6615278656131887 -0.2922070133974867 0.4591955101144853 0.4328651177577905 0.4524190405436535 2.171931021391206 2.385980176767441 1.801593426624764 1.266801830246404 -0.3507079966568396 -0.3893793296476504 -0.5508023148777468 -0.748562171539808 -0.80359887268948 -1.627722185641298 -1.212756375956497 -1.710303312388837 -0.9106067458962563 -0.7891355861515669 -0.07374613627635893 0.5960409456469022 0.8192772045565671 0.961699022780683 1.600644014224711 0.3808309402592288 0.0192932581434502 -1.564142901033794e-07
 0.06702280514908435 -0.03348705873310594 -0.05690876448490241 -0.1513185416550367 -0.1704523573231831 -0.2983071444044192 -0.7398260434041182 -0.4127767255747085 -0.4260388166407026 -0.03573607631552549 0.3961053485113231 0.3848083293703114 0.7484221885405682 0.3477896589684059 0.2095180242323095 -0.1040560840959259 -0.581024668935023 -0.3501141017033821 -0.179633882382425 0.04816125997023481 0.09605996711800649 2.186851045932298 2.46198864997844 1.906908153126594 1.385799525186473 0.2288180743269609 0.04665718648557643 -0.1706962477642325 -0.419682408613792 -0.5323271837249954 -1.392783320365185 -1.190906740848935 -1.888011187517805 -1.151274275883184 -1.275782776678556 -0.4361576885990037 0.08537139808631247 0.5616620839958838 0.6991044573603736 1.274475920117349 0.3944189940900468 0.2360505840750714 0.2223655741830134


# name: B1
# type: matrix
# rows: 44
# columns: 2
 0 0
 0 0
 0 0
 0 0
 0 0
 0.004895463046132642 5.784006197478292e-05
 -0.009838073245551188 0.001046221005848891
 -0.05250940198805565 -0.0006744988476919817
 -0.004393113234184343 -0.001367132488306166
 0.003542400877284191 -0.005172080183989097
 0.1055342911792738 -0.01411174696155732
 0.3061885139020153 -0.007993549232026734
 0.199384259254257 -0.01228006863948561
 0.3287527408364332 0.005329900190842923
 -0.04293049845866403 0.02664966386521403
 -0.4310844975560451 0.02701281881358273
 -0.511601969022458 0.05556202123183471
 -1.383817192294012 0.0003510824876410551
 -0.8127290113042838 -0.1779339746426791
 -1.53719726936137 -0.1276736666485274
 -1.527306433483917 -0.1247900498335648
 4.367775150223917 -0.2636923648621435
 5.497872358777016 -0.2764207284221706
 8.384972888667306 -0.178701740744951
 10.986790253327 -0.09438867416045105
 3.486062928134548 0.3662110868818527
 3.936434294193918 0.2903782968542564
 3.293744055304325 0.279694920782037
 2.450060145567178 0.2764118087823939
 2.15636915729748 0.2503100092873707
 -0.6731195281111222 0.3408395973410664
 -4.106767215884492 0.1448434929518907
 -4.197739314062474 0.07602839810065576
 -7.647449349450226 -0.07867691471134997
 -4.9738663928447 -0.2811918074998301
 -6.207605683045882 -0.2792490511143564
 -2.539062657516737 -0.4906906524111556
 -0.6937175839322438 -0.3027282414835316
 -0.3890791378132225 -0.3251326433126286
 0.6885268677861236 -0.4613669697813028
 3.301782153790632 0.01032699624377739
 1.641400646900347 0.2825228743200806
 1.585409012566915 0.2899049561860199
 1.430950029397715 0.2871361398175658


# name: R1x
# type: matrix
# rows: 44
# columns: 43
 0 0 0 0 0 0 0 0 0 0 0 0 0 0 0 0 0 0 0 0 0 0 0 0 0 0 0 0 0 0 0 0 0 0 0 0 0 0 0 0 0 0 0
 0 0 0 0 0 0 0 0 0 0 0 0 0 0 0 0 0 0 0 0 0 0 0 0 0 0 0 0 0 0 0 0 0 0 0 0 0 0 0 0 0 0 0
 0 0 0 0 0 0 0 0 0 0 0 0 0 0 0 0 0 0 0 0 0 0 0 0 0 0 0 0 0 0 0 0 0 0 0 0 0 0 0 0 0 0 0
 0 0 0 0 0 0 0 0 0 0 0 0 0 0 0 0 0 0 0 0 0 0 0 0 0 0 0 0 0 0 0 0 0 0 0 0 0 0 0 0 0 0 0
 0 0 0 0 0 0 0 0 0 0 0 0 0 0 0 0 0 0 0 0 0 0 0 0 0 0 0 0 0 0 0 0 0 0 0 0 0 0 0 0 0 0 0
 0.002251177468931997 0.001589406563423656 0.001440015829328845 0.0009164979304019383 0.0008119203574212808 0 0 0 0 0 0 0 0 0 0 0 0 0 0 0 0 0 0 0 0 0 0 0 0 0 0 0 0 0 0 0 0 0 0 0 0 0 0
 -0.00240782775048709 -0.001579604230088738 -0.001390530426068293 -0.0006947958941699584 -0.0005447980721721424 0.001719786158983078 0 0 0 0 0 0 0 0 0 0 0 0 0 0 0 0 0 0 0 0 0 0 0 0 0 0 0 0 0 0 0 0 0 0 0 0 0
 -0.0078047869619573 -0.004586923104529017 -0.003844344959882173 -0.0009877846901293896 -0.0003326435890773638 0.01046065864206547 0.003937286424662512 0 0 0 0 0 0 0 0 0 0 0 0 0 0 0 0 0 0 0 0 0 0 0 0 0 0 0 0 0 0 0 0 0 0 0 0
 -0.01166047275702398 -0.008770383061521558 -0.008127375532294367 -0.006022125802432665 -0.005650794274959514 -0.003747720442839109 -0.0006579838206688393 0.003978781573053425 0 0 0 0 0 0 0 0 0 0 0 0 0 0 0 0 0 0 0 0 0 0 0 0 0 0 0 0 0 0 0 0 0 0 0
 -0.03299535518474794 -0.02522472167062695 -0.02350431472558867 -0.01800660005873667 -0.0170849198595131 -0.01625695065823507 -0.001165000020848073 0.02083462288931193 0.007232413189527165 0 0 0 0 0 0 0 0 0 0 0 0 0 0 0 0 0 0 0 0 0 0 0 0 0 0 0 0 0 0 0 0 0 0
 -0.004284801263993554 -0.00601107156763625 -0.006453030419530048 -0.00882401117406828 -0.0095708908971881 -0.02719694077372936 -0.01281726190545207 -0.005100898218163508 -0.001125215336713392 0.006288431803720407 0 0 0 0 0 0 0 0 0 0 0 0 0 0 0 0 0 0 0 0 0 0 0 0 0 0 0 0 0 0 0 0 0
 0.01067191521256372 0.0001473328488924563 -0.002357832274784422 -0.01317100473778182 -0.01600709274214612 -0.06889023138479161 -0.03619054181578546 -0.02876456250876486 -0.003989410801573778 0.03152322831047205 0.01061727778261401 0 0 0 0 0 0 0 0 0 0 0 0 0 0 0 0 0 0 0 0 0 0 0 0 0 0 0 0 0 0 0 0
 0.04428358119875719 0.02854297812166051 0.02494198026675121 0.01157314948663263 0.008653454708149821 -0.02604725347050224 -0.02352898594121633 -0.04293060852288511 -0.01991675004568882 -0.006713529406833452 -0.001688260177764467 0.008650476691244191 0 0 0 0 0 0 0 0 0 0 0 0 0 0 0 0 0 0 0 0 0 0 0 0 0 0 0 0 0 0 0
 0.1217523948681536 0.08416444500579612 0.07564775956053049 0.04530775210887006 0.03908269591173541 -0.01866606305661578 -0.03920083231313587 -0.104672255541769 -0.05436569626730758 -0.0424886029348599 -0.00719939596551411 0.04254069944978323 0.01409566125214212 0 0 0 0 0 0 0 0 0 0 0 0 0 0 0 0 0 0 0 0 0 0 0 0 0 0 0 0 0 0
 0.07061401643530307 0.05496472840916788 0.0515214233471657 0.04086168842968352 0.03919986994751468 0.04608294970569338 0.006028247808423037 -0.03860524936787768 -0.03314976335936759 -0.05927049020859054 -0.02730710422489824 -0.008607069760486086 -0.002354418970093919 0.01106673524078139 0 0 0 0 0 0 0 0 0 0 0 0 0 0 0 0 0 0 0 0 0 0 0 0 0 0 0 0 0
 0.09836574404313358 0.08633371030323245 0.08391308327156333 0.0800795521054658 0.08085894589718201 0.1549248397419101 0.05359416237699177 -0.02063657197860014 -0.05021738214367866 -0.1413941946929009 -0.07320127776366103 -0.05753248499983465 -0.01082778074620272 0.0539021014694816 0.01767155855089753 0 0 0 0 0 0 0 0 0 0 0 0 0 0 0 0 0 0 0 0 0 0 0 0 0 0 0 0
 -0.02310276588561361 -0.004120246419866913 0.0003783093223356793 0.01949947411601244 0.02443469159297745 0.1125903068238359 0.063504572104359 0.06464480302584036 0.01015798992460418 -0.05034856969641854 -0.04258015284343164 -0.07622338276571217 -0.03499443345427872 -0.01080482085015017 -0.003131577964195664 0.01353911012342029 0 0 0 0 0 0 0 0 0 0 0 0 0 0 0 0 0 0 0 0 0 0 0 0 0 0 0
 -0.22303931045679 -0.1334129823595578 -0.1127593230510358 -0.03375757693357112 -0.01577471673244712 0.2239116943949279 0.1718846547940056 0.2775039033136351 0.1051504931762706 -0.00910208688865799 -0.06898796733019608 -0.2233353494640664 -0.117091387545565 -0.09923892610160634 -0.01938379685296404 0.08760963620787798 0.03003383283831151 0 0 0 0 0 0 0 0 0 0 0 0 0 0 0 0 0 0 0 0 0 0 0 0 0 0
 -0.4354947075152356 -0.3106542263024092 -0.2825279795569973 -0.1848403792068658 -0.1656177986032703 -0.02622230333169551 0.09951035902090322 0.3527267882286718 0.2191248353542408 0.2692607196901937 0.07438478744191457 -0.1080803966082833 -0.1104202195376125 -0.2363670554723534 -0.1071527094371438 -0.03419596704091266 -0.0107872038977268 0.07328329387410681 0 0 0 0 0 0 0 0 0 0 0 0 0 0 0 0 0 0 0 0 0 0 0 0 0
 -0.9310037711063845 -0.6693005005211159 -0.6104324324905228 -0.4074391503593837 -0.3679866179518871 -0.1041179047376302 0.1888536156372851 0.7375833708045629 0.4694019299894734 0.6028679403379389 0.1731141278215365 -0.2174562554669226 -0.2345853806797873 -0.5242694119387057 -0.2285205659200553 -0.05790689221948231 0.003656205215122554 0.2454570870335884 0.0416436104458846 0 0 0 0 0 0 0 0 0 0 0 0 0 0 0 0 0 0 0 0 0 0 0 0
 -0.9636443186448851 -0.6944687303007324 -0.6339509913193293 -0.4257612531793313 -0.3854649726818664 -0.1234779523387717 0.1874160457893748 0.756798716275787 0.4862943231244383 0.6337178203072114 0.1867072539321502 -0.2126774782610781 -0.237920549227896 -0.5425805651872366 -0.2389706014097346 -0.06855595027782169 -0.0007185040749941862 0.2505178250308306 0.04404428131175209 0.007295169335868934 0 0 0 0 0 0 0 0 0 0 0 0 0 0 0 0 0 0 0 0 0 0 0
 -0.03022637815671181 -0.1066081135664989 -0.1065806940760623 -0.2313990152781944 -0.308896626729475 -1.043766738695781 -0.5319447752409567 -0.3837986701088361 0.05844858516915763 0.6882456477877357 0.5462257762896343 0.9260216455359283 0.3541900096770911 0.09974586318047818 -0.1767217314953344 -0.67634267752205 -0.4150914487830055 -0.5254342455203072 -0.05479763299504481 0.2858246659929673 0.3395342497630729 0.0532686649566676 0 0 0 0 0 0 0 0 0 0 0 0 0 0 0 0 0 0 0 0 0
 0.1224506335039075 -0.01485845802267116 -0.02445417874394673 -0.197105844919002 -0.307273608262709 -1.218846175353026 -0.6629493923383769 -0.5783881083116262 -0.003699248849746262 0.7235883306249311 0.6184994887593307 1.138218054937194 0.4619848531186648 0.2050063847439183 -0.1694986721099156 -0.7898323567763765 -0.4937449663421418 -0.6675518701918994 -0.06490338862076772 0.3574869130570573 0.4179208688272045 0.1139309799180199 0.05318235188605414 0 0 0 0 0 0 0 0 0 0 0 0 0 0 0 0 0 0 0 0
 0.2675491031554555 0.03698357151667864 0.01805200241367988 -0.2484040960431364 -0.4234092786617798 -1.794209219504467 -0.9981102282278926 -0.9210558128518431 -0.04102351625682754 1.028314061731443 0.9010076725530811 1.707759918128088 0.7022093883929381 0.3351937521565094 -0.23839869553689 -1.177932615862719 -0.7312313014328899 -0.9898324015213915 -0.03977835519644568 0.6607870505104438 0.7518478447727528 0.2239819547276372 0.1230377039205042 0.04946571999400984 0 0 0 0 0 0 0 0 0 0 0 0 0 0 0 0 0 0 0
 0.3778502654437643 0.06824240209394183 0.04217098074543379 -0.3063029507221859 -0.5382658718942084 -2.323802493600065 -1.300321622495957 -1.217007065521318 -0.06419360386985629 1.32165359124645 1.164119123567766 2.223830964593182 0.9156193680728766 0.4398028321601384 -0.3086579642283409 -1.537637791174461 -0.9486903091251015 -1.275922247049641 -0.008730402852258123 0.9533476914535921 1.073421440525487 0.3237292733597603 0.1831850306013734 0.09630698563636386 -0.09047059354863762 0 0 0 0 0 0 0 0 0 0 0 0 0 0 0 0 0 0
 0.8358583617039317 0.5709141972841518 0.5164669838934111 0.3000267119065747 0.1792065445408737 -0.3849975703807662 -0.4294660195995401 -0.8589235055802886 -0.4061619897935904 -0.2507182114787019 0.08159222578889136 0.6307717536616989 0.431239201463848 0.6676345902150405 0.2338852336763451 -0.07055521192140546 -0.1869557699146114 -0.6680589410672511 -0.5820114502864562 -0.9747169337539878 -1.002055488747044 -0.1416070609753679 -0.01060554431541849 0.160407538352858 0.254087100489258 -0.02429379189153136 0 0 0 0 0 0 0 0 0 0 0 0 0 0 0 0 0
 1.153926579757285 0.8028205839023714 0.7270702778875786 0.4495268408366289 0.2989989577596159 -0.3529242574336822 -0.5007011789000924 -1.117916781340532 -0.5701051781247877 -0.4639405036797761 0.02021535946503161 0.7119985865799692 0.5360075298188318 0.907489132900221 0.3534826977075778 0.01802903021590452 -0.1915812421885734 -0.8485683746020654 -0.8156829837880604 -1.44069952864399 -1.488420519199119 -0.1790799036059534 0.02435776132873313 0.2999099561495435 0.4733234153319659 0.002710294389822954 0.004006883556472385 0 0 0 0 0 0 0 0 0 0 0 0 0 0 0 0
 1.197351724851019 0.8505179519336947 0.7724094985820882 0.5070798368968326 0.3660913874716647 -0.1722647919065621 -0.4197141666575291 -1.08455009941196 -0.6021188034825261 -0.6107494408188587 -0.08110480573745638 0.5630183236890531 0.4905478446241442 0.9291092242724355 0.4050391809333662 0.1574331450032398 -0.1184674590107 -0.7876583952869507 -0.868355268202792 -1.619269978226326 -1.680829974404203 -0.2388739244102771 -0.01354056543140203 0.2759562818038814 0.4658713073450906 0.02460018573113487 0.03937228301818507 -0.00661484696634429 0 0 0 0 0 0 0 0 0 0 0 0 0 0 0
 1.209788079848473 0.8791995268970429 0.8009332343347464 0.5583749193217393 0.4328531197508769 0.0446781455148908 -0.3115042591728798 -1.010577506344551 -0.6202977447829741 -0.7630697822555177 -0.1972178022491493 0.3703427680996141 0.4215042471682774 0.9248184092961651 0.4527861175028021 0.3166132939947064 -0.02841513440173993 -0.6899560365959048 -0.9027058612439207 -1.777709535705202 -1.853582552425139 -0.3071397020044406 -0.06433631365681247 0.2288352689214008 0.4287310271788352 0.04759651227745276 0.07814326517069803 0.03467108226475923 -0.0162625252899542 0 0 0 0 0 0 0 0 0 0 0 0 0 0
 1.322101784128797 0.971345013622122 0.8858759348825247 0.6347114225355088 0.5074404016206944 0.1680893247584216 -0.2790162284521363 -1.058446879993204 -0.6844819617714314 -0.9134939120246952 -0.2780237030825916 0.297243087199158 0.4206966273103254 1.003047866101661 0.5177510634019797 0.4293477853721364 0.01674897965218936 -0.700330522337848 -1.000642061237874 -2.020111499981128 -2.110337865878117 -0.3556731309485466 -0.07896090618771279 0.2513991126190795 0.4834489926278041 0.07269879422795111 0.1145690324466277 0.06593932249126633 0.007697448606548196 -0.007096068236918773 0 0 0 0 0 0 0 0 0 0 0 0 0
 0.7489824592763392 0.6008670696613503 0.5559179670146381 0.4769448022729264 0.4422705724805732 0.6348539058082115 0.1195833028305676 -0.3858222706163412 -0.4161054853880717 -0.8768304045982644 -0.4439134183365501 -0.3259779914041609 0.05190742296879403 0.5321969812756377 0.404625957733676 0.6458533536659818 0.2468503544124107 -0.1079930216816827 -0.6208540591048853 -1.478767467222095 -1.564121548816269 -0.4578485565318315 -0.2846513552696517 -0.1552602764819802 -0.06101871326269848 0.03543378800816677 0.09322765472947925 0.08891985852068585 0.07831154253000339 0.07954540925094711 0.0008886869721086085 0 0 0 0 0 0 0 0 0 0 0 0
 0.7872221032882958 0.7142760369850993 0.6709120712223187 0.6910082486606468 0.7208523310968851 1.557236425617504 0.5832591533489848 -0.05700140221064176 -0.4867510710421459 -1.517977925654431 -0.9376800534009717 -1.154207749906837 -0.247967585682523 0.507613205418932 0.6091406402952901 1.336654954982899 0.6399604768518906 0.3293491196704359 -0.7716400613868726 -2.167637973856174 -2.314712971813955 -0.8323608540737282 -0.5988242886873212 -0.5042860308823038 -0.4153896890486681 0.1200379528805997 0.2568987729807279 0.2803218563927219 0.292237959746644 0.3058962791815061 0.08343881747110649 -0.02411173264060085 0 0 0 0 0 0 0 0 0 0 0
 0.1313123128041083 0.2143858847218145 0.2143803479390527 0.3404347436472708 0.4148396889688772 1.288535537130376 0.6273466191217307 0.4003748004573828 -0.1318234678642021 -0.9323298807624911 -0.7016707433565239 -1.134946736006995 -0.4006777796360705 0.003848440898307937 0.3071788325265612 0.9804772837209916 0.5611310067142721 0.6260399096127953 -0.1874571452278215 -0.9040452551400615 -0.9913531235792972 -0.6170023136946134 -0.5605851450885411 -0.6646127451699262 -0.7293139539669844 -0.07046459016221784 -0.01382293131596946 0.02935402050696334 0.07033231579604804 0.07954948347886948 0.02421478261919541 0.07200224658244148 0.01754490442358025 0 0 0 0 0 0 0 0 0 0
 -0.3705836573859189 -0.07939613884778307 -0.04052239705380822 0.2770095450459991 0.4521233817703094 2.028497729204862 1.147394685733289 1.123934078450044 0.08910805006971834 -1.115453366247008 -1.022898784499396 -1.985868066701638 -0.8427259298680081 -0.4414739833677364 0.2723717158346362 1.414182422731373 0.9146896488275607 1.350261361637989 0.1526243197955233 -0.5491150941202667 -0.6512769271161956 -0.8920435774530997 -0.9361154920048578 -1.283224870279849 -1.521193185702812 -0.1981485128079283 -0.1347395799675493 -0.03645152782745509 0.06444614778962743 0.08852523724809025 0.07328494488249682 0.3018172208738785 0.1230068616082507 0.01782326003803725 0 0 0 0 0 0 0 0 0
 -0.668107388712335 -0.3809492890193666 -0.3276205430242281 -0.05149599677969197 0.08984111591128685 1.128560628449488 0.7678616228374791 1.02393971930752 0.2938583202392164 -0.3261781631196253 -0.5012296831715635 -1.262356064237628 -0.6456014659218863 -0.6293142631390969 -0.03333683130185228 0.656254453544914 0.5333772963086283 1.077167862596257 0.5355046626607467 0.5936107428435915 0.5706444690675614 -0.3742470890055152 -0.5272327500638744 -0.8654000072996701 -1.103593193926652 -0.3285524221913516 -0.379466116013212 -0.3174911501112123 -0.2474883564792441 -0.2554224524620317 -0.1123435632704113 0.08201103805396359 0.05525377482236804 0.1038855081552137 -0.007554568248804738 0 0 0 0 0 0 0 0
 -1.444389816496504 -0.9428115771839947 -0.8356187740830268 -0.3916578647210311 -0.1755327517646825 1.149959696340102 0.9956919740310055 1.701931073358935 0.7004225882453661 0.1487700518739259 -0.4004754466809251 -1.54922449991606 -0.9479447563170575 -1.264121721596511 -0.3306462330286166 0.4708178527495099 0.5888160706862804 1.630773151192527 1.250381197062754 2.003133098697605 2.032856776983301 -0.242458984358914 -0.6081197660475621 -1.21561694017976 -1.656104533292558 -0.6491798285364347 -0.8145049532765509 -0.7253302278617699 -0.6167129117122672 -0.6421199765680226 -0.2674496790336343 0.09991254088671475 0.1200743849562613 0.3488278593547927 0.08262439675183764 0.00699790090266994 0 0 0 0 0 0 0
 -1.128406110306265 -0.8068370156305236 -0.7293650583716025 -0.4659358526211592 -0.3437733700177212 0.1773775384162541 0.4076131610736218 1.041932080519776 0.5865336565406721 0.6001330452791755 0.0727100489475585 -0.5447459538657441 -0.4907968220947125 -0.947281410716754 -0.4166817527235321 -0.1934885544652558 0.1308941272168436 0.8741015289449636 1.074732107093091 2.070540449795274 2.142137519562726 0.2656049191868068 -0.03008582179622366 -0.3694154270268513 -0.6075676301557325 -0.494373649601517 -0.6887183170907629 -0.671768384816591 -0.6409702938587671 -0.6954539928137558 -0.3753780819136596 -0.2450433398538761 -0.08656627061185107 0.1064826764584228 0.03161721718103849 0.08759204033348889 0.005927414369518713 0 0 0 0 0 0
 -1.718169748725854 -1.316786749077443 -1.205318197808539 -0.911367499682241 -0.7884800480668764 -0.6535619100981744 0.1460234418660336 1.22038076243792 0.9434177084813259 1.532621416730692 0.6025895419643008 0.01910871370974121 -0.4291474513164435 -1.38834048780063 -0.8316741367867837 -0.9980113452019008 -0.2119474883692549 0.8368873995305379 1.755399702648607 3.783760427451581 3.953420266201942 0.8994505042778647 0.4221671564177778 0.02841160587346625 -0.2469215286263209 -0.7665058602068233 -1.140171476375259 -1.165923177728091 -1.169880832684013 -1.283214583211297 -0.7242852047199544 -0.6461828306444151 -0.2520561189030093 0.1222229487872548 0.09895708282582572 0.3278579576174434 0.1162707308524575 0.03223495312308156 0 0 0 0 0
 -1.535503869972336 -1.185617328189283 -1.087143331873012 -0.8348992585669954 -0.7299381247269363 -0.672744121872549 0.08493085498796071 1.054506895848692 0.8475288475993542 1.428625229429805 0.5862301350451286 0.09968164689859149 -0.3519647656613594 -1.234682835424715 -0.7629513368547971 -0.9626123126755002 -0.2320956223586302 0.6926053127797744 1.57634002401042 3.434586601394876 3.592089436820102 0.8751205279697631 0.451833965751399 0.1273973593738447 -0.09531494373594729 -0.6674624908118352 -1.006494542235205 -1.03838002665649 -1.051585429049701 -1.158323361695792 -0.6693497171875069 -0.6327211829190369 -0.2657925715699805 0.05298333948347 0.05910009253532511 0.2687942863009165 0.09739120541824087 0.0410851745554815 -0.01139236798615539 0 0 0 0
 -0.6300849485687727 -0.5219957904530905 -0.4866511646639824 -0.4249806362691939 -0.4001117971442775 -0.6293223360642369 -0.1467181849025879 0.2877915722968883 0.3649139246443139 0.8205789925978454 0.431084429082915 0.3711251579673378 -0.01768063720709351 -0.4815729330008255 -0.3922276662140989 -0.6796837113385704 -0.2683914412248151 0.05608197482080879 0.6729012136686423 1.612907282345839 1.701002274330802 0.6659509119285294 0.5109727278596334 0.5023892391654559 0.5185083460991504 -0.1851280026865539 -0.3419962583818068 -0.3941604683489888 -0.4426779177682134 -0.5105522018222317 -0.3690722215747584 -0.5069214792919884 -0.2982923518455817 -0.2529979702892347 -0.1260550022173206 -0.02853901769826384 -0.003108477229492146 0.06122658451037666 0.03951468397294866 -0.0092832204362851 0 0 0
 -0.2069481980276071 -0.2899096788199751 -0.2936513369694054 -0.4123053342704188 -0.4690188727041054 -1.390266470465579 -0.6561459926519528 -0.3874630258512782 0.1797883730544018 1.058417593980704 0.7790332613771003 1.225292337000753 0.4146235599699124 -0.08142286859915826 -0.3947498576477113 -1.172870506675715 -0.6591191748498066 -0.7167943366355209 0.3366067028637789 1.27041454496913 1.37882729122066 1.189217292733688 1.18006861675591 1.549722497711808 1.872689824793946 0.1546648945493736 0.02467086727890244 -0.1152217957916002 -0.2645943825495478 -0.3655941798820219 -0.4498271272600118 -0.9552685595673875 -0.6650177985517601 -0.8573920352162308 -0.4315156979226353 -0.3074411692955383 -0.0560123199709559 0.2485526303871102 0.2290945184941466 0.05815370746222437 0.01453250312005694 0 0
 0.2262720071124715 0.1102084575583833 0.08648251849682209 -0.02919625930956493 -0.07841821136092153 -0.5545464472494027 -0.3490114507803486 -0.4240003913485878 -0.09494678773891629 0.219685619237144 0.265071635419848 0.5950603769120396 0.2877405632381865 0.2351574947835569 -0.02897785496524929 -0.3750341678481801 -0.2839848160099997 -0.5289659474465305 -0.2082868954079092 -0.1824241425604738 -0.1638588990484062 0.4063415988557433 0.5058915319750573 0.773485392610194 0.994536365648205 0.2931676172319657 0.3277141383183699 0.2675190150057313 0.1972517907649965 0.1784320393062111 -0.01885208670896421 -0.2770793177289774 -0.2662331110005919 -0.4744861684457282 -0.2877165791863998 -0.3363770725166118 -0.1467437460450801 -0.03161847435156995 -0.01635591827171812 -0.01255181539936112 0.03402344477006386 0.03128918018052784 0
 0.2562010828988747 0.1355085386935493 0.1100854589528854 -0.00813302191674381 -0.05808477495000341 -0.5201444512002158 -0.3397798470054731 -0.4360537892366941 -0.1127602106401543 0.1772755571733128 0.24214239039133 0.573301181650603 0.2872924960190389 0.2585775729457044 -0.008961786922874193 -0.3387021638521284 -0.2694057033267955 -0.5307029167474913 -0.2438006161483187 -0.2684923423723392 -0.2545685356493956 0.3719574936922879 0.4799993056441258 0.7482805731103158 0.9689299990591325 0.3075425768018789 0.3520066747558258 0.2948068977532453 0.227261863654456 0.2125195954254009 0.004356962146633947 -0.2463791449092831 -0.2505450443154579 -0.4646080775499881 -0.286382125853708 -0.3454661384864566 -0.1546438672246938 -0.04676321264804406 -0.02927598042449508 -0.01611861869114128 0.0367303280710467 0.03019524628764325 0.03469452779375204
 0.6659849763784201 0.4576256454751043 0.4057079331090413 0.2242884077870178 0.1513531995344735 -0.2910174992630475 -0.3376371075236971 -0.6998151786226791 -0.3445044923600856 -0.2422614426016899 0.05859072328906778 0.5011427483359276 0.3673059751037666 0.5951119347375201 0.2105664357582689 -0.03605563281315716 -0.1872039665546366 -0.7065091190495515 -0.7072543751011298 -1.29716030880239 -1.330523529287006 0.1048817192731997 0.33902442356241 0.6963616466054401 0.9798012688910225 0.5525775435119996 0.7173117845938469 0.6751418116604191 0.6165200337036075 0.6409386143035694 0.2532446742455601 0.006154556159416291 -0.1581779213757895 -0.4993838943413655 -0.3554928713267245 -0.5403731664868889 -0.2777533271276729 -0.2080280027298476 -0.1621548129773542 -0.05060805144682601 0.08743091614412701 0.02772040548344656 0.02743938336835294


# name: R1y
# type: matrix
# rows: 44
# columns: 43
 0 0 0 0 0 0 0 0 0 0 0 0 0 0 0 0 0 0 0 0 0 0 0 0 0 0 0 0 0 0 0 0 0 0 0 0 0 0 0 0 0 0 0
 0 0 0 0 0 0 0 0 0 0 0 0 0 0 0 0 0 0 0 0 0 0 0 0 0 0 0 0 0 0 0 0 0 0 0 0 0 0 0 0 0 0 0
 0 0 0 0 0 0 0 0 0 0 0 0 0 0 0 0 0 0 0 0 0 0 0 0 0 0 0 0 0 0 0 0 0 0 0 0 0 0 0 0 0 0 0
 0 0 0 0 0 0 0 0 0 0 0 0 0 0 0 0 0 0 0 0 0 0 0 0 0 0 0 0 0 0 0 0 0 0 0 0 0 0 0 0 0 0 0
 0 0 0 0 0 0 0 0 0 0 0 0 0 0 0 0 0 0 0 0 0 0 0 0 0 0 0 0 0 0 0 0 0 0 0 0 0 0 0 0 0 0 0
 0.0006806953921177916 0.0007743565489036763 0.0007923530796604128 0.0008077636162147073 0.0007944977296431288 0 0 0 0 0 0 0 0 0 0 0 0 0 0 0 0 0 0 0 0 0 0 0 0 0 0 0 0 0 0 0 0 0 0 0 0 0 0
 0.004628580947554695 0.005858942538788603 0.006117558639151977 0.006741061529939918 0.006747233254889573 0.002358306237613655 0 0 0 0 0 0 0 0 0 0 0 0 0 0 0 0 0 0 0 0 0 0 0 0 0 0 0 0 0 0 0 0 0 0 0 0 0
 -0.002566669175326997 -0.003332764854475423 -0.003495417541459822 -0.00391442037731432 -0.003931449949649723 -0.000465877567078582 0.002887411736052808 0 0 0 0 0 0 0 0 0 0 0 0 0 0 0 0 0 0 0 0 0 0 0 0 0 0 0 0 0 0 0 0 0 0 0 0
 -0.01072326259459511 -0.01260126229927461 -0.01297716947450267 -0.01357168024081568 -0.0134280341338302 0.0001121497435426777 0.01585486608794673 0.005661544355219983 0 0 0 0 0 0 0 0 0 0 0 0 0 0 0 0 0 0 0 0 0 0 0 0 0 0 0 0 0 0 0 0 0 0 0
 -0.01319442547330892 -0.01869891636610557 -0.01989461901491382 -0.02341756313302361 -0.02375948177211817 -0.009523791957613603 -0.004468838135361974 -0.0008963813890231764 0.005208040478200032 0 0 0 0 0 0 0 0 0 0 0 0 0 0 0 0 0 0 0 0 0 0 0 0 0 0 0 0 0 0 0 0 0 0
 -0.03327566825679734 -0.04813689407178323 -0.05137718092122151 -0.06111768729817924 -0.06213899958424585 -0.02779032839860486 -0.02274274187283842 -0.002579320802247431 0.02655629541168036 0.009055498037132015 0 0 0 0 0 0 0 0 0 0 0 0 0 0 0 0 0 0 0 0 0 0 0 0 0 0 0 0 0 0 0 0 0
 -0.005625369343683739 -0.01326910137535575 -0.01499488032271951 -0.02112663321121483 -0.02213266477221648 -0.01894782272085793 -0.03554755855241587 -0.01659560557797932 -0.005982495776963692 -0.001422309712909242 0.007581824335642584 0 0 0 0 0 0 0 0 0 0 0 0 0 0 0 0 0 0 0 0 0 0 0 0 0 0 0 0 0 0 0 0
 0.009958922710295359 -0.0007067671913424389 -0.003206542040907756 -0.01350124988356238 -0.01565012304625213 -0.03380387765732645 -0.08805007977615456 -0.04593534481688771 -0.03609483773994754 -0.005653326083643107 0.03758980756660901 0.01254402035977215 0 0 0 0 0 0 0 0 0 0 0 0 0 0 0 0 0 0 0 0 0 0 0 0 0 0 0 0 0 0 0
 0.03772699590315182 0.04482993019906628 0.04626624740078256 0.0487910114052198 0.04836607299963158 0.00451326717156042 -0.03286864124022643 -0.02878865404168456 -0.05185355480327951 -0.02396406271333779 -0.007775411113868924 -0.002051028939753202 0.01001062615749329 0 0 0 0 0 0 0 0 0 0 0 0 0 0 0 0 0 0 0 0 0 0 0 0 0 0 0 0 0 0
 0.103516546284916 0.134003741053921 0.1404695102304057 0.1570096661072971 0.157629800661483 0.04325164256153419 -0.02017509261828054 -0.04548584515908433 -0.1249117490686021 -0.06476039150215165 -0.0507576666067599 -0.009142838840842882 0.04897074342243057 0.01613118410498193 0 0 0 0 0 0 0 0 0 0 0 0 0 0 0 0 0 0 0 0 0 0 0 0 0 0 0 0 0
 0.05879482993472626 0.08702789852332826 0.09320651179604283 0.1121432257272925 0.1142685681261126 0.05456690829123068 0.05610378335792271 0.008171371634584312 -0.04517590131926019 -0.03845652076565964 -0.06878832514312716 -0.03163586091158838 -0.00987105502769825 -0.00279050214118276 0.0124963952992545 0 0 0 0 0 0 0 0 0 0 0 0 0 0 0 0 0 0 0 0 0 0 0 0 0 0 0 0
 0.07804994730319753 0.133643997016936 0.1460046454978553 0.1869765177249822 0.1927399847017832 0.1224202991669243 0.1876846904700542 0.06669176014049089 -0.02025861197348489 -0.05603756399902038 -0.162707345067493 -0.08426650865615806 -0.06684479048388658 -0.0130838635467202 0.06071537071238464 0.01982129771859262 0 0 0 0 0 0 0 0 0 0 0 0 0 0 0 0 0 0 0 0 0 0 0 0 0 0 0
 -0.0627507193077175 -0.06608711445597826 -0.06652985999664751 -0.06331858543841778 -0.06123462743329133 0.01494256214570702 0.1030456998063727 0.0763570558497873 0.1186530963241284 0.04454568407736068 -0.005866508201398335 -0.02990508837988604 -0.09331597282220662 -0.05136510722863367 -0.04710379834648848 -0.01505675091173655 0.02086755766219733 0 0 0 0 0 0 0 0 0 0 0 0 0 0 0 0 0 0 0 0 0 0 0 0 0 0
 -0.6548985691968543 -0.8564378721794468 -0.899331951131854 -1.011541845322574 -1.016870714527003 -0.3011336256419371 0.05193392309487521 0.2728118253883818 0.8269814797299422 0.4636318275772739 0.4798532356748579 0.07199215274925264 -0.4013243081034994 -0.2904023211820093 -0.4920040138213685 -0.140289105043584 0.1884641513520848 0.0868977612926527 0 0 0 0 0 0 0 0 0 0 0 0 0 0 0 0 0 0 0 0 0 0 0 0 0
 -0.3399646015600369 -0.4772686440092169 -0.5070384285362441 -0.5938562999267539 -0.6019314493271855 -0.2453015317912847 -0.171918324719021 0.0381936147083306 0.3401840473614668 0.2438782752609971 0.368156065817503 0.1371471522014217 -0.03437400373643329 -0.07494617011537241 -0.2273904474508599 -0.1008890409972446 -0.0280714091249602 -0.0205671318360533 0.03739029928409776 0 0 0 0 0 0 0 0 0 0 0 0 0 0 0 0 0 0 0 0 0 0 0 0
 -0.2992069858379154 -0.4315529492594715 -0.4603944466986279 -0.5468588300441048 -0.5558343639978904 -0.2472169718841862 -0.2213345274640943 -0.002771026752556582 0.2681400561565794 0.2157993326755527 0.3659728948779291 0.1556797592055269 0.03051410402883659 -0.03962345027131031 -0.1908860923279985 -0.09870133927969883 -0.06852851819105765 -0.04040071336161555 0.04970518531798196 0.007763590489230268 0 0 0 0 0 0 0 0 0 0 0 0 0 0 0 0 0 0 0 0 0 0 0
 0.5980979416357782 0.3873822957340525 0.3359274977249447 0.09332781097904252 0.03406919162191091 -0.8003245692400436 -2.452113124157499 -1.497157391614372 -1.823336320185576 -0.3822008755377561 1.003828929350712 1.127967179441745 2.430759617056898 1.153346495855867 0.7382931967830064 -0.213114596376244 -1.653043508404473 -0.8070148711025044 0.7429914589331768 0.3426681393409616 0.3013147896956179 3.234846335242736e-09 0 0 0 0 0 0 0 0 0 0 0 0 0 0 0 0 0 0 0 0 0
 0.7296441449257115 0.5145421114256568 0.4614027733039063 0.2021219967574921 0.1366455378308937 -0.8620526256089611 -2.735776037818711 -1.693851293637145 -2.110943341501982 -0.4710380774257382 1.070269274875723 1.248556363946753 2.745010556250411 1.312994308559907 0.8719330046340703 -0.2216633626505879 -1.854936500266948 -0.9070605824445612 0.8142793232787202 0.375604030614209 0.3309128448418726 0.05020093782474488 1.137956340269142e-09 0 0 0 0 0 0 0 0 0 0 0 0 0 0 0 0 0 0 0 0
 0.633266528509641 0.5036415375510972 0.4706220075520895 0.2954700199783551 0.2479115861792625 -0.5926154254061096 -2.025523687127946 -1.29053729903228 -1.680219592803246 -0.4199431800203558 0.7068532399410898 0.9053006227328303 2.077910089476628 1.019934919068652 0.7464250673820754 -0.1178315088902451 -1.350173341029392 -0.6907825721656153 0.3954034908087456 0.1533618823325087 0.1297218277579848 0.06002661741751258 0.04364115851586514 1.619660194851491e-08 0 0 0 0 0 0 0 0 0 0 0 0 0 0 0 0 0 0 0
 0.5260170381296645 0.4687640113573343 0.4529116738875737 0.3514949407848005 0.3201808042174681 -0.3547884198459031 -1.374127989683913 -0.9133726372335795 -1.261642409032626 -0.3590449136392293 0.3899138718942852 0.5939624591587045 1.456453283207025 0.7421590781482342 0.613262591222408 -0.03007182832367639 -0.8884859457530574 -0.4891930799450794 0.03789523006724993 -0.03491462445703553 -0.0406081760784831 0.05748990613062643 0.06861532522521652 0.03113295324808596 1.119833282769989e-07 0 0 0 0 0 0 0 0 0 0 0 0 0 0 0 0 0 0
 0.8739853961434707 1.266056391615351 1.351566300429721 1.608925218257069 1.636034078192134 0.7385962109180038 0.6941398501745613 0.01643356911219285 -0.7972381075715012 -0.6853357115665815 -1.231243630192874 -0.5271718981351957 -0.1681973669949071 0.2037826809147284 0.896606056409132 0.5551402461076977 0.6797764575585871 0.01465368758645624 -2.370433984530832 -1.379248560973541 -1.264987123043656 0.4665114084419182 0.7214893260091806 0.5160086140518292 0.3040427294273456 5.711859124568619e-07 0 0 0 0 0 0 0 0 0 0 0 0 0 0 0 0 0
 0.6006799949279901 0.9061564288132282 0.9731936995766747 1.181551369364851 1.206032898011761 0.6057311538821742 0.6968559580999059 0.1248711093072058 -0.4507800690084484 -0.4772839240198204 -0.9847355906922703 -0.47587560898787 -0.3120561744907699 0.06028852405627727 0.6007562412911188 0.4262173468639001 0.6324940625446984 0.08010188578554278 -1.771451060662882 -1.036791753465269 -0.9539396399911971 0.1843980328248636 0.3548731325648635 0.2463140492331233 0.1294657517315625 0.02751839526617728 4.796840583562445e-07 0 0 0 0 0 0 0 0 0 0 0 0 0 0 0 0
 0.444212120806121 0.7306066006034551 0.7940689061509105 1.001028267266569 1.028959065915744 0.6127717487563598 0.8846910405026611 0.2830125687205393 -0.1707881856350784 -0.3637541449250491 -0.9614307617338875 -0.5420030254606956 -0.5583898924040112 -0.08737706285173608 0.4222310677925405 0.3908970228614182 0.7436194189821244 0.1722930448165723 -1.572598967346977 -0.9235087731155471 -0.8524185564872465 -0.01404398149337949 0.115218568588495 0.06974462407765447 0.01271856386455283 0.08029659297779612 0.03601102739069539 -5.290304956606651e-07 0 0 0 0 0 0 0 0 0 0 0 0 0 0 0
 0.2838783014667245 0.5578604643201959 0.6192989170445421 0.8310675912929597 0.8636928960093414 0.6394484915348815 1.120792532767328 0.46755614954503 0.1352394910148677 -0.2487348582864027 -0.9651659693074963 -0.6321422072382042 -0.8492338470403973 -0.2540266961436949 0.2371936948135149 0.3637632712217021 0.889951215228267 0.2795828730598335 -1.402851615663897 -0.8270231330310234 -0.7665268586839963 -0.2265877197924455 -0.1379132900637234 -0.1167705476250234 -0.111070237712708 0.143673467804404 0.07815749995820354 0.03989051444518149 1.063899490727493e-08 0 0 0 0 0 0 0 0 0 0 0 0 0 0
 0.160822996373102 0.4032989392446726 0.4581379962947008 0.6543847933708522 0.6870426437492798 0.6000190342009237 1.167709241101379 0.5399631697497116 0.3112792668754483 -0.1563292367348472 -0.8828106657859363 -0.63229615658496 -0.9539265875234899 -0.3347652417609747 0.1013026593697601 0.3146233655128969 0.9013841431112959 0.3223443737922839 -1.165517693788144 -0.690729269516047 -0.6428354182492181 -0.3550137930415582 -0.3020486659405863 -0.2379927410667801 -0.1904322105160838 0.1579147107665808 0.08959848543416804 0.05647551425887798 0.02347545509127952 2.071242082360425e-07 0 0 0 0 0 0 0 0 0 0 0 0 0
 -0.1910749478679626 0.1152683330598869 0.1865823531283206 0.4730254264239477 0.5307869176740998 0.9068713406829632 2.242546432264633 1.231967955970165 1.226955233315538 0.07885470941109607 -1.24472832504602 -1.116826755063181 -2.084880171889448 -0.8964362341817443 -0.330273651155824 0.3734249811503692 1.643710102151636 0.7233701368439663 -1.237062148034284 -0.7402086197277069 -0.6977196192915267 -1.002018711426701 -1.023376721880348 -0.7683217264675792 -0.5472325656290016 0.4516003756759459 0.2803775768362633 0.2164485693305163 0.1582628365853305 0.09827440282251709 -1.55651706447435e-06 0 0 0 0 0 0 0 0 0 0 0 0
 -0.444479051588998 -0.3357986950378529 -0.308559015748864 -0.1701482029196622 -0.1338895739244754 0.4637489339178891 1.527407727799671 0.9631641861454404 1.23483305117408 0.2962946145163742 -0.5543800806685109 -0.6971015539711332 -1.580233285957472 -0.7805829038593701 -0.5851665486163378 0.09003676652148607 1.035948911622842 0.5735901123210684 -0.02234389366349632 -0.0294980500041615 -0.04191536912182237 -0.9735142985302734 -1.094164439085234 -0.8341094833719287 -0.5933489634130256 0.1188737068555095 0.0574349684601887 0.05309068529385375 0.05554761165135735 0.03987896300300897 0.09526463458061896 -6.307667173022224e-07 0 0 0 0 0 0 0 0 0 0 0
 -1.01670608073894 -1.005789628673925 -0.9980474800757739 -0.8892062577829061 -0.8448776196365715 0.4131399524056624 2.042570104971539 1.453953304575105 2.186009098054834 0.7195916957729525 -0.3535018488450616 -0.8492981842944334 -2.330775000927536 -1.267623984830205 -1.250739799540143 -0.08800990664869557 1.294962740085162 0.871012718480763 0.9709279394573187 0.5351232556245153 0.4667889118899287 -1.728531215485321 -2.026649056325129 -1.540372326406594 -1.079596372121472 0.08097438157513537 0.02980178222313157 0.06188340520577729 0.1089033802587158 0.1047991686698961 0.3447844701554654 0.09827387006979826 -1.384065249965261e-06 0 0 0 0 0 0 0 0 0 0
 -0.8248879718411076 -0.947106134314539 -0.970917144605367 -0.9971870026406344 -0.9825147695131633 -0.02204275588567628 0.8559670891668093 0.7670315825091747 1.422781465192964 0.6110440441701002 0.2287329382014227 -0.2721108104202606 -1.174438214565322 -0.7477116023309887 -0.9883628124756494 -0.2545743678029954 0.4158592499491707 0.4648163919039673 1.496626666042002 0.8675251301753999 0.7869741590560162 -0.9504797481763489 -1.19852788839744 -0.9328239109666594 -0.6674692472841107 -0.3298171864126185 -0.2595443865019331 -0.1984747520446408 -0.130934919103284 -0.09448772435436625 0.1056341416459285 0.03987964353940887 0.09526437670453891 -1.936086015397187e-07 0 0 0 0 0 0 0 0 0
 -1.264048138876664 -1.601189741082319 -1.672081401953982 -1.843329367460252 -1.845189192517701 -0.4421932616870992 0.3958932684780707 0.7035317898164017 1.779184802314058 0.9659011832955419 0.9354540564896432 0.05645073175590687 -0.9864540700359858 -0.8245543849126498 -1.478299818889272 -0.5908064276293502 -0.06816807174741601 0.4394200036642757 3.061434321573443 1.787101691088647 1.633952800671349 -1.090933801266107 -1.491158092330595 -1.182161045385577 -0.8558405200363044 -0.8418457079427277 -0.6252346579706827 -0.4877397393248697 -0.3432603973466124 -0.2468367907073241 0.1260197139551043 0.1048013076943475 0.3447836276932694 0.09827449417372858 -2.187450574342442e-06 0 0 0 0 0 0 0 0
 -0.7075902155184928 -1.010112612063927 -1.0759223680591 -1.271258124477109 -1.290786317629579 -0.5576344579203608 -0.4738599522945971 0.03545665997374736 0.6903749552722012 0.5645023295458425 0.972198764627856 0.3959910077800159 0.07623609089411443 -0.2146388481667007 -0.8006847783589093 -0.4922049073048858 -0.6003353452937835 0.02714076652390857 2.308338281712996 1.379704529152131 1.276697991362416 -0.03134532166095694 -0.2374703205121524 -0.2283935873869249 -0.188155140997508 -0.8391837977248356 -0.6285116413202461 -0.5384664602099138 -0.4528828772405455 -0.3709946932945729 -0.242004717042505 -0.0944854431021982 0.1056332896886598 0.03987975915617104 0.09526416964718165 -2.077470888515315e-06 0 0 0 0 0 0 0
 -0.7119991099098019 -1.212295951607896 -1.323488668442627 -1.691274975596477 -1.7427476370975 -1.094967903482787 -1.674222502475849 -0.5810070497558828 0.169827712446827 0.6092026183149716 1.75042157375957 1.023819471459579 1.152859763552046 0.2054047060114214 -0.7654584091170129 -0.7726619160464165 -1.564373464209126 -0.3402745360759286 3.380609085172627 2.047296199302993 1.909034079379432 0.7918826111723565 0.5922158876968346 0.3658359649189826 0.2048079508364835 -1.479134646423128 -1.099806319753041 -0.967997889467654 -0.8520499268639189 -0.7128603775008706 -0.639736584895898 -0.246832702722859 0.1260182131628396 0.1048011810198797 0.3447838049067999 0.09827171856235006 1.415942098376144e-06 0 0 0 0 0 0
 -0.08660117807057277 -0.374279351715103 -0.4398795179575623 -0.6828924165170551 -0.7260029572186801 -0.751238866198624 -1.589429188166291 -0.7853223870268451 -0.5897090590514474 0.119982570136965 1.103080505383432 0.8500703307387451 1.393695247082863 0.521360354253613 -0.02791421433335217 -0.4089404478585223 -1.301239536591646 -0.4842284590209421 1.522735478590763 0.9659269241748937 0.9190407901519972 1.307131288019168 1.332069647984467 0.9702750098253534 0.6577151815712163 -0.8116136386795765 -0.6180208241318752 -0.5926778683824305 -0.5861621462281668 -0.5272419286773355 -0.7119308403474758 -0.3782791258614797 -0.2638816214376205 -0.1063633198349192 0.09128049700124263 0.03635197433330428 0.1008691845443548 7.374741911869709e-07 0 0 0 0 0
 -0.02784282547120276 -0.3329722322108347 -0.4028815726076592 -0.6668883971378444 -0.7152936197371884 -0.8209401254210613 -1.81022641230653 -0.9223661082488717 -0.7614939917200252 0.08191692591235644 1.189942588021543 0.9535767479563938 1.622837853940678 0.632003615244787 0.04959796407327155 -0.4281353727125721 -1.461603991902332 -0.5692390584708518 1.54749492829573 0.9907707963320991 0.9464935980534968 1.539504583710856 1.590325256082993 1.163376424545263 0.7911917859984401 -0.8739210922812122 -0.6668274539631707 -0.6460590351619236 -0.6470649246171356 -0.58575184959215 -0.8174967306409644 -0.4364960352515994 -0.320848834444396 -0.1254125091394886 0.1064346154046438 0.05143969534815684 0.1433227348281116 0.01273437913808148 6.447160131976826e-07 0 0 0 0
 0.1510278723787192 -0.2707857700229841 -0.368405265491855 -0.7518811912036141 -0.8267300094860623 -1.206334194784704 -2.870872383459536 -1.539672064044294 -1.454949896753552 -0.02049982704708864 1.705286470623372 1.472213065245598 2.671131323274881 1.106211944633933 0.2992041415675095 -0.5774281811123706 -2.264493253653005 -0.9493143224699613 1.963326414628717 1.282321789073496 1.235753052827627 2.55949760135629 2.697055832173299 1.98243240769733 1.351449737191071 -1.279183246404937 -0.9775892171534108 -0.9612026361857011 -0.9801214775838862 -0.8943133796305939 -1.307892489229256 -0.6915148901576493 -0.5273714287931219 -0.1802331514358322 0.222309482393702 0.1354437542859466 0.3321462355226723 0.05861943345516551 0.04114689528029492 3.623729955465338e-06 0 0 0
 0.2824005819618987 0.3093171409588226 0.3140424418580106 0.3099869300788503 0.3025377784256975 -0.03290712235556205 -0.3826217000834101 -0.3108025038577416 -0.5319604037038267 -0.21125706679929 -0.03205481219721143 0.1395552967600121 0.4905541184594032 0.3040036742396899 0.3830586145696663 0.08787015504339019 -0.1896611657332465 -0.2146058464965008 -0.6916266881021055 -0.3767777188517947 -0.3345248635580177 0.6849627784835779 0.8294322707071832 0.6648859210245361 0.5002145202635343 0.3923725950474081 0.2731131368082903 0.1889317516643778 0.0989485100508104 0.04106172044017464 -0.1972751855763977 -0.2384795964138295 -0.4830139610369802 -0.3419042801658988 -0.4562193428874276 -0.2464961873373552 -0.196288672724324 -0.036190277664163 -0.01613188970887003 0.05399594127407636 1.37337123118364e-07 0 0
 0.6032524041965682 0.9040620348763386 0.9700164294812104 1.174040777731942 1.197655501793594 0.5927586466190661 0.6697752527433611 0.1021937932220356 -0.4834958291728796 -0.502469979444337 -1.028092084820614 -0.4806036611381223 -0.2941399253344472 0.1230182005479524 0.7641634283054179 0.5338220722634859 0.7962766599313104 0.006103226249717708 -2.768451934536947 -1.623156483133404 -1.494047073583594 0.2781782382323743 0.5565012004145311 0.5421152071676023 0.4821250358456419 1.639968210345909 1.186044428423697 0.9709289843028949 0.7604916597723447 0.572886376690554 0.2080884043224007 -0.2175222588226824 -0.9048012804364642 -0.7346789294866478 -1.220886163714411 -0.6541500192075618 -0.6177871276483102 -0.08782012505409786 -0.02587169218777474 0.185759523778207 0.03290427304565535 2.579442697214773e-07 0
 0.6050227749558017 0.9128348339679206 0.98038775939819 1.190360311897701 1.215038532663157 0.6111741651060507 0.709138648636808 0.1217688468229816 -0.4684654922861553 -0.5052211518872486 -1.055227559308225 -0.5016337958293208 -0.3288712291026627 0.1100490895045006 0.764875912729611 0.5440737019721532 0.8289309350082913 0.01801180829990828 -2.808046987030994 -1.648204064500222 -1.517852499821104 0.2455884954447027 0.5234600003888845 0.5184417708955602 0.466495407908565 1.664450653881297 1.20458582960555 0.988388298731822 0.777371409161509 0.5878383499879095 0.2273091939045615 -0.2084692358345446 -0.900506086087201 -0.7347881838934442 -1.228381843470798 -0.6587758498947531 -0.6254196629484581 -0.0899871547792741 -0.02770813962719432 0.1846569468488795 0.03298889707274005 0.001631349591775993 1.656771902752707e-06
 0.436788442664222 0.731685435791265 0.7971397301792094 1.012256696831327 1.041880037568829 0.6392617014197048 0.956027065211468 0.3168875720827363 -0.142526993555483 -0.3797848875254386 -1.048066405279133 -0.5955516224639221 -0.6409577158744841 -0.07988014530834436 0.5321550775298386 0.4957558748382193 0.9597368794053263 0.1565690806841704 -2.389974775722211 -1.427683747211956 -1.324614990678856 -0.2609408732966918 -0.08118296954667148 0.03774348447161291 0.108061618709979 1.430366739302873 1.048026752076958 0.8915353442729343 0.7452803325322039 0.5946660871537912 0.4174258803421618 -0.008384624520135553 -0.5246955697497482 -0.48183082689217 -0.9079402835263997 -0.5026187432455969 -0.5310968420618387 -0.106996783132636 -0.06408701911931847 0.07387486981081048 0.01415385574081246 0.01960945515817039 0.0189752120492574




